74421142	"A, My Name Is Alice"	"Bayer, Jane E."		"Kellogg, Steven"		"Puffin (1987), Paperback, 32 pages"	1987	Paperback	32 p.; 8.8 inches		8.8 inches	0.76 inches	5.07 inches	8.8 x 5.07 x 0.76 inches	32	"From:AbbySwaney, To:YapLibrary, Country:Yap, 2013"	"NoLongerAvailable, 2013 Stats"	[0803701306]	"0803701306, 9780803701304"		amazon.com	[2011-06-12]	125085
74421156	Tawny Scrawny Lion (Little Golden Book)	"Books, Golden"		"Tenggren, Gustaf"	Illustrator	"Golden Books (2001), Edition: 1, Hardcover, 24 pages"	2001	Hardcover	24 p.; 7.8 inches	0.26 pounds	7.8 inches	0.24 inches	6.38 inches	7.8 x 6.38 x 0.24 inches	24	"From:AbbySwaney, _GoldenBooks, To:MissiMarsden, Country:China, 2012, stats"	"NoLongerAvailable, 2012 Stats"	[0307021688]	"0307021688, 9780307021687"		amazon.com	[2011-06-12]	9171274
74421159	Miss Spider's ABC (Board Book)	"Kirk, David"				"Scholastic Press (2000), Board book, 32 pages"	2000	Board book	32 p.; 7.01 x 5.02 inches	0.69 pounds	5.02 inches	0.8 inches	7.01 inches	5.02 x 7.01 x 0.8 inches	32	"From:AbbySwaney, _Board Books, To:IVTC, Country:USA, 2013"	"NoLongerAvailable, 2013 Stats"	[0439137470]	"0439137470, 9780439137478"		amazon.com	[2011-06-12]	426156
74421161	"Oliver Amanda Grandma (Easy-to-Read, Puffin)"	"Leeuwen, Jean Van"		"Schweninger, Ann"	Illustrator	"Puffin (1995), Paperback, 56 pages"	1995	Paperback	56 p.; 8.94 inches	0.26 pounds	8.94 inches	0.19 inches	5.99 inches	8.94 x 5.99 x 0.19 inches	56	"From:AbbySwaney, _Board Books, Country:Romania, 2012, To:BrandiBates, stats"	"NoLongerAvailable, 2012 Stats"	[0140373861]	"0140373861, 9780140373868"		amazon.com	[2011-06-12]	441837
74421178	Walt Disney's Dumbo: A Little Golden Book	"Slater, Teddy"		"Dias, Ron|Guenther, Annie"	Illustrator|Illustrator	"Golden Books (1988), Edition: 1st, Hardcover, 111 pages"	1988	Hardcover								"From:AbbySwaney, _GoldenBooks, 2018inv, To:ShanaHoward, Country:Indonesia, 2019"	"NoLongerAvailable, 2019 Stats"	[0307010406]	"0307010406, 9780307010407"		amazon.com	[2011-06-12]	12268817
74421185	The Little Cookie Girl (Sight Word Readers)	"Williams, Rozanne Lanczak"				"Creative Teaching Press (2003), Paperback, 16 pages"	2003	Paperback	16 p.; 8.7 inches	0.05 pounds	8.7 inches	0.2 inches	6 inches	8.7 x 6 x 0.2 inches	16	"From:AbbySwaney, Country:Bangladesh, 2012, To:QuynhParlane, stats"	"NoLongerAvailable, 2012 Stats"	[9781574719673]	"9781574719673, 157471967X"		amazon.com	[2011-06-12]	1239799
74421194	They Turned to Stone	"May, Julian, illustrated by Jean Zallinger"				"Scholastic (1971), Paperback"	1971	Paperback	8.9 inches	0.15 pounds	8.9 inches	0.2 inches	7.3 inches	8.9 x 7.3 x 0.2 inches		"From:AbbySwaney, _Picture Books, To:AnishaHopkinson, Country:Papua Ind, 2015"	"NoLongerAvailable, 2015 Stats"	[]			amazon.com	[2011-06-12]	210425
74421203	Dumbo (Disney's Magical World of Reading)	"Enterprises, Inc. Disney"				"Dalmatian Press, LLC./Disney Enterprises (2007), Paperback"	2007	Paperback								"From:AbbySwaney, To:YapLibrary, Country:Yap, 2013"	"NoLongerAvailable, 2013 Stats"	[1403736413]	"1403736413, 9781403736413"		amazon.com	[2011-06-12]	15584709
74421207	The Victorian House Coloring Book	"Lewis, Daniel"		"Helberg, Kristin"		"Dover Publications (1980), Paperback, 48 pages"	1980	Paperback	48 p.; 11.85 inches	0.39 pounds	11.85 inches	0.16 inches	7.2 inches	11.85 x 7.2 x 0.16  inches	48	"From:AbbySwaney, _History, To:VictoriaRice, Country:China, 2014"	"NoLongerAvailable, 2014 Stats"	[048623908X]	"048623908X, 9780486239088"		amazon.com	[2011-06-12]	2239943
74421213	Peter Pan (Little Golden Book)	"Coco, Eugene Bradley"		"Dias, Ron"	Illustrator	"Golden Books (1995), Hardcover, 24 pages"	1995	Hardcover	24 p.; 8.1 inches	0.1 pounds	8.1 inches	0.2 inches	6.8 inches	8.1 x 6.8 x 0.2 inches	24	"From:AbbySwaney, _GoldenBooks, Country:Madagascar, 2015, To:RebekahPotgieter"	"NoLongerAvailable, 2015 Stats"	[0307001040]	"0307001040, 9780307001047"		amazon.com	[2011-06-12]	10892192
74421224	Coloring Fun With Peter Rabbit and Other Favorite Beatrix Potter Characters					"Landoll's (1993), Paperback"	1993	Paperback								"From:AbbySwaney, _Beatrix Potter, To:RandallStone, Country:Hungary, 2015"	"NoLongerAvailable, 2015 Stats"	[]			amazon.com	[2011-06-12]	11384358
74421233	Dinosaur World (Great Big Board Book)	"Santoro, Christopher"				"Random House Books for Young Readers (1997), Board book, 12 pages"	1997	Board book	12 p.; 11.1 inches	0.8 pounds	11.1 inches	0.3 inches	10.2 inches	11.1 x 10.2 x 0.3  inches	12	"From:AbbySwaney, Country:Madagascar, To:MandyCasurella, 2011"	NoLongerAvailable	[0679882014]	"0679882014, 9780679882015"		amazon.com	[2011-06-12]	4724648
74421827	Ideas for a Windy Day (The Ideas Series)	"Newman, Marjorie"		"Harrison, Lorraine|Donnelly, Karen"	Illustrator|Illustrator	"Master Books (1999), Paperback, 24 pages"	1999	Paperback	24 p.; 10.66 inches	0.24 pounds	10.66 inches	0.12 inches	8.3 inches	10.66 x 8.3 x 0.12  inches	24	"From:AbbySwaney, To:BrandiBates, 2014, Country:Romania"	"NoLongerAvailable, 2014 Stats"	[0890512469]	"0890512469, 9780890512463"		amazon.com	[2011-06-12]	716852
74421903	Just Ask: Why does it Fly?					"Field Publications (1986), Hardcover"	1986	Paper Book								"From:AbbySwaney, 2012, Country:Philippines, To:BuayanAllianceChurchLibrary, stats"	"NoLongerAvailable, 2012 Stats"	[]			amazon.com	[2011-06-12]	11384421
120304557	"Good Dog, Carl (Star & elephant book)"	"Day, Alexandra"	Author			"Green Tiger Press (1991), Edition: 1St Edition, 140 pages"	1991	Hardcover	140 p.; 7.48 inches	0.55 pounds	7.48 inches	8.66 inches	0.39 inches	7.48 x 0.39 x 8.66 inches	140	"To:HannahPatton, Country:SE Asia-L, 2015, From:AbbySwaney"	"NoLongerAvailable, 2015 Stats"	[0881380628]	"0881380628, 9780881380620"		amazon.com	[2015-07-27]	42778
120637187	Remember the Ladies (Creative Minds Biography)	"Ferris, Jeri"	Author	"Beier, Ellen"	Illustrator	"Carolrhoda Books (2001), 64 pages"	2001	Paperback	64 p.; 6 x 0.25 inches	0.28 pounds	0.25 inches	8.5 inches	6 inches	0.25 x 6 x 8.5 inches	64	"_Biographies, From:AbbySwaney, 2017_inventory, To:AnitaYocum, Country:China, 2018"	"NoLongerAvailable, 2018 Stats"	[1575055589]	"1575055589, 9781575055589"		amazon.com	[2015-08-09]	1439015
120637195	I Have a Dream: The Story of Martin Luther King	"Davidson, Margaret"	Author			"Scholastic Paperbacks (1991), Edition: Reissue, 128 pages"	1991	Paperback	128 p.; 5.25 x 0.25 inches	0.29 pounds	0.25 inches	7.5 inches	5.25 inches	0.25 x 5.25 x 7.5 inches	128	"_Biographies, From:AbbySwaney"		[0590442309]	"0590442309, 9780590442305"		amazon.com	[2015-08-09]	609035
120637230	The Borrowers	"Norton, Mary"	Author			Scholastic Book Services (1953)	1953	Paperback								"From:AbbySwaney, _Chapter Book Series"		[]			amazon.com	[2015-08-09]	34289
120637263	"ROOT CELLAR, THE"	Lunn	Author			"Atheneum (1983), Edition: Library Binding, 229 pages"	1983	Hardcover	229 p.; 5.75 x 1 inches	0.95 pounds	1 inch	8.75 inches	5.75 inches	1 x 5.75 x 8.75 inches	229	"_Historical Fiction, From:AbbySwaney"		[0684178559]	"0684178559, 9780684178554"		amazon.com	[2015-08-09]	361079
120637297	Farmer Boy	"Wilder, Laura Ingalls"	Author	"Williams, Garth"	Illustrator	"Scholastic (1961), 372 pages"	1961	Paperback	372 p.; 7.4 inches	0.1 pounds	7.4 inches	1.1 inches	4.9 inches	7.4 x 4.9 x 1.1 inches	372	"_Little House Books, From:AbbySwaney, To:RebekahConklin, Country:Malaysia, 2015"	"NoLongerAvailable, 2015 Stats"	[0590488163]	"0590488163, 9780590488167"		amazon.com	[2015-08-09]	1853
120637307	"(Little House on the Prairie) By Wilder, Laura Ingalls (Author) Mass market paperback on 07-Jan-1994"	"Wilder, Laura Ingalls"	Author			"HarperTrophy (1994), 335 pages"	1994	Paperback	335 p.; 6.76 inches	0.4 pounds	6.76 inches	0.94 inches	4.2 inches	6.76 x 4.2 x 0.94 inches	335	"_Little House Books, From:AbbySwaney, To:RebekahConklin, Country:Malaysia, 2015"	"NoLongerAvailable, 2015 Stats"	[0064400026]	"0064400026, 9780064400022"		amazon.com	[2015-08-09]	12460
120637339	Wind in the Willows	"Grahame, Kenneth"	Author			"Scholastic Inc (1982), 256 pages"	1982	Paperback	256 p.; 6.8 inches	0.4 pounds	6.8 inches	0.8 inches	4.1 inches	6.8 x 4.1 x 0.8 inches	256	"_Children's Classics, From:AbbySwaney, To:DierdreDollar, Country:Mozambique, 2015"	"NoLongerAvailable, 2015 Stats"	[0553210742]	"0553210742, 9780553210743"		amazon.com	[2015-08-09]	1534
120637490	The California Gold Rush: (Reissue) (Landmark Book)	"McNeer, May"	Author			"Random House Books for Young Readers (1987), Edition: Reissue, 156 pages"	1987	Paperback	156 p.; 5 x 0.5 inches		0.5 inches	7.5 inches	5 inches	0.5 x 5 x 7.5 inches	156	"_History, From:AbbySwaney, To:EricaPatrick, Country:China, 2017"	"NoLongerAvailable, 2017 Stats"	[0394897153]	"0394897153, 9780394897158"		amazon.com	[2015-08-09]	1116870
120637492	"Penguins! (National Geographic Kids, Level 2)"	"Schreiber, Anne"	Author			"Scholastic (2010), 32 pages"	2010	Paperback	32 p.	0.05 pounds				8.1 x 5.5 x 2.5 inches	32	"_Beginning Readers, From:AbbySwaney, To:HannahPatton, Country:SE Asia-L, 2015"	"NoLongerAvailable, 2015 Stats"	[0545231620]	"0545231620, 9780545231626"		amazon.com	[2015-08-09]	9466549
120637503	The Snowman (Bright & Early Board Books(TM))	"Briggs, Raymond"	Author			"Random House Books for Young Readers (2000), 24 pages"	2000	Board book	24 p.; 4.3 inches	0.4 pounds	4.3 inches	5.77 inches	0.8 inches	4.3 x 0.8 x 5.77 inches	24	"_Board Books, From:AbbySwaney, To:JessicaWatters, Country:China, 2016"	"NoLongerAvailable, 2016 Stats"	[0375810676]	"0375810676, 9780375810671"		amazon.com	[2015-08-09]	404334
120637515	The Magic School Bus on the Ocean Floor	"Cole, Joanna"	Author	"Degen, Bruce"	Illustrator	"Scholastic (1994), 32 pages"	1994	Paperback	32 p.; 9 x 0.25 inches	0.35 pounds	0.25 inches	7.5 inches	9 inches	0.25 x 9 x 7.5 inches	32	"_Science, From:AbbySwaney, To:AubrySmith, Country:Oman, 2015"	"NoLongerAvailable, 2015 Stats"	[0590414313]	"0590414313, 9780590414319"		amazon.com	[2015-08-09]	34477
120637528	I WONDER WHY CROCODILES FLOAT LIKE LOGS AND OTHER NEAT FACTS...	"Donati, Annabelle"	Author			Graymont Enterprises (1999)	1999	Paperback								"_Science, From:AbbySwaney, To:HeidiCollins, Country:Yap, 2015"	"NoLongerAvailable, 2015 Stats"	[]			amazon.com	[2015-08-09]	2020806
120637543	Animals/their Hom Gb	Cochrane	Author			Grosset & Dunlap (1979)	1979	Paperback	20 inches	20 pounds	20 inches	20 inches	20 inches	20 x 20 x 20 inches		"_Science, From:AbbySwaney, To:AmyRhiger, Country:Philippines, 2015"	"NoLongerAvailable, 2015 Stats"	[0448131927]	"0448131927, 9780448131924"		amazon.com	[2015-08-09]	4329320
120637546	My First Book of Nature: How Living Things Grow (Cartwheel Learning Bookshelf)	"Kuhn, Dwight"	Author			"Cartwheel Books (1993), 61 pages"	1993	Hardcover	61 p.; 9.25 x 0.75 inches	1.2 pounds	0.75 inches	10.25 inches	9.25 inches	0.75 x 9.25 x 10.25 inches	61	"_Science, From:AbbySwaney, To:AmyRhiger, Country:Philippines, 2015"	"NoLongerAvailable, 2015 Stats"	[0590455028]	"0590455028, 9780590455022"		amazon.com	[2015-08-09]	2064270
120637588	The Complete Zoo Adventure: A Field Trip in a Book	"Parker, Gary"	Author			"Master Books (2007), 150 pages"	2007	Paper Book	150 p.; 11.04 x 8.58 inches	2.3 pounds	8.58 inches	1.34 inches	11.04 inches	8.58 x 11.04 x 1.34 inches	150	"_Bible-Related, From:AbbySwaney, To:AmyRhiger, Country:Philippines, 2016"	"NoLongerAvailable, 2016 Stats"	[089051500X]	"089051500X, 9780890515006"		amazon.com	[2015-08-09]	4941419
120637596	The Market Wedding	"Fagan, Cary"	Author	"Ricci, Regolo"	Illustrator	"Tundra Books (2000), 32 pages"	2000	Hardcover	32 p.; 8.2 inches	0.99 pounds	8.2 inches	10.3 inches	0.25 inches	8.2 x 0.25 x 10.3 inches	32	"_Picture Books, From:AbbySwaney, 2017_inventory, To:DeborahHays, Country:Bulgaria, 2017"	"NoLongerAvailable, 2017 Stats"	[0887764924]	"0887764924, 9780887764929"		amazon.com	[2015-08-09]	2529615
120637606	Buffalo Music	"Fern, Tracey E."	Author	"Castillo, Lauren"	Illustrator	"Clarion Books (2008), Edition: 1st, 32 pages"	2008	Hardcover	32 p.; 10.4 inches	0.94 pounds	10.4 inches	9.2 inches	0.44 inches	10.4 x 0.44 x 9.2 inches	32	"_Hardback Picture Books, From:AbbySwaney, To:AubrySmith, Country:Oman, 2015"	"NoLongerAvailable, 2015 Stats"	[0618723412]	"0618723412, 9780618723416"		amazon.com	[2015-08-09]	5173680
122294405	Eleanor (Picture Puffin Books)	"Cooney, Barbara"	Author			"Puffin Books (1999), Edition: 1st Scholastic, 48 pages"	1999	Paperback	48 p.; 7.5 inches	0.3 pounds	7.5 inches	11 inches	0.1 inches	7.5 x 0.1 x 11 inches	48	"_Picture Books, From:AbbySwaney, To:ShannonPanjwani, Country:India, 2015"	"NoLongerAvailable, 2015 Stats"	[0439137365]	"0439137365, 9780439137362"		amazon.com books	[2015-10-12]	417881
