88744347	The Little Mermaid: From the Story by Hans Christian Andersen	"Andersen, Hans Christian"		"Bell, Anthea|Iwasaki, Chihiro"	Adapter|Illustrator	"Picture Book Studio USA  Neugebauer Press (1984), Hardcover, 34 pages"	1984	Hardcover	34 p.; 11.2 inches	1.15 pounds	11.2 inches	0.2 inches	8.3 inches	11.2 x 8.3 x 0.2 inches	34	"From:AlyssaSteffan, _Hardback Picture Books, Country:China, To:TeresaPaix, 2013"	"NoLongerAvailable, 2013 Stats"	[0907234593]	"0907234593, 9780907234593"		amazon.com	[2012-08-13]	12453324
88744349	Over and Over	"Zolotow, Charlotte"		"Williams, Garth"	Illustrator	"HarperCollins Publishers (1987), Hardcover"	1987	Hardcover	10.8 inches	0.7 pounds	10.8 inches	0.6 inches	8.1 inches	10.8 x 8.1 x 0.6 inches		"From:AlyssaSteffan, _Hardback Picture Books, To:KarenStark, Country:CA, 2013"	"NoLongerAvailable, 2013 Stats"	[0694001953]	"0694001953, 9780694001958"		amazon.com	[2012-08-13]	535259
88744357	Favorite Fairy Tales: Beauty & the Beast	"Publishing, Rh Value"				"Crescent (1991), Hardcover"	1991	Hardcover	12.2 inches	0.85 pounds	12.2 inches	0.1 inches	9.1 inches	12.2 x 9.1 x 0.1 inches		"From:AlyssaSteffan, _Hardback Picture Books, To:IVTC, Country:USA, 2013"	"NoLongerAvailable, 2013 Stats"	[0517054191]	"0517054191, 9780517054192"		amazon.com	[2012-08-13]	1883823
88744364	Over The Meadow (Wee Sing)	"Beall, Pamela Conn"		Bates|Fahlman	|	"Price Stern Sloan (1990), Mass Market Paperback, 57 pages"	1990	Paperback	57 p.; 10.8 inches	1.2 pounds	10.8 inches	0.6 inches	8.6 inches	10.8 x 8.6 x 0.6 inches	57	"From:AlyssaSteffan, _Hardback Picture Books, To:HeidiCollins, Country:Yap, 2013"	NoLongerAvailable	[0843119497]	"0843119497, 9780843119497"		amazon.com	[2012-08-13]	2213045
88744366	Find Demi's Baby Animals	Demi				"Grosset & Dunlap (1990), Edition: 1St Edition, Hardcover, 42 pages"	1990	Hardcover	42 p.; 9.9 inches	0.85 pounds	9.9 inches	0.5 inches	9.4 inches	9.9 x 9.4 x 0.5 inches	42	"From:AlyssaSteffan, _Hardback Picture Books, To:YapLibrary, Country:Yap, 2013"	"NoLongerAvailable, 2013 Stats"	[0448191695]	"0448191695, 9780448191690"		amazon.com	[2012-08-13]	6393171
88744369	Barn Dance!	"Martin, Bill"		"Rand, Ted|Archambault, John"	Illustrator|	"Henry Holt and Co. (BYR) (1986), Edition: 1st, Hardcover, 32 pages"	1986	Hardcover	32 p.; 10.04 x 8.4 inches	0.67 pounds	8.4 inches	0.34 inches	10.04 inches	8.4 x 10.04 x 0.34 inches	32	"From:AlyssaSteffan, _Hardback Picture Books, To:HeidiCollins, Country:Yap, 2014"	"NoLongerAvailable, 2014 Stats"	[0805000895]	"0805000895, 9780805000894"		amazon.com	[2012-08-13]	94593
88744375	The Tortoise and the Jackrabbit	"Lowell, Susan"				"Cooper Square Publishing Llc (1994), Edition: 1st, Hardcover, 32 pages"	1994	Hardcover	32 p.; 10.87 inches	1.05 pounds	10.87 inches	9.33 inches	0.43 inches	10.87 x 0.43 x 9.33 inches	32	"From:AlyssaSteffan, _Hardback Picture Books, To:IVTC, Country:USA, 2013"	"NoLongerAvailable, 2013 Stats"	[0873585860]	"0873585860, 9780873585866"		amazon.com	[2012-08-13]	1133319
88744382	Thumbelina	"Andersen, Hans Christian"		"Adams, Adrienne"	Illustrator	"Atheneum (1961), Edition: First edition, Library Binding, 32 pages"	1961	Hardcover	32 p.; 10 inches	1.25 pounds	10 inches	0.7 inches	7.2 inches	10 x 7.2 x 0.7  inches	32	"From:AlyssaSteffan, _Hardback Picture Books, To:EaglesLanding, Country:USA, 2013"	"NoLongerAvailable, 2013 Stats"	[0684127059]	"0684127059, 9780684127057"		amazon.com	[2012-08-13]	175480
88744388	"Brown Bear, Brown Bear, What Do You See?"	"Jr., Bill Martin"		"Carle, Eric"		"Henry Holt and Co. (BYR) (1983), Edition: First Edition, Hardcover, 32 pages"	1983	Hardcover	32 p.; 10.2 inches	0.63 pounds	10.2 inches	0.32 inches	8.3 inches	10.2 x 8.3 x 0.32 inches	32	"From:AlyssaSteffan, _Hardback Picture Books, To:HeidiCollins, Country:Yap, 2013"	"NoLongerAvailable, 2013 Stats"	[0805002014]	"0805002014, 9780805002010"		amazon.com	[2012-08-13]	74521
88744391	The MOON CAME TOO	"Carlstrom, Nancy White"				"Simon & Schuster Children's Publishing (1987), Hardcover, 32 pages"	1987	Hardcover	32 p.; 10 inches	0.75 pounds	10 inches	0.5 inches	8.1 inches	10 x 8.1 x 0.5  inches	32	"From:AlyssaSteffan, _Hardback Picture Books, To:AmyRhiger, Country:Philippines, 2016"	"NoLongerAvailable, 2016 Stats"	[0027173801]	"0027173801, 9780027173802"		amazon.com	[2012-08-13]	4195427
88744393	The Persian Cinderella	"Climo, Shirley"		"Florczak, Robert"	Illustrator	"HarperCollins (1999), Edition: 1st, Hardcover, 32 pages"	1999	Hardcover	32 p.; 8.35 inches	0.68 pounds	8.35 inches	10.24 inches	0.43 inches	8.35 x 0.43 x 10.24 inches	32	"From:AlyssaSteffan, _Hardback Picture Books, To:VickyTomlinson, 2012, Country:Lebanon, stats"	"NoLongerAvailable, 2012 Stats"	[0060267631]	"0060267631, 9780060267636"		amazon.com	[2012-08-13]	440791
88744399	The Important Book	"Brown, Margaret Wise"		"Weisgard, Leonard"	Illustrator	"HarperCollins (1990), Paperback, 24 pages"	1990	Paperback	24 p.; 9.96 inches	0.2 pounds	9.96 inches	0.08 inches	7.1 inches	9.96 x 7.1 x 0.08 inches	24	"From:AlyssaSteffan, _Hardback Picture Books, Country:China, 2012, stats, To:DarcyCoady"	"NoLongerAvailable, 2012 Stats"	[0064432270]	"0064432270, 9780064432276"		amazon.com	[2012-08-13]	172048
88744417	Hey Get Off Our Train	"Burningham, John"				"Knopf Books for Young Readers (1990), Hardcover, 48 pages"	1990	Hardcover	48 p.; 9.13 inches	1.58 pounds	9.13 inches	1.11 inches	6.57 inches	9.13 x 6.57 x 1.11 inches	48	"From:AlyssaSteffan, _Hardback Picture Books, Country:Romania, 2012, To:BrandiBates, stats"	"NoLongerAvailable, 2012 Stats"	[0517576430]	"0517576430, 9780517576434"		amazon.com	[2012-08-13]	1100936
88744421	Sarah's Bear	Koci				"Simon & Schuster Children's Publishing (1991), Hardcover, 25 pages"	1991	Hardcover	25 p.; 11.3 inches	3.1 pounds	11.3 inches	0.5 inches	8.1 inches	11.3 x 8.1 x 0.5 inches	25	"From:AlyssaSteffan, _Hardback Picture Books, To:YapLibrary, Country:Yap, 2013"	"NoLongerAvailable, 2013 Stats"	[0887080383]	"0887080383, 9780887080388"		amazon.com	[2012-08-13]	3420087
88744433	Blackberry Ramble	"Hurd, Edith Thacher"				"Knopf Books for Young Readers (1989), Hardcover"	1989	Hardcover	11.2 inches	0.85 pounds	11.2 inches	0.3 inches	8.6 inches	11.2 x 8.6 x 0.3 inches		"From:AlyssaSteffan, _Hardback Picture Books, To:YapLibrary, Country:Yap, 2013"	"NoLongerAvailable, 2013 Stats"	[0517573490]	"0517573490, 9780517573495"		amazon.com	[2012-08-13]	1380633
88744436	It Chanced to Rain	"bullock, Kathleen"				"Simon & Schuster Children's Publishing (1989), Hardcover, 32 pages"	1989	Hardcover	32 p.; 10.1 inches	0.7 pounds	10.1 inches	0.5 inches	8 inches	10.1 x 8 x 0.5 inches	32	"From:AlyssaSteffan, _Hardback Picture Books, To:YapLibrary, Country:Yap, 2013"	"NoLongerAvailable, 2013 Stats"	[0671660055]	"0671660055, 9780671660055"		amazon.com	[2012-08-13]	4524984
88744442	The Woodcutter's Mitten: An Old Tale	"Koopmans, Loek"				"Kane Miller Book Pub (1990), Hardcover, 1 pages"	1990	Hardcover								"From:AlyssaSteffan, _Hardback Picture Books, To:SharonPenz, Country:USA, 2014"	"NoLongerAvailable, 2014 Stats"	[0940793679]	"0940793679, 9780940793675"		amazon.com	[2012-08-13]	2814561
88744448	Cat Goes Fiddle-I-Fee	"Galdone, Paul"				"Clarion Books (1985), Library Binding, 40 pages"	1985	Hardcover	40 p.; 7.6 inches	0.15 pounds	7.6 inches	0.3 inches	7.1 inches	7.6 x 7.1 x 0.3 inches	40	"From:AlyssaSteffan, _Hardback Picture Books, To:HeidiCollins, Country:Yap, 2013"	"NoLongerAvailable, 2013 Stats"	[0899193366]	"0899193366, 9780899193366"		amazon.com	[2012-08-13]	436589
88744455	Little Mouse on the Prairie	"Cosgrove, Stephen"		"James, Robin"	Illustrator	"Grolier Enterprises Inc. (1978), Edition: Sixth Printing, Hardcover"	1978	Hardcover	9.8 inches	0.6 pounds	9.8 inches	0.4 inches	6.8 inches	9.8 x 6.8 x 0.4 inches		"From:AlyssaSteffan, _Hardback Picture Books, To:YapLibrary, Country:Yap, 2013"	"NoLongerAvailable, 2013 Stats"	[]			amazon.com	[2012-08-13]	277037
88744456	Snow White and the Seven Dwarfs	"Disney, Walt"				"Smithmark publishers Inc (1987), Hardcover"	1987	Hardcover	11.3 inches	1.35 pounds	11.3 inches	0.6 inches	8.3 inches	11.3 x 8.3 x 0.6 inches	95	"From:AlyssaSteffan, _Hardback Picture Books, 2012, Country:Indonesia, stats, To:AngieMcKelvey"	"NoLongerAvailable, 2012 Stats"	[0831778857]	"0831778857, 9780831778859"		amazon.com	[2012-08-13]	11018134
88744472	A. Nonny Mouse Writes Again! (A Borzoi book)	"Prelutsky, Jack"				"Knopf Books for Young Readers (1993), Hardcover, 350 pages"	1993	Hardcover	350 p.; 11 inches	1.05 pounds	11 inches	0.4 inches	8.8 inches	11 x 8.8 x 0.4  inches	350	"From:AlyssaSteffan, _Poetry, Country:Romania, 2013, To:BrandiBates"	"NoLongerAvailable, 2013 Stats"	[0679837159]	"0679837159, 9780679837152"		amazon.com	[2012-08-13]	417726
88744477	Poems of A. Nonny Mouse	"Prelutsky, Jack"		"Drescher, Henrik"	Illustrator	"Knopf Books for Young Readers (1989), Edition: 1st Edition, Hardcover"	1989	Hardcover	11 inches	0.95 pounds	11 inches	0.5 inches	8.9 inches	11 x 8.9 x 0.5 inches	44	"From:AlyssaSteffan, _Poetry, Country:Romania, 2013, To:BrandiBates"	"NoLongerAvailable, 2013 Stats"	[0394887115]	"0394887115, 9780394887111"		amazon.com	[2012-08-13]	2237805
88744483	For Laughing Out Loud: Poems to Tickle Your Funnybone	"Prelutsky, Jack"		"Priceman, Marjorie"	Illustrator	"Knopf Books for Young Readers (1991), Hardcover, 96 pages"	1991	Hardcover	96 p.; 8.2 inches	1.07 pounds	8.2 inches	10.33 inches	0.47 inches	8.2 x 0.47 x 10.33 inches	96	"From:AlyssaSteffan, _Poetry, Country:Romania, 2013, To:BrandiBates"	"NoLongerAvailable, 2013 Stats"	[0394821440]	"0394821440, 9780394821443"		amazon.com	[2012-08-13]	529233
88744484	Moon Frog: Animal Poems for Young Children	"Edwards, Richard"		"Fox-Davies, Sarah"	Illustrator	"Candlewick (1993), Hardcover, 48 pages"	1993	Hardcover	48 p.; 11 inches	1.25 pounds	11 inches	0.75 inches	9 inches	11 x 9 x 0.75 inches	48	"From:AlyssaSteffan, _Poetry, To:KrisanneEmch, Country:Indonesia, 2017"	"NoLongerAvailable, 2017 Stats"	[1564021165]	"1564021165, 9781564021168"		amazon.com	[2012-08-13]	4249418
88744487	The Real Mother Goose	"Wright, Blanche Fisher"				"Rand McNally (1983), Hardcover, 128 pages"	1983	Hardcover	128 p.; 11.1 inches	1.55 pounds	11.1 inches	0.7 inches	8.9 inches	11.1 x 8.9 x 0.7 inches	128	"From:AlyssaSteffan, _Poetry, To:HeidiCollins, Country:Yap, 2013"	"NoLongerAvailable, 2013 Stats"	[0528823221]	"0528823221, 9780528823220"		amazon.com	[2012-08-13]	34542
88744492	Mother Goose's Nursery Rhymes	"Atkinson, Allen"				"Knopf (1984), Edition: 1st, Hardcover, 87 pages"	1984	Hardcover	87 p.; 10.2 inches	1.45 pounds	10.2 inches	0.5 inches	8.2 inches	10.2 x 8.2 x 0.5 inches	87	"From:AlyssaSteffan, _Hardback Picture Books, 2017_inventory, 2018inv"	BookEnds	[0394536991]	"0394536991, 9780394536996"		amazon.com	[2012-08-13]	1837420
88744496	Mr. Large In Charge	"Murphy, Jill"		"Murphy, Jill"	Illustrator	"Candlewick (2007), Paperback, 40 pages"	2007	Paperback	40 p.; 10.25 inches	0.4 pounds	10.25 inches	8.5 inches	0.2 inches	10.25 x 0.2 x 8.5 inches	40	"From:AlyssaSteffan, _Picture Books, To:HeidiCollins, Country:Yap, 2013"	"NoLongerAvailable, 2013 Stats"	[0763627399]	"0763627399, 9780763627393"		amazon.com	[2012-08-13]	3380470
88744511	The Bible-Time Nursery Rhyme Book	"Hunter, Emily"				"Manna Publications (1981), Edition: Probable First Edition, Hardcover, 96 pages"	1981	Hardcover	96 p.; 10.8 inches	1.55 pounds	10.8 inches	0.6 inches	8.4 inches	10.8 x 8.4 x 0.6 inches	96	"From:AlyssaSteffan, _Hardback Picture Books, To:PhilipinesOrphanage, Country:Philippines, 2014"	"NoLongerAvailable, 2014 Stats"	[093974404X]	"093974404X, 9780939744046"		amazon.com	[2012-08-13]	1752976
88744515	Big Thoughts for Little People	"Taylor, Kenneth N."				"Tyndale House Publishers, Inc. (1990), Edition: 5th, Hardcover, 50 pages"	1990	Hardcover	50 p.			0.07 inches	0.1 inches	0.1 x 0.07 inches	50	"From:AlyssaSteffan, _Bible-Related, Country:China, 2012, To:MissiMarsden, stats"	"NoLongerAvailable, 2012 Stats"	[084230164X]	"084230164X, 9780842301640"		amazon.com	[2012-08-13]	352893
88744519	Learning About God from A to Z	"Erickson, Mary"				"Sonlight Curriculum, Ltd. (1989), Paperback, 228 pages"	1989	Paperback	228 p.; 10.8 inches	1.35 pounds	10.8 inches	0.6 inches	8.3 inches	10.8 x 8.3 x 0.6 inches	228	"From:AlyssaSteffan, _Bible-Related, To:KarenHall, Country:Indonesia, 2013"	"NoLongerAvailable, 2013 Stats"	[1887840052]	"1887840052, 9781887840057"		amazon.com	[2012-08-13]	2032659
88744536	Theirs is the Kingdom	"MacLeod, Jack M."		"Lantz, Paul V."	Illustrator	"The Westminster Press (1959), Hardcover, 224 pages"	1959	Hardcover	224 p.; 8.1 inches	0.8 pounds	8.1 inches	0.8 inches	6.1 inches	8.1 x 6.1 x 0.8 inches	224	"From:AlyssaSteffan, _Bible-Related, To:AmyRhiger, Country:Philippines, 2016"	"NoLongerAvailable, 2016 Stats"	[]			amazon.com	[2012-08-13]	1066840
88744547	Pooh's Bedtime Book	"Milne, A. A."				"Dutton Juvenile (1980), Edition: 1st, Hardcover, 4 pages"	1980	Hardcover	4 p.; 10.9 inches	0.75 pounds	10.9 inches	0.4 inches	9 inches	10.9 x 9 x 0.4 inches	4	"From:AlyssaSteffan, _Winnie-the-Pooh, To:BrandiBates, 2014, Country:Romania"	"NoLongerAvailable, 2014 Stats"	[052537373X]	"052537373X, 9780525373735"		amazon.com	[2012-08-13]	541974
88744564	Arthur's Camp-Out (I Can Read Book 2)	"Hoban, Lillian"		"Hoban, Lillian"	Illustrator	"HarperCollins (1993), Library Binding, 64 pages"	1993	Hardcover	64 p.; 8.87 inches	0.69 pounds	8.87 inches	0.49 inches	6.25 inches	8.87 x 6.25 x 0.49 inches	64	"From:AlyssaSteffan, _Beginning Readers, Country:Bangladesh, 2012, To:QuynhParlane, stats"	"NoLongerAvailable, 2012 Stats"	[0060205261]	"0060205261, 9780060205263"		amazon.com	[2012-08-13]	444995
88744586	GOOFY'S BOOK OF COLORS (Disney's wonderful world of reading)	"Club, Disney Book"				"Random House Books for Young Readers (1983), Hardcover, 26 pages"	1983	Hardcover							26	"From:AlyssaSteffan, _Beginning Readers, Country:Bangladesh, 2012, To:QuynhParlane, stats"	"NoLongerAvailable, 2012 Stats"	[0394857348]	"0394857348, 9780394857343"		amazon.com	[2012-08-13]	8213478
88744591	How Much is That Guinea Pig in the Window? (Hello Reader! Math Level 4)	"Rocklin, Joanne"		"Johnson, Meredith"	Illustrator	"Scholastic (1995), Paperback, 44 pages"	1995	Paperback	44 p.	0.24 pounds		2.3 inches	1.54 inches	1.54 x 2.3 inches	44	"From:AlyssaSteffan, _Beginning Readers, Country:Bangladesh, 2012, To:QuynhParlane, stats"	"NoLongerAvailable, 2012 Stats"	[0590227165]	"0590227165, 9780590227162"		amazon.com	[2012-08-13]	1387057
88744600	Fisher Price Ready Reader Bind Up - Stage 1 - Preschool to Grade 1 (Fisher-Price Ready Readers)	"Publishing, Modern"				"Modern Publishing (2007), Paperback, 304 pages"	2007	Paperback	304 p.	0.01 pounds		0.02 inches	0.01 inches	8.9 x 0.01 x 0.02 inches	304	"From:AlyssaSteffan, _Beginning Readers, Country:India, 2012, stats, To:KristinJones"	"NoLongerAvailable, 2012 Stats"	[0766608239]	"0766608239, 9780766608238"		amazon.com	[2012-08-13]	129514
88744611	Ed Emberley's Great Thumbprint Drawing Book	"Emberley, Ed"				"Scholastic Paperbacks (1977), Paperback"	1977	Paperback	8.8 inches	0.2 pounds	8.8 inches	0.2 inches	7.5 inches	8.8 x 7.5 x 0.2 inches		"From:AlyssaSteffan, _Activity Books, To:KarenStark, 2014, Country:CA"	"NoLongerAvailable, 2014 Stats"	[0590326503]	"0590326503, 9780590326506"		amazon.com	[2012-08-13]	523449
88744615	How to Draw Forest Animals	"Soloff-Levy, Barbara"				"Troll Communications (1985), Library Binding, 32 pages"	1985	Hardcover	32 p.; 11 inches	0.95 pounds	11 inches	0.4 inches	8.7 inches	11 x 8.7 x 0.4 inches	32	"From:AlyssaSteffan, _Activity Books, To:YapLibrary, Country:Yap, 2013"	"NoLongerAvailable, 2013 Stats"	[0816703345]	"0816703345, 9780816703340"		amazon.com	[2012-08-13]	1240639
88744617	How to Draw Wild Animals	"Simpson, Anne"		"Botto, Lisa C."	Illustrator	"Watermill Pr (1991), Library Binding, 32 pages"	1991	Hardcover	32 p.; 11 inches	0.95 pounds	11 inches	0.4 inches	8.6 inches	11 x 8.6 x 0.4 inches	32	"From:AlyssaSteffan, _Activity Books, To:YapLibrary, Country:Yap, 2013"	"NoLongerAvailable, 2013 Stats"	[0816724814]	"0816724814, 9780816724819"		amazon.com	[2012-08-13]	322070
88744620	How to Draw Cats	"Rancan, Janet"				"Troll Communications (1982), Library Binding, 32 pages"	1982	Hardcover	32 p.; 11 inches	0.9 pounds	11 inches	0.4 inches	8.6 inches	11 x 8.6 x 0.4 inches	32	"From:AlyssaSteffan, _Activity Books, To:VictoriaRice, Country:China, 2013"	"NoLongerAvailable, 2013 Stats"	[0893756792]	"0893756792, 9780893756796"		amazon.com	[2012-08-13]	810534
88744624	How to Draw Farm Animals	"Soloff-Levy, Barbara"				"Troll Communications (1984), Library Binding, 32 pages"	1984	Hardcover	32 p.; 11.1 inches	0.8 pounds	11.1 inches	1.1 inches	8.5 inches	11.1 x 8.5 x 1.1 inches	32	"From:AlyssaSteffan, _Activity Books, To:YapLibrary, Country:Yap, 2013"	"NoLongerAvailable, 2013 Stats"	[0893757977]	"0893757977, 9780893757977"		amazon.com	[2012-08-13]	1055944
88744631	Prince Caspian: The Return to Narnia	"Lewis, C. S"				"Collier Books (1970), Paperback"	1970	Paperback	6.9 inches	0.05 pounds	6.9 inches	0.8 inches	4.1 inches	6.9 x 4.1 x 0.8 inches		"From:AlyssaSteffan, _Narnia, To:KristanCagwin, Country:Germany, 2015"	"NoLongerAvailable, 2015 Stats"	[0020442408]	"0020442408, 9780020442400"		amazon.com	[2012-08-13]	6954108
88744632	The Voyage of the Dawn Treader	"Lewis, C. S."				"Macmillan Publishing Company, Incorporated (1970), Edition: FIRST COLLIER BOOKS EDITION 1970, Paperback, 216 pages"	1970	Paperback	216 p.; 6.9 inches	0.4 pounds	6.9 inches	0.6 inches	4.1 inches	6.9 x 4.1 x 0.6 inches	216	"From:AlyssaSteffan, To:ShannonPanjwani, Country:India, 2012, stats"	"NoLongerAvailable, 2012 Stats"	[0020442602]	"0020442602, 9780020442608"		amazon.com	[2012-08-13]	1182720
88744637	"The Horse and his Boy (The Chronicles of Narnia, No.5)"	"Lewis, C. S."				"Collier Books (1970), Paperback"	1970	Paperback	6.9 inches	0.3 pounds	6.9 inches	0.7 inches	4.1 inches	6.9 x 4.1 x 0.7 inches		"From:AlyssaSteffan, _Narnia, To:KristanCagwin, Country:Germany, 2015"	"NoLongerAvailable, 2015 Stats"	[0020442009]	"0020442009, 9780020442004"		amazon.com	[2012-08-13]	1182718
88744639	The Magician's Nephew	"Lewis, C. S."				"Collier (1970), Paperback, 186 pages"	1970	Paperback	186 p.; 6.9 inches	0.05 pounds	6.9 inches	0.5 inches	4.1 inches	6.9 x 4.1 x 0.5 inches	186	"From:AlyssaSteffan, To:KyleLeon, Country:Costa Rica, 2012, stats"	"NoLongerAvailable, 2012 Stats"	[0020442300]	"0020442300, 9780020442301"		amazon.com	[2012-08-13]	1586826
88744642	The Last Battle	"Lewis, C. S."		"Baynes, Pauline|Hayne, Roger"	Drawings|Illustrator	"Macmillan/Mcgraw-Hill School (1970), Paperback, 184 pages"	1970	Paperback	184 p.; 7 inches	0.15 pounds	7 inches	0.6 inches	4.1 inches	7 x 4.1 x 0.6 inches	184	"From:AlyssaSteffan, To:YapLibrary, Country:Yap, 2013"	"NoLongerAvailable, 2013 Stats"	[0020442106]	"0020442106, 9780020442103"		amazon.com	[2012-08-13]	1182710
88744670	God Made (First Prayer Series)	"Longfoot, Stephanie"		"Rogers, M."		"Borden Pub Co (1983), Board book, 12 pages"	1983	Board book	12:00 PM						12	"From:AlyssaSteffan, _Board Books, To:BrigitteSchoenenberger, Country:Senegal, 2014"	"NoLongerAvailable, 2014 Stats"	[0861122194]	"0861122194, 9780861122196"		amazon.com	[2012-08-13]	66776
88744674	Thank You God (My First Prayers)	"Longfoot, Stephanie"		"Rogers, M."		"Borden Pub Co (1984), Edition: 3rd, Board book, 12 pages"	1984	Board book	12 p.; 6.2 inches	0.05 pounds	6.2 inches	0.5 inches	6.1 inches	6.2 x 6.1 x 0.5 inches	12	"From:AlyssaSteffan, _Board Books, To:HeidiCollins, Country:Yap, 2013"	"NoLongerAvailable, 2013 Stats"	[0861121961]	"0861121961, 9780861121960"		amazon.com	[2012-08-13]	468616
88744678	N.C. Wyeth's Pilgrims	"Souci, Robert D. San"				"Chronicle Books (1991), Hardcover, 40 pages"	1991	Hardcover	40 p.; 10.4 inches	1 pound	10.4 inches	0.6 inches	8.6 inches	10.4 x 8.6 x 0.6 inches	40	"From:AlyssaSteffan, _History, To:AlyciaDarilek, 2013"	"NoLongerAvailable, 2013 Stats"	[0877018065]	"0877018065, 9780877018063"		amazon.com	[2012-08-13]	118957
88744691	DRAW A SKINNY ELEPHANT	"Silverstein, Shel"				"unknown (1999), Paperback"	1999	Paperback	10.8 inches	0.15 pounds	10.8 inches	0.3 inches	8.2 inches	10.8 x 8.2 x 0.3 inches		"From:AlyssaSteffan, _Activity Books, To:KarenStark, Country:CA, 2013"	"NoLongerAvailable, 2013 Stats"	[0060280530]	"0060280530, 9780060280536"		amazon.com	[2012-08-13]	3371629
88744703	Play with Me	"Ets, Marie Hall"		"Ets, Marie Hall"	Illustrator	"Viking Juvenile (1955), Hardcover, 1 pages"	1955	Hardcover	1 p.; 10.2 inches	0.75 pounds	10.2 inches	0.4 inches	7.7 inches	10.2 x 7.7 x 0.4 inches	1	"From:AlyssaSteffan, _Hardback Picture Books, To:HeidiCollins, Country:Yap, 2013"	"NoLongerAvailable, 2013 Stats"	[0670559776]	"0670559776, 9780670559770"		amazon.com	[2012-08-13]	340465
88744713	The Lonely Kitten (Medici Books for Children)	"Mordue, Truda"				"Medici Society (1976), Paperback, 24 pages"	1976	Paperback	24 p.; 8.19 inches	0.22 pounds	8.19 inches	0.16 inches	6.93 inches	8.19 x 6.93 x 0.16 inches	24	"From:AlyssaSteffan, _In-Between Readers, To:YapLibrary, Country:Yap, 2013"	"NoLongerAvailable, 2013 Stats"	[0855030364]	"0855030364, 9780855030360"		amazon.com	[2012-08-13]	1574085
