123778023	Black Beauty My First Classics	"Sewell, Anna"	Author			"HarperFestival (2006), 112 pages"	2006	Paperback	112 p.; 5.13 inches		5.13 inches	7.63 inches	0.22 inches	5.13 x 0.22 x 7.63 inches	112	"_Children's Classics, From:BarbPointer, To:SaraLubbers, Country:Indonesia, 2017"	"NoLongerAvailable, 2017 Stats"	[0060791489]	"0060791489, 9780060791483"		amazon.com books	[2015-11-28]	3792018
168312524	The Polar Express	"Van Allsburg, Chris"	Author			"Houghton Mifflin (1985), Edition: 1st, 32 pages"	1985	Hardcover	32 p.; 11.75 inches	1 pound	11.75 inches	9.25 inches	0.5 inches	11.75 x 0.5 x 9.25 inches	32	"_Christmas, From:BarbPointer"	"NoLongerAvailable, 2019 Stats"	[0395389496]	"0395389496, 9780395389492"		amazon.com books	[2019-04-30]	46538
169692638	Return of the Jedi -1983 publication. [Paperback]	"Vinge, Joan D."	Author			"Scholastic, Incorporated (1983), Edition: Edition Unstated"	1983	Paperback		0.4 pounds						"_Fantasy, From:BarbPointer, #reserved MaryWard, Country:Togo, 2019"	"NoLongerAvailable, Awaiting Next Box"	[0590329294]	"0590329294, 9780590329293"		amazon.com books	[2019-06-11]	60169
169692659	The Empire Strikes Back Storybook	"Steneman, Shep"	Author			"Scholastic (1980), Edition: 1"	1980	Paperback	8.43 inches	0.79 pounds	8.43 inches	0.73 inches	5.85 inches	8.43 x 5.85 x 0.73 inches		"_Fantasy, From:BarbPointer, #reserved MaryWard, Country:Togo, 2019"	"NoLongerAvailable, Awaiting Next Box"	[0590317911]	"0590317911, 9780590317917"		amazon.com books	[2019-06-11]	115097
169692686	The Star Wars Storybook	"Lucas, George"	Contributor			"Random House Books for Young Readers (1978), Edition: 1st, 60 pages"	1978	Hardcover	60 p.; 11.15 inches	1 pound	11.15 inches	0.25 inches	8.15 inches	11.15 x 8.15 x 0.25 inches	60	"_Fantasy, From:BarbPointer, #reserved MaryWard, Country:Togo, 2019"	"NoLongerAvailable, Awaiting Next Box"	[0394837851]	"0394837851, 9780394837857"		amazon.com books	[2019-06-11]	261902
