122329101	Jacob Lawrence in the City	"Rubin, Susan Goldman"	Author			"Chronicle Books (2009), Edition: Brdbk, 24 pages"	2009	Board book	24 p.; 5.25 inches	0.4 pounds	5.25 inches	6.25 inches	0.5 inches	5.25 x 0.5 x 6.25 inches	24	"_Board Books, From:BetzhiWalton, To:AmyRhiger, Country:Philippines, 2016"	"NoLongerAvailable, 2016 Stats"	[0811865827]	"0811865827, 9780811865821"		amazon.com books	[2015-10-14]	7928192
122329103	Bright Baby Animals	"Priddy, Roger"	Author			"Priddy Books (2004), 26 pages"	2004	Board book	26 p.; 5.34 inches	0.5 pounds	5.34 inches	5.38 inches	0.85 inches	5.34 x 0.85 x 5.38 inches	26	"_Board Books, From:BetzhiWalton, To:AmyRhiger, Country:Philippines, 2016"	"NoLongerAvailable, 2016 Stats"	[0312492480]	"0312492480, 9780312492489"		amazon.com books	[2015-10-14]	10594572
122329104	Secret Seahorse	"Blackstone, Stella"	Author	"Beaton, Clare"	Illustrator	"Barefoot Books (2005), 24 pages"	2005	Board book	24 p.; 6.25 x 0.75 inches	0.66 pounds	0.75 inches	6.5 inches	6.25 inches	0.75 x 6.25 x 6.5 inches	24	"_Board Books, From:BetzhiWalton, To:AmyRhiger, Country:Philippines, 2016"	"NoLongerAvailable, 2016 Stats"	[1905236158]	"1905236158, 9781905236152"		amazon.com books	[2015-10-14]	129561
122329105	I Like It When . . .	"Murphy, Mary"	Author			"HMH Books for Young Readers (2005), 22 pages"	2005	Board book	22 p.; 7.5 inches	0.54 pounds	7.5 inches	5.88 inches	0.54 inches	7.5 x 0.54 x 5.88 inches	22	"_Board Books, From:BetzhiWalton, To:JuliaDawkins, Country:Oman, 2016"	"NoLongerAvailable, 2016 Stats"	[0152056491]	"0152056491, 9780152056490"		amazon.com books	[2015-10-14]	162045
122329107	In My Tree	"Gillingham, Sara"	Author			"Chronicle Books (2009), Edition: Ina Nov Br, 12 pages"	2009	Board book	12 p.; 7 inches	9.6 pounds	7 inches	7 inches	1 inch	7 x 1 x 7 inches	12	"_Board Books, From:BetzhiWalton, To:TheresaLewis, Country:Mexico, 2016"	"NoLongerAvailable, 2016 Stats"	[0811870529]	"0811870529, 9780811870528"		amazon.com books	[2015-10-14]	8811367
122329108	In My Nest	"Gillingham, Sara"	Author	"Siminovich, Lorena"	Illustrator	"Chronicle Books (2009), Edition: Nov Brdbk, 12 pages"	2009	Board book	12 p.; 7 inches	1 pound	7 inches	7 inches	1 inch	7 x 1 x 7 inches	12	"_Board Books, From:BetzhiWalton, To:TheresaLewis, Country:Mexico, 2016"	"NoLongerAvailable, 2016 Stats"	[081186555X]	"081186555X, 9780811865555"		amazon.com books	[2015-10-14]	8060443
122329110	Alice in Wonderland: A BabyLit® Colors Primer	"Adams, Jennifer"	Author	"Oliver, Alison"	Illustrator	"Gibbs Smith (2012), Edition: Brdbk, 22 pages"	2012	Board book	22 p.; 7.25 x 0.5 inches	0.61 pounds	0.5 inches	7 inches	7.25 inches	0.5 x 7.25 x 7 inches	22	"_Board Books, From:BetzhiWalton, To:AmyRhiger, Country:Philippines, 2016"	"NoLongerAvailable, 2016 Stats"	[1423624777]	"1423624777, 9781423624776"		amazon.com books	[2015-10-14]	12042017
122329113	Who's Hiding? In the Garden: A Lift-the-Flap Book (Who's Hiding? Books)	"Gunzi, Christiane"	Author			"Barron's Educational Series (2010), Edition: Ltf Brdbk, 10 pages"	2010	Board book	10 p.; 6.3 x 6.2 inches	0.5 pounds	6.2 inches	0.6 inches	6.3 inches	6.2 x 6.3 x 0.6 inches	10	"_Board Books, From:BetzhiWalton, To:JessicaAmis, Country:Turkey, 2016"	"NoLongerAvailable, 2016 Stats"	[0764163159]	"0764163159, 9780764163159"		amazon.com books	[2015-10-14]	9606657
122329114	My First Animal Board Book (My 1st Board Books)	"Publishing, DK"	Author			"DK Publishing (2007), Edition: Brdbk, 36 pages"	2007	Ebook							36	"_Board Books, From:BetzhiWalton, To:AmyRhiger, Country:Philippines, 2016"	"NoLongerAvailable, 2016 Stats"	[]			amazon.com books	[2015-10-14]	111217
122329115	G is for Goat	"Polacco, Patricia"	Author			Philomel Books (2007)	2007	Hardcover	4.76 x 0.79 inches	0.6 pounds	0.79 inches	6.26 inches	4.76 inches	0.79 x 4.76 x 6.26 inches	34	"_Board Books, From:BetzhiWalton, To:ShannonPanjwani, Country:India, 2015"	"NoLongerAvailable, 2015 Stats"	[0399245308]	"0399245308, 9780399245305"		amazon.com books	[2015-10-14]	1172003
122329116	Busy Piggies (A Busy Book)	"Schindel, John"	Author	"Holt, Steven"	Photographer	"Tricycle Press (2006), Edition: Brdbk, 20 pages"	2006	Board book	20 p.; 5 inches	0.43 pounds	5 inches	7 inches	0.55 inches	5 x 0.55 x 7 inches	20	"_Board Books, From:BetzhiWalton, To:AmyRhiger, Country:Philippines, 2016"	"NoLongerAvailable, 2016 Stats"	[1582461694]	"1582461694, 9781582461694"		amazon.com books	[2015-10-14]	812920
122329117	Dear Zoo: A Lift-the-Flap Book (Dear Zoo & Friends)	"Campbell, Rod"	Author	"Campbell, Rod"	Illustrator	"Little Simon (2007), 18 pages"	2007	Board book	18 p.; 6.12 inches	0.38 pounds	6.12 inches	6.25 inches	0.5 inches	6.12 x 0.5 x 6.25 inches	18	"_Board Books, From:BetzhiWalton, To:DalainaMay, Country:Indonesia, 2015"	"NoLongerAvailable, 2015 Stats"	[141694737X]	"141694737X, 9781416947370"		amazon.com books	[2015-10-14]	343324
122329120	"Ten, Nine, Eight Board Book (Caldecott Collection)"	"Bang, Molly"	Author	"Bang, Molly"	Illustrator	"Greenwillow Books (1996), Edition: Brdbk, 24 pages"	1996	Board book	24 p.; 5.88 inches	0.43 pounds	5.88 inches	5.13 inches		5.88 x 5.87 x 5.13 inches	24	"_Board Books, From:BetzhiWalton, To:AmyRhiger, Country:Philippines, 2016"	"NoLongerAvailable, 2016 Stats"	[0688149014]	"0688149014, 9780688149017"		amazon.com books	[2015-10-14]	273064
122329122	"Mr. Brown Can Moo, Can You : Dr. Seuss's Book of Wonderful Noises (Bright and Early Board Books)"	"Seuss, Dr."	Author			"Random House Books for Young Readers (1996), 24 pages"	1996	Board book	24 p.; 4.31 inches	0.3 pounds	4.31 inches	5.75 inches	0.53 inches	4.31 x 0.53 x 5.75 inches	24	"_Board Books, From:BetzhiWalton, To:ErinStern, Country:Oman, 2016"	"NoLongerAvailable, 2016 Stats"	[0679882820]	"0679882820, 9780679882824"		amazon.com books	[2015-10-14]	8924639
122329125	There's a Wocket in My Pocket! (Dr. Seuss's Book of Ridiculous Rhymes)	"Seuss, Dr."	Author			"Random House (1996), Edition: Brdbk, 24 pages"	1996	Board book	24 p.; 4.25 inches	0.3 pounds	4.25 inches	5.71 inches	0.47 inches	4.25 x 0.47 x 5.71 inches	24	"_Board Books, From:BetzhiWalton, 2016, To:LeslieHeitmann, Country:Oman"	"NoLongerAvailable, 2016 Stats"	[0679882839]	"0679882839, 9780679882831"		amazon.com books	[2015-10-14]	8944358
122329126	Time for Bed	"Fox, Mem"	Author	"Dyer, Jane"	Illustrator	"Red Wagon Books / Harcourt Brace (1997), Edition: 1st, 28 pages"	1997	Board book	28 p.; 5 inches	0.37 pounds	5 inches	5.25 inches	0.91 inches	5 x 0.91 x 5.25 inches	28	"_Board Books, From:BetzhiWalton, To:JessicaAmis, Country:Turkey, 2016"	"NoLongerAvailable, 2016 Stats"	[0152010661]	"0152010661, 9780152010669"		amazon.com books	[2015-10-14]	73421
122329128	"Good Night, Gorilla"	"Rathmann, Peggy"	Author			"G.P. Putnam's Sons Books for Young Readers (1996), Edition: Brdbk, 32 pages"	1996	Board book	32 p.; 6.56 inches	0.6 pounds	6.56 inches	5 inches	0.88 inches	6.56 x 0.88 x 5 inches	32	"_Board Books, From:BetzhiWalton, To:JuliaDawkins, Country:Oman, 2016"	"NoLongerAvailable, 2016 Stats"	[0399230033]	"0399230033, 9780399230035"		amazon.com books	[2015-10-14]	80645
122329130	"Count: 1, 2, 3"	"Taback, Simms"	Illustrator			"Blue Apple Books (2009), Edition: Min Brdbk, 18 pages"	2009	Board book	18 p.; 4.25 inches	0.2 pounds	4.25 inches	4.25 inches	0.49 inches	4.25 x 0.49 x 4.25 inches	18	"_Board Books, From:BetzhiWalton, To:Kako, Country:USA, 2015"	"NoLongerAvailable, 2015 Stats"	[1934706892]	"1934706892, 9781934706893"		amazon.com books	[2015-10-14]	11478033
122329133	Awake to Nap	"McClure, Nikki"	Author			"Sasquatch Books (2006), Edition: Brdbk, 32 pages"	2006	Hardcover	32 p.; 6.23 inches	0.37 pounds	6.23 inches	6.25 inches	0.43 inches	6.23 x 0.43 x 6.25 inches	32	"_Board Books, From:BetzhiWalton, To:LauraGass, Country:Tanzania, 2016"	"NoLongerAvailable, 2016 Stats"	[1570615071]	"1570615071, 9781570615078"		amazon.com books	[2015-10-14]	2085128
122329136	Charley Harper ABCs: Skinny Edition	"Harper, Charley"	Author			"AMMO Books (2008), Edition: Skinny Edition, 20 pages"	2008	Board book	20 p.; 6 inches	0.35 pounds	6 inches	6 inches	0.6 inches	6 x 0.6 x 6 inches	20	"_Board Books, From:BetzhiWalton, To:TheresaLewis, Country:Mexico, 2016"	"NoLongerAvailable, 2016 Stats"	[193442921X]	"193442921X, 9781934429211"		amazon.com books	[2015-10-14]	5114682
122329137	Charley Harper 123s	"Harper, Charley"	Author			"AMMO Books (2008), Edition: Brdbk Ill, 20 pages"	2008	Board book	20 p.; 6 inches	0.46 pounds	6 inches	6 inches	0.6 inches	6 x 0.6 x 6 inches	20	"_Board Books, From:BetzhiWalton, To:AmyRhiger, Country:Philippines, 2016"	"NoLongerAvailable, 2016 Stats"	[1934429228]	"1934429228, 9781934429228"		amazon.com books	[2015-10-14]	7515704
122329144	Numbers	"Kiely, Orla"	Author			"Henry Holt & Company (2012), Edition: BRDBK"	2012	Hardcover	7.43 inches	0.79 pounds	7.43 inches	0.92 inches	6.39 inches	7.43 x 6.39 x 0.92 inches		"_Board Books, From:BetzhiWalton, To:JessicaAmis, Country:Turkey, 2016"	"NoLongerAvailable, 2016 Stats"	[080509492X]	"080509492X, 9780805094923"		amazon.com books	[2015-10-14]	12587904
122329146	Peek-A Who?	"Laden, Nina"	Author			"Chronicle Books (2000), Edition: Brdbk, 10 pages"	2000	Board book	10 p.; 5 inches	0.32 pounds	5 inches	5 inches	0.6 inches	5 x 0.6 x 5 inches	10	"_Board Books, From:BetzhiWalton, To:JanaEads, Country:Tanzania, 2015"	"NoLongerAvailable, 2015 Stats"	[0811826023]	"0811826023, 9780811826020"		amazon.com books	[2015-10-14]	162077
122329149	Mix It Up!	"Tullet, Hervé"	Author			"Chronicle Books (2014), 56 pages"	2014	Hardcover	56 p.; 8.75 inches	1.03 pounds	8.75 inches	8.75 inches	0.5 inches	8.75 x 0.5 x 8.75 inches	56	"_Hardback Picture Books, From:BetzhiWalton, To:BettyKurz, Country:Papua NG, 2015"	"NoLongerAvailable, 2015 Stats"	[1452137358]	"1452137358, 9781452137353"		amazon.com books	[2015-10-14]	15017017
122329154	My School Trip	"Kertell, Lynn Maslen"	Author	"Hendra, Sue"	Illustrator	"Scholastic Inc. (2012), 32 pages"	2012	Paperback	32 p.; 6.25 x 0.25 inches	0.15 pounds	0.25 inches	9.5 inches	6.25 inches	0.25 x 6.25 x 9.5 inches	32	"_Beginning Readers, From:BetzhiWalton, To:HeidiCollins, Country:Yap, 2015"	"NoLongerAvailable, 2015 Stats"	[054538270X]	"054538270X, 9780545382700"		amazon.com books	[2015-10-14]	12898800
122329164	The Mysterious Circus (Hall Family Chronicles)	"Langton, Jane"	Author			"(2005), 224 pages"	2005	Hardcover	224 p.; 8.3 inches	0.8 pounds	8.3 inches	1 inch	5.6 inches	8.3 x 5.6 x 1 inches	224	"_Chapter Books, From:BetzhiWalton, To:MarisaBailey, Country:Tanzania, 2015"	"NoLongerAvailable, 2015 Stats"	[]			amazon.com books	[2015-10-14]	1538923
122329169	Harriet the Spy	"Fitzhugh, Louise"	Author			"Yearling (2001), 320 pages"	2001	Paperback	320 p.; 5.19 inches	0.3 pounds	5.19 inches	7.63 inches	0.75 inches	5.19 x 0.75 x 7.63 inches	320	"_Chapter Books, From:BetzhiWalton, To:MarisaBailey, Country:Tanzania, 2015"	"NoLongerAvailable, 2015 Stats"	[0440416795]	"0440416795, 9780440416791"		amazon.com books	[2015-10-14]	6205
