148003544	Grace: A Christmas Sisters of the Heart Novel	"Gray, Shelley Shepard"	Author			"HarperOne (2010), Edition: 1, 336 pages"	2010	Paperback	336 p.; 5.31 inches	0.5 pounds	5.31 inches	8 inches	0.76 inches	5.31 x 0.76 x 8 inches	336	"_Adult Fiction, From:BevBostock, To:LanaFerguson, Country:Palau, 2017"	"NoLongerAvailable, 2017 Stats"	[0061990965]	"0061990965, 9780061990960"		amazon.com books	[2017-11-09]	10293346
148003545	Leah's Choice (Pleasant Valley)	"Perry, Marta"	Author			"Berkley (2009), Edition: Original, 320 pages"	2009	Paperback	320 p.; 5.1 inches	0.55 pounds	5.1 inches	8 inches	0.9 inches	5.1 x 0.9 x 8 inches	320	"_Adult Fiction, From:BevBostock, To:LanaFerguson, Country:Palau, 2017"	"NoLongerAvailable, 2017 Stats"	[0425230503]	"0425230503, 9780425230503"		amazon.com books	[2017-11-09]	9124572
148003555	God Is In The Small Stuff	"Bickel, Bruce"	Author			"Barbour Books (1998), 256 pages"	1998	Hardcover	256 p.; 6.6 inches	0.65 pounds	6.6 inches	0.83 inches	5.82 inches	6.6 x 5.82 x 0.83 inches	256	"_Adult Non-Fiction, From:BevBostock, To:LanaFerguson, Country:Palau, 2017"	"NoLongerAvailable, 2017 Stats"	[1577484487]	"1577484487, 9781577484486"		amazon.com books	[2017-11-09]	179899
148003559	The Difference God Makes: Living as if God Matters	"Haile, Peter"	Author			"Grason (1987), 107 pages"	1987	Paperback	107 p.; 6.7 inches	0.3 pounds	6.7 inches	0.4 inches	4.2 inches	6.7 x 4.2 x 0.4 inches	107	"_Adult Non-Fiction, From:BevBostock, To:LanaFerguson, Country:Palau, 2017"	"NoLongerAvailable, 2017 Stats"	[0890661014]	"0890661014, 9780890661017"		amazon.com books	[2017-11-09]	711271
148003569	Each New Day	"TenBoom, Corrie"	Author			Fleming H Revell Co (1981)	1981	Paperback	4.25 x 0.5 inches	0.25 pounds	0.5 inches	7 inches	4.25 inches	0.5 x 4.25 x 7 inches		"_Bible-Related, From:BevBostock, To:LanaFerguson, Country:Palau, 2017"	"NoLongerAvailable, 2017 Stats"	[0800784030]	"0800784030, 9780800784034"		amazon.com books	[2017-11-09]	353924
148003571	That I May Know Him: Philippians & Colossians (The New Inductive Study Series)	"Arthur, Kay"	Author			"Harvest House Publishers (2002), 112 pages"	2002	Paperback	112 p.; 5.32 inches	0.25 pounds	5.32 inches	8.18 inches	0.3 inches	5.32 x 0.3 x 8.18 inches	112	"_Bible-Related, From:BevBostock, To:LanaFerguson, Country:Palau, 2017"	"NoLongerAvailable, 2017 Stats"	[0736908099]	"0736908099, 9780736908092"		amazon.com books	[2017-11-09]	1543606
166654835	Nelson's Compact Bible Dictionary	"Bruce, R.K. Harrison Ronald F. Youn F. F."	Author			Thomas Nelson (2004)	2004	Hardcover	7.1 inches	1.3 pounds	7.1 inches	1.7 inches	4.6 inches	7.1 x 4.6 x 1.7 inches		"_Bible-Related, From:BevBostock, To:AmyRhiger, Country:Philippines, 2019"	"NoLongerAvailable, 2019 Stats"	[1418504092]	"1418504092, 9781418504090"		amazon.com books	[2019-03-12]	1034029
166654844	Zondervan Handbook to the Bible	"Alexander, David and Pat"	Author			"Zondervan (1999), Edition: 3rd, 816 pages"	1999	Hardcover	816 p.; 6.89 inches	3.75 pounds	6.89 inches	9.61 inches	1.69 inches	6.89 x 1.69 x 9.61 inches	816	"_Bible-Related, From:BevBostock, To:AmyRhiger, Country:Philippines, 2019"	"NoLongerAvailable, 2019 Stats"	[0310230950]	"0310230950, 9780310230953"		amazon.com books	[2019-03-12]	82680
166654846	Matthew Henry's Commentary on the Whole Bible: Complete and Unabridged in One Volume	"Henry, Matthew"	Author			"Hendrickson Pub (1991), Edition: 2nd, 2512 pages"	1991	Hardcover	2512 p.; 8.5 inches	6.22 pounds	8.5 inches	9.75 inches	2.75 inches	8.5 x 2.75 x 9.75 inches	2512	"_Bible-Related, From:BevBostock, To:AmyRhiger, Country:Philippines, 2019"	"NoLongerAvailable, 2019 Stats"	[094357532X]	"094357532X, 9780943575322"		amazon.com books	[2019-03-12]	3993377
166654860	Small Group Evangelism: A Training Program for Reaching Out With the Gospel	"Peace, Richard"	Author			"Intervarsity Pr (1985), 190 pages"	1985	Paperback	190 p.; 8.3 inches	0.45 pounds	8.3 inches	0.7 inches	5.5 inches	8.3 x 5.5 x 0.7 inches	190	"_Bible-Related, From:BevBostock, To:AmyRhiger, Country:Philippines, 2019"	"NoLongerAvailable, 2019 Stats"	[0877843295]	"0877843295, 9780877843290"		amazon.com all media	[2019-03-12]	1219456
166654879	Halley's Bible Handbook with the New International Version	"Halley, Henry H."	Author			"Zondervan (2000), Edition: Revised, 1136 pages"	2000	Hardcover	1136 p.; 5.24 inches	1 pound	5.24 inches	7.36 inches	1.97 inches	5.24 x 1.97 x 7.36 inches	1136	"_Bible-Related, From:BevBostock, To:AmyRhiger, Country:Philippines, 2019"	"NoLongerAvailable, 2019 Stats"	[0310224799]	"0310224799, 9780310224792"		amazon.com books	[2019-03-12]	2902025
166654889	The Psalms of David	"Freemantle, James S."	Author			"HarperCollins Narnia (2001), Edition: 1, 352 pages"	2004	Hardcover	352 p.; 5.44 inches	1.53 pounds	5.44 inches	8.25 inches	0.25 inches	5.44 x 0.25 x 8.25 inches	352	"_Bible-Related, From:BevBostock"	BookEnds	[0688013120]	"0688013120, 9780688013127"		amazon.com all media	[2019-03-12]	194307
166654911	To Fly Again: Surviving the Tailspins of Life	"Burnham, Gracia"	Author	"Merrill, Dean"	Collaborator	"Tyndale Momentum (2006), 224 pages"	2006	Paperback	224 p.; 5.5 inches	0.59 pounds	5.5 inches	8 inches	0.63 inches	5.5 x 0.63 x 8 inches	224	"_Adult Non-Fiction, From:BevBostock"	BookEnds	[9781414301259]	"9781414301259, 1414301251"		amazon.com books	[2019-03-12]	3142697
166654914	"Lord, Teach Me to Pray in 28 Days"	"Arthur, Kay"	Author			"Harvest House Publishers (2001), 160 pages"	2001	Paperback	160 p.; 5.25 inches	0.75 pounds	5.25 inches	8.25 inches	0.5 inches	5.25 x 0.5 x 8.25 inches	160	"_Adult Non-Fiction, From:BevBostock"	BookEnds	[0736908218]	"0736908218, 9780736908214"		amazon.com books	[2019-03-12]	66987
166654948	Edge of Eternity	"Alcorn, Randy"	Author			"WaterBrook (1999), 336 pages"	1999	Paperback	336 p.; 5.5 inches	0.69 pounds	5.5 inches	8.18 inches	0.7 inches	5.5 x 0.7 x 8.18 inches	336	"_Adult Fiction, From:BevBostock, To:JoeGadbaugh, Country:USA, 2019"	"NoLongerAvailable, 2019 Stats"	[1578562953]	"1578562953, 9781578562954"		amazon.com books	[2019-03-12]	60732
166654957	Becoming a Titus 2 Woman; A Bible Study with Martha Peace	"Peace, Martha"	Author			"Focus Pub (1997), Edition: 38430th, 164 pages"	1997	Paperback	164 p.; 5.5 inches	0.65 pounds	5.5 inches	8.5 inches	0.5 inches	5.5 x 0.5 x 8.5 inches	164	"_Adult Fiction, From:BevBostock, To:AmyRhiger, Country:Philippines, 2019"	"NoLongerAvailable, 2019 Stats"	[1885904177]	"1885904177, 9781885904171"		amazon.com all media	[2019-03-12]	216530
166661345	Chicken Soup for the Soul: 101 Stories to Open the Heart and Rekindle the Spirit	"Canfield, Jack"	Author	"Bergman, Barbara"	Designer	"Health Communications, Inc. (1993), Edition: Revised, 308 pages"	1993	Paperback	308 p.; 5.5 inches	1 pound	5.5 inches	8.5 inches	1 inch	5.5 x 1 x 8.5 inches	308	"_Adult Non-Fiction, From:BevBostock, To:AmyRhiger, Country:Philippines, 2019"	"NoLongerAvailable, 2019 Stats"	[9781558742628]	"9781558742628, 155874262X"		amazon.com books	[2019-03-12]	7501703
