80573097	"The Kalahari Typing School for Men (No. 1 Ladies' Detective Agency, Book 4)"	"Smith, Alexander Mccall"				"Anchor (2004), Paperback, 192 pages"	2004	Paperback	224 p.; 8.04 inches	0.5 pounds	8.04 inches	0.55 inches	5.22 inches	8.04 x 5.22 x 0.55 inches	224	"From:CarolynAijian, _Adult Fiction, Country:Morocco, 2012, stats, To:MeganSchell"	"NoLongerAvailable, 2012 Stats"	[140003180X]	"140003180X, 9781400031801"		amazon.com	[2011-12-04]	20135
80573098	"Morality for Beautiful Girls (No. 1 Ladies Detective Agency, Book 3)"	"Smith, Alexander McCall"				"Anchor (2002), Paperback, 227 pages"	2002	Paperback	227 p.; 8.06 inches	0.56 pounds	8.06 inches	0.63 inches	5.22 inches	8.06 x 5.22 x 0.63 inches	227	"From:CarolynAijian, _Adult Fiction, Country:Morocco, 2012, stats, To:MeganSchell"	"NoLongerAvailable, 2012 Stats"	[1400031362]	"1400031362, 9781400031368"		amazon.com	[2011-12-04]	4425
80573100	Tears of the Giraffe (No 1 Ladies Detective Agency 2)	"Smith, Alexander McCall"				"Abacus (2003), Edition: paperback / softback, Paperback, 240 pages"	2003	Paperback	240 p.	0.43 pounds		1.98 inches	1.26 inches	7.72 x 1.26 x 1.98 inches	240	"From:CarolynAijian, _Adult Fiction, Country:Morocco, 2012, stats, To:MeganSchell"	"NoLongerAvailable, 2012 Stats"	[0349116652]	"0349116652, 9780349116655"		amazon.com	[2011-12-04]	4570
