136211647	Aunt Crete's Emancipation (Classic Series)	"Hill, Grace Livingston"	Author			"Fleming H Revell Co (1984), Edition: Reprint, 125 pages"	1984	Hardcover	125 p.	0.56 pounds					125	"_Adult Fiction, From:CarolynBenson, To:AliciaDarilek, Country:China, 2016"	"NoLongerAvailable, 2016 Stats"	[080071363X]	"080071363X, 9780800713638"		amazon.com books	[2016-11-19]	1073370
136211653	The Patch of Blue (Grace Livingston Hill Series)	"Hill, Grace Livingston"	Author			"Tyndale House Pub (1992), 185 pages"	1992	Paperback	185 p.; 4.25 x 0.5 inches	0.25 pounds	0.5 inches	7 inches	4.25 inches	0.5 x 4.25 x 7 inches	185	"_Adult Fiction, From:CarolynBenson, To:AliciaDarilek, Country:China, 2016"	"NoLongerAvailable, 2016 Stats"	[0842348093]	"0842348093, 9780842348096"		amazon.com books	[2016-11-19]	534247
136211656	Amorelle (Grace Livingston Hill #4)	"Hill, Grace Livingston"	Author			"Living Books (1995), 268 pages"	1995	Paperback	268 p.; 4.25 x 1 inches	0.35 pounds	1 inch	7.25 inches	4.25 inches	1 x 4.25 x 7.25 inches	268	"_Adult Fiction, From:CarolynBenson, To:AliciaDarilek, Country:China, 2016"	"NoLongerAvailable, 2016 Stats"	[0842303103]	"0842303103, 9780842303101"		amazon.com books	[2016-11-19]	475098
136211671	Marcia Schuyler	"Hill, Grace Livingston"	Author			"CreateSpace Independent Publishing Platform (2015), 206 pages"	2015	Paperback	206 p.; 6 inches		6 inches	9 inches	0.47 inches	6 x 0.47 x 9 inches	206	"_Adult Fiction, From:CarolynBenson, To:AliciaDarilek, Country:China, 2016"	"NoLongerAvailable, 2016 Stats"	[1522734678]	"1522734678, 9781522734673"		amazon.com books	[2016-11-19]	1073361
136211684	A Daily Rate	"Hill, Grace Livingston"	Author			"CreateSpace Independent Publishing Platform (2013), 236 pages"	2013	Paperback	236 p.; 5.25 inches		5.25 inches	8 inches	0.59 inches	5.25 x 0.59 x 8 inches	236	"_Adult Fiction, From:CarolynBenson, To:AliciaDarilek, Country:China, 2016"	"NoLongerAvailable, 2016 Stats"	[1490468404]	"1490468404, 9781490468402"		amazon.com books	[2016-11-19]	1062274
136211697	Phoebe Deane (Grace Livingston Hill)	"Hill, Grace Livingston"	Author			"Barbour Publishing, Incorporated (2005), 288 pages"	2005	Paperback	288 p.; 6.86 inches	0.31 pounds	6.86 inches	0.68 inches	4.32 inches	6.86 x 4.32 x 0.68 inches	288	"_Adult Fiction, From:CarolynBenson, To:AliciaDarilek, Country:China, 2016"	"NoLongerAvailable, 2016 Stats"	[1593106793]	"1593106793, 9781593106799"		amazon.com books	[2016-11-19]	10955775
136211707	Found Treasure (Grace Livingston Hill #78)	"Hill, Grace Livingston"	Author			"Tyndale House Publishers, Inc. (1998), 140 pages"	1998	Paperback	140 p.; 4 x 0.25 inches	0.15 pounds	0.25 inches	6.75 inches	4 inches	0.25 x 4 x 6.75 inches	140	"_Adult Fiction, From:CarolynBenson, To:AliciaDarilek, Country:China, 2016"	"NoLongerAvailable, 2016 Stats"	[084230911X]	"084230911X, 9780842309110"		amazon.com books	[2016-11-19]	823412
136211718	Duskin (Grace Livingston Hill #81)	"Hill, Grace Livingston"	Author			"Living Books (1997), 218 pages"	1997	Paperback	218 p.; 6.98 inches	0.25 pounds	6.98 inches	0.6 inches	4.2 inches	6.98 x 4.2 x 0.6 inches	218	"_Adult Fiction, From:CarolynBenson, To:AliciaDarilek, Country:China, 2016"	"NoLongerAvailable, 2016 Stats"	[0842305742]	"0842305742, 9780842305747"		amazon.com books	[2016-11-19]	589351
136211723	Grace Livingston Hill Collection (Grace Livingston Hill Collection (Paperback))	"Hill, Grace Livingston"	Author			"Barbour Publishing, Incorporated (1989), Edition: Lrg"	1989	Paperback	5.2 x 0.8 inches	0.15 pounds	0.8 inches	8 inches	5.2 inches	0.8 x 5.2 x 8 inches		"_Adult Fiction, From:CarolynBenson, To:AliciaDarilek, Country:China, 2016"	"NoLongerAvailable, 2016 Stats"	[1557480923]	"1557480923, 9781557480927"		amazon.com books	[2016-11-19]	7629790
136211729	Out of the Storm (The Grace Livingston Hill Series No. 87) by Grace Livingston Hill (1990-05-02)	"Hill, Grace Livingston"	Author			Tyndale House Pub (1825)	1825	Paperback								"_Adult Fiction, From:CarolynBenson, To:AliciaDarilek, Country:China, 2016"	"NoLongerAvailable, 2016 Stats"	[]			amazon.com books	[2016-11-19]	589393
136211737	Exit Betty: By Grace Livingston Hill - Illustrated	"Hill, Grace Livingston"	Author			"CreateSpace Independent Publishing Platform (2016), 128 pages"	2016	Paperback	128 p.; 6 inches		6 inches	9 inches	0.29 inches	6 x 0.29 x 9 inches	128	"_Adult Fiction, From:CarolynBenson, To:AliciaDarilek, Country:China, 2016"	"NoLongerAvailable, 2016 Stats"	[1539814971]	"1539814971, 9781539814979"		amazon.com books	[2016-11-19]	1062298
136211750	The Finding of Jasper Holt	"Hill, Grace Livingston"	Author			"CreateSpace Independent Publishing Platform (2015), 120 pages"	2015	Paperback	120 p.; 6 inches	0.38 pounds	6 inches	9 inches	0.28 inches	6 x 0.28 x 9 inches	120	"_Adult Fiction, From:CarolynBenson, To:AliciaDarilek, Country:China, 2016"	"NoLongerAvailable, 2016 Stats"	[1519115342]	"1519115342, 9781519115348"		amazon.com books	[2016-11-19]	589422
136211752	According to the Pattern	"Hill, Grace Livingston"	Author			Bantam (1985)	1985	Paperback	6.8 inches	0.3 pounds	6.8 inches	0.5 inches	4.3 inches	6.8 x 4.3 x 0.5 inches		"_Adult Fiction, From:CarolynBenson, To:AliciaDarilek, Country:China, 2016"	"NoLongerAvailable, 2016 Stats"	[055327421X]	"055327421X, 9780553274219"		amazon.com books	[2016-11-19]	143404
136211756	The Ransom (Grace Livingston Hill #77))	"Hill, Grace Livingston"	Author			Tyndale House Pub (1989)	1989	Paperback	4.2 x 0.7 inches	0.35 pounds	0.7 inches	6.9 inches	4.2 inches	0.7 x 4.2 x 6.9 inches		"_Adult Fiction, From:CarolynBenson, To:AliciaDarilek, Country:China, 2016"	"NoLongerAvailable, 2016 Stats"	[0842351434]	"0842351434, 9780842351430"		amazon.com books	[2016-11-19]	476820
136211764	Spice Box (Grace Livingston Hill Series)	"Hill, Grace Livingston"	Author			"Tyndale House Pub (1992), 246 pages"	1992	Paperback	246 p.; 4 x 0.5 inches	0.35 pounds	0.5 inches	5.5 inches	4 inches	0.5 x 4 x 5.5 inches	246	"_Adult Fiction, From:CarolynBenson, To:AliciaDarilek, Country:China, 2016"	"NoLongerAvailable, 2016 Stats"	[0842359397]	"0842359397, 9780842359399"		amazon.com books	[2016-11-19]	568721
136211775	Miranda	"Hill, Grace Livingston"	Author			"Bantam (1981), Edition: 60, 214 pages"	1981	Paperback	214 p.; 6.9 inches	0.35 pounds	6.9 inches	0.5 inches	4.1 inches	6.9 x 4.1 x 0.5 inches	214	"_Adult Fiction, From:CarolynBenson, To:AliciaDarilek, Country:China, 2016"	"NoLongerAvailable, 2016 Stats"	[0553142704]	"0553142704, 9780553142709"		amazon.com books	[2016-11-19]	589385
136211783	Daphne Dean	"Hill, Grace Livingston"	Author			"Bantam Books (1977), 188 pages"	1977	Paperback	188 p.; 7 inches	0.25 pounds	7 inches	0.6 inches	4.1 inches	7 x 4.1 x 0.6 inches	188	"_Adult Fiction, From:CarolynBenson, To:AliciaDarilek, Country:China, 2016"	"NoLongerAvailable, 2016 Stats"	[055310909X]	"055310909X, 9780553109092"		amazon.com books	[2016-11-19]	589346
136211791	The Obsession of Victoria Gracen	"Hill, Grace Livingston"	Author			"CreateSpace Independent Publishing Platform (2015), 150 pages"	2015	Paperback	150 p.; 6 inches		6 inches	9 inches	0.34 inches	6 x 0.34 x 9 inches	150	"_Adult Fiction, From:CarolynBenson, To:AliciaDarilek, Country:China, 2016"	"NoLongerAvailable, 2016 Stats"	[1522734023]	"1522734023, 9781522734024"		amazon.com books	[2016-11-19]	899759
136211802	Street of the City (Grace Livingston Hill #47)	"Hill, Grace Livingston"	Author			"Living Books (1996), 262 pages"	1996	Paperback	262 p.; 6.98 inches	0.35 pounds	6.98 inches	0.78 inches	4.19 inches	6.98 x 4.19 x 0.78 inches	262	"_Adult Fiction, From:CarolynBenson, To:AliciaDarilek, Country:China, 2016"	"NoLongerAvailable, 2016 Stats"	[0842359400]	"0842359400, 9780842359405"		amazon.com books	[2016-11-19]	568730
136211808	The Mystery of Mary	"Hill, Grace Livingston"	Author			"Thorndike Pr (1998), 177 pages"	1998	Paperback	177 p.; 6 x 0.75 inches		0.75 inches	9 inches	6 inches	0.75 x 6 x 9 inches	177	"_Adult Fiction, From:CarolynBenson, To:AliciaDarilek, Country:China, 2016"	"NoLongerAvailable, 2016 Stats"	[0786215372]	"0786215372, 9780786215379"		amazon.com books	[2016-11-19]	589431
136211814	The Story of a Whim (Grace Livingston Hill #68)	"Hill, Grace Livingston"	Author			Bantam (1985)	1985	Paperback	6.7 inches	0.05 pounds	6.7 inches	0.5 inches	4.1 inches	6.7 x 4.1 x 0.5 inches		"_Adult Fiction, From:CarolynBenson, To:AliciaDarilek, Country:China, 2016"	"NoLongerAvailable, 2016 Stats"	[0553264370]	"0553264370, 9780553264371"		amazon.com books	[2016-11-19]	1062281
136211820	Stranger Within the Gates (Grace Livingston Hill #14)	"Hill, Grace Livingston"	Author			"Tyndale House Publishers (1990), 240 pages"	1990	Paperback	240 p.; 4.5 x 0.75 inches	0.3 pounds	0.75 inches	7.25 inches	4.5 inches	0.75 x 4.5 x 7.25 inches	240	"_Adult Fiction, From:CarolynBenson, To:AliciaDarilek, Country:China, 2016"	"NoLongerAvailable, 2016 Stats"	[0842364412]	"0842364412, 9780842364416"		amazon.com books	[2016-11-19]	662753
136211826	Marcia Schuyler	"Hill, Grace Livingston"	Author			"CreateSpace Independent Publishing Platform (2015), 206 pages"	2015	Paperback	206 p.; 6 inches		6 inches	9 inches	0.47 inches	6 x 0.47 x 9 inches	206	"_Adult Fiction, From:CarolynBenson, To:AliciaDarilek, Country:China, 2016"	"NoLongerAvailable, 2016 Stats"	[1522734678]	"1522734678, 9781522734673"		amazon.com books	[2016-11-19]	1073361
136211831	The Tryst (Grace Livingston Hill #40)	"Hill, Grace Livingston"	Author			"Living Books (1997), Edition: No Edition Given"	1997	Paperback	6.95 inches	0.52 pounds	6.95 inches	1.1 inches	4.18 inches	6.95 x 4.18 x 1.1 inches		"_Adult Fiction, From:CarolynBenson, To:AliciaDarilek, Country:China, 2016"	"NoLongerAvailable, 2016 Stats"	[0842373403]	"0842373403, 9780842373401"		amazon.com books	[2016-11-19]	324298
136211834	Where Two Ways Met (Grace Livingston Hill #01)	"Hill, Grace Livingston"	Author			"Living Books (1996), 250 pages"	1996	Paperback	250 p.; 4.25 x 0.75 inches	0.35 pounds	0.75 inches	7.25 inches	4.25 inches	0.75 x 4.25 x 7.25 inches	250	"_Adult Fiction, From:CarolynBenson, To:AliciaDarilek, Country:China, 2016"	"NoLongerAvailable, 2016 Stats"	[0842382038]	"0842382038, 9780842382038"		amazon.com books	[2016-11-19]	589456
136211843	In the Way	"Hill, Grace Livingston"	Author			"CreateSpace Independent Publishing Platform (2013), 256 pages"	2013	Paperback	256 p.; 5.25 inches		5.25 inches	8 inches	0.64 inches	5.25 x 0.64 x 8 inches	256	"_Adult Fiction, From:CarolynBenson, To:AliciaDarilek, Country:China, 2016"	"NoLongerAvailable, 2016 Stats"	[1484813006]	"1484813006, 9781484813003"		amazon.com books	[2016-11-19]	1055397
136211848	Kerry	"Hill, Grace Livingston"	Author			Tyndale House Pub (1996)	1996	Cassette Audiobook 	4.75 x 0.75 inches	0.2 pounds	0.75 inches	7.25 inches	4.75 inches	0.75 x 4.75 x 7.25 inches		"_Adult Fiction, From:CarolynBenson, To:AliciaDarilek, Country:China, 2016"	"NoLongerAvailable, 2016 Stats"	[084237101X]	"084237101X, 9780842371018"		amazon.com books	[2016-11-19]	568699
136211856	Ladybird (Love Endures)	"Hill, Grace Livingston"	Author			"Barbour Publishing, Inc. (2013), Edition: Reprint, 256 pages"	2013	Paperback	256 p.; 5.5 x 1 inches	2.18 pounds	1 inch	8 inches	5.5 inches	1 x 5.5 x 8 inches	256	"_Adult Fiction, From:CarolynBenson, To:AliciaDarilek, Country:China, 2016"	"NoLongerAvailable, 2016 Stats"	[1620293919]	"1620293919, 9781620293911"		amazon.com books	[2016-11-19]	589374
136211862	Maris (Grace Livingston Hill #17)	"Hill, Grace Livingston"	Author			"Living Books (1995), 292 pages"	1995	Paperback	292 p.; 4.25 x 1 inches	0.3 pounds	1 inch	7.25 inches	4.25 inches	1 x 4.25 x 7.25 inches	292	"_Adult Fiction, From:CarolynBenson, To:AliciaDarilek, Country:China, 2016"	"NoLongerAvailable, 2016 Stats"	[0842340424]	"0842340424, 9780842340427"		amazon.com books	[2016-11-19]	589380
136211865	The Gold Shoe	"Hill, Grace Livingston"	Author			"Thorndike Press (1999), 362 pages"	1999	Hardcover	362 p.; 8.75 inches		8.75 inches	1.22 inches	5.74 inches	8.75 x 5.74 x 1.22 inches	362	"_Adult Fiction, From:CarolynBenson, To:AliciaDarilek, Country:China, 2016"	"NoLongerAvailable, 2016 Stats"	[0786221976]	"0786221976, 9780786221974"		amazon.com books	[2016-11-19]	148562
136211870	"Lo, Michael!"	"Hill, Grace Livingston"	Author			"CreateSpace Independent Publishing Platform (2015), 204 pages"	2015	Paperback	204 p.; 6 inches		6 inches	9 inches	0.46 inches	6 x 0.46 x 9 inches	204	"_Adult Fiction, From:CarolynBenson, To:AliciaDarilek, Country:China, 2016"	"NoLongerAvailable, 2016 Stats"	[1522728953]	"1522728953, 9781522728955"		amazon.com books	[2016-11-19]	5825869
136211874	The Search	"Hill, Grace Livingston"	Author			"CreateSpace Independent Publishing Platform (2016), 120 pages"	2016	Paperback	120 p.; 6 inches	0.38 pounds	6 inches	9 inches	0.28 inches	6 x 0.28 x 9 inches	120	"_Adult Fiction, From:CarolynBenson, To:AliciaDarilek, Country:China, 2016"	"NoLongerAvailable, 2016 Stats"	[1530838851]	"1530838851, 9781530838851"		amazon.com books	[2016-11-19]	589434
136211876	Rose Galbraith (Grace Livingston Hill Series)	"Hill, Grace Livingston"	Author			Living Books (1991)	1991	Paperback	4.25 x 0.75 inches	0.2 pounds	0.75 inches	7 inches	4.25 inches	0.75 x 4.25 x 7 inches		"_Adult Fiction, From:CarolynBenson, To:AliciaDarilek, Country:China, 2016"	"NoLongerAvailable, 2016 Stats"	[0842357262]	"0842357262, 9780842357265"		amazon.com books	[2016-11-19]	589399
136211881	Mary Arden (Grace Livingston Hill Series)	"Hill, Grace Livingston"	Author			Tyndale House Pub (1994)	1994	Paperback	4.25 x 0.75 inches	0.3 pounds	0.75 inches	7 inches	4.25 inches	0.75 x 4.25 x 7 inches		"_Adult Fiction, From:CarolynBenson, To:AliciaDarilek, Country:China, 2016"	"NoLongerAvailable, 2016 Stats"	[0842338837]	"0842338837, 9780842338837"		amazon.com books	[2016-11-19]	2221287
136211884	Blue Ruin (Grace Livingston Hill #41)	"Hill, Grace Livingston"	Author			"Living Books (1996), 323 pages"	1996	Paperback	323 p.; 4 x 0.5 inches	0.2 pounds	0.5 inches	6 inches	4 inches	0.5 x 4 x 6 inches	323	"_Adult Fiction, From:CarolynBenson, To:AliciaDarilek, Country:China, 2016"	"NoLongerAvailable, 2016 Stats"	[0842303499]	"0842303499, 9780842303491"		amazon.com books	[2016-11-19]	973804
136211889	The Prodigal Girl (Grace Livingston Hill #56)	"Hill, Grace Livingston"	Author			"Living Books (1996), 344 pages"	1996	Paperback	344 p.; 4.25 x 1 inches		1 inch	7 inches	4.25 inches	1 x 4.25 x 7 inches	344	"_Adult Fiction, From:CarolynBenson, To:AliciaDarilek, Country:China, 2016"	"NoLongerAvailable, 2016 Stats"	[084235039X]	"084235039X, 9780842350396"		amazon.com books	[2016-11-19]	1062062
136211899	The Prodigal Girl (Grace Livingston Hill #56)	"Hill, Grace Livingston"	Author			"Living Books (1996), 344 pages"	1996	Paperback	344 p.; 4.25 x 1 inches		1 inch	7 inches	4.25 inches	1 x 4.25 x 7 inches	344	"_Adult Fiction, From:CarolynBenson, To:AliciaDarilek, Country:China, 2016"	"NoLongerAvailable, 2016 Stats"	[084235039X]	"084235039X, 9780842350396"		amazon.com books	[2016-11-19]	1062062
136211921	Anthony and Cleoptra	"Shakespeare, William"	Author	"Wright, Louis B.|LaMar, Virginia A."	Editor|Editor	"Washington Square Press/Pocket Books (1974), 143 pages"	1974	Paperback							143	"_Adult Fiction, From:CarolynBenson, To:AliciaDarilek, Country:China, 2016"	"NoLongerAvailable, 2016 Stats"	[0671479229]	"0671479229, 9780671479220"		amazon.com books	[2016-11-19]	11728
136236199	Crimson Mountain	"Hill, Grace Livingston"	Author			"Grosset & Dunlap Publishers (1942), Edition: Reprint"	1942	Hardcover	7.5 inches	0.85 pounds	7.5 inches	1 inch	5.4 inches	7.5 x 5.4 x 1 inches		"_Adult Fiction, From:CarolynBenson, To:AliciaDarilek, Country:China, 2016"	"NoLongerAvailable, 2016 Stats"	[]			amazon.com books	[2016-11-20]	1492554
136236210	An Unwilling Guest	"Hill, Grace Livingston"	Author			"CreateSpace Independent Publishing Platform (2013), 208 pages"	2013	Paperback	208 p.; 6 inches		6 inches	9 inches	0.52 inches	6 x 0.52 x 9 inches	208	"_Adult Fiction, From:CarolynBenson, To:AliciaDarilek, Country:China, 2016"	"NoLongerAvailable, 2016 Stats"	[1490909559]	"1490909559, 9781490909554"		amazon.com books	[2016-11-20]	712553
136236217	Maritgold	"Hill, Grace Livingston"	Author			"GTrosset & Denlap, Inc (1990), 300 pages"	1990	Hardcover	300 p.; 8.3 inches	1 pound	8.3 inches	1.1 inches	6 inches	8.3 x 6 x 1.1 inches	300	"_Adult Fiction, From:CarolynBenson, To:AliciaDarilek, Country:China, 2016"	"NoLongerAvailable, 2016 Stats"	[]			amazon.com books	[2016-11-20]	589379
136236231	Miss Lavinia's Call (Grace Livingston Hill)	"Hill, Grace Livingston"	Author			"Tyndale House Pub (1991), 264 pages"	1991	Paperback	264 p.; 4.25 x 0.75 inches		0.75 inches	7.25 inches	4.25 inches	0.75 x 4.25 x 7.25 inches	264	"_Adult Fiction, From:CarolynBenson, To:AliciaDarilek, Country:China, 2016"	"NoLongerAvailable, 2016 Stats"	[0842343601]	"0842343601, 9780842343602"		amazon.com books	[2016-11-20]	1492591
136236322	The Maiden's Bequest (MacDonalds / Phillips Series)	"MacDonald, George"	Author	"Phillips, Michael|Phillips, Michael R."	Editor|Photographer	"Bethany House Publishers (1985), 288 pages"	1985	Paperback	288 p.; 7.95 inches		7.95 inches	0.82 inches	5.27 inches	7.95 x 5.27 x 0.82 inches	288	"_Adult Fiction, From:CarolynBenson, To:KristaHetzel, Country:Peru, 2017"	"NoLongerAvailable, 2017 Stats"	[0871238233]	"0871238233, 9780871238238"		amazon.com books	[2016-11-20]	91400
136236338	The Minister's Restoration (MacDonald / Phillips series)	"MacDonald, George"	Author			"Bethany House Pub (1988), 207 pages"	1988	Paperback	207 p.; 5.25 x 0.5 inches		0.5 inches	8 inches	5.25 inches	0.5 x 5.25 x 8 inches	207	"_Adult Fiction, From:CarolynBenson, To:KristaHetzel, Country:Peru, 2017"	"NoLongerAvailable, 2017 Stats"	[0871239051]	"0871239051, 9780871239051"		amazon.com books	[2016-11-20]	494232
136236343	The Highlander's Last Song (MacDonald / Phillips series)	"MacDonald, George"	Author			"Bethany House Pub (1986), 271 pages"	1986	Paperback	271 p.; 5.25 x 0.75 inches	1 pounds	0.75 inches	8 inches	5.25 inches	0.75 x 5.25 x 8 inches	271	"_Adult Fiction, From:CarolynBenson, To:KristaHetzel, Country:Peru, 2017"	"NoLongerAvailable, 2017 Stats"	[0871236583]	"0871236583, 9780871236586"		amazon.com books	[2016-11-20]	10994371
136236349	The Tutor's First Love	"MacDonald, George"	Author	"Phillips, Michael R."	Editor	"Bethany House Pub (1984), 238 pages"	1984	Paperback	238 p.; 5.5 x 0.75 inches	0.35 pounds	0.75 inches	8.25 inches	5.5 inches	0.75 x 5.5 x 8.25 inches	238	"_Adult Fiction, From:CarolynBenson, 2017_inventory, 2018inv"	BookEnds	[087123596X]	"087123596X, 9780871235961"		amazon.com books	[2016-11-20]	543647
136236355	The Shepherd's Castle (MacDonald / Phillips series)	"MacDonald, George"	Author			"Bethany House Pub (1983), 281 pages"	1983	Paperback	281 p.; 5.5 x 0.75 inches	0.25 pounds	0.75 inches	8 inches	5.5 inches	0.75 x 5.5 x 8 inches	281	"_Adult Fiction, From:CarolynBenson, 2017_inventory, 2018inv"	BookEnds	[087123579X]	"087123579X, 9780871235794"		amazon.com books	[2016-11-20]	11003334
136236357	The Musician's Quest (MacDonald / Phillips series)	"MacDonald, George"	Author	"Phillips, Michael R."	Editor	"Bethany House Pub (1984), Edition: Rev Sub, 264 pages"	1984	Paperback	264 p.; 5.25 x 0.75 inches	0.45 pounds	0.75 inches	8 inches	5.25 inches	0.75 x 5.25 x 8 inches	264	"_Adult Fiction, From:CarolynBenson, To:KristaHetzel, Country:Peru, 2017"	"NoLongerAvailable, 2017 Stats"	[0871234440]	"0871234440, 9780871234445"		amazon.com books	[2016-11-20]	494237
136236441	The Lord God Made Them All	"Herriot, James"	Author			"St. Martin's Press (1981), Edition: 1st, 373 pages"	1981	Hardcover	373 p.; 8.5 inches		8.5 inches	1.4 inches	5.84 inches	8.5 x 5.84 x 1.4 inches	373	"_Adult Fiction, From:CarolynBenson, To:KristaWeaver, Country:China, 2017"	"NoLongerAvailable, 2017 Stats"	[0176015000]	"0176015000, 9780176015008"		amazon.com books	[2016-11-20]	19093
136236450	All Things Bright and Beautiful	"Herriot, James"	Author			"St. Martin's Press (1974), Edition: 1st, 378 pages"	1974	Hardcover	384 p.; 5.87 inches	1.2 pounds	5.87 inches	7.88 inches	1.31 inches	5.87 x 1.31 x 7.88 inches	384	"_Adult Fiction, From:CarolynBenson, To:KristaWeaver, Country:China, 2017"	"NoLongerAvailable, 2017 Stats"	[0312020309]	"0312020309, 9780312020309"		amazon.com books	[2016-11-20]	26992
136236458	The Indomitable Hornblower	"Forester, C. S."	Author			"Little Brown and Company (1964), Edition: Book Club Edition, 640 pages"	1964	Hardcover	640 p.; 9.13 inches	1.58 pounds	9.13 inches	1.11 inches	6.57 inches	9.13 x 6.57 x 1.11 inches	640	"From:CarolynBenson, _Adult Classics, 2017_inventory, To:JoeGadbaugh, Country:USA, 2018"	"NoLongerAvailable, 2018 Stats"	[]			amazon.com books	[2016-11-20]	43396
136236526	Ben-Hur: A Tale of the Christ	"Wallace, Lew"	Author	Photographs	Illustrator	"Grosset & Dunlap (1922), Edition: Possible First"	1922	Hardcover								"_Adult Classics, From:CarolynBenson, To:LauraLove, Country:China, 2017"	"NoLongerAvailable, 2017 Stats"	[]			amazon.com books	[2016-11-20]	3152
136236580	The Vicar of Wakefield	"Goldsmith, Oliver"	Author			"New American Library (1961), Edition: Durabind, 192 pages"	1961	Hardcover							192	"_Adult Classics, From:CarolynBenson, 2017_inventory, 2018inv"	BookEnds	[]			amazon.com books	[2016-11-20]	68751
136236617	"Tragedy of Othello, The: The Moor of Venice"	"Shakespeare, William"	Author			Airmont (1966)	1966	Paperback								"_Adult Classics, From:CarolynBenson, 2017_inventory, 2018inv"	BookEnds	[]			amazon.com books	[2016-11-20]	10264
136236634	The Tragedy of MacBeth	"Shakespeare, William"	Author			"Airmont Publishing Company, Inc. (1965), Edition: 1st Airmont Edition, 120 pages"	1965	Paperback	120 p.; 7.8 inches	1.02 pounds	7.8 inches	1 inch	5.12 inches	7.8 x 5.12 x 1 inches	120	"_Adult Classics, From:CarolynBenson, 2017_inventory, 2018inv"	BookEnds	[]			amazon.com books	[2016-11-20]	4948864
136236646	Les Miserables	"Hugo, Victor; Adapted By Frisius, Agnes Augusta and Cooper, Alice Cecilia"	Author			"New York: Globe Book Company, 1969 (1969)"	1969	Hardcover		2.25 pounds						"_Adult Classics, From:CarolynBenson, 2017_inventory, To:JoeGadbaugh, Country:USA, 2018"	"NoLongerAvailable, 2018 Stats"	[]			amazon.com books	[2016-11-20]	19485
136236672	SENSE AND SENSIBILITY	"Austen, Jane"	Author			George W. Jacobs & Co. c. 1920 (1920)	1920	Hardcover								"_Adult Classics, From:CarolynBenson, 2017_inventory, To:JoeGadbaugh, Country:USA, 2018"	"NoLongerAvailable, 2018 Stats"	[]			amazon.com books	[2016-11-20]	2228
136236678	Pride And Prejudice (Greenwich House Classics Library)	"Austen, Jane"	Author	"Tanner, Tony|Thomson, Hugh"	Introduction|Illustrator	"Crown (1988), 399 pages"	1982	Hardcover	399 p.; 8.1 inches	1.25 pounds	8.1 inches	1.1 inches	5.5 inches	8.1 x 5.5 x 1.1 inches	399	"_Adult Classics, From:CarolynBenson, 2017_inventory, To:JoeGadbaugh, Country:USA, 2018"	"NoLongerAvailable, 2018 Stats"	[0517385899]	"0517385899, 9780517385890"		amazon.com books	[2016-11-20]	2773690
