93141954	Felicity Learns A Lesson (American Girl (Quality))	"Tripp, Valerie"				"American Girl (1991), Edition: 1st, Paperback, 88 pages"	1991	Paperback	88 p.; 8.48 inches	0.45 pounds	8.48 inches	0.23 inches	6.11 inches	8.48 x 6.11 x 0.23 inches	88	"From:CourtneyKuntz, To:ShannonPanjwani, Country:India, 2014"	"NoLongerAvailable, 2014 Stats"	[1562470078]	"1562470078, 9781562470074"		amazon.com	[2013-01-13]	95034
93141957	"Happy birthday, Felicity!: A springtime story (American girls collection)"	"Tripp, Valerie"				"Pleasant Co (1992), Edition: 1st, Paperback, 69 pages"	1992	Paperback	69 p.; 5.5 inches	46 pounds	5.5 inches	0.04 inches	2.2 inches	5.5 x 2.2 x 0.04 inches	69	"_American Girl, From:CourtneyKuntz, To:VictoriaRice, Country:China, 2013"	"NoLongerAvailable, 2013 Stats"	[0590470787]	"0590470787, 9780590470780"		amazon.com	[2013-01-13]	95185
93141960	Felicity Saves the Day	"Andreasen, Valerie Tripp; Illustrator-Dan"				"Scholastic (1993), Paperback"	1993	Paperback	8.4 inches	0.4 pounds	8.4 inches	0.2 inches	5.9 inches	8.4 x 5.9 x 0.2 inches		"From:CourtneyKuntz, _American Girl, To:ShannonPanjwani, Country:India, 2014"	"NoLongerAvailable, 2014 Stats"	[0590471279]	"0590471279, 9780590471275"		amazon.com	[2013-01-13]	365919
93141963	Meet Kirsten (American Girls Collection)	"Shaw, Janet"		"Graef, Renée"	Illustrator	"American Girl (1988), Paperback, 80 pages"	1988	Paperback	80 p.; 8.44 inches	0.43 pounds	8.44 inches	0.24 inches	6.14 inches	8.44 x 6.14 x 0.24 inches	80	"From:CourtneyKuntz, _American Girl, 2017_inventory, To:TiffanyGallant, Country:Cambodia, 2018"	"NoLongerAvailable, 2018 Stats"	[0937295019]	"0937295019, 9780937295014"		amazon.com	[2013-01-13]	67040
93141964	Kirsten Learns a Lesson (American Girl (Quality))	"Shaw, Janet"				"American Girl (1988), Paperback, 88 pages"	1988	Paperback	88 p.; 8.4 inches	0.46 pounds	8.4 inches	0.2 inches	6.1 inches	8.4 x 6.1 x 0.2 inches	88	"_American Girl, From:CourtneyKuntz, To:VictoriaRice, 2013, Country:China"	"NoLongerAvailable, 2013 Stats"	[0937295108]	"0937295108, 9780937295106"		amazon.com	[2013-01-13]	404177
93141965	"Happy Birthday, Kirsten! (American Girls Collection)"	"Shaw, Janet"				"American Girl (1988), Paperback, 72 pages"	1988	Paperback	72 p.; 8.58 inches	0.43 pounds	8.58 inches	0.26 inches	5.38 inches	8.58 x 5.38 x 0.26 inches	72	"From:CourtneyKuntz, _American Girl, To:VictoriaRice, Country:China, 2014"	"NoLongerAvailable, 2014 Stats"	[0937295337]	"0937295337, 9780937295335"		amazon.com	[2013-01-13]	38889
93141967	Kirsten Saves the Day (American Girls Collection)	"Shaw, Janet"				"American Girl (1988), Paperback, 88 pages"	1988	Paperback	88 p.; 8.58 inches	0.47 pounds	8.58 inches	0.28 inches	6.08 inches	8.58 x 6.08 x 0.28 inches	88	"From:CourtneyKuntz, _American Girl, To:AmySeidlitz, Country:Malaysia, 2015"	"NoLongerAvailable, 2015 Stats"	[0937295396]	"0937295396, 9780937295397"		amazon.com	[2013-01-13]	95352
93141968	Changes for Kirsten: A winter story (The American girls collection)	"Shaw, Janet Beeler"				"Scholastic, Inc (1992), Paperback, 64 pages"	1992	Paperback	64 p.	0.15 pounds				8.5 x 6.1 x 0.4 inches	64	"From:CourtneyKuntz, _American Girl, To:SandraKleinert, Country:China, 2015"	"NoLongerAvailable, 2015 Stats"	[0590450840]	"0590450840, 9780590450843"		amazon.com	[2013-01-13]	444867
93141969	Meet Samantha (American Girls Collection)	"Adler, Susan"		"Andreasen, Dan|Thieme, Jeanne"	Illustrator|Editor	"American Girl (1988), Paperback, 80 pages"	1988	Paperback	80 p.; 8.6 inches	0.4 pounds	8.6 inches	0.21 inches	6.32 inches	8.6 x 6.32 x 0.21 inches	80	"From:CourtneyKuntz, _American Girl, To:AmyGerst, Country:Ethiopia, 2014"	"NoLongerAvailable, 2014 Stats"	[0937295043]	"0937295043, 9780937295045"		amazon.com	[2013-01-13]	54515
93141970	Samantha Learns a Lesson (American Girl (Quality))	"Adler, Susan"				"American Girl (1988), Edition: First Edition, Paperback, 80 pages"	1988	Paperback	80 p.; 8.64 inches	0.42 pounds	8.64 inches	0.26 inches	5.26 inches	8.64 x 5.26 x 0.26 inches	80	"From:CourtneyKuntz, _American Girl, To:AlyciaDarilek, Country:China, 2015"	"NoLongerAvailable, 2015 Stats"	[0937295132]	"0937295132, 9780937295137"		amazon.com	[2013-01-13]	67196
93141971	"Happy Birthday, Samantha! (American Girl (Quality))"	"Tripp, Valerie"				"American Girl (1988), Edition: First Edition, Paperback, 80 pages"	1988	Paperback	80 p.; 8.49 inches	0.42 pounds	8.49 inches	0.23 inches	6.16 inches	8.49 x 6.16 x 0.23 inches	80	"From:CourtneyKuntz, _American Girl, To:AlyciaDarilek, Country:China, 2015"	"NoLongerAvailable, 2015 Stats"	[0937295353]	"0937295353, 9780937295359"		amazon.com	[2013-01-13]	66799
93141973	Samantha Saves the Day (American Girls Collection)	"Tripp, Valerie"				"American Girl (1988), Edition: First Edition, Paperback, 88 pages"	1988	Paperback	65 p.; 8.46 inches	0.46 pounds	8.46 inches	0.26 inches	6.14 inches	8.46 x 6.14 x 0.26 inches	65	"From:CourtneyKuntz, _American Girl, To:AmyGerst, Country:Ethiopia, 2014"	"NoLongerAvailable, 2014 Stats"	[0937295418]	"0937295418, 9780937295410"		amazon.com	[2013-01-13]	67197
93141974	Changes for Samantha: A winter story (The American girls collection)	"Tripp, Valerie"				"Scholastic Inc (1992), Paperback, 66 pages"	1992	Paperback	66 p.; 8.3 inches	0.35 pounds	8.3 inches	0.1 inches	5.9 inches	8.3 x 5.9 x 0.1 inches	66	"From:CourtneyKuntz, _American Girl, To:BrandiBates, 2014, Country:Romania"	"NoLongerAvailable, 2014 Stats"	[0590450824]	"0590450824, 9780590450829"		amazon.com	[2013-01-13]	66612
93141975	"Meet Molly, An American Girl: 1944 - Book One (American Girls Collection)"	"Tripp, Valerie"		"Backes, Nick"	Illustrator	"American Girl (1988), Paperback, 80 pages"	1988	Paperback	80 p.; 8.48 inches	0.41 pounds	8.48 inches	0.21 inches	6.4 inches	8.48 x 6.4 x 0.21 inches	80	"From:CourtneyKuntz, _American Girl, To:MissiMarsden, Country:China, 2014"	"NoLongerAvailable, 2014 Stats"	[0937295078]	"0937295078, 9780937295076"		amazon.com	[2013-01-13]	166765
93141976	Molly Learns a Lesson (American Girls Collection)	"Tripp, Valerie"				"American Girl (1988), Edition: Edition Unstated, Paperback, 88 pages"	1988	Paperback	88 p.; 8.46 inches	0.46 pounds	8.46 inches	0.23 inches	6 inches	8.46 x 6 x 0.23 inches	88	"From:CourtneyKuntz, _American Girl, To:MissiMarsden, Country:China, 2014"	"NoLongerAvailable, 2014 Stats"	[0937295167]	"0937295167, 9780937295168"		amazon.com	[2013-01-13]	166780
93141977	"Molly's Surprise: A Christmas Story, Book Three (The American Girls Collection)"	"Tripp, Valerie"		"Payne, C. F."	Illustrator	"American Girl (1988), Paperback, 88 pages"	1988	Paperback	88 p.; 8.44 inches	0.46 pounds	8.44 inches	0.23 inches	6.36 inches	8.44 x 6.36 x 0.23 inches	88	"From:CourtneyKuntz, _American Girl, To:MissiMarsden, Country:China, 2014"	"NoLongerAvailable, 2014 Stats"	[0937295256]	"0937295256, 9780937295250"		amazon.com	[2013-01-13]	303935
93141978	"Happy Birthday, Molly! (American Girls Collection)"	"Tripp, Valerie"				"American Girl (1988), Paperback, 88 pages"	1988	Paperback	88 p.; 7.46 inches	0.47 pounds	7.46 inches	0.3 inches	4.72 inches	7.46 x 4.72 x 0.3 inches	88	"From:CourtneyKuntz, _American Girl, To:MissiMarsden, Country:China, 2014"	"NoLongerAvailable, 2014 Stats"	[093729537X]	"093729537X, 9780937295373"		amazon.com	[2013-01-13]	365928
93141980	Molly Saves the Day A Summer Story (The American Girls Book Five)	"Tripp, Valerie"				"Scholastic, Incorporated (1992), Paperback, 69 pages"	1992	Paperback	69 p.	0.35 pounds				8.3 x 5.9 x 0.2 inches	69	"From:CourtneyKuntz, _American Girl, To:MissiMarsden, Country:China, 2014"	"NoLongerAvailable, 2014 Stats"	[0590450808]	"0590450808, 9780590450805"		amazon.com	[2013-01-13]	365977
93141982	Changes for Molly (American Girl (Quality))	"Tripp, Valerie"				"American Girl (1988), Paperback, 80 pages"	1988	Paperback	80 p.; 8.48 inches	0.42 pounds	8.48 inches	0.22 inches	6.08 inches	8.48 x 6.08 x 0.22 inches	80	"From:CourtneyKuntz, _American Girl, To:MissiMarsden, Country:China, 2014"	"NoLongerAvailable, 2014 Stats"	[0937295493]	"0937295493, 9780937295496"		amazon.com	[2013-01-13]	372671
93141984	Meet Addy: An American Girl (The American Girls Collection Book 1)	"Porter, Connie"		"Taylor, Dahl"	Illustrator	"Pleasant Company (1993), Paperback, 88 pages"	1993	Paperback	88 p.; 8.52 inches	0.46 pounds	8.52 inches	0.25 inches	6.18 inches	8.52 x 6.18 x 0.25 inches	88	"From:CourtneyKuntz, _American Girl, To:RebeccaFruechting, Country:Ethiopia, 2014"	"NoLongerAvailable, 2014 Stats"	[1562470752]	"1562470752, 9781562470753"		amazon.com	[2013-01-13]	166763
93141985	Addy Learns A Lesson (American Girl (Quality))	"Porter, Connie"		"Taylor, Dahl"	Illustrator	"Pleasant Company (1993), Paperback, 88 pages"	1993	Paperback	88 p.; 8.62 inches	0.44 pounds	8.62 inches	0.23 inches	6.08 inches	8.62 x 6.08 x 0.23 inches	88	"From:CourtneyKuntz, _American Girl, To:RebeccaFruechting, Country:Ethiopia, 2014"	"NoLongerAvailable, 2014 Stats"	[1562470779]	"1562470779, 9781562470777"		amazon.com	[2013-01-13]	166065
93141986	Addy's Surprise (American Girl (Quality))	"Porter, Connie"		"Taylor, Dahl"	Illustrator	"Pleasant Company (1993), Edition: First Edition, Paperback, 88 pages"	1993	Paperback	88 p.; 8.58 inches	0.44 pounds	8.58 inches	0.24 inches	6.18 inches	8.58 x 6.18 x 0.24 inches	88	"From:CourtneyKuntz, _American Girl, To:KatrinaShedd, Country:China, 2014"	"NoLongerAvailable, 2014 Stats"	[1562470795]	"1562470795, 9781562470791"		amazon.com	[2013-01-13]	365883
93141987	"Meet Felicity (The American Girls Collection, Book 1)"	"Tripp, Valerie"		"Andreasen, Dan"	Illustrator	"American Girl (1991), Edition: 1st, Paperback, 88 pages"	1991	Paperback	88 p.; 8.46 inches	0.47 pounds	8.46 inches	0.24 inches	6.2 inches	8.46 x 6.2 x 0.24 inches	88	"_American Girl, From:CourtneyKuntz, To:ShannonPanjwani, Country:India, 2014"	"NoLongerAvailable, 2014 Stats"	[1562470043]	"1562470043, 9781562470043"		amazon.com	[2013-01-13]	67038
93141994	The Berenstain Bears and the Substitute Teacher	"Berenstain, Stan"		"Berenstain, Jan"		"GT Publishing (1996), Paperback"	1996	Paperback	6.8 inches	0.2 pounds	6.8 inches	0.2 inches	6.8 inches	6.8 x 6.8 x 0.2 inches		"From:CourtneyKuntz, _Picture Books, To:DierdreDollar, Country:Mozambique, 2015"	"NoLongerAvailable, 2015 Stats"	[]			amazon.com	[2013-01-13]	668594
93141995	The Berenstain Bears and Too Much Vacation (Berenstain Bears First Time Books (Prebound))	"Berenstain, Stan"		"Berenstain, Jan"		"Perfection Learning (1989), Hardcover, 30 pages"	1989	Paperback	30 p.; 8.1 x 8 inches	0.5 pounds	8 inches	0.4 inches	8.1 inches	8 x 8.1 x 0.4 inches	30	"From:CourtneyKuntz, _Picture Books, To:ShannonPanjwani, Country:India, 2014, From:JillBaker"	"NoLongerAvailable, 2014 Stats"	[0812474252]	"0812474252, 9780812474251"		amazon.com	[2013-01-13]	345486
93141996	The Berenstain Bears and the Truth	"Berenstain, Stan"		"Berenstain, Jan"		"Random House Books for Young Readers (1983), Edition: First Edition, Paperback, 32 pages"	1983	Paperback	32 p.; 7.99 inches	0.18 pounds	7.99 inches	7.99 inches	0.12 inches	7.99 x 0.12 x 7.99 inches	32	"_Picture Books, From:CourtneyKuntz, To:IVTC, Country:USA, 2013"	"NoLongerAvailable, 2013 Stats"	[0394816404]	"0394816404, 9780394816401"		amazon.com	[2013-01-13]	167124
93141997	The Berenstain Bears and the Messy Room	"Berenstain, Stan"		"Berenstain, Jan"		"Random House Books for Young Readers (1983), Paperback, 32 pages"	1983	Paperback	32 p.; 7.99 inches	0.18 pounds	7.99 inches	7.99 inches	0.2 inches	7.99 x 0.2 x 7.99 inches	32	"From:CourtneyKuntz, _Picture Books, To:AnishaHopkinson, Country:Papua Ind, 2014"	"NoLongerAvailable, 2014 Stats"	[0394866533]	"0394866533, 9780394866536"		amazon.com	[2013-01-13]	252453
93142000	The Berenstain Bears Go to School (First Time Books(R))	"Berenstain, Stan"		"Berenstain, Jan"		"Random House Books for Young Readers (1978), Paperback, 32 pages"	1978	Paperback	32 p.; 7.99 inches	0.18 pounds	7.99 inches	7.99 inches	0.12 inches	7.99 x 0.12 x 7.99 inches	32	"From:CourtneyKuntz, _Picture Books, +reserve DierdreDollar, Country:Mozambique"	Missing	[0394837363]	"0394837363, 9780394837369"		amazon.com	[2013-01-13]	55676
93142004	The Berenstain Bears Get the Gimmies	"Berenstain, Stan"		"Berenstain, Jan"		"Random House Books for Young Readers (1988), Paperback, 32 pages"	1988	Paperback	32 p.; 7.99 inches	0.19 pounds	7.99 inches	7.99 inches	0.2 inches	7.99 x 0.2 x 7.99 inches	32	"From:CourtneyKuntz, _Picture Books, To:AnishaHopkinson, 2014, Country:Papua Ind"	"NoLongerAvailable, 2014 Stats"	[0394805666]	"0394805666, 9780394805665"		amazon.com	[2013-01-13]	272299
93142009	The Berenstain Bears' Trouble with Money	"Berenstain, Stan"		"Berenstain, Jan"		"Random House Books for Young Readers (1983), Paperback, 32 pages"	1983	Paperback	32 p.; 7.99 inches	0.18 pounds	7.99 inches	7.99 inches	0.16 inches	7.99 x 0.16 x 7.99 inches	32	"_Picture Books, From:CourtneyKuntz, To:IVTC, Country:USA, 2013"	"NoLongerAvailable, 2013 Stats"	[0394859170]	"0394859170, 9780394859170"		amazon.com	[2013-01-13]	167137
93142012	The Berenstain Bears and the Trouble With Friends	"Berenstain, Stan"		"Berenstain, Jan"		"Random House Books for Young Readers (1987), Edition: Reprint, Paperback, 32 pages"	1987	Paperback	32 p.; 7.99 inches	0.18 pounds	7.99 inches	7.99 inches	0.16 inches	7.99 x 0.16 x 7.99 inches	32	"_Picture Books, From:CourtneyKuntz, To:IVTC, Country:USA, 2013"	"NoLongerAvailable, 2013 Stats"	[0394873394]	"0394873394, 9780394873398"		amazon.com	[2013-01-13]	55675
93142015	The Berenstain Bears and Too Much Junk Food	"Berenstain, Stan"		"Berenstain, Jan"		"Random House Books for Young Readers (1985), Paperback, 32 pages"	1985	Paperback	32 p.; 7.99 inches	0.18 pounds	7.99 inches	7.99 inches	0.2 inches	7.99 x 0.2 x 7.99 inches	32	"_Picture Books, From:CourtneyKuntz, To:IVTC, Country:USA, 2013"	"NoLongerAvailable, 2013 Stats"	[0394872177]	"0394872177, 9780394872179"		amazon.com	[2013-01-13]	272298
93142017	The Berenstain Bears Trick or Treat	"Berenstain, Stan"		"Berenstain, Jan"		"Random House Books for Young Readers (1989), Paperback, 32 pages"	1989	Paperback	32 p.; 7.99 inches	0.18 pounds	7.99 inches	7.99 inches	0.16 inches	7.99 x 0.16 x 7.99 inches	32	"From:CourtneyKuntz, _Picture Books, To:DierdreDollar, Country:Mozambique, 2015"	"NoLongerAvailable, 2015 Stats"	[0679800913]	"0679800913, 9780679800910"		amazon.com	[2013-01-13]	491541
93142019	The Berenstain Bears Go Out for the Team	"Berenstain, Stan"		"Berenstain, Jan"		"Random House Books for Young Readers (1987), Edition: Book Club ed, Paperback, 32 pages"	1987	Paperback	32 p.; 7.99 inches	0.18 pounds	7.99 inches	7.99 inches	0.16 inches	7.99 x 0.16 x 7.99 inches	32	"From:CourtneyKuntz, _Picture Books, To:AlyciaDarilek, Country:China, 2014"	"NoLongerAvailable, 2014 Stats"	[0394873386]	"0394873386, 9780394873381"		amazon.com	[2013-01-13]	272300
93142021	The Stupids Die	"Jr., Harry G. Allard"		"Marshall, James"	Illustrator	"Sandpiper (1985), Paperback, 32 pages"	1985	Paperback	32 p.; 8.27 inches	0.12 pounds	8.27 inches	10 inches	0.12 inches	8.27 x 0.12 x 10 inches	32	"_Picture Books, From:CourtneyKuntz, To:IVTC, Country:USA, 2013"	"NoLongerAvailable, 2013 Stats"	[0395383641]	"0395383641, 9780395383643"		amazon.com	[2013-01-13]	322234
93142022	The Stupids Have a Ball (Sandpiper)	"Jr., Harry G. Allard"		"Marshall, James"	Illustrator	"Sandpiper (1984), Edition: Reprint, Paperback, 32 pages"	1984	Paperback	32 p.; 8.27 inches	0.15 pounds	8.27 inches	10 inches	0.12 inches	8.27 x 0.12 x 10 inches	32	"_Picture Books, From:CourtneyKuntz, To:IVTC, Country:USA, 2013"	"NoLongerAvailable, 2013 Stats"	[0395361699]	"0395361699, 9780395361696"		amazon.com	[2013-01-13]	440836
93142024	Curious George (TJ 492)	"Rey, H. A."		"Rey, H.A."	Illustrator	"Scholastic Book Services (1966), Edition: Stated Third Printing, Paperback"	1966	Paperback	9 inches	0.25 pounds	9 inches	0.5 inches	7.5 inches	9 x 7.5 x 0.5 inches		"_Picture Books, From:CourtneyKuntz, To:BrandiBates, Country:Romania, 2013"	"NoLongerAvailable, 2013 Stats"	[]			amazon.com	[2013-01-13]	94810
93142025	Curious George Rides a Bike	"Rey, H. A."				"HMH Books (1973), Edition: Reinforced Edition, Hardcover, 48 pages"	1973	Hardcover	48 p.; 10.62 inches	0.96 pounds	10.62 inches	0.48 inches	8.44 inches	10.62 x 8.44 x 0.48 inches	48	"_Picture Books, From:CourtneyKuntz, Country:China, 2013, stats, To:DarcyCoady"	"NoLongerAvailable, 2013 Stats"	[039516964X]	"039516964X, 9780395169643"		amazon.com	[2013-01-14]	166300
93142034	Corduroy	"Freeman, Don"				"Scholastic (1989), Audio Cassette"	1989	Cassette Audiobook 	4.2 inches	0.1 pounds	4.2 inches	0.7 inches	2.7 inches	4.2 x 2.7 x 0.7 inches		"_Picture Books, From:CourtneyKuntz, To:KristiNaizer, Country:Morocco, 2013"	"NoLongerAvailable, 2013 Stats"	[0590600907]	"0590600907, 9780590600903"		amazon.com	[2013-01-14]	94778
93142037	A Pocket for Corduroy	"Freeman, Don"		"Freeman, Don"	Illustrator	"Puffin (1980), Edition: Reissue, Paperback, 32 pages"	1980	Paperback	32 p.; 5.51 inches	0.19 pounds	5.51 inches	8.66 inches	0.12 inches	5.51 x 0.12 x 8.66 inches	32	"_Picture Books, From:CourtneyKuntz, To:AlissaShattenberg, Country:Madagascar, 2013"	"NoLongerAvailable, 2013 Stats"	[0140503528]	"0140503528, 9780140503524"		amazon.com	[2013-01-14]	72874
93142040	Kermit the Hermit	"Peet, Bill"				"Sandpiper (1980), Paperback, 48 pages"	1980	Paperback	48 p.; 8.5 inches	0.77 pounds	8.5 inches	9.76 inches	0.2 inches	8.5 x 0.2 x 9.76 inches	48	"_Picture Books, From:CourtneyKuntz, To:KarenStark, Country:CA, 2013"	"NoLongerAvailable, 2013 Stats"	[0395296072]	"0395296072, 9780395296073"		amazon.com	[2013-01-14]	650199
93142042	"The Pinkish, Purplish, Bluish Egg (Sandpiper Books)"	"Peet, Bill"				"Sandpiper (1984), Edition: Reprint, Paperback, 48 pages"	1984	Paperback	48 p.; 9.77 inches	0.39 pounds	9.77 inches	0.18 inches	8.46 inches	9.77 x 8.46 x 0.18 inches	48	"_Picture Books, From:CourtneyKuntz, To:KarenStark, Country:CA, 2013"	"NoLongerAvailable, 2013 Stats"	[0395361729]	"0395361729, 9780395361726"		amazon.com	[2013-01-14]	654780
93142046	Clifford's Halloween					"Scholastic Inc. (1986), Hardcover"	1986	Hardcover								"_Picture Books, From:CourtneyKuntz, To:KatrinaShedd, Country:China, 2013"	"NoLongerAvailable, 2013 Stats"	[]			amazon.com	[2013-01-14]	303311
93142049	clifford's puppy days	"bridwell, norman"				"Scholastic Books (1989), Paperback"	1989	Paperback	7.7 inches	0.45 pounds	7.7 inches	0.2 inches	0.2 inches	7.7 x 0.2 x 0.2 inches		"_Picture Books, From:CourtneyKuntz, To:IVTC, Country:USA, 2013"	"NoLongerAvailable, 2013 Stats"	[0590421891]	"0590421891, 9780590421898"		amazon.com	[2013-01-14]	159928
93142050	Clifford Goes to Hollywood					"Scholastic, Paperback"	?	Paperback	7.8 inches	0.1 pounds	7.8 inches	0.2 inches	7.8 inches	7.8 x 7.8 x 0.2 inches		"_Picture Books, From:CourtneyKuntz, To:IVTC, Country:USA, 2013"	"NoLongerAvailable, 2013 Stats"	[0590401157]	"0590401157, 9780590401159"		amazon.com	[2013-01-14]	134371
93142051	Clifford's Riddles	"Bridwell, Norman"				"Scholastic (1987), Paperback"	1987	Paperback	8.1 inches	0.25 pounds	8.1 inches	0.5 inches	8.1 inches	8.1 x 8.1 x 0.5 inches		"_Picture Books, From:CourtneyKuntz, To:YapLibrary, Country:Yap, 2013"	"NoLongerAvailable, 2013 Stats"	[059041173X]	"059041173X, 9780590411738"		amazon.com	[2013-01-14]	1386028
93142054	A Baby Sister for Frances	"Hoban, Russell"		"Hoban, Lillian"	Illustrator	"Harper and Row (1964), Edition: First edition., Paperback, 28 pages"	1964	Paperback	28 p.; 9 inches	0.9 pounds	9 inches	0.1 inches	7.7 inches	9 x 7.7 x 0.1 inches	28	"_Picture Books, From:CourtneyKuntz, Country:China, To:TeresaPaix, 2013"	"NoLongerAvailable, 2013 Stats"	[0590318977]	"0590318977, 9780590318976"		amazon.com	[2013-01-14]	131277
93142058	Best Friends for Frances (I Can Read Book 2)	"Hoban, Russell"		"Hoban, Lillian"	Illustrator	"HarperCollins (1976), Edition: NEW ILL, Paperback, 32 pages"	1976	Paperback	32 p.; 10 inches	0.28 pounds	10 inches	0.16 inches	7.8 inches	10 x 7.8 x 0.16 inches	32	"From:CourtneyKuntz, _Picture Books, To:TeresaPaix, Country:China, 2014"	"NoLongerAvailable, 2014 Stats"	[0064430081]	"0064430081, 9780064430081"		amazon.com	[2013-01-14]	162003
93142059	"Happy Birthday, Moon"	"Asch, Frank"				"Scholastic (1982), Paperback"	1982	Paperback		0.15 pounds				8 x 7.6 x 0.1 inches		"From:CourtneyKuntz, _Picture Books, To:StephanieBraun, 2014, Country:Brazil"	"NoLongerAvailable, 2014 Stats"	[0590339656]	"0590339656, 9780590339650"		amazon.com	[2013-01-14]	73066
93142061	Mooncake	"Asch, Frank"				"Scholastic (1987), Paperback, 28 pages"	1987	Paperback	28 p.	0.11 pounds				8 x 7.9 x 0.2 inches	28	"_Picture Books, From:CourtneyKuntz, Country:Czech Republic, To:JessicaBrammer, 2013"	"NoLongerAvailable, 2013 Stats"	[059040623X]	"059040623X, 9780590406239"		amazon.com	[2013-01-14]	73191
93142066	Extraordinary Chester	"Torrence, Susan"		"Wilde, Susie"	Illustrator	"Red Hen Pr (1988), Paperback, 32 pages"	1988	Paperback	32 p.; 10.2 inches	0.45 pounds	10.2 inches	0.3 inches	8.4 inches	10.2 x 8.4 x 0.3 inches	32	"From:CourtneyKuntz, _Picture Books, To:BethDevine, Country:Papua NG, 2017"	"NoLongerAvailable, 2017 Stats"	[0931093082]	"0931093082, 9780931093081"		amazon.com	[2013-01-14]	5871921
93142069	Strega Nona	"Paola, Tomie de"				"Scholastic Inc (1975), Paperback"	1975	Paperback		3.2 pounds				10.6 x 7.8 x 0.2 inches		"From:CourtneyKuntz, _Picture Books, To:CourtneySpoon, Country:Papua Ind, 2014"	"NoLongerAvailable, 2014 Stats"	[0590370383]	"0590370383, 9780590370387"		amazon.com	[2013-01-14]	224551
93142073	Dinosaur Beach	"Donnelly, Liza"				"Scholastic, Inc. (1991), Paperback"	1991	Paperback	7.8 inches	0.25 pounds	7.8 inches	0.2 inches	7.8 inches	7.8 x 7.8 x 0.2 inches		"From:CourtneyKuntz, _Picture Books, To:LockwoodSchool, Country:Papua NG, 2014"	"NoLongerAvailable, 2014 Stats"	[059042176X]	"059042176X, 9780590421768"		amazon.com	[2013-01-14]	73001
93142076	Owl Moon	"Yolen, Jane"		"Schoenherr, John"	Illustrator	"Scholastic (1987), Paperback, 17 pages"	1987	Paperback	17 p.; 10.7 inches	0.3 pounds	10.7 inches	0.2 inches	8.3 inches	10.7 x 8.3 x 0.2 inches	17	"_Picture Books, From:CourtneyKuntz, To:KristiNaizer, Country:Morocco, 2013"	"NoLongerAvailable, 2013 Stats"	[0590420445]	"0590420445, 9780590420440"		amazon.com	[2013-01-14]	74539
93142080	Make Way for Ducklings (Picture Puffin)	"McCloskey, Robert"				"Puffin (1976), Paperback, 63 pages"	1976	Paperback	63 p.; 9.75 inches	0.3 pounds	9.75 inches	1 inch	8 inches	9.75 x 8 x 1 inches	63	"From:CourtneyKuntz, _Picture Books, To:DalainaMay, Country:Indonesia, 2014"	"NoLongerAvailable, 2014 Stats"	[0140501711]	"0140501711, 9780140501711"		amazon.com	[2013-01-14]	20265
93142081	Love You Forever	"Munsch, Robert"		"McGraw, Sheila"	Illustrator	"Firefly Books Ltd. (1995), Paperback, 32 pages"	1995	Paperback	32 p.; 8.07 inches	0.2 pounds	8.07 inches	8.07 inches	0.16 inches	8.07 x 0.16 x 8.07 inches	32	"_Picture Books, From:CourtneyKuntz, To:IVTC, Country:USA, 2013"	"NoLongerAvailable, 2013 Stats"	[0920668372]	"0920668372, 9780920668375"		amazon.com	[2013-01-14]	3964
93142082	"Gregory, the Terrible Eater"	"Sharmat, Mitchell"		"Aruego, Jose|Dewey, Ariane"	Illustrator|Illustrator	"Scholastic (1986), Paperback"	1986	Paperback	9 inches	0.25 pounds	9 inches	0.2 inches	8.6 inches	9 x 8.6 x 0.2 inches		"From:CourtneyKuntz, _Picture Books, To:AlyciaDarilek, Country:China, 2014"	"NoLongerAvailable, 2014 Stats"	[0590402501]	"0590402501, 9780590402507"		amazon.com	[2013-01-14]	134404
93142084	How to Get Rid of Bad Dreams	"Hazbry, Nancy"		"Condy, Roy"		"Scholastic Trade (1990), Paperback"	1990	Paperback	12 inches	0.15 pounds	12 inches	0.3 inches	8.8 inches	12 x 8.8 x 0.3 inches		"_Picture Books, From:CourtneyKuntz, To:YapLibrary, Country:Yap, 2013"	"NoLongerAvailable, 2013 Stats"	[0590434748]	"0590434748, 9780590434744"		amazon.com	[2013-01-14]	1419331
93142086	Cloudy With a Chance of Meatballs	"Barrett, Judi"		"Barrett, Ron"	Illustrator	"Scholastic Paperbacks (1976), Paperback, 32 pages"	1976	Paperback	32 p.; 9.5 inches	0.15 pounds	9.5 inches	0.1 inches	8.5 inches	9.5 x 8.5 x 0.1 inches	32	"_Picture Books, From:CourtneyKuntz, To:KatrinaShedd, Country:China, 2013"	"NoLongerAvailable, 2013 Stats"	[0590303848]	"0590303848, 9780590303842"		amazon.com	[2013-01-14]	46143
93142087	What do you do with a kangaroo?	"Mayer, Mercer"				"Scholastic Book Services (1975), Paperback"	1975	Paperback	0.1 inches	0.1 pounds	0.1 inches	0.1 inches	0.1 inches	0.1 x 0.1 x 0.1 inches		"_Picture Books, From:CourtneyKuntz, Country:China, To:TeresaPaix, 2013"	"NoLongerAvailable, 2013 Stats"	[0590100076]	"0590100076, 9780590100076"		amazon.com	[2013-01-14]	52977
93142088	Just Me and My Dad (Little Critter)	"Mayer, Mercer"		"Mayer, Mercer"	Illustrator	"Random House Books for Young Readers (2001), Paperback, 24 pages"	2001	Paperback	24 p.; 7.87 inches	0.13 pounds	7.87 inches	7.87 inches	0.08 inches	7.87 x 0.08 x 7.87 inches	24	"_Picture Books, From:CourtneyKuntz, To:IVTC, Country:USA, 2013"	"NoLongerAvailable, 2013 Stats"	[0307118398]	"0307118398, 9780307118394"		amazon.com	[2013-01-14]	252405
93142090	miss nelson is back	"marshall, harry allard and james"				"Scholastic (1982), Paperback, 32 pages"	1982	Paperback	32 p.; 8.8 inches	0.02 pounds	8.8 inches	0.1 inches	7.5 inches	8.8 x 7.5 x 0.1 inches	32	"_Picture Books, From:CourtneyKuntz, To:IVTC, Country:USA, 2013"	"NoLongerAvailable, 2013 Stats"	[0590334670]	"0590334670, 9780590334679"		amazon.com	[2013-01-14]	134440
93142092	Three days on a river in a red canoe	"Williams, Vera B"				"Scholastic (1992), Paperback"	1992	Paperback	9.5 inches	0.2 pounds	9.5 inches	0.2 inches	7.9 inches	9.5 x 7.9 x 0.2 inches		"_Picture Books, From:CourtneyKuntz, To:YapLibrary, Country:Yap, 2013"	"NoLongerAvailable, 2013 Stats"	[0590459856]	"0590459856, 9780590459853"		amazon.com	[2013-01-14]	491731
93142100	Moja Means One	"Feelings, Muriel"		"Feelings, Tom"		"Puffin (1976), Edition: illustrated edition, Paperback, 32 pages"	1976	Paperback	32 p.; 10.2 inches	0.3 pounds	10.2 inches	0.5 inches	8.7 inches	10.2 x 8.7 x 0.5 inches	32	"From:CourtneyKuntz, _Cultures, To:AmyGerst, Country:Ethiopia, 2014"	"NoLongerAvailable, 2014 Stats"	[0803757115]	"0803757115, 9780803757110"		amazon.com	[2013-01-14]	1005541
93142106	Why Mosquitoes Buzz in Peoples Ears	"Aardema, Verna"		"Dillon, Leo & Diane"	Illustrator	"Pied Piper (1975), Paperback"	1975	Paperback								"From:CourtneyKuntz, _Cultures, 2014, Country:Uganda, To:KimHill"	"NoLongerAvailable, 2014 Stats"	[]			amazon.com	[2013-01-14]	220502
93142118	Antique Fairy Tales (Little Unicorn)	"Mastrangelo, Judy"				"Unicorn Pub House (1988), Hardcover, 72 pages"	1988	Hardcover	72 p.; 7.1 inches	0.55 pounds	7.1 inches	0.5 inches	5.2 inches	7.1 x 5.2 x 0.5 inches	72	"_Children's Classics, From:CourtneyKuntz, To:JessieZacek, Country:CA, 2013"	"NoLongerAvailable, 2013 Stats"	[0881010812]	"0881010812, 9780881010817"		amazon.com	[2013-01-14]	2834650
93142120	Twenty Thousand Leagues Under the Sea	"Verne, Jules"				"Unicorn Pub House (1989), Edition: Little Unicorn Classic series, Hardcover, 61 pages"	1989	Hardcover	61 p.; 7.2 inches	0.55 pounds	7.2 inches	0.5 inches	5.3 inches	7.2 x 5.3 x 0.5 inches	61	"From:CourtneyKuntz, _Children's Classics, To:SandraKleinert, Country:China, 2015"	"NoLongerAvailable, 2015 Stats"	[0881010901]	"0881010901, 9780881010909"		amazon.com	[2013-01-14]	32715
93142123	The Wizard of Oz (Little Unicorn)	"Baum, L. Frank"		"Hildebrandt, Greg"	Illustrator	"Unicorn Pub House (1988), Edition: FIRST EDITIION, Hardcover, 72 pages"	1988	Hardcover	72 p.; 7.1 inches	0.2 pounds	7.1 inches	0.6 inches	5.1 inches	7.1 x 5.1 x 0.6 inches	72	"_Children's Classics, From:CourtneyKuntz, To:YapLibrary, Country:Yap, 2013"	"NoLongerAvailable, 2013 Stats"	[0881010766]	"0881010766, 9780881010763"		amazon.com	[2013-01-14]	20410
93142124	Pollyanna	"Porter, Eleanor H."		"Mastrangelo, Judy"		"Unicorn Pub House (1989), Hardcover"	1989	Hardcover	7.2 inches	0.65 pounds	7.2 inches	0.6 inches	5.2 inches	7.2 x 5.2 x 0.6 inches		"_Children's Classics, From:CourtneyKuntz, To:KatrinaShedd, Country:China, 2013"	"NoLongerAvailable, 2013 Stats"	[0881010898]	"0881010898, 9780881010893"		amazon.com	[2013-01-14]	42911
93142128	Pinocchio (Little Unicorn)	"Collodi, Carlo"		"Hildebrandt, Greg"	Illustrator	"Unicorn Pub House (1988), Edition: First Edition, Hardcover, 72 pages"	1988	Hardcover	72 p.; 7.01 inches	0.53 pounds	7.01 inches	0.47 inches	5.2 inches	7.01 x 5.2 x 0.47 inches	72	"_Children's Classics, From:CourtneyKuntz, To:KarenStark, Country:CA, 2013"	"NoLongerAvailable, 2013 Stats"	[0881010782]	"0881010782, 9780881010787"		amazon.com	[2013-01-14]	33943
93142131	Heidi (Little Unicorn)	"Pacinelli, Donna"				"Unicorn Pub House (1988), Edition: 2nd printing, Hardcover, 72 pages"	1988	Hardcover	72 p.; 7.2 inches	0.25 pounds	7.2 inches	0.6 inches	5.1 inches	7.2 x 5.1 x 0.6 inches	72	"_Children's Classics, From:CourtneyKuntz, To:JessieZacek, Country:CA, 2013"	"NoLongerAvailable, 2013 Stats"	[0881010790]	"0881010790, 9780881010794"		amazon.com	[2013-01-14]	5664562
93142134	Peter Pan (Little Unicorn)	"Barrie, J. M."		"Hildebrandt, Greg"	Illustrator	"Unicorn Pub House (1988), Hardcover, 72 pages"	1988	Hardcover	72 p.; 7.1 inches	0.65 pounds	7.1 inches	0.5 inches	5.4 inches	7.1 x 5.4 x 0.5 inches	72	"From:CourtneyKuntz, _Children's Classics, To:BrandiBates, 2014, Country:Romania"	"NoLongerAvailable, 2014 Stats"	[0881010804]	"0881010804, 9780881010800"		amazon.com	[2013-01-14]	6252
93142136	Davy and the Goblin	Carryl		Hildebrandt		"Unicorn Publishing House Inc (1989), Hardcover"	1989	Hardcover	7.2 inches	0.35 pounds	7.2 inches	0.5 inches	5.3 inches	7.2 x 5.3 x 0.5 inches		"From:CourtneyKuntz, _Children's Classics, 2017_inventory, 2018inv, To:ElizabethTsukayama, Country:Japan, 2019"	"NoLongerAvailable, 2019 Stats"	[088101088X]	"088101088X, 9780881010886"		amazon.com	[2013-01-14]	111768
93142146	"The Chronicles of Narnia: The Magician's Nephew/The Lion, the Witch and the Wardrobe/The Horse and His Boy/Prince Caspian/Voyage of the Dawn Treader/The Silver Chair/The Last Battle"	"Lewis, C. S."				"HarperCollins (1994), Paperback"	1994	Paperback	7.84 inches	2.54 pounds	7.84 inches	3.77 inches	5.28 inches	7.84 x 5.28 x 3.77 inches		"From:CourtneyKuntz, Country:Costa Rica, 2013, To:KyleLeon"	"NoLongerAvailable, 2013 Stats"	[0064405370]	"0064405370, 9780064405379"		amazon.com	[2013-01-14]	6945753
93142158	"The Lion, The Witch, And The Wardrobe"	"Lewis, C. S."				"Collier (1970), Paperback, 192 pages"	1970	Paperback	192 p.	0.25 pounds				7.64 x 4.72 x 0.55 inches	192	"From:CourtneyKuntz, To:YapLibrary, Country:Yap, 2013"	"NoLongerAvailable, 2013 Stats"	[0552541222]	"0552541222, 9780552541220"		amazon.com	[2013-01-14]	1182675
93142173	"The Last Battle (Chronicles of Narnia, Book 7)"	"Lewis, C. S."				"Scholastic, Inc. (1988), Edition: First Edition, Paperback, 184 pages"	1988	Paperback	184 p.	0.2 pounds				6.6 x 4.1 x 0.5 inches	184	"From:CourtneyKuntz, To:RachelDoriot, 2013, Country:Papua NG"	"NoLongerAvailable, 2013 Stats"	[0590406019]	"0590406019, 9780590406017"		amazon.com	[2013-01-14]	1182710
93142265	The Little House Books Boxed Set (Harper Trophy Books)	"Wilder, Laura Ingalls"		"Williams, Garth"	Illustrator	"Harper & Row, Scholastic (1971), Paperback"	1971	Paperback	7.7 inches	4.65 pounds	7.7 inches	5.2 inches	7.1 inches	7.7 x 7.1 x 5.2 inches		"_Historical Fiction, From:CourtneyKuntz, To:HeidiCollins, Country:Yap, 2013"	"NoLongerAvailable, 2013 Stats"	[]			amazon.com	[2013-01-14]	4884
93142341	Diary Anne Frank	Frank				"Pocket (1983), Edition: 92nd, Paperback"	1983	Paperback	6.9 inches	0.05 pounds	6.9 inches	0.7 inches	4.1 inches	6.9 x 4.1 x 0.7 inches		"_Biographies, From:CourtneyKuntz, To:NinaLeong, Country:China, 2013"	"NoLongerAvailable, 2013 Stats"	[0671496204]	"0671496204, 9780671496203"		amazon.com	[2013-01-14]	3032251
93142356	A Book About Benjamin Franklin	"Gross, Ruth Belov"		"Divito, Anna"	Illustrator	"Scholastic Trade (1994), Paperback"	1994	Paperback	7.9 inches	0.2 pounds	7.9 inches	0.1 inches	5.7 inches	7.9 x 5.7 x 0.1 inches		"From:CourtneyKuntz, _Biographies, To:SandraKleinert, Country:China, 2015"	"NoLongerAvailable, 2015 Stats"	[0590337394]	"0590337394, 9780590337397"		amazon.com	[2013-01-14]	468155
93142366	Louis Braille: The Boy Who Invented Books for the Blind (Scholastic Biography)	"Davidson, Margaret"		"Compere, Janet"	Illustrator	"Scholastic Paperbacks (1991), Edition: Reissue, Paperback, 80 pages"	1991	Paperback	80 p.; 6.76 inches	0.17 pounds	6.76 inches	0.19 inches	5.3 inches	6.76 x 5.3 x 0.19 inches	80	"_Biographies, From:CourtneyKuntz, Country:Romania, 2013, To:BrandiBates"	"NoLongerAvailable, 2013 Stats"	[059044350X]	"059044350X, 9780590443500"		amazon.com	[2013-01-14]	166692
93142374	Sacajawea : Wilderness Guide (Native American Biographies)	Jassem				"Troll Communications (1997), Paperback, 48 pages"	1997	Paperback	48 p.; 8.8 inches	0.25 pounds	8.8 inches	0.2 inches	6.8 inches	8.8 x 6.8 x 0.2 inches	48	"From:CourtneyKuntz, _Biographies, To:SandraKleinert, Country:China, 2015"	"NoLongerAvailable, 2015 Stats"	[0893751502]	"0893751502, 9780893751500"		amazon.com	[2013-01-14]	303952
93142414	Because a Little Bug Went Ka-Choo! (Beginner Books(R))	"Stone, Rosetta"		"Frith, Michael"	Illustrator	"Random House Books for Young Readers (1975), Edition: Book Club Edition, Hardcover, 48 pages"	1975	Hardcover	48 p.; 6.7 inches	0.45 pounds	6.7 inches	9.29 inches	0.5 inches	6.7 x 0.5 x 9.29 inches	48	"_Beginning Readers, From:CourtneyKuntz, To:MissiMarsden, Country:China, 2013"	"NoLongerAvailable, 2013 Stats"	[0394831306]	"0394831306, 9780394831305"		amazon.com	[2013-01-14]	159917
93142426	I Can Read With My Eyes Shut! (Beginner Books)	"Seuss, Dr."				"Random House Books for Young Readers (1978), Edition: First Edition, Hardcover, 48 pages"	1978	Hardcover	48 p.; 6.73 inches	0.47 pounds	6.73 inches	9.17 inches	0.31 inches	6.73 x 0.31 x 9.17 inches	48	"_Beginning Readers, From:CourtneyKuntz, To:IVTC, Country:USA, 2013"	"NoLongerAvailable, 2013 Stats"	[0394839129]	"0394839129, 9780394839127"		amazon.com	[2013-01-14]	73092
93142430	"Merry Christmas, Amelia Bedelia"	"Parish, Peggy"		"Sweat, Lynn"	Illustrator	"Avon Books (Mm) (1994), Edition: Rei, Paperback"	1994	Paperback		0.5 pounds				7.5 x 5 x 0.5 inches		"_Beginning Readers, From:CourtneyKuntz, To:KatrinaShedd, Country:China, 2013"	"NoLongerAvailable, 2013 Stats"	[0380703254]	"0380703254, 9780380703258"		amazon.com	[2013-01-14]	126239
93142432	"Play Ball, Amelia Bedelia"	"Parish, Peggy"				"Scholastic Paperbacks (1986), Paperback, 64 pages"	1986	Paperback	64 p.; 8 inches	0.15 pounds	8 inches	0.2 inches	5.8 inches	8 x 5.8 x 0.2 inches	64	"_Beginning Readers, From:CourtneyKuntz, To:TrishaCaster, Country:China, 2013"	"NoLongerAvailable, 2013 Stats"	[0590062034]	"0590062034, 9780590062039"		amazon.com	[2013-01-14]	95747
93142439	A bargain for Frances	"Hoban, Russell"				"Harper & Row (1970), Edition: Ex-library, Hardcover"	1970	Hardcover	8.6 inches	0.4 pounds	8.6 inches	0.3 inches	6.1 inches	8.6 x 6.1 x 0.3 inches		"_Beginning Readers, From:CourtneyKuntz, Country:Yap, 2013, To:HeidiCollins"	"NoLongerAvailable, 2013 Stats"	[112732179X]	"112732179X, 9781127321797"		amazon.com	[2013-01-14]	94416
93142445	Hop on Pop	"Seuss, Dr."				"Beginner Books (1963), Edition: First Edition, Hardcover, 72 pages"	1963	Hardcover	72 p.; 6.73 inches	0.6 pounds	6.73 inches	9.25 inches	0.24 inches	6.73 x 0.24 x 9.25 inches	72	"_Beginning Readers, From:CourtneyKuntz, To:EaglesLanding, Country:USA, 2013"	"NoLongerAvailable, 2013 Stats"	[039480029X]	"039480029X, 9780394800295"		amazon.com	[2013-01-14]	50421
93142453	Little Bear (An I Can Read Book)	"Minarik, Elsa Holmelund"		"Sendak, Maurice"		"Harper Trophy (1978), Edition: 1st Trophy ed, Paperback, 63 pages"	1978	Paperback	63 p.; 5.75 inches	0.25 pounds	5.75 inches	8.5 inches	0.2 inches	5.75 x 0.2 x 8.5 inches	63	"_Beginning Readers, From:CourtneyKuntz, To:HeidiCollins, Country:Yap, 2013"	"NoLongerAvailable, 2013 Stats"	[0064440044]	"0064440044, 9780064440042"		amazon.com	[2013-01-14]	6227
93142458	Meet John F. Kennedy	"Nancy, White Ben"				"Random House (1965), Edition: Not Stated, Hardcover"	1965	Hardcover	8.2 inches	0.65 pounds	8.2 inches	0.6 inches	6.5 inches	8.2 x 6.5 x 0.6 inches		"From:CourtneyKuntz, _In-Between Readers, Country:Indonesia, 2013, To:CyndiRichardson"	"NoLongerAvailable, 2013 Stats"	[]			amazon.com	[2013-01-14]	1003065
93142467	...if You Grew Up with Abraham Lincoln	"McGovern, Brinton Turkle Ann"				"Scholastic (1966), Edition: First Edition, Paperback"	1966	Paperback								"From:CourtneyKuntz, _Biographies, To:AlyciaDarilek, Country:China, 2014"	"NoLongerAvailable, 2014 Stats"	[]			amazon.com	[2013-01-14]	131414
93142477	"The Story of Thomas Alva Edison, Inventor: The Wizard of Menlo Park (Scholastic Biography)"	"Davidson, Margaret"				"Perfection Learning (1990), Hardcover"	1990	Hardcover		0.3 pounds				7.7 x 5.3 x 0.3 inches		"_Biographies, From:CourtneyKuntz, Country:Romania, 2013, To:BrandiBates"	"NoLongerAvailable, 2013 Stats"	[081249198X]	"081249198X, 9780812491982"		amazon.com	[2013-01-14]	303978
93142481	Daniel Boone Taming the Wilderness	"Wilkie, Katherine E."					1961	Paperback	8.43 inches	0.79 pounds	8.43 inches	0.73 inches	5.85 inches	8.43 x 5.85 x 0.73 inches		"From:CourtneyKuntz, _Biographies, 2017_inventory, To:AdamDrake, Country:Togo, 2018"	"NoLongerAvailable, 2018 Stats"	[]			amazon.com	[2013-01-14]	166310
93142497	Bread and Jam for Frances	"Hoban, Russell"				"Olympic Marketing Corp (1964), Edition: First Edition, Hardcover"	1964	Hardcover		0.37 pounds				8.6 x 6.4 x 0.3 inches		"_Hardback Picture Books, From:CourtneyKuntz, Country:Yap, 2013, To:HeidiCollins"	"NoLongerAvailable, 2013 Stats"	[0590758241]	"0590758241, 9780590758246"		amazon.com	[2013-01-14]	162004
93142502	A House is a House for Me	"Hoberman, Mary Ann"		"Fraser, Betty"	Illustrator	"Educational Products, Inc (1978), Edition: A Children's Choice Book Club ed, Hardcover"	1978	Hardcover	8.8 inches	0.4 pounds	8.8 inches	0.3 inches	6.8 inches	8.8 x 6.8 x 0.3 inches		"From:CourtneyKuntz, _Hardback Picture Books, To:BrandiBates, 2014, Country:Romania"	"NoLongerAvailable, 2014 Stats"	[059075811X]	"059075811X, 9780590758116"		amazon.com	[2013-01-14]	382718
93142506	Pig Pig Grows Up	"McPhail, David"		"Levinson, Riki"	Illustrator	"E P Dutton (1980), Edition: Fifth Printing, Hardcover, 22 pages"	1980	Hardcover	22 p.; 8.8 inches	0.4 pounds	8.8 inches	0.3 inches	6.3 inches	8.8 x 6.3 x 0.3 inches	22	"_Hardback Picture Books, From:CourtneyKuntz, To:YapLibrary, Country:Yap, 2013"	"NoLongerAvailable, 2013 Stats"	[0590759469]	"0590759469, 9780590759465"		amazon.com	[2013-01-14]	380567
93142509	No Roses for Harry!	"Zion, Gene"		"Graham, Margaret Bloy"	Illustrator	"Harper & Row (Children's Choice Book Club) (2004), Hardcover, 30 pages"	2004	Hardcover	30 p.; 8.8 inches	0.05 pounds	8.8 inches	0.1 inches	6.4 inches	8.8 x 6.4 x 0.1 inches	30	"_Hardback Picture Books, From:CourtneyKuntz, Country:Romania, 2013, To:BrandiBates"	"NoLongerAvailable, 2013 Stats"	[0590759477]	"0590759477, 9780590759472"		amazon.com	[2013-01-14]	42890
93142510	Bedtime for Frances	"Hoban, Russell"		"Williams, Garth"	Illustrator	"Harpercollins Childrens Books (1960), Hardcover, 31 pages"	1960	Hardcover	31 p.	0.75 pounds				10.1 x 8.3 x 0.4 inches	31	"_Hardback Picture Books, From:CourtneyKuntz, Country:Yap, 2013, To:HeidiCollins"	"NoLongerAvailable, 2013 Stats"	[0060223502]	"0060223502, 9780060223502"		amazon.com	[2013-01-14]	162000
93142517	The Country Bunny and the Little Gold Shoes	"Heyward, Dubose"		"Flack, Marjorie"	Illustrator	"Houghton Mifflin Books for Children (1939), Hardcover, 48 pages"	1939	Hardcover	48 p.; 8.74 inches	2.03 pounds	8.74 inches	10.24 inches	0.43 inches	8.74 x 0.43 x 10.24 inches	48	"_Hardback Picture Books, From:CourtneyKuntz, To:YapLibrary, Country:Yap, 2013"	"NoLongerAvailable, 2013 Stats"	[0395159903]	"0395159903, 9780395159903"		amazon.com	[2013-01-14]	134495
93142533	Big Bad Bruce	"Peet, Bill"				"Houghton Mifflin Books for Children (1977), Library Binding, 48 pages"	1977	Hardcover	48 p.; 9.02 inches	1.98 pounds	9.02 inches	10.24 inches	0.35 inches	9.02 x 0.35 x 10.24 inches	48	"_Hardback Picture Books, From:CourtneyKuntz, 2013, To:KarenStark, Country:CA"	"NoLongerAvailable, 2013 Stats"	[0395251508]	"0395251508, 9780395251508"		amazon.com	[2013-01-14]	493876
93142542	Madeline	"Bemelmans, Ludwig."				"Viking Press (1967), Edition: Later Printing, Hardcover"	1967	Hardcover	8.8 inches	0.45 pounds	8.8 inches	0.3 inches	6.5 inches	8.8 x 6.5 x 0.3 inches		"_Hardback Picture Books, From:CourtneyKuntz, Country:Indonesia, 2013, To:CyndiRichardson"	"NoLongerAvailable, 2013 Stats"	[0590759426]	"0590759426, 9780590759427"		amazon.com	[2013-01-14]	42848
93142551	Where's Wallace	"Knight, Hilary"				"Harpercollins Childrens Books (1964), Edition: First Edition, Hardcover, 40 pages"	1964	Hardcover	40 p.; 9.4 inches	0.6 pounds	9.4 inches	0.4 inches	8.4 inches	9.4 x 8.4 x 0.4 inches	40	"_Hardback Picture Books, From:CourtneyKuntz, To:IVTC, Country:USA, 2013"	"NoLongerAvailable, 2013 Stats"	[006023170X]	"006023170X, 9780060231705"		amazon.com	[2013-01-14]	43116
93142556	Yertle the Turtle and Other Stories	"Seuss, Dr."				"Random House (1958), Edition: First Edition, Hardcover, 96 pages"	1958	Hardcover	96 p.; 8.27 inches	1.05 pounds	8.27 inches	11.5 inches	0.47 inches	8.27 x 0.47 x 11.5 inches	96	"_Hardback Picture Books, From:CourtneyKuntz, To:MissiMarsden, Country:China, 2013"	"NoLongerAvailable, 2013 Stats"	[0394800877]	"0394800877, 9780394800875"		amazon.com	[2013-01-14]	14492436
93142560	"Oh, the Places You'll Go!"	"Seuss, Dr."				"Random House (1990), Hardcover, 56 pages"	1990	Hardcover	56 p.; 11 inches	0.85 pounds	11 inches	0.5 inches	8.3 inches	11 x 8.3 x 0.5 inches	56	"_Hardback Picture Books, From:CourtneyKuntz, To:IVTC, Country:USA, 2013"	"NoLongerAvailable, 2013 Stats"	[0679805273]	"0679805273, 9780679805274"		amazon.com	[2013-01-14]	22982
93142561	If You Give a Mouse a Cookie (If You Give...)	"Numeroff, Laura Joffe"		"Bond, Felicia"	Illustrator	"HarperCollins (1985), Edition: 1, Hardcover, 40 pages"	1985	Hardcover	40 p.; 9.1 inches	0.7 pounds	9.1 inches	0.5 inches	8.3 inches	9.1 x 8.3 x 0.5 inches	40	"From:CourtneyKuntz, _Hardback Picture Books, To:HeidiCollins, Country:Yap, 2014"	"NoLongerAvailable, 2014 Stats"	[0060245867]	"0060245867, 9780060245863"		amazon.com	[2013-01-14]	2122992
93142566	A Time to Keep: The Tasha Tudor Book of Holidays	"Tudor, Tasha"				"Rand McNally (1977), Hardcover"	1977	Hardcover	9 inches	1.38 pounds	9 inches	1 inch	6 inches	9 x 6 x 1 inches		"_Hardback Picture Books, From:CourtneyKuntz, Country:Romania, 2013, To:BrandiBates"	"NoLongerAvailable, 2013 Stats"	[0528802135]	"0528802135, 9780528802133"		amazon.com	[2013-01-14]	32753
93142585	Stephen Biesty's Incredible Cross-Sections	"Platt, Richard"		"Biesty, Stephen"	Illustrator	"Alfred A. Knopf (1992), Hardcover, 48 pages"	1992	Hardcover	48 p.; 13.8 inches	1.9 pounds	13.8 inches	0.6 inches	10.7 inches	13.8 x 10.7 x 0.6 inches	48	"_Transportation, From:CourtneyKuntz, To:KarenStark, Country:CA, 2013"	"NoLongerAvailable, 2013 Stats"	[0679814116]	"0679814116, 9780679814115"		amazon.com	[2013-01-14]	444425
93142595	Fox in Socks (Beginner Books)	"Seuss, Dr."		"Geisel, Theodore"		"Random House, Inc. (1965), Hardcover, 62 pages"	1965	Hardcover	72 p.; 6.82 inches	0.53 pounds	6.82 inches	9.28 inches	0.39 inches	6.82 x 0.39 x 9.28 inches	72	"_Beginning Readers, From:CourtneyKuntz, To:IVTC, Country:USA, 2013"	"NoLongerAvailable, 2013 Stats"	[0394800389]	"0394800389, 9780394800387"		amazon.com	[2013-01-14]	54638
93142606	"Come to the Doctor, Harry"	"Chalmers, Mary"				"Harper & Row Publishers (1981), Edition: Book Club, Hardcover, 32 pages"	1981	Hardcover	32 p.; 8.8 inches	0.35 pounds	8.8 inches	0.3 inches	6.6 inches	8.8 x 6.6 x 0.3 inches	32	"_Beginning Readers, From:CourtneyKuntz, To:YapLibrary, Country:Yap, 2013"	"NoLongerAvailable, 2013 Stats"	[0590758233]	"0590758233, 9780590758239"		amazon.com	[2013-01-14]	2963964
93142617	The Magic School Bus Inside the Human Body	"Cole, Joanna"		"Degen, Bruce"	Illustrator	"Scholastic Press (1990), Edition: Reprint, Paperback, 40 pages"	1990	Paperback	40 p.; 10 inches	0.27 pounds	10 inches	8.5 inches	0.12 inches	10 x 0.12 x 8.5 inches	40	"_Science, From:CourtneyKuntz, To:KatrinaShedd, Country:China, 2013"	"NoLongerAvailable, 2013 Stats"	[0590414275]	"0590414275, 9780590414272"		amazon.com	[2013-01-14]	126439
93142619	The Magic School Bus Inside the Earth (Magic School Bus)	"Cole, Joanna"		"Degen, Bruce"	Illustrator	"Scholastic Press (1989), Edition: Reprint, Paperback, 40 pages"	1989	Paperback	40 p.; 10 inches	0.3 pounds	10 inches	8.31 inches	0.16 inches	10 x 0.16 x 8.31 inches	40	"_Science, From:CourtneyKuntz, To:KatrinaShedd, Country:China, 2013"	"NoLongerAvailable, 2013 Stats"	[0590407600]	"0590407600, 9780590407601"		amazon.com	[2013-01-14]	167285
93142625	The Magic School Bus At The Waterworks	"Cole, Joanna"		"Degen, Bruce"	Illustrator	"Scholastic Press (2004), Edition: Reprint, Paperback, 40 pages"	2004	Paperback	40 p.; 9.02 inches	0.25 pounds	9.02 inches	7.48 inches	0.24 inches	9.02 x 0.24 x 7.48 inches	40	"_Science, From:CourtneyKuntz, To:VictoriaRice, Country:China, 2013"	"NoLongerAvailable, 2013 Stats"	[0590403605]	"0590403605, 9780590403603"		amazon.com	[2013-01-14]	96312
93142634	Wonders of Science	"Berger, Melvin"		"Karas, G. Brian"	Illustrator	"Scholastic Paperbacks (1991), Paperback"	1991	Paperback	7.4 inches	0.25 pounds	7.4 inches	0.4 inches	5.1 inches	7.4 x 5.1 x 0.4  inches		"From:CourtneyKuntz, _Science, To:AmyRhiger, Country:Philippines, 2015"	"NoLongerAvailable, 2015 Stats"	[0590434721]	"0590434721, 9780590434720"		amazon.com	[2013-01-14]	440962
93142640	What Are Scientists?	"Gelman, Rita Golden"		"Buxbaun, Susan Kovacs"		"Scholastic Trade (1991), Paperback"	1991	Paperback	8.8 inches	0.2 pounds	8.8 inches	0.3 inches	7.2 inches	8.8 x 7.2 x 0.3 inches		"From:CourtneyKuntz, _Science, To:JanetAllison, Country:Tanzania, 2015"	"NoLongerAvailable, 2015 Stats"	[0590431846]	"0590431846, 9780590431842"		amazon.com	[2013-01-14]	1589840
93142648	What's Up There	"Moche, Dinah"				"Scholastic Paperbacks (1976), Paperback"	1976	Paperback	7.6 inches	0.05 pounds	7.6 inches	0.2 inches	5.8 inches	7.6 x 5.8 x 0.2 inches		"From:CourtneyKuntz, _Science, To:AmyRhiger, Country:Philippines, 2015"	"NoLongerAvailable, 2015 Stats"	[0590048503]	"0590048503, 9780590048507"		amazon.com	[2013-01-14]	579865
93142653	Questions and Answers About Weather	"Craig, M. Jean"		"Ebert, Len"	Illustrator	"Scholastic Trade (1996), Paperback, 46 pages"	1996	Paperback	46 p.	3.2 pounds				8.1 x 6 x 0.2 inches	46	"From:CourtneyKuntz, _Science, To:AbbyHoudashelt, Country:China, 2014"	"NoLongerAvailable, 2014 Stats"	[059041142X]	"059041142X, 9780590411424"		amazon.com	[2013-01-14]	54707
93142660	The Golden Book of Stars and Planets (Intermediate Books)	"Herbst, Judith"		"Lapadula, Tom"	Illustrator	"Goldencraft (1988), Hardcover, 45 pages"	1988	Hardcover	45 p.; 11 inches	1.15 pounds	11 inches	0.5 inches	8.5 inches	11 x 8.5 x 0.5 inches	45	"From:CourtneyKuntz, _Science, To:AmyRhiger, Country:Philippines, 2015"	"NoLongerAvailable, 2015 Stats"	[030765527X]	"030765527X, 9780307655271"		amazon.com	[2013-01-14]	3159537
93142663	How to Dig a Hole to the Other Side of the World	"McNulty, Faith"		"Simont, Marc"	Illustrator	"Scholastic (1979), Paperback, 32 pages"	1979	Paperback	32 p.; 9.7 inches	0.25 pounds	9.7 inches	0.3 inches	6.2 inches	9.7 x 6.2 x 0.3 inches	32	"_Science, From:CourtneyKuntz, To:BethForshee, Country:China, 2013"	"NoLongerAvailable, 2013 Stats"	[0590435027]	"0590435027, 9780590435024"		amazon.com	[2013-01-14]	572939
93142666	Magnify and Find Out Why	"Schwatz, Julius"		"Cuffari, Richard"	Illustrator	"Scholastic Inc. (1972), Paperback, 48 pages"	1972	Paperback	48 p.	0.1 pounds				7.9 x 5.6 x 0.2 inches	48	"From:CourtneyKuntz, _Science, To:HeidiCollins, Country:Yap, 2015"	"NoLongerAvailable, 2015 Stats"	[0590401653]	"0590401653, 9780590401654"		amazon.com	[2013-01-14]	972079
93142668	Pond Life	"Reid, George K."		"Dolan, Tom|Kaicher, Sally D."	Illustrator|Illustrator	"Golden Books Pub Co (Adult) (1967), Edition: 1, Paperback, 160 pages"	1967	Paperback	160 p.; 6 inches	0.35 pounds	6 inches	0.3 inches	4.1 inches	6 x 4.1 x 0.3 inches	160	"From:CourtneyKuntz, _Science, To:JanetAllison, Country:Tanzania, 2015"	"NoLongerAvailable, 2015 Stats"	[0307240177]	"0307240177, 9780307240170"		amazon.com	[2013-01-14]	113957
93142670	What Happens If?.....	"Wyler, Rose"				"Scholastic (1987), Paperback"	1987	Paperback		0.14 pounds						"From:CourtneyKuntz, _Science, To:JanetAllison, Country:Tanzania, 2015"	"NoLongerAvailable, 2015 Stats"	[0590319221]	"0590319221, 9780590319225"		amazon.com	[2013-01-14]	1130318
93142681	Why does it Fly? A Just Ask Book	"Arvetis, Chris and Carole Palmer"		"Buckley, James"	Illustrator	"Field Publications (1984), Edition: Weekly Reader Books Edition, Hardcover"	1984	Hardcover	9 inches	1.38 pounds	9 inches	1 inch	6 inches	9 x 6 x 1 inches		"_Science, From:CourtneyKuntz, To:AlyciaDarilek, Country:China, 2013, stats"	"NoLongerAvailable, 2013 Stats"	[]			amazon.com	[2013-01-14]	740784
93142683	Why Does It Rain? a Just Ask Book	"Arvetis, Chris"				"Field Publications (1983), Hardcover"	1983	Hardcover	9.1 inches	0.35 pounds	9.1 inches	0.3 inches	4.8 inches	9.1 x 4.8 x 0.3 inches		"_Science, From:CourtneyKuntz, To:AlyciaDarilek, Country:China, 2013, stats"	"NoLongerAvailable, 2013 Stats"	[]			amazon.com	[2013-01-14]	2929525
93142686	What Is a Rainbow (A Just Ask Book)	"Arvetis, Chris"		"Buckley, James|Palmer, Carole"	Illustrator|	"Checkerboard Pr (1988), Hardcover"	1988	Hardcover	9 inches	0.35 pounds	9 inches	0.3 inches	5 inches	9 x 5 x 0.3 inches		"_Science, From:CourtneyKuntz, To:AlyciaDarilek, 2013, Country:China"	"NoLongerAvailable, 2013 Stats"	[0026888106]	"0026888106, 9780026888103"		amazon.com	[2013-01-14]	740776
93142688	Why Is It Dark? (A Just ask book)	"Arvetis, Chris"				"Checkerboard Pr (1984), Hardcover, 32 pages"	1984	Hardcover	32 p.; 8.9 inches	0.35 pounds	8.9 inches	0.3 inches	4.9 inches	8.9 x 4.9 x 0.3 inches	32	"_Science, From:CourtneyKuntz, To:AlyciaDarilek, Country:China, 2013, stats"	"NoLongerAvailable, 2013 Stats"	[0528820753]	"0528820753, 9780528820755"		amazon.com	[2013-01-14]	2347001
93142692	Do You Know? Pictback	"Ford, B.G."				"Random House Books for Young Readers (1979), Paperback"	1979	Paperback	8 inches	0.1 pounds	8 inches	0.2 inches	7.7 inches	8 x 7.7 x 0.2 inches		"From:CourtneyKuntz, _Science, To:AmyRhiger, Country:Philippines, 2015"	"NoLongerAvailable, 2015 Stats"	[0394840704]	"0394840704, 9780394840703"		amazon.com	[2013-01-14]	414676
93142696	The Way Things Work	"Macaulay, David"				"Houghton Mifflin (1988), Hardcover, 384 pages"	1988	Hardcover	384 p.	3.75 pounds				10.9 x 8.7 x 1.6 inches	384	"_Science, From:CourtneyKuntz, To:JillKasowski, Country:China, 2013"	"NoLongerAvailable, 2013 Stats"	[0590429892]	"0590429892, 9780590429894"		amazon.com	[2013-01-14]	63548
93142705	Chickens Aren't the Only Ones	"Heller, Ruth"				"Scholastic Canada, Limited [2002?] [2002?] (2002), Paperback"	2002	Paperback		0.27 pounds						"_Picture Books, From:CourtneyKuntz, To:BettyKurz, Country:Papua NG, 2016"	"NoLongerAvailable, 2016 Stats"	[0590426001]	"0590426001, 9780590426008"		amazon.com	[2013-01-14]	713393
93142709	Your Body Is Your Own (It's Ok to Say No)	"Publishing, RGA"				"Grosset & Dunlap (1986), Paperback, 28 pages"	1986	Paperback	28 p.; 20 inches	20 pounds	20 inches	20 inches	20 inches	20 x 20 x 20  inches	28	"From:CourtneyKuntz, _Hardback Picture Books, To:TeresaPaix, Country:China, 2014"	"NoLongerAvailable, 2014 Stats"	[0448153262]	"0448153262, 9780448153261"		amazon.com	[2013-01-14]	1954287
93142719	Digging Up Dinosaurs (Let's-Read-and-Find-Out Science 2)	Aliki		Aliki	Illustrator	"HarperCollins (1988), Edition: Reprint, Paperback, 32 pages"	1988	Paperback	32 p.; 8.78 inches	0.24 pounds	8.78 inches	0.12 inches	6.89 inches	8.78 x 6.89 x 0.12 inches	32	"From:CourtneyKuntz, To:Kako, 2013, Country:USA, _Science, _Adult Non-Fiction, _Adult Fiction, _Chapter Books"	"NoLongerAvailable, 2013 Stats"	[0064450783]	"0064450783, 9780064450782"		amazon.com	[2013-01-14]	33161
93142720	In the Time of Dinosaurs	"Wise, William"				"Scholastic Paperbacks (1987), Paperback"	1987	Paperback	0.5 inches	0.15 pounds	0.5 inches	0.4 inches	0.5 inches	0.5 x 0.5 x 0.4 inches		"_Adult Books, From:CourtneyKuntz, To:BethForshee, Country:China, 2014"	"NoLongerAvailable, 2014 Stats"	[0590411497]	"0590411497, 9780590411493"		amazon.com	[2013-01-14]	1661962
93142722	Dinosaur Story	"Cole, Joanna"				"Scholastic Inc (1989), Paperback"	1989	Paperback	8.7 inches	0.02 pounds	8.7 inches	0.1 inches	7.3 inches	8.7 x 7.3 x 0.1 inches		"From:CourtneyKuntz, _Dinosaurs, To:CarlaOverton, Country:Mozambique, 2015"	"NoLongerAvailable, 2015 Stats"	[0590433482]	"0590433482, 9780590433488"		amazon.com	[2013-01-14]	209630
93142727	First Dinosaurs	"Dixon, Dougal"				"Scholastic Inc, Paperback"	?	Paperback	8.74 inches	0.13 pounds	8.74 inches	0.31 inches	7.32 inches	8.74 x 7.32 x 0.31 inches		"From:CourtneyKuntz, _Dinosaurs, To:AmyRhiger, Country:Philippines, 2015"	"NoLongerAvailable, 2015 Stats"	[0590416340]	"0590416340, 9780590416344"		amazon.com	[2013-01-14]	1763826
93142730	The Wind in the Willows (Children's Classics)	"Grahame, Kenneth"		"Kincaid, Eric"	Illustrator	"Gallery Books (1989), Hardcover, 156 pages"	1989	Hardcover	156 p.; 10.7 inches	1.8 pounds	10.7 inches	0.7 inches	8.7 inches	10.7 x 8.7 x 0.7 inches	156	"_Children's Classics, From:CourtneyKuntz, To:KristiNaizer, Country:Morocco, 2013"	"NoLongerAvailable, 2013 Stats"	[0861123549]	"0861123549, 9780861123544"		amazon.com	[2013-01-14]	14432663
93142731	"The Best of Louisa May Alcott: A Charming Illustrated Collection of Little Women, Little Men, and 24 Short Stories"	"Alcott, Louisa May"				"Gramercy (2006), Hardcover, 800 pages"	2006	Hardcover	800 p.; 6.26 x 2.09 inches	2.5 pounds	2.09 inches	9.25 inches	6.26 inches	2.09 x 6.26 x 9.25 inches	800	"_Children's Classics, From:CourtneyKuntz, To:YapLibrary, Country:Yap, 2013"	"NoLongerAvailable, 2013 Stats"	[0517100347]	"0517100347, 9780517100349"		amazon.com	[2013-01-14]	2687169
93142734	Tales of Peter Rabbit and His Friends	"Potter, Beatrix"				"Derrydale (2000), Hardcover, 160 pages"	2000	Hardcover	160 p.	1.3 pounds		2.48 inches	1.97 inches	9.65 x 1.97 x 2.48 inches	160	"From:CourtneyKuntz, _Beatrix Potter, To:KariBruce, Country:Papua Ind, 2014"	"NoLongerAvailable, 2014 Stats"	[0517449013]	"0517449013, 9780517449011"		amazon.com	[2013-01-14]	74547
93142740	Cory's Counting Game	"Koelling, Caryl"		"Wynne, Carol"	Illustrator	"Angus & Robertson Childrens (1979), Paperback"	1979	Paperback								"_Board Books, From:CourtneyKuntz, To:HeidiCollins, Country:Yap, 2013"	"NoLongerAvailable, 2013 Stats"	[0001011073]	"0001011073, 9780001011076"		amazon.com	[2013-01-14]	4035083
93142747	RAMONA FOREVER (Ramona Quimby (Paperback))	"Cleary, Beverly"				"Yearling (1985), Paperback, 182 pages"	1985	Paperback	182 p.; 11.9 inches	0.3 pounds	11.9 inches	0.6 inches	3.5 inches	11.9 x 3.5 x 0.6 inches	182	"From:CourtneyKuntz, To:BrandiBates, Country:Romania, 2013, _Chapter Book Series"	"NoLongerAvailable, 2013 Stats"	[0440472105]	"0440472105, 9780440472100"		amazon.com	[2013-01-14]	95814
93142753	Dear Mr. Henshaw	"Cleary, Beverly"				"Yearling (1984), Paperback, 144 pages"	1984	Paperback	144 p.; 6.61 inches	0.18 pounds	6.61 inches	0.47 inches	4.17 inches	6.61 x 4.17 x 0.47 inches	144	"From:CourtneyKuntz, To:KarenHall, Country:Indonesia, 2013, _Chapter Book Series"	"NoLongerAvailable, 2013 Stats"	[0440717949]	"0440717949, 9780440717942"		amazon.com	[2013-01-14]	6168
93142755	Ribsy (A Dell Yearling Book)	"Cleary, Beverly"		"Darling, Louis"	Illustrator	"Yearling (1982), Paperback, 192 pages"	1982	Paperback	192 p.; 7.56 inches	0.31 pounds	7.56 inches	0.63 inches	5.12 inches	7.56 x 5.12 x 0.63 inches	192	"From:CourtneyKuntz, To:RachelDoriot, 2013, Country:Papua NG, _Chapter Book Series"	"NoLongerAvailable, 2013 Stats"	[0440474566]	"0440474566, 9780440474562"		amazon.com	[2013-01-14]	23209
93142758	Muggie Maggie	"Cleary, Beverly"		"Dockray, Tracy"	Illustrator	"HarperCollins (2000), Edition: Reissue, Paperback, 96 pages"	2000	Paperback	96 p.; 7.7 inches	0.15 pounds	7.7 inches	0.22 inches	5.26 inches	7.7 x 5.26 x 0.22 inches	96	"From:CourtneyKuntz, To:KarenHall, Country:Indonesia, 2013, _Chapter Book Series"	"NoLongerAvailable, 2013 Stats"	[0380710870]	"0380710870, 9780380710874"		amazon.com	[2013-01-14]	137020
93142760	Henry and the Clubhouse (Henry Huggins)	"Cleary, Beverly"				"Dell Yearling Book (1979), Paperback, 192 pages"	1979	Paperback	192 p.	0.3 pounds				7.5 x 5.1 x 0.5 inches	192	"From:CourtneyKuntz, To:MissiMarsden, Country:China, 2013, _Chapter Book Series"	"NoLongerAvailable, 2013 Stats"	[0440433053]	"0440433053, 9780440433057"		amazon.com	[2013-01-14]	95208
93142762	Ramona and Her Father (Ramona Quimby (Paperback))	"Cleary, Beverly"				"Yearling (1979), Paperback"	1979	Paperback		0.3 pounds				7.6 x 5.1 x 0.7 inches		"From:CourtneyKuntz, To:BrandiBates, Country:Romania, 2013, _Chapter Book Series"	"NoLongerAvailable, 2013 Stats"	[0440472415]	"0440472415, 9780440472414"		amazon.com	[2013-01-14]	4489
93142764	Ramona the Pest	"Cleary, Beverly"				"Yearling (1982), Paperback, 192 pages"	1982	Paperback	192 p.; 7.6 inches	0.26 pounds	7.6 inches	0.6 inches	5.2 inches	7.6 x 5.2 x 0.6 inches	192	"From:CourtneyKuntz, To:SusanBae, Country:China, 2013, _Chapter Book Series"	"NoLongerAvailable, 2013 Stats"	[0440472091]	"0440472091, 9780440472094"		amazon.com	[2013-01-14]	60160
93142767	Beezus and Ramona	"Cleary, Beverly"				"Yearling (1979), Paperback, 159 pages"	1979	Paperback	159 p.; 7.5 inches	0.3 pounds	7.5 inches	0.6 inches	5 inches	7.5 x 5 x 0.6 inches	159	"From:CourtneyKuntz, _Chapter Book Series, To:KatrinaShedd, Country:China, 2014"	"NoLongerAvailable, 2014 Stats"	[044040665X]	"044040665X, 9780440406655"		amazon.com	[2013-01-14]	2236378
93142769	Ramona and her Mother (Ramona Quimby)	"Cleary, Beverly"				"Yearling (1980), Paperback"	1980	Paperback	7.6 inches	0.35 pounds	7.6 inches	0.6 inches	5.1 inches	7.6 x 5.1 x 0.6 inches		"From:CourtneyKuntz, To:KarenHall, Country:Indonesia, 2013, _Chapter Book Series"	"NoLongerAvailable, 2013 Stats"	[0440472431]	"0440472431, 9780440472438"		amazon.com	[2013-01-14]	62290
93142770	Socks	"Cleary, Beverly"		"Darwin, Beatrice"	Illustrator	"Dell Yearling (1981), Paperback"	1981	Paperback	7.5 inches	0.2 pounds	7.5 inches	0.5 inches	5 inches	7.5 x 5 x 0.5  inches		"From:CourtneyKuntz, To:VictoriaRice, 2013, Country:China, _Chapter Book Series"	"NoLongerAvailable, 2013 Stats"	[0440482569]	"0440482569, 9780440482567"		amazon.com	[2013-01-14]	70000
93142784	Henry Huggins	"cleary, beverly"		"darling, louis"	Illustrator	"william morrow and company inc. (1959), Paperback, 92 pages"	1959	Paperback	92 p.; 8.43 inches	0.79 pounds	8.43 inches	0.73 inches	5.85 inches	8.43 x 5.85 x 0.73 inches	92	"From:CourtneyKuntz, To:MissiMarsden, Country:China, 2013, _Chapter Book Series"	"NoLongerAvailable, 2013 Stats"	[]			amazon.com	[2013-01-14]	95210
93142788	"Mouse and the Motorcycle, The"	"Cleary, Beverly"				"Yearling (1923), Paperback"	1923	Paperback	6.6 inches	0.2 pounds	6.6 inches	0.4 inches	4.2 inches	6.6 x 4.2 x 0.4 inches		"From:CourtneyKuntz, To:IVTC, Country:USA, 2013, _Chapter Book Series"	"NoLongerAvailable, 2013 Stats"	[0440760755]	"0440760755, 9780440760757"		amazon.com	[2013-01-14]	23220
93142825	Balloon magic: The complete guide to balloon figure-tying	"Hardy, Marvin L"				"Pioneer Balloon Co (1986), Paperback, 63 pages"	1986	Paper Book	63 p.; 8.2 inches	0.2 pounds	8.2 inches	0.2 inches	5.4 inches	8.2 x 5.4 x 0.2 inches	63	"From:CourtneyKuntz, _Activity Books, To:SarahDeal, Country:Indonesia, 2015"	"NoLongerAvailable, 2015 Stats"	[0961660007]	"0961660007, 9780961660000"		amazon.com	[2013-01-14]	6115390
93142826	Magic Mirror Tricks	"Walter, Marion"				"Scholastic Paperbacks (1988), Paperback"	1988	Paperback	7.4 inches	0.1 pounds	7.4 inches	0.2 inches	5 inches	7.4 x 5 x 0.2 inches		"From:CourtneyKuntz, _Activity Books, To:DarcyCoady, Country:China, 2013"	"NoLongerAvailable, 2013 Stats"	[0590408755]	"0590408755, 9780590408752"		amazon.com	[2013-01-14]	3681251
93142833	Amazing Mazes: Mind Bending Mazes for Ages 6-60	"Heimann, Rolf"				"Troll Communications (1996), Paperback, 32 pages"	1996	Paperback	32 p.	0.35 pounds				9.7 x 8.2 x 0.2 inches	32	"From:CourtneyKuntz, _Activity Books, To:EaglesLanding, Country:USA, 2014"	"NoLongerAvailable, 2014 Stats"	[0816722013]	"0816722013, 9780816722013"		amazon.com	[2013-01-14]	1420580
93142850	"Children's Word Games and Crossword Puzzles, Ages 7-9, Volume 1 (Other)"	"Maleska, Eugene"				"Random House Puzzles & Games (2003), Paperback, 80 pages"	2003	Paperback	80 p.; 6.09 inches	0.22 pounds	6.09 inches	9.16 inches	0.21 inches	6.09 x 0.21 x 9.16 inches	80	"From:CourtneyKuntz, _Activity Books, To:AllisonWillis, 2014, Country:India"	"NoLongerAvailable, 2014 Stats"	[0812935217]	"0812935217, 9780812935219"		amazon.com	[2013-01-14]	5304255
93142855	Money Book for Kids (Troll Survival Guide)	"Burgeson, Nancy"				"Troll Communications (1991), Paperback"	1991	Paperback	7.8 inches	1.02 pounds	7.8 inches	1 inch	5.12 inches	7.8 x 5.12 x 1 inches		"From:CourtneyKuntz, _Activity Books, To:AmyRhiger, Country:Philippines, 2015"	"NoLongerAvailable, 2015 Stats"	[0816724652]	"0816724652, 9780816724659"		amazon.com	[2013-01-14]	1289492
93142858	Paper Tricks	"Temko, Florence"				"Scholastic Trade (1988), Paperback"	1988	Paperback	5.9 inches	0.1 pounds	5.9 inches	0.1 inches	5 inches	5.9 x 5 x 0.1 inches		"From:CourtneyKuntz, _Activity Books, 2017_inventory, 2018inv"	BookEnds	[0590411292]	"0590411292, 9780590411295"		amazon.com	[2013-01-14]	468528
93142869	Magic Eye III: Vision: A New Dimension in Art	"Thing, N. E."				"Scholastic (2005), Paperback"	2005	Paperback	10.7 inches	0.2 pounds	10.7 inches	0.5 inches	8.3 inches	10.7 x 8.3 x 0.5 inches		"_Activity Books, From:CourtneyKuntz, To:YapLibrary, Country:Yap, 2013"	"NoLongerAvailable, 2013 Stats"	[0590222805]	"0590222805, 9780590222808"		amazon.com	[2013-01-14]	278143
93142903	More Graffiti Devotions for Girls	"Schmidt, David J."				"Fleming H Revell Co (1984), Paperback, 131 pages"	1984	Paperback	131 p.; 7.8 inches	0.55 pounds	7.8 inches	0.5 inches	5.3 inches	7.8 x 5.3 x 0.5 inches	131	"_Bible-Related, From:CourtneyKuntz, Country:CA, 2013, To:JessieZacek"	"NoLongerAvailable, 2013 Stats"	[0800751434]	"0800751434, 9780800751432"		amazon.com	[2013-01-14]	7162077
93142916	Noah's Ark (Pictureback)	"Martin, Charles E."				"Random House Books for Young Readers (1978), Paperback, 32 pages"	1978	Paperback	32 p.; 7.8 inches	0.25 pounds	7.8 inches	0.2 inches	7.8 inches	7.8 x 7.8 x 0.2 inches	32	"_Bible-Related, From:CourtneyKuntz, To:HeidiCollins, Country:Yap, 2013"	"NoLongerAvailable, 2013 Stats"	[0394838610]	"0394838610, 9780394838618"		amazon.com	[2013-01-14]	926347
93142946	Gatitos (Golden Super Shape Book) (Spanish Edition)	"Pfloog, Jan Por"				"Golden Pr (1992), Paperback"	1992	Paperback	7.9 inches	0.35 pounds	7.9 inches	0.1 inches	7.6 inches	7.9 x 7.6 x 0.1 inches		"From:CourtneyKuntz, _Cultures, To:TheresaLewis, 2014, Country:Mexico"	"NoLongerAvailable, 2014 Stats"	[0307700798]	"0307700798, 9780307700797"		amazon.com	[2013-01-14]	437943
93142955	I'll Always Love You	"Wilhelm, Hans"				"Scholastic (1990), Edition: First Printing, Paperback"	1990	Paperback		0.18 pounds				10 x 8 x 0.02 inches		"_Picture Books, From:CourtneyKuntz, To:IVTC, Country:USA, 2013"	"NoLongerAvailable, 2013 Stats"	[059042744X]	"059042744X, 9780590427449"		amazon.com	[2013-01-14]	301805
93142976	"Bear-Ly Bear-Able Baseball Riddles, Jokes, and Knock-Knocks/Featuring Riddle Bear"	"Gerberg, Mort"				"Scholastic Trade (1989), Edition: 1st Scholastic Edition, Paperback"	1989	Paperback		0.26 pounds						"_Sports, From:CourtneyKuntz, To:YapLibrary, Country:Yap, 2013"	"NoLongerAvailable, 2013 Stats"	[0590425838]	"0590425838, 9780590425834"		amazon.com	[2013-01-14]	1120936
93142981	Sportworks: More than 50 Fun Games and Activities that Explore the Science of Sports	"Centre, Ontario Science"		"Cupples, Pat"	Illustrator	"Da Capo Press (1989), Paperback, 96 pages"	1989	Paperback	96 p.	0.45 pounds				9.2 x 7.9 x 0.5 inches	96	"From:CourtneyKuntz, _Sports, To:DarcyCoady, Country:China, 2014"	"NoLongerAvailable, 2014 Stats"	[0201152967]	"0201152967, 9780201152968"		amazon.com	[2013-01-14]	1537555
93143001	Mickey's Magnet	"branley, franklyn"				"Crowell (1956), Edition: Reprint, Paperback, 48 pages"	1956	Paperback	48 p.; 7.9 inches	0.45 pounds	7.9 inches	0.4 inches	6 inches	7.9 x 6 x 0.4 inches	48	"_Beginning Readers, From:CourtneyKuntz, To:JillKasowski, 2013, Country:China"	"NoLongerAvailable, 2013 Stats"	[0590416448]	"0590416448, 9780590416443"		amazon.com	[2013-01-14]	345220
93143005	The Biggest Sandwich Ever	"Gelman, Rita G."		"Gerberg, Mort"	Illustrator	"Scholastic Paperbacks (1981), Paperback"	1981	Paperback	7.9 inches	0.15 pounds	7.9 inches	0.2 inches	5.8 inches	7.9 x 5.8 x 0.2 inches		"_Beginning Readers, From:CourtneyKuntz, To:YapLibrary, Country:Yap, 2013"	"NoLongerAvailable, 2013 Stats"	[059030559X]	"059030559X, 9780590305594"		amazon.com	[2013-01-14]	313244
93143017	My Bedtime Book of Two-Minute Stories	"Garland, Rosemary"				"Grosset & Dunlap (1986), Hardcover, 123 pages"	1986	Hardcover	123 p.; 10.8 inches	1.4 pounds	10.8 inches	0.6 inches	8.3 inches	10.8 x 8.3 x 0.6 inches	123	"_In-Between Readers, From:CourtneyKuntz, To:HeidiCollins, Country:Yap, 2013"	"NoLongerAvailable, 2013 Stats"	[044801873X]	"044801873X, 9780448018737"		amazon.com	[2013-01-14]	2217074
93143039	Heidi (De Luxe Classics)	"Spyri, Johanna"				"Prentice Hall & IBD (1975), Hardcover, 222 pages"	1975	Hardcover	222 p.; 8 inches	1.05 pounds	8 inches	1.3 inches	5.7 inches	8 x 5.7 x 1.3 inches	222	"_Children's Classics, From:CourtneyKuntz, To:KatrinaShedd, Country:China, 2013"	"NoLongerAvailable, 2013 Stats"	[0361031599]	"0361031599, 9780361031592"		amazon.com	[2013-01-14]	4875
93143044	Alice in Wonderland (Children's Classics)	"Carroll, Lewis"				"Michael O'Mara Books Ltd (1986), Edition: Facsimile edition, Hardcover, 192 pages"	1986	Hardcover	192 p.; 10.24 inches	1.54 pounds	10.24 inches	0.94 inches	7.8 inches	10.24 x 7.8 x 0.94 inches	192	"From:CourtneyKuntz, _Children's Classics, 2017_inventory, 2018inv"	BookEnds	[0948397551]	"0948397551, 9780948397554"		amazon.com	[2013-01-14]	8288
93143055	The Jungle Books (Signet classics)	"Kipling, Rudyard"		"Cunliffe, Marcus"	Afterword	"Signet Classics (1961), Mass Market Paperback, 336 pages"	1961	Paperback	336 p.; 6.8 inches	0.3 pounds	6.8 inches	0.7 inches	4.2 inches	6.8 x 4.2 x 0.7 inches	336	"From:CourtneyKuntz, _Children's Classics, To:MissiMarsden, Country:China, 2014"	"NoLongerAvailable, 2014 Stats"	[0451523407]	"0451523407, 9780451523402"		amazon.com	[2013-01-14]	2774556
93143061	The Call of the Wild (A Watermill Classic)	"London, Jack"				"Troll Communications Llc (1987), Paperback, 137 pages"	1987	Paperback	137 p.; 7 inches	0.2 pounds	7 inches	0.5 inches	4.2 inches	7 x 4.2 x 0.5 inches	137	"From:CourtneyKuntz, _Children's Classics, To:RebeccaFruechting, Country:Ethiopia, 2014"	"NoLongerAvailable, 2014 Stats"	[0893753440]	"0893753440, 9780893753443"		amazon.com	[2013-01-14]	21623
93143062	The Secret Garden	"Burnett, Frances Hodgson"				"Watermill Classic (1987), Paperback, 278 pages"	1987	Paperback	278 p.; 7 inches	0.45 pounds	7 inches	0.7 inches	4.2 inches	7 x 4.2 x 0.7 inches	278	"From:CourtneyKuntz, _Children's Classics, To:StephanieEdgar, Country:Peru, 2015"	"NoLongerAvailable, 2015 Stats"	[081670855X]	"081670855X, 9780816708550"		amazon.com	[2013-01-14]	2770555
93143064	Story of Doctor Dolittle	"Lofting, Hugh"				"Delacorte Books for Young Readers (1988), Hardcover, 156 pages"	1988	Hardcover	156 p.; 8.3 inches	0.7 pounds	8.3 inches	0.8 inches	5.7 inches	8.3 x 5.7 x 0.8 inches	156	"From:CourtneyKuntz, _Children's Classics, +reserve RachelMiller, Country:CA"	Missing	[0385296622]	"0385296622, 9780385296625"		amazon.com	[2013-01-14]	6323
93143072	James and the Giant Peach: A Children's Story	"Dahl, Roald"		"Burkert, Nancy Ekholm"	Illustrator	"Puffin (1988), Paperback, 128 pages"	1988	Paperback	128 p.; 7.6 inches	0.25 pounds	7.6 inches	0.4 inches	5 inches	7.6 x 5 x 0.4 inches	128	"_Chapter Books, From:CourtneyKuntz, To:SusanBae, Country:China, 2013"	"NoLongerAvailable, 2013 Stats"	[0140328718]	"0140328718, 9780140328714"		amazon.com	[2013-01-14]	5138
93143073	Danny the Champion of the World	"Dahl, Roald"		"Bennett, Jill"	Illustrator	"Puffin (1988), Paperback, 208 pages"	1988	Paperback	208 p.	0.4 pounds				7.6 x 4.8 x 0.6 inches	208	"From:CourtneyKuntz, _Chapter Books, To:KimHill, Country:Uganda, 2014"	"NoLongerAvailable, 2014 Stats"	[0140328734]	"0140328734, 9780140328738"		amazon.com	[2013-01-14]	5729
93143075	Matilda	"Dahl, Roald"		"Blake, Quentin"	Illustrator	"Puffin Books (1990), Edition: later printing, Paperback, 240 pages"	1990	Paperback	240 p.; 7.6 inches	0.5 pounds	7.6 inches	0.7 inches	5 inches	7.6 x 5 x 0.7 inches	240	"_Chapter Books, From:CourtneyKuntz, To:IVTC, Country:USA, 2013"	"NoLongerAvailable, 2013 Stats"	[014034294X]	"014034294X, 9780140342949"		amazon.com	[2013-01-14]	1495
93143078	The Witches	"Dahl, Roald"		"Blake, Quentin"	Illustrator	"Puffin (1989), Mass Market Paperback, 208 pages"	1989	Paperback	208 p.; 7.6 inches	0.45 pounds	7.6 inches	0.6 inches	5 inches	7.6 x 5 x 0.6 inches	208	"_Chapter Books, From:CourtneyKuntz, To:IVTC, Country:USA, 2013"	"NoLongerAvailable, 2013 Stats"	[0140340203]	"0140340203, 9780140340204"		amazon.com	[2013-01-14]	1535
93143081	A Taste for Terror (Hardy Boys Casefiles No. 94)	"Dixon, Franklin W."				"Simon Pulse (1994), Edition: First Edition, Paperback, 160 pages"	1994	Paperback	160 p.; 6.7 inches	0.1 pounds	6.7 inches	0.6 inches	4.4 inches	6.7 x 4.4 x 0.6 inches	160	"From:CourtneyKuntz, To:SarahDeal, Country:Indonesia, 2015, _Chapter Book Series"	"NoLongerAvailable, 2015 Stats"	[0671882058]	"0671882058, 9780671882051"		amazon.com	[2013-01-14]	818752
93143085	"The Bungalow Mystery (Nancy Drew Mystery Stories, Bk 3)"	"Keene, Carolyn"		"Wirt, Mildred A."		"Grosset & Dunlap (1960), Edition: New edition, Hardcover, 192 pages"	1960	Hardcover	192 p.; 4.92 inches	0.6 pounds	4.92 inches	7.68 inches	0.75 inches	4.92 x 0.75 x 7.68 inches	192	"From:CourtneyKuntz, _Chapter Books, To:SarahHowell, Country:Indonesia, 2015"	"NoLongerAvailable, 2015 Stats"	[0448095033]	"0448095033, 9780448095035"		amazon.com	[2013-01-14]	38465
93143095	How to Eat Fried Worms	"Rockwell, Thomas"				"A Dell Yearling Book (1975), Paperback"	1975	Paperback	8.43 inches	0.79 pounds	8.43 inches	0.73 inches	5.85 inches	8.43 x 5.85 x 0.73 inches		"_Chapter Books, From:CourtneyKuntz, To:JessieZacek, Country:CA, 2013"	"NoLongerAvailable, 2013 Stats"	[]			amazon.com	[2013-01-14]	31521
93143098	"Space Blazers (Jack Anderson Presents : the Young Astronauts, No 3)"	"North, Rick"				"Zebra (1990), Mass Market Paperback, 157 pages"	1990	Paperback	157 p.; 6.8 inches	0.05 pounds	6.8 inches	0.4 inches	4.2 inches	6.8 x 4.2 x 0.4  inches	157	"_Chapter Books, From:CourtneyKuntz, To:YapLibrary, Country:Yap, 2013"	"NoLongerAvailable, 2013 Stats"	[0821731785]	"0821731785, 9780821731789"		amazon.com	[2013-01-14]	2134079
93143100	The Young Astronauts	"North, Rick"				"Zebra (1990), Mass Market Paperback, 159 pages"	1990	Paperback	159 p.; 6.8 inches	0.2 pounds	6.8 inches	0.4 inches	4.1 inches	6.8 x 4.1 x 0.4 inches	159	"_Chapter Books, From:CourtneyKuntz, To:YapLibrary, Country:Yap, 2013"	"NoLongerAvailable, 2013 Stats"	[0821730002]	"0821730002, 9780821730003"		amazon.com	[2013-01-14]	1440689
93143102	Sideways Stories from Wayside School	"Sachar, Louis"		"McCauley, Adam|Brincklo, Julie"	Illustrator|Illustrator	"HarperCollins (1985), Paperback, 128 pages"	1985	Paperback	128 p.; 7.6 inches	0.2 pounds	7.6 inches	0.3 inches	5.14 inches	7.6 x 5.14 x 0.3 inches	128	"From:CourtneyKuntz, _Chapter Books, To:VictoriaRice, Country:China, 2014"	"NoLongerAvailable, 2014 Stats"	[0380698714]	"0380698714, 9780380698714"		amazon.com	[2013-01-14]	38432
93143107	The Plant That Ate Dirty Socks	"McArthur, Nancy"				"HarperCollins (1988), Edition: 1st, Paperback, 128 pages"	1988	Paperback	128 p.; 7.51 inches	0.21 pounds	7.51 inches	0.38 inches	5.1 inches	7.51 x 5.1 x 0.38 inches	128	"From:CourtneyKuntz, _Chapter Books, To:KarenaBarber, Country:Madagascar, 2015"	"NoLongerAvailable, 2015 Stats"	[0380754932]	"0380754932, 9780380754939"		amazon.com	[2013-01-14]	511416
93143110	"Winter Worm Business (Casey, Tracy & Company (PB))"	"Giff, Patricia Reilly"				"Yearling (1983), Paperback, 144 pages"	1983	Paperback	144 p.; 7.4 inches	0.25 pounds	7.4 inches	0.4 inches	5.2 inches	7.4 x 5.2 x 0.4 inches	144	"From:CourtneyKuntz, _Chapter Books, 2017_inventory, 2018inv"	BookEnds	[0440492599]	"0440492599, 9780440492597"		amazon.com	[2013-01-14]	1558034
93143113	Tree House Island	"Hansen, Gordon"		"Corbett, Scott"	Illustrator	"Little Brown & Company (1959), Hardcover"	1959	Hardcover	8.1 inches	0.75 pounds	8.1 inches	1.2 inches	5.5 inches	8.1 x 5.5 x 1.2 inches		"_Chapter Books, From:CourtneyKuntz, To:AnettePainter, Country:Brazil, 2013"	"NoLongerAvailable, 2013 Stats"	[0316156744]	"0316156744, 9780316156745"		amazon.com	[2013-01-14]	2252304
93143115	Archy's Dream World	"Pierik, Robert"				"William Morrow (1972), Hardcover"	1972	Hardcover	8.3 inches	0.75 pounds	8.3 inches	0.8 inches	5.7 inches	8.3 x 5.7 x 0.8 inches		"_Chapter Books, From:CourtneyKuntz, To:YapLibrary, Country:Yap, 2013"	"NoLongerAvailable, 2013 Stats"	[0688210481]	"0688210481, 9780688210489"		amazon.com	[2013-01-14]	1477161
93143149	"The Materializing of Duncan McTavish (The Road to Avonlea Series, Book 4)"	"Conkie, Heather"				"Skylark (1992), Paperback"	1992	Paperback	7.4 inches	0.2 pounds	7.4 inches	0.4 inches	5.1 inches	7.4 x 5.1 x 0.4 inches		"From:CourtneyKuntz, _Historical Fiction, 2017_inventory, 2018inv"	BookEnds	[0553480308]	"0553480308, 9780553480306"		amazon.com	[2013-01-14]	1685525
93143150	CONVERSIONS: THE ROAD TO AVONLEA # 6	"Hamilton, Gail"				"Skylark (1992), Paperback, 123 pages"	1992	Paperback	123 p.; 7.4 inches	0.15 pounds	7.4 inches	0.4 inches	5 inches	7.4 x 5 x 0.4 inches	123	"From:CourtneyKuntz, _Historical Fiction, 2017_inventory, 2018inv"	BookEnds	[0553480324]	"0553480324, 9780553480320"		amazon.com	[2013-01-14]	1685526
93143152	Tree of freedom	"Caudill, Rebecca"				"Scholastic (1992), Edition: PF, Paperback, 279 pages"	1992	Paperback	279 p.; 7.5 inches	0.4 pounds	7.5 inches	0.8 inches	5.4 inches	7.5 x 5.4 x 0.8 inches	279	"_Historical Fiction, From:CourtneyKuntz, Country:Romania, 2013, To:BrandiBates"	"NoLongerAvailable, 2013 Stats"	[059044557X]	"059044557X, 9780590445573"		amazon.com	[2013-01-14]	32110
93143157	Ginnie And The Mystery Doll	Wooley		Boodell	Illustrator	"William Morrow and Company (1974), Hardcover"	1974	Hardcover								"_Historical Fiction, From:CourtneyKuntz, To:YapLibrary, Country:Yap, 2013"	"NoLongerAvailable, 2013 Stats"	[]			amazon.com	[2013-01-14]	736411
93143161	Rosabels Secret	Christgaus		Watson	Illustrator	"Young Scott Books (1967), Hardcover"	1967	Hardcover								"_Historical Fiction, From:CourtneyKuntz, To:YapLibrary, Country:Yap, 2013"	"NoLongerAvailable, 2013 Stats"	[]			amazon.com	[2013-01-14]	15688842
93143172	Shadrach by Meindert DeJong	"DeJong, Meindert"				"E.M. Hale And Company (1953), Hardcover"	1953	Hardcover								"_Historical Fiction, From:CourtneyKuntz, To:KarenHall, Country:Indonesia, 2013"	"NoLongerAvailable, 2013 Stats"	[]			amazon.com	[2013-01-14]	404198
93143173	Shiloh	"Naylor, Phyllis Reynolds"				"Random House Children's Books (1992), Edition: ZZZ, Paperback, 144 pages"	1992	Paperback	144 p.; 7.5 inches	0.15 pounds	7.5 inches	0.5 inches	5 inches	7.5 x 5 x 0.5 inches	144	"From:CourtneyKuntz, _Historical Fiction, To:HeidiCollins, Country:Yap, 2015"	"NoLongerAvailable, 2015 Stats"	[0440802970]	"0440802970, 9780440802976"		amazon.com	[2013-01-14]	6283
93143176	Rascal	"North, Sterling"		"Schoenherr, John"	Illustrator	"Scholastic (1991), Edition: 1ST, Paperback, 189 pages"	1991	Paperback	189 p.	0.31 pounds				7.5 x 5.2 x 0.5 inches	189	"_Historical Fiction, From:CourtneyKuntz, To:KarenHall, Country:Indonesia, 2013"	"NoLongerAvailable, 2013 Stats"	[0590446711]	"0590446711, 9780590446716"		amazon.com	[2013-01-14]	4490
93143185	How to Get Fabulously Rich	"Rockwell, Thomas"				"Yearling (1991), Paperback, 144 pages"	1991	Paperback	144 p.; 7.4 inches	0.25 pounds	7.4 inches	0.5 inches	4.9 inches	7.4 x 4.9 x 0.5 inches	144	"From:CourtneyKuntz, _Chapter Books, 2017_inventory, To:LindaLugtigheid, Country:Indonesia, 2017"	"NoLongerAvailable, 2017 Stats"	[0440405467]	"0440405467, 9780440405467"		amazon.com	[2013-01-14]	475747
93143195	Sea Star - Orphan of Chincoteague	"Henry, Marguerite"		"Dennis, Wesley"	Illustrator	"Rand McNally (1972), Paperback"	1972	Paperback	7.4 inches	0.2 pounds	7.4 inches	0.6 inches	5.2 inches	7.4 x 5.2 x 0.6 inches		"_Horse Stories, From:CourtneyKuntz, To:YapLibrary, Country:Yap, 2013"	"NoLongerAvailable, 2013 Stats"	[]			amazon.com	[2013-01-14]	60195
93143211	Black Beauty (Children's Classics)	"Sewell, Anna"				"Tiger Books International (1990), Edition: n.e., Paperback, 254 pages"	1990	Paperback								"From:CourtneyKuntz, _Horse Stories, To:BrianaStokes, Country:Indonesia, 2015"	"NoLongerAvailable, 2015 Stats"	[1855010429]	"1855010429, 9781855010420"		amazon.com	[2013-01-14]	3792018
93143216	Behind the Attic Wall (Avon Camelot Books)	"Cassedy, Sylvia"				"HarperCollins (1985), Edition: First Edition, Paperback, 320 pages"	1985	Paperback	320 p.; 7.5 inches	0.46 pounds	7.5 inches	0.71 inches	5.17 inches	7.5 x 5.17 x 0.71 inches	320	"_Fantasy, From:CourtneyKuntz, To:YapLibrary"	"NoLongerAvailable, 2013 Stats"	[0380698439]	"0380698439, 9780380698431"		amazon.com	[2013-01-14]	27001
93143218	The Castle in the Attic	"Winthrop, Elizabeth"				"Bantam-Skylark Book (1986), Paperback, 179 pages"	1986	Paperback	179 p.	0.3 pounds				7.4 x 5.1 x 0.5 inches	179	"_Fantasy, From:CourtneyKuntz, To:VickiPenwell, Country:Philippines, 2013, stats"	"NoLongerAvailable, 2013 Stats"	[0553156012]	"0553156012, 9780553156010"		amazon.com	[2013-01-14]	86263
93143221	A Wrinkle in Time	"L'Engle, Madeleine"				"Bantam Books (Mm) (1988), Paperback"	1988	Paperback	6.6 inches	0.15 pounds	6.6 inches	0.5 inches	4.2 inches	6.6 x 4.2 x 0.5 inches		"_Fantasy, From:CourtneyKuntz, To:YapLibrary, Country:Yap, 2013"	"NoLongerAvailable, 2013 Stats"	[0440800544]	"0440800544, 9780440800545"		amazon.com	[2013-01-14]	4044
93143227	A Night to Remember	"Lord, Walter"				"Bantam (1997), Mass Market Paperback, 224 pages"	1997	Paperback	224 p.; 6.9 inches	0.25 pounds	6.9 inches	0.7 inches	4.1 inches	6.9 x 4.1 x 0.7 inches	224	"From:CourtneyKuntz, _History, To:TalithaUlloa, Country:Costa Rica, 2015"	"NoLongerAvailable, 2015 Stats"	[0553169939]	"0553169939, 9780553169935"		amazon.com	[2013-01-14]	106418
93143230	Disaster at Johnstown: The Great Flood	"Dolson, Hildegarde"		"Cellini, Joseph"	Illustrator	"Random House (1965), Edition: 1St Edition, Hardcover"	1965	Hardcover								"From:CourtneyKuntz, _History, 2017_inventory, 2018inv, #reserve LaurenDucommun, Country:Papua Ind, 2019"	"NoLongerAvailable, 2019 Stats"	[]			amazon.com	[2013-01-14]	3043555
93143232	The golden fleece and the heroes who lived before Achilles	"Colum, Padriac"				"Scholastic (1990), Edition: 1St Edition, Paperback, 316 pages"	1990	Paperback	316 p.	0.5 pounds					316	"_History, From:CourtneyKuntz, Country:Indonesia, 2013, To:CyndiRichardson"	"NoLongerAvailable, 2013 Stats"	[0590436848]	"0590436848, 9780590436847"		amazon.com	[2013-01-14]	44158
93143235	My Story (Rosa Parks)	"Parks, Rosa"		"Haskins, Jim|Haskins, Rosa Parks & Jim"	|	"Scholastic Inc. (1992), Paperback, 208 pages"	1992	Paperback	208 p.; 7.4 inches	0.45 pounds	7.4 inches	0.6 inches	5.2 inches	7.4 x 5.2 x 0.6 inches	208	"_Biographies, From:CourtneyKuntz, To:VictoriaRice, 2013, Country:China"	"NoLongerAvailable, 2013 Stats"	[0590465384]	"0590465384, 9780590465380"		amazon.com	[2013-01-14]	76899
93143237	Tucker's Countryside	"Selden, George"		"Williams, Garth"	Illustrator	"Farrar, Straus , Giroux (1970), Edition: Third Printing, Hardcover"	1970	Hardcover								"From:CourtneyKuntz, _Chapter Books, To:VictoriaRice, Country:China, 2014"	"NoLongerAvailable, 2014 Stats"	[]			amazon.com	[2013-01-14]	1964567
93143241	Onion John	"Krumgold, Joseph"				"Scholastic (1990), Paperback, 248 pages"	1990	Paperback	248 p.; 7.5 inches	0.3 pounds	7.5 inches	0.7 inches	5 inches	7.5 x 5 x 0.7 inches	248	"_Chapter Books, From:CourtneyKuntz, Country:Romania, 2013, To:BrandiBates"	"NoLongerAvailable, 2013 Stats"	[0590435418]	"0590435418, 9780590435413"		amazon.com	[2013-01-14]	146430
93143261	A Bug in a Jug and Other Funny Rhymes	"Patrick, Gloria"		"Hanson, Joan"	Illustrator	"Scholastic (1970), Edition: Reprint, Paperback"	1970	Paperback								"_Beginning Readers, From:CourtneyKuntz, To:SabinaSchumacher, Country:Egypt, 2013"	"NoLongerAvailable, 2013 Stats"	[]			amazon.com	[2013-01-14]	1175940
93143268	The Cat Who Turned On and Off	"Braun, Lilian Jackson"				"Jove (1986), Mass Market Paperback, 272 pages"	1986	Paperback	272 p.; 6.88 inches	0.29 pounds	6.88 inches	0.75 inches	4.19 inches	6.88 x 4.19 x 0.75 inches	272	"From:CourtneyKuntz, To:YapLibrary, Country:Yap, 2013, _Chapter Books, _Adult Classics"	"NoLongerAvailable, 2013 Stats"	[0515087947]	"0515087947, 9780515087949"		amazon.com	[2013-01-14]	40217
93143270	To Kill a Mockingbird	"Lee, Harper"				"Grand Central Publishing (1988), Mass Market Paperback, 384 pages"	1988	Paperback	384 p.; 4.25 inches	0.41 pounds	4.25 inches	7 inches	1.25 inches	4.25 x 1.25 x 7 inches	384	"From:CourtneyKuntz, 2013, To:BridgesAcademy, Country:South Africa, _Adult Classics"	"NoLongerAvailable, 2013 Stats"	[0446310786]	"0446310786, 9780446310789"		amazon.com	[2013-01-14]	3092
93143282	Favorite Poems Of Emily Dickinson	"Todd, Mabel Loomis"		"Higginson, Thomas Wentworth|Wilkins, Cary"	Editor|Introduction	"Avenel Books (1978), Edition: 1St Edition, Hardcover, 160 pages"	1978	Hardcover	160 p.; 7.2 inches	0.45 pounds	7.2 inches	0.7 inches	4.6 inches	7.2 x 4.6 x 0.7 inches	160	"From:CourtneyKuntz, _Poetry, To:AnnaRice, Country:SE Asia-L, 2016"	"NoLongerAvailable, 2016 Stats"	[0517259222]	"0517259222, 9780517259221"		amazon.com	[2013-01-14]	1080707
93143287	A Rocket in My Pocket	"Withers, Carl"				"Scholastic (1990), Paperback, 214 pages"	1990	Paperback	214 p.; 8.9 inches	0.65 pounds	8.9 inches	0.5 inches	5.9 inches	8.9 x 5.9 x 0.5 inches	214	"From:CourtneyKuntz, _Poetry, To:LauraKvernen, Country:China, 2014"	"NoLongerAvailable, 2014 Stats"	[0590431579]	"0590431579, 9780590431576"		amazon.com	[2013-01-14]	566102
93143295	Lonely Planet Australian Phrasebook: Language Survival Kit (Lonely Planet Phrasebook: India)	"Butler, Susan"				"Lonely Planet Publications (1998), Edition: 2, Paperback, 256 pages"	1998	Paperback	256 p.; 5.58 inches	0.26 pounds	5.58 inches	0.6 inches	3.68 inches	5.58 x 3.68 x 0.6 inches	256	"_Cultures, From:CourtneyKuntz, To:YapLibrary, Country:Yap, 2013"	"NoLongerAvailable, 2013 Stats"	[0864425767]	"0864425767, 9780864425768"		amazon.com	[2013-01-14]	214812
93143325	Koko's Story	"Patterson, Francine"		"Cohn, Ronald H.|Cohn, Ronald H."	|Illustrator	"Scholastic Trade (1988), Paperback, 40 pages"	1988	Paperback	40 p.; 10.6 inches	0.35 pounds	10.6 inches	0.2 inches	7.9 inches	10.6 x 7.9 x 0.2 inches	40	"From:CourtneyKuntz, _Science, To:KristiFlorek, Country:Ethiopia, 2014"	"NoLongerAvailable, 2014 Stats"	[0590413643]	"0590413643, 9780590413640"		amazon.com	[2013-01-14]	246795
93143344	A Sky for Henry	"Strodder, Chris"		"Kennedy, Emilie"		"Red Hen Pr (1985), Paperback, 32 pages"	1985	Paperback							32	"_In-Between Readers, From:CourtneyKuntz, To:YapLibrary, Country:Yap, 2013"	"NoLongerAvailable, 2013 Stats"	[0931093031]	"0931093031, 9780931093036"		amazon.com	[2013-01-14]	13403056
93240236	The Mini Page Book Of States	"Debnam, Betty"				"Andrews McMeel Publishing (1988), Edition: Original, Paperback, 111 pages"	1988	Paperback	111 p.			2.42 inches	1.86 inches	1.86 x 2.42 inches	111	"From:CourtneyKuntz, _Geography, 2017_inventory, To:LanaFerguson, Country:Palau, 2017"	"NoLongerAvailable, 2017 Stats"	[0836242041]	"0836242041, 9780836242041"		amazon.com	[2013-01-17]	1269939
93240243	Rand McNally World Atlas	"McNally, Rand"				"Grolier Ent. (1992), Hardcover"	1992	Hardcover	11.1 inches	1.9 pounds	11.1 inches	0.8 inches	9 inches	11.1 x 9 x 0.8 inches		"From:CourtneyKuntz, _Geography, To:LeighaMackin, Country:Indonesia, 2014"	"NoLongerAvailable, 2014 Stats"	[0717253244]	"0717253244, 9780717253241"		amazon.com	[2013-01-17]	270171
114385942	Blubber	"Blume, Judy"				"Bradbury Press (1974), Edition: First Edition, Hardcover, 153 pages"	1974	Hardcover	153 p.; 8.4 inches	0.85 pounds	8.4 inches	1 inch	5.9 inches	8.4 x 5.9 x 1 inches	153	"_Chapter Book Series, From:CourtneyKuntz, To:KaraSchaffler, Country:Madagascar, 2015"	"NoLongerAvailable, 2015 Stats"	[0878880720]	"0878880720, 9780878880720"		amazon.com	[2014-11-28]	37178
114385951	By Judy Blume: Tales of a Fourth-Grade Nothing	"Juvenile-, -Dutton"				"Hardcover (1972), Hardcover"	1972	Hardcover	7.7 inches	0.4 pounds	7.7 inches	0.4 inches	5.1 inches	7.7 x 5.1 x 0.4 inches		"_Chapter Book Series, From:CourtneyKuntz, To:SusanBae, Country:China, 2015"	"NoLongerAvailable, 2015 Stats"	[]			amazon.com	[2014-11-28]	6301
114385961	Otherwise Known as Sheila the Great	"Blume, Judy"				"Dutton Juvenile (1972), Edition: 1st, Hardcover, 128 pages"	1972	Hardcover	128 p.; 5.83 inches	0.72 pounds	5.83 inches	8.62 inches	0.63 inches	5.83 x 0.63 x 8.62 inches	128	"_Chapter Book Series, From:CourtneyKuntz, To:RachelHamann, Country:Turkey, 2017"	"NoLongerAvailable, 2017 Stats"	[0525364552]	"0525364552, 9780525364559"		amazon.com	[2014-11-28]	45377
114385967	"Are You There God? It's Me, Margaret by Blume, Judy published by Yearling (1986) [Paperback]"	"Blume, Judy"				"Yearling (1972), Paperback"	1972	Paperback	7.6 inches	0.25 pounds	7.6 inches	0.6 inches	5.1 inches	7.6 x 5.1 x 0.6 inches		"_Chapter Book Series, From:CourtneyKuntz, To:AmyRhiger, Country:Philippines, 2016"	"NoLongerAvailable, 2016 Stats"	[]			amazon.com	[2014-11-28]	10181
