53587861	Tree House Mystery (Sugar Creek Gang Series)	"Hutchens, Paul"				"Moody Publishers (1999), Edition: Revised, Mass Market Paperback, 144 pages"	1999	Paperback	144 p.; 7.03 inches	0.2 pounds	7.03 inches	0.41 inches	4.3 inches	7.03 x 4.3 x 0.41 inches	144	"_Chapter Book Series, To:DavidMiller, Country:CA, 2014"	"NoLongerAvailable, 2014 Stats"	[0802470351]	"0802470351, 9780802470355"		amazon.com	[2009-11-28]	459950
53589269	"Mandie and the Trunk's Secret (Mandie, Book 5)"	"Leppard, Lois"				"Bethany House Publishers (1985), Mass Market Paperback, 128 pages"	1985	Paperback	128 p.; 7 inches	0.15 pounds	7 inches	0.4 inches	4.2 inches	7 x 4.2 x 0.4 inches	128	"_Chapter Books, 2012, Country:CA, stats, To:DavidMiller"	"NoLongerAvailable, 2012 Stats"	[087123839X]	"087123839X, 9780871238399"		amazon.com	[2009-11-28]	67013
53589345	"Mandie and Jonathan's Predicament (Mandie, Book 28)"	"Leppard, Lois"				"Bethany House Publishers (1997), Mass Market Paperback, 176 pages"	1997	Paperback	176 p.; 7.02 inches	0.22 pounds	7.02 inches	0.51 inches	4.28 inches	7.02 x 4.28 x 0.51 inches	176	"_Chapter Books, Country:CA, 2012, stats, To:DavidMiller"	"NoLongerAvailable, 2012 Stats"	[1556615558]	"1556615558, 9781556615559"		amazon.com	[2009-11-28]	720540
53589450	Who's Mandie? (Young Mandie Mystery Series #1)	"Leppard, Lois Gladys"				"Skylark (1999), Paperback, 128 pages"	1999	Paperback	128 p.; 7.5 inches	0.2 pounds	7.5 inches	0.4 inches	5 inches	7.5 x 5 x 0.4 inches	128	"_Chapter Books, 2012, Country:CA, stats, To:DavidMiller"	"NoLongerAvailable, 2012 Stats"	[0553486594]	"0553486594, 9780553486599"		amazon.com	[2009-11-28]	1097737
53589460	The New Girl (Young Mandie Mystery #2)	"Leppard, Lois Gladys"				"Skylark (1999), Paperback, 128 pages"	1999	Paperback	128 p.; 7.4 inches	0.2 pounds	7.4 inches	0.4 inches	5.2 inches	7.4 x 5.2 x 0.4 inches	128	"_Chapter Books, Country:CA, 2012, stats, To:DavidMiller"	"NoLongerAvailable, 2012 Stats"	[0553486608]	"0553486608, 9780553486605"		amazon.com	[2009-11-28]	704220
53668215	Tell Me the Secrets	"Lucado, Max"		"DiCianni, Ron"	Illustrator	"Crossway Books (2004), Hardcover, 64 pages"	2004	Hardcover	64 p.; 10.28 inches	0.87 pounds	10.28 inches	0.39 inches	8.38 inches	10.28 x 8.38 x 0.39 inches	64	"Country:CA, To:DavidMiller, 2008"	NoLongerAvailable	[1581345224]	"1581345224, 9781581345223"		amazon.com	[2009-11-30]	149713
53668218	Tell Me the Story	"Lucado, Max"		"DiCianni, Ron"	Illustrator	"Crossway Books (2005), Hardcover, 64 pages"	2005	Hardcover	64 p.; 10.28 inches	0.83 pounds	10.28 inches	0.36 inches	8.36 inches	10.28 x 8.36 x 0.36 inches	64	"Country:CA, To:DavidMiller, 2008"	NoLongerAvailable	[1581345232]	"1581345232, 9781581345230"		amazon.com	[2009-11-30]	459769
53668238	Adventures in the Big Thicket	"Gire, Ken"		"Miles, Elizabeth"	Illustrator	"Focus on the Family Pub (1990), Hardcover, 115 pages"	1990	Hardcover	115 p.; 10 inches	1.45 pounds	10 inches	0.7 inches	8.2 inches	10 x 8.2 x 0.7 inches	115	"Country:CA, To:DavidMiller, 2008"	NoLongerAvailable	[0929608720]	"0929608720, 9780929608723"		amazon.com	[2009-11-30]	318757
53668303	"Helen Keller: Courage in the Dark (Step-Into-Reading, Step 4)"	"Hurwitz, Johanna"				"Random House Books for Young Readers (1997), Paperback, 48 pages"	1997	Paperback	48 p.; 8.7 inches	0.15 pounds	8.7 inches	0.2 inches	5.8 inches	8.7 x 5.8 x 0.2 inches	48	"Country:CA, To:DavidMiller, _Biographies, 2008"	NoLongerAvailable	[0679877053]	"0679877053, 9780679877059"		amazon.com	[2009-11-30]	1846967
53668645	The Cul-de-sac Kids Books 1-6 (Boxed Set)	"Group, Baker Publishing"				"Bethany House (1995), Paperback, 480 pages"	1995	Paperback	480 p.; 7.88 inches	1.12 pounds	7.88 inches	1.76 inches	5.44 inches	7.88 x 5.44 x 1.76 inches	480	"Country:CA, To:DavidMiller, _Chapter Books, 2008"	NoLongerAvailable	[1556618042]	"1556618042, 9781556618048"		amazon.com	[2009-11-30]	4688559
53668827	"Cul-de-sac Kids Pack, vols. 7-12"	"Group, Baker Publishing"				"Bethany House (1997), Paperback, 480 pages"	1997	Paperback	480 p.; 7.76 inches	1.09 pounds	7.76 inches	1.72 inches	5.39 inches	7.76 x 5.39 x 1.72 inches	480	"Country:CA, To:DavidMiller, _Chapter Books, 2008"	NoLongerAvailable	[0764281550]	"0764281550, 9780764281556"		amazon.com	[2009-11-30]	4688562
53669029	The Littles and the Big Storm	"Peterson, John"		"Clarke, Roberta Cart Er"	Illustrator	"Scholastic Paperbacks (1994), Paperback, 80 pages"	1994	Paperback	80 p.; 7.6 inches	0.13 pounds	7.6 inches	0.29 inches	5.28 inches	7.6 x 5.28 x 0.29 inches	80	"Country:CA, To:DavidMiller, _Chapter Books, 2008"	NoLongerAvailable	[0590422766]	"0590422766, 9780590422765"		amazon.com	[2009-11-30]	205799
53669138	Socks	"Cleary, Beverly"					no date	Paperback	6.7 inches	0.2 pounds	6.7 inches	0.5 inches	4.1 inches	6.7 x 4.1 x 0.5 inches		"Country:CA, To:DavidMiller, 2008, _Chapter Book Series"	NoLongerAvailable	[0440782562]	"0440782562, 9780440782568"		amazon.com	[2009-11-30]	70000
53669232	Betsy-Tacy and Tib (Betsy-Tacy Books)	"Lovelace, Maud Hart"		"Lenski, Lois"	Illustrator	"HarperCollins (1979), Paperback, 160 pages"	1979	Paperback	160 p.; 7.6 inches	0.24 pounds	7.6 inches	0.36 inches	5.18 inches	7.6 x 5.18 x 0.36 inches	160	"Country:CA, To:DavidMiller, _Chapter Books, 2008"	NoLongerAvailable	[0064400972]	"0064400972, 9780064400978"		amazon.com	[2009-11-30]	32930
53669280	Mrs. Piggle-Wiggle's Magic	"Macdonald, Betty"		"Knight, Hilary"	Illustrator	"HarperCollins (1985), Paperback, 192 pages"	1985	Paperback	192 p.; 7.76 inches	0.23 pounds	7.76 inches	0.34 inches	5.12 inches	7.76 x 5.12 x 0.34 inches	192	"Country:CA, To:DavidMiller, 2008, _Chapter Book Series"	NoLongerAvailable	[0064401510]	"0064401510, 9780064401517"		amazon.com	[2009-11-30]	33811
53669372	The Littles to the Rescue	"Peterson, John"		"Clark, Roberta Carter"	Illustrator	"Scholastic Paperbacks (1993), Paperback, 95 pages"	1993	Paperback	95 p.; 7.61 inches	0.16 pounds	7.61 inches	0.23 inches	5.25 inches	7.61 x 5.25 x 0.23 inches	95	"Country:CA, To:DavidMiller, _Chapter Books, _Fantasy, 2008"	NoLongerAvailable	[0590462237]	"0590462237, 9780590462235"		amazon.com	[2009-11-30]	503129
53669408	Betsy-Tacy (Betsy-Tacy Books)	"Lovelace, Maud Hart"		"Lenski, Lois"	Illustrator	"HarperCollins (2000), Paperback, 144 pages"	2000	Paperback	144 p.; 9 inches	0.47 pounds	9 inches	0.46 inches	6.1 inches	9 x 6.1 x 0.46 inches	144	"Country:CA, To:DavidMiller, _Chapter Books, 2008"	NoLongerAvailable	[0064400964]	"0064400964, 9780064400961"		amazon.com	[2009-11-30]	32929
53669441	Five Little Peppers and How They Grew (Aladdin Classics)	"Sidney, Margaret"		"Martin, Ann M."	Foreword	"Aladdin (2006), Paperback, 352 pages"	2006	Paperback	352 p.; 7.69 inches	0.54 pounds	7.69 inches	0.96 inches	5.14 inches	7.69 x 5.14 x 0.96 inches	352	"Country:CA, To:DavidMiller, _Chapter Books, 2008"	NoLongerAvailable	[1416916172]	"1416916172, 9781416916178"		amazon.com	[2009-11-30]	20220
53669530	Betsy and Tacy Go Over the Big Hill (Betsy-Tacy Books (Prebound))	"Lovelace, Maud Hart"		"Blume, Judy|Lenski, Lois"	Foreword|Illustrator	"Perfection Learning (1979), Hardcover, 178 pages"	1979	Hardcover	178 p.; 7.4 inches	0.4 pounds	7.4 inches	0.6 inches	5.1 inches	7.4 x 5.1 x 0.6 inches	178	"Country:CA, To:DavidMiller, _Chapter Books, 2008"	NoLongerAvailable	[0780790928]	"0780790928, 9780780790926"		amazon.com	[2009-11-30]	32927
53669555	Mrs. Piggle-Wiggle's Farm	"MacDonald, Betty"		"Sendak, Maurice"	Illustrator	"HarperCollins (1985), Edition: 1, Paperback, 128 pages"	1985	Paperback	128 p.; 7.63 inches	0.18 pounds	7.63 inches	0.32 inches	5.13 inches	7.63 x 5.13 x 0.32 inches	128	"Country:CA, To:DavidMiller, 2008, _Chapter Book Series"	NoLongerAvailable	[0064401502]	"0064401502, 9780064401500"		amazon.com	[2009-11-30]	95562
53669575	Mrs. Piggle-Wiggle	"MacDonald, Betty"		"Knight, Hilary"	Illustrator	"HarperCollins (1985), Paperback, 128 pages"	1985	Paperback	128 p.; 7.7 inches	0.23 pounds	7.7 inches	0.32 inches	5.15 inches	7.7 x 5.15 x 0.32 inches	128	"Country:CA, To:DavidMiller, 2008, _Chapter Book Series"	NoLongerAvailable	[0064401480]	"0064401480, 9780064401487"		amazon.com	[2009-11-30]	4430
53669604	New Kid in Town (Janette Oke's Animal Friends)	"Oke, Janette"		"Munger, Nancy"	Illustrator	"Bethany House Publishers (2001), Edition: Revised, Paperback, 75 pages"	2001	Paperback	75 p.; 7.68 inches	0.24 pounds	7.68 inches	0.17 inches	5.25 inches	7.68 x 5.25 x 0.17 inches	75	"Country:CA, To:DavidMiller, _Chapter Books, 2008"	NoLongerAvailable	[0764224492]	"0764224492, 9780764224492"		amazon.com	[2009-11-30]	497179
53669618	Pordys Prickly Problem (Janette Okes Animal Friends)	"Oke, Janette"				"Bethany House (2001), Edition: Revised, Paperback, 80 pages"	2001	Paperback	80 p.; 7.64 inches	0.23 pounds	7.64 inches	0.21 inches	5.3 inches	7.64 x 5.3 x 0.21 inches	80	"Country:CA, To:DavidMiller, _Chapter Books, 2008"	NoLongerAvailable	[0764224581]	"0764224581, 9780764224584"		amazon.com	[2009-11-30]	740855
53669628	Trouble in a Fur Coat (Janette Okes Animal Friends)	"Oke, Janette"				"Bethany House (2001), Edition: Revised full-colour ed, Paperback, 80 pages"	2001	Paperback	80 p.; 7.4 inches	0.15 pounds	7.4 inches	0.2 inches	5.1 inches	7.4 x 5.1 x 0.2 inches	80	"Country:CA, To:DavidMiller, _Chapter Books, 2008"	NoLongerAvailable	[0764224565]	"0764224565, 9780764224560"		amazon.com	[2009-11-30]	16052370
53669682	Prairie Dog Town (Janette Okes Animal Friends)	"Oke, Janette"				"Bethany House (2001), Edition: Revised, Paperback, 80 pages"	2001	Paperback	80 p.; 7.64 inches	0.24 pounds	7.64 inches	0.2 inches	5.27 inches	7.64 x 5.27 x 0.2 inches	80	"Country:CA, To:DavidMiller, _Chapter Books, 2008"	NoLongerAvailable	[0764224557]	"0764224557, 9780764224553"		amazon.com	[2009-11-30]	740844
53669694	Who's New at the Zoo? (Janette Oke's Animal Friends)	"Oke, Janette"				"Bethany House (2001), Edition: Revised, Paperback, 72 pages"	2001	Paperback	72 p.; 7.65 inches	0.22 pounds	7.65 inches	0.19 inches	5.28 inches	7.65 x 5.28 x 0.19 inches	72	"Country:CA, To:DavidMiller, _Chapter Books, 2008"	NoLongerAvailable	[0764224603]	"0764224603, 9780764224607"		amazon.com	[2009-11-30]	740853
54031405	Garfield Goes To Disobedience School(Tr)	"Davis, Nancy"				"Troll Communications (1997), Paperback, 24 pages"	1997	Paperback	24 p.; 7.8 inches	0.15 pounds	7.8 inches	0.1 inches	7.7 inches	7.8 x 7.7 x 0.1 inches	24	"_Comics, 2012, Country:CA, stats, To:DavidMiller"	"NoLongerAvailable, 2012 Stats"	[081674291X]	"081674291X, 9780816742912"		amazon.com	[2009-12-12]	3824480
54551389	"Ida Scudder: Healing Bodies, Touching Hearts (Christian Heroes: Then & Now)"	"Benge, Janet"		"Benge, Geoff"		"Y W A M Pub (2003), Edition: 1st Printing, Paperback, 189 pages"	2003	Paperback	189 p.; 8.04 inches	0.38 pounds	8.04 inches	0.52 inches	5.28 inches	8.04 x 5.28 x 0.52 inches	189	"_Missionary Biographies, Country:CA, 2012, stats, To:DavidMiller"	"NoLongerAvailable, 2012 Stats"	[157658285X]	"157658285X, 9781576582855"		amazon.com	[2009-12-28]	3851810
59282410	"Lily's In London?! (Young Women of Faith, Lily 13)"	"Rue, Nancy"				"Zonderkidz (2003), Paperback, 160 pages"	2003	Paperback	160 p.; 8.66 inches	0.53 pounds	8.66 inches	0.53 inches	6.24 inches	8.66 x 6.24 x 0.53 inches	160	"_Chapter Book Series, To:DavidMiller, Country:CA, 2014"	"NoLongerAvailable, 2014 Stats"	[0310705541]	"0310705541, 9780310705543"		amazon.com	[2010-04-26]	1623104
70365677	"Horse Crazy Lily (Young Women of Faith: Lily Series, Book 11)"	"Rue, Nancy"				"Zonderkidz (2003), Paperback, 128 pages"	2003	Paperback	128 p.; 8.52 inches	0.43 pounds	8.52 inches	0.39 inches	6.32 inches	8.52 x 6.32 x 0.39 inches	128	"_Chapter Book Series, To:DavidMiller, Country:CA, 2014"	"NoLongerAvailable, 2014 Stats"	[0310702631]	"0310702631, 9780310702634"		amazon.com	[2011-02-20]	1015754
77677987	Sam Houston. Illustrated by George Roth	"Mooney, Booth (1912-)"				"Chicago, Follett Pub. Co (1966), Edition: 1St Edition, Hardcover"	1966	Hardcover	8.3 inches	0.85 pounds	8.3 inches	0.8 inches	5.6 inches	8.3 x 5.6 x 0.8 inches		"From:LauraTeel, _Biographies, Country:CA, 2012, stats, To:DavidMiller"	"NoLongerAvailable, 2012 Stats"	[]			amazon.com	[2011-09-03]	2899196
77677996	Sam Houston : The Tallest Texan. Landmark Books No. 32	"Johnson, William. Illustrated By William Reusswig"				"Random House (1953), Edition: LandmarkEd #32, Hardcover"	1953	Hardcover	9 inches	1.38 pounds	9 inches	1 inch	6 inches	9 x 6 x 1 inches		"From:LauraTeel, _Biographies, Country:CA, 2012, stats, To:DavidMiller"	"NoLongerAvailable, 2012 Stats"	[]			amazon.com	[2011-09-03]	119124
83763083	Adventures of Sherlock Holmes	"Doyle, Arthur Conan, Sir"				"Airmont Pub Co (1964), Edition: 1st Edition, Paperback"	1964	Paperback	7 inches	0.15 pounds	7 inches	0.6 inches	4.2 inches	7 x 4.2 x 0.6 inches		"From:LoisPaul, _Adult Fiction, To:DavidMiller, Country:CA, 2014"	"NoLongerAvailable, 2014 Stats"	[0804900973]	"0804900973, 9780804900973"		amazon.com	[2012-03-11]	19007
85349147	The Winter Rescue (Sugar Creek Gang Series)	"Hutchins, Paul"				"Moody Pr (J) (1970), Paperback"	1970	Paperback	6.6 inches	0.15 pounds	6.6 inches	0.5 inches	4.2 inches	6.6 x 4.2 x 0.5 inches		"From:VanesaStory, _Chapter Book Series, To:DavidMiller, Country:CA, 2014"	"NoLongerAvailable, 2014 Stats"	[0802448038]	"0802448038, 9780802448033"		amazon.com	[2012-05-05]	348573
85349150	The Secret Hideout (Sugar Creek Gang #5)	"Hutchens, Paul"				"Moody Press (1968), Paperback"	1968	Paperback	6.6 inches	0.05 pounds	6.6 inches	0.5 inches	4.1 inches	6.6 x 4.1 x 0.5 inches		"From:VanesaStory, _Chapter Book Series, To:DavidMiller, Country:CA, 2014"	"NoLongerAvailable, 2014 Stats"	[0802448062]	"0802448062, 9780802448064"		amazon.com	[2012-05-05]	348544
85349155	Sugar Creek Gang and the Cemetery Vandals	"Hutchens, Paul"				"Moody Pr (J) (1972), Paperback"	1972	Paperback	6.5 inches	0.1 pounds	6.5 inches	0.5 inches	4.1 inches	6.5 x 4.1 x 0.5 inches		"From:VanesaStory, _Chapter Book Series, To:DavidMiller, Country:CA, 2014"	"NoLongerAvailable, 2014 Stats"	[0802448291]	"0802448291, 9780802448293"		amazon.com	[2012-05-05]	3859269
85614641	Working with Wisdom	"Martin, Mildred A"				"Green Pastures Press (1996), Paperback, 76 pages"	1996	Paperback	76 p.; 10.7 inches	0.5 pounds	10.7 inches	0.4 inches	8.1 inches	10.7 x 8.1 x 0.4 inches	76	"_Bible-Related, 2012, Country:CA, stats, To:DavidMiller"	"NoLongerAvailable, 2012 Stats"	[1884377025]	"1884377025, 9781884377020"		amazon.com	[2012-05-13]	67586
85871659	Stuff You Don't Have to Pray About	"Shellenberger, Susie"				"Broadman & Holman Pub (1995), Paperback, 167 pages"	1995	Paperback	167 p.; 8.1 inches	0.4 pounds	8.1 inches	0.4 inches	5.2 inches	8.1 x 5.2 x 0.4 inches	167	"_Bible-Related, From:KristaRodkey, 2012, Country:CA, stats, To:DavidMiller"	"NoLongerAvailable, 2012 Stats"	[0805450890]	"0805450890, 9780805450897"		amazon.com	[2012-05-21]	1013255
86505143	When Daddy Prays	"Grimes, Nikki"		"Ladwig, Tim"	Illustrator	"Eerdmans Books for Young Readers (2004), Paperback, 32 pages"	2004	Paperback	32 p.; 11.44 inches	0.39 pounds	11.44 inches	0.51 inches	9.06 inches	11.44 x 9.06 x 0.51 inches	32	"From:JuliaShaffer, _Bible-Related, 2012, Country:CA, stats, To:DavidMiller"	"NoLongerAvailable, 2012 Stats"	[0802852661]	"0802852661, 9780802852663"		amazon.com	[2012-06-08]	2142219
86563141	Garfield at Large	"Davis, Jim"				"Ballantine (1980), Edition: 1st, Paperback, 128 pages"	1980	Paperback	128 p.; 8.2 inches	0.05 pounds	8.2 inches	0.6 inches	4.8 inches	8.2 x 4.8 x 0.6 inches	128	"_Comics, Country:CA, 2012, stats, To:DavidMiller"	"NoLongerAvailable, 2012 Stats"	[0345287797]	"0345287797, 9780345287793"		amazon.com	[2012-06-09]	41029
86954179	MINE	"Keane, Bil"				"Fawcett (1983), Mass Market Paperback"	1983	Paperback	6.7 inches	0.1 pounds	6.7 inches	0.5 inches	4 inches	6.7 x 4 x 0.5 inches		"_Comics, Country:CA, 2012, stats, To:DavidMiller"	"NoLongerAvailable, 2012 Stats"	[044912570X]	"044912570X, 9780449125700"		amazon.com	[2012-06-21]	1026661
86954187	"When's Later, Daddy?"	"Keane, Bil"				"Fawcett (1981), Mass Market Paperback"	1981	Paperback	6.8 inches	0.1 pounds	6.8 inches	0.5 inches	4 inches	6.8 x 4 x 0.5 inches		"_Comics, Country:CA, 2012, stats, To:DavidMiller"	"NoLongerAvailable, 2012 Stats"	[0449141241]	"0449141241, 9780449141243"		amazon.com	[2012-06-21]	272382
86954191	Jeffys Lookin at Me	"Keane, Bil"				"Fawcett (1982), Mass Market Paperback, 128 pages"	1982	Paperback	128 p.; 6.8 inches	0.15 pounds	6.8 inches	0.5 inches	4.2 inches	6.8 x 4.2 x 0.5 inches	128	"_Comics, Country:CA, 2012, stats, To:DavidMiller"	"NoLongerAvailable, 2012 Stats"	[0449140962]	"0449140962, 9780449140963"		amazon.com	[2012-06-21]	675401
86954195	Smile! With the Family Circus	"Keane, Bil"				"Fawcett (1973), Mass Market Paperback"	1973	Paperback	6.75 inches	0.74 pounds	6.75 inches	1 inch	4.25 inches	6.75 x 4.25 x 1 inches		"_Comics, 2012, Country:CA, stats, To:DavidMiller"	"NoLongerAvailable, 2012 Stats"	[0449141721]	"0449141721, 9780449141724"		amazon.com	[2012-06-21]	497228
86954198	That Family Circus Feeling	"Keane, Bil"				"Andrews Mcmeel Pub (1982), Paperback, 104 pages"	1982	Paperback	104 p.; 8.2 inches	0.35 pounds	8.2 inches	0.5 inches	5.3 inches	8.2 x 5.3 x 0.5 inches	104	"_Comics, 2012, Country:CA, stats, To:DavidMiller"	"NoLongerAvailable, 2012 Stats"	[0836211251]	"0836211251, 9780836211252"		amazon.com	[2012-06-21]	740533
87973872	Will Clark: Boy Adventurer (Childhood Of Famous Americans)	"Wilkie, Katharine E."		"Moyers, William"	Illustrator	"Aladdin (1997), Board book, 192 pages"	1997	Board book	192 p.; 7.4 inches	0.5 pounds	7.4 inches	0.6 inches	5.3 inches	7.4 x 5.3 x 0.6 inches	192	"From:KimGoto, _Biographies, Country:CA, 2012, stats, To:DavidMiller"	"NoLongerAvailable, 2012 Stats"	[0689817428]	"0689817428, 9780689817427"		amazon.com	[2012-07-22]	9683431
87973960	Defeat of the Ghost Riders: Mary McCloud Bethune (Trailblazer Books #23)	"Jackson, Dave"		"Jackson, Neta"		"Bethany House Publishers (1997), Paperback, 144 pages"	1997	Paperback	144 p.; 7.9 inches	0.05 pounds	7.9 inches	0.7 inches	5.2 inches	7.9 x 5.2 x 0.7 inches	144	"From:KimGoto, _Biographies, Country:CA, 2012, stats, To:DavidMiller"	"NoLongerAvailable, 2012 Stats"	[1556617429]	"1556617429, 9781556617423"		amazon.com	[2012-07-22]	545786
87973996	Race for the Record: Joy Ridderhof (Trailblazer Books #29)	"Jackson, Dave and Neta"				"Bethany House (1999), Paperback, 144 pages"	1999	Paperback	144 p.; 7.89 inches	0.2 pounds	7.89 inches	0.31 inches	5.22 inches	7.89 x 5.22 x 0.31 inches	144	"From:KimGoto, _Biographies, Country:CA, 2012, stats, To:DavidMiller"	"NoLongerAvailable, 2012 Stats"	[0764220136]	"0764220136, 9780764220135"		amazon.com	[2012-07-22]	3018846
87974040	Attack in the Rye Grass: Marcus and Narcissa Whitman (Trailblazer Books #11)	"Jackson, Dave and Neta"				"Bethany House (1994), Paperback, 160 pages"	1994	Paperback	160 p.; 7.97 inches	0.44 pounds	7.97 inches	0.44 inches	5.28 inches	7.97 x 5.28 x 0.44 inches	160	"From:KimGoto, _Biographies, Country:CA, 2012, stats, To:DavidMiller"	"NoLongerAvailable, 2012 Stats"	[1556612737]	"1556612737, 9781556612732"		amazon.com	[2012-07-22]	804112
87974066	Drawn by a China Moon: Lottie Moon (Trailblazer Books #34)	"Jackson, Dave and Neta"				"Bethany House (2000), Paperback, 160 pages"	2000	Paperback	160 p.; 7.9 inches	0.35 pounds	7.9 inches	0.4 inches	5.2 inches	7.9 x 5.2 x 0.4 inches	160	"From:KimGoto, _Biographies, Country:CA, 2012, stats, To:DavidMiller"	"NoLongerAvailable, 2012 Stats"	[0764222678]	"0764222678, 9780764222672"		amazon.com	[2012-07-22]	348253
87974600	Peanut Butter Friends in a Chop Suey World	"Brammer, Deb"		"Kim, Grace"	Illustrator	"JourneyForth (1995), Paperback, 180 pages"	1995	Paperback	180 p.; 8.6 inches	0.5 pounds	8.6 inches	0.41 inches	5.36 inches	8.6 x 5.36 x 0.41 inches	180	"From:KimGoto, _Bible-Related, 2012, Country:CA, stats, To:DavidMiller"	"NoLongerAvailable, 2012 Stats"	[0890847517]	"0890847517, 9780890847510"		amazon.com	[2012-07-22]	348404
87975300	The Chickenhouse House (Young Readers)	"Howard, Ellen"				"Harcourt Brace (1991), Paperback, 51 pages"	1991	Paperback	51 p.; 7.9 inches	0.1 pounds	7.9 inches	0.2 inches	5.3 inches	7.9 x 5.3 x 0.2 inches	51	"From:KimGoto, _Historical Fiction, 2012, Country:CA, stats, To:DavidMiller"	"NoLongerAvailable, 2012 Stats"	[0153075430]	"0153075430, 9780153075438"		amazon.com	[2012-07-22]	3106697
88205679	"The Search for the Missing Bones (The Magic School Bus Chapter Book, No. 2)"	"Moore, Eva"		"Enik, Ted"	Illustrator	"Scholastic (2000), Mass Market Paperback, 80 pages"	2000	Paperback	76 p.; 7.6 inches	0.17 pounds	7.6 inches	0.26 inches	5.3 inches	7.6 x 5.3 x 0.26 inches	76	"_Science, 2012, Country:CA, stats, To:DavidMiller"	"NoLongerAvailable, 2012 Stats"	[0439107997]	"0439107997, 9780439107990"		amazon.com	[2012-07-29]	134504
88390974	Mitch & Amy	"Cleary, Beverly"				"Yearling (1980), Paperback"	1980	Paperback	7.4 inches	0.35 pounds	7.4 inches	0.7 inches	5.1 inches	7.4 x 5.1 x 0.7 inches		"From:AmyRhiger, 2012, Country:CA, stats, To:DavidMiller, _Chapter Book Series"	"NoLongerAvailable, 2012 Stats"	[0440454115]	"0440454115, 9780440454113"		amazon.com	[2012-08-03]	166776
88993939	Penguin Puzzle (Magic School Bus Chapter Books #8)	"Stamper, Judith Bauer"		"Enik, Ted"	Illustrator	"Scholastic, Inc. (2001), Paperback, 96 pages"	2001	Paperback	96 p.; 7.68 inches	0.21 pounds	7.68 inches	0.3 inches	5.3 inches	7.68 x 5.3 x 0.3 inches	96	"From:MarilynSiebert, _Science, 2012, Country:CA, stats, To:DavidMiller"	"NoLongerAvailable, 2012 Stats"	[0439204224]	"0439204224, 9780439204224"		amazon.com	[2012-08-19]	134513
88993941	"The Great Shark Escape (The Magic School Bus Chapter Book, No. 7)"	"Cole, Joanna"		"Degen, Bruce"	Illustrator	"Scholastic Inc. (2001), Edition: Reissue, Paperback, 96 pages"	2001	Paperback	96 p.; 7.59 inches	0.21 pounds	7.59 inches	0.26 inches	5.26 inches	7.59 x 5.26 x 0.26 inches	96	"From:MarilynSiebert, _Science, 2012, Country:CA, stats, To:DavidMiller"	"NoLongerAvailable, 2012 Stats"	[0439204216]	"0439204216, 9780439204217"		amazon.com	[2012-08-19]	134500
88993945	The Magic School Bus Science Chapter Book #6: The Giant Germ	"Capeci, Anne"				"Scholastic Paperbacks (2001), Paperback, 80 pages"	2001	Paperback	80 p.; 5 inches	0.2 pounds	5 inches	7.76 inches	0.2 inches	5 x 0.2 x 7.76 inches	80	"From:MarilynSiebert, _Science, 2012, Country:CA, stats, To:DavidMiller"	"NoLongerAvailable, 2012 Stats"	[0439204208]	"0439204208, 9780439204200"		amazon.com	[2012-08-19]	134507
88996017	"The Truth about Bats (The Magic School Bus Chapter Book, No. 1)"	"Moore, Eva"		"Enik, Ted"	Illustrator	"Scholastic (2000), Paperback, 80 pages"	2000	Paperback	80 p.; 7.4 inches	0.15 pounds	7.4 inches	0.3 inches	5.2 inches	7.4 x 5.2 x 0.3 inches	80	"From:VickiCope, _Science, 2012, Country:CA, stats, To:DavidMiller"	"NoLongerAvailable, 2012 Stats"	[0439107989]	"0439107989, 9780439107983"		amazon.com	[2012-08-19]	134503
88996042	"The Wild Whale Watch (The Magic School Bus Chapter Book, No. 3)"	"Moore, Eva"		"Speirs, John"	Illustrator	"Scholastic (2000), Paperback, 80 pages"	2000	Paperback	80 p.; 7.6 inches	0.18 pounds	7.6 inches	0.34 inches	5.29 inches	7.6 x 5.29 x 0.34 inches	80	"From:VickiCope, _Science, 2012, Country:CA, stats, To:DavidMiller"	"NoLongerAvailable, 2012 Stats"	[0439109906]	"0439109906, 9780439109901"		amazon.com	[2012-08-19]	134505
90120198	All About Owls	"Arnosky, Jim"				"Scholastic (1995), Paperback"	1995	Paperback		0.19 pounds				8.9 x 7.4 x 0.1 inches		"_Science, From:RachelGloger, 2012, Country:CA, stats, To:DavidMiller"	"NoLongerAvailable, 2012 Stats"	[0590467913]	"0590467913, 9780590467919"		amazon.com	[2012-09-23]	32789
90137480	Hadassah: The Girl Who Became Queen Esther	"Tenney, Tommy"				"Bethany House (2005), Hardcover, 168 pages"	2005	Hardcover	168 p.; 5.55 inches	0.55 pounds	5.55 inches	7.72 inches	0.67 inches	5.55 x 0.67 x 7.72 inches	168	"_Historical Fiction, From:JillBaker, 2012, Country:CA, stats, To:DavidMiller"	"NoLongerAvailable, 2012 Stats"	[0764227386]	"0764227386, 9780764227387"		amazon.com	[2012-09-23]	7482320
90137493	A Sparrow Alone	"Petersen, Alicia"				"JourneyForth (2004), Paperback, 160 pages"	2004	Paperback	160 p.; 8.5 inches	0.43 pounds	8.5 inches	0.36 inches	6.56 inches	8.5 x 6.56 x 0.36 inches	160	"_Historical Fiction, From:JillBaker, 2012, Country:CA, stats, To:DavidMiller"	"NoLongerAvailable, 2012 Stats"	[1591662044]	"1591662044, 9781591662044"		amazon.com	[2012-09-23]	6362
90137500	A Single Shard	"Park, Linda Sue"				"Yearling (2003), Edition: Reprint, Paperback, 192 pages"	2003	Paperback	192 p.; 5.36 inches	0.32 pounds	5.36 inches	7.68 inches	0.49 inches	5.36 x 0.49 x 7.68 inches	192	"_Historical Fiction, From:JillBaker, 2012, Country:CA, stats, To:DavidMiller"	"NoLongerAvailable, 2012 Stats"	[0440418518]	"0440418518, 9780440418511"		amazon.com	[2012-09-23]	7265
90137510	"The Golden Goblet (Newbery Library, Puffin)"	"McGraw, Eloise Jarvis"				"Puffin (1986), Edition: Reprint, Paperback, 256 pages"	1986	Paperback	256 p.; 4.72 inches	0.44 pounds	4.72 inches	7.09 inches	0.67 inches	4.72 x 0.67 x 7.09 inches	256	"_Historical Fiction, From:JillBaker, 2012, Country:CA, stats, To:DavidMiller"	"NoLongerAvailable, 2012 Stats"	[0140303359]	"0140303359, 9780140303353"		amazon.com	[2012-09-23]	34392
90137597	"I, Juan de Pareja"	"Trevino, Elizabeth Borton De"				"Square Fish (2008), Edition: Reissue, Paperback, 192 pages"	2008	Paperback	192 p.; 7.6 inches	0.34 pounds	7.6 inches	0.55 inches	5.42 inches	7.6 x 5.42 x 0.55 inches	192	"_Historical Fiction, From:JillBaker, 2012, Country:CA, stats, To:DavidMiller"	"NoLongerAvailable, 2012 Stats"	[0312380054]	"0312380054, 9780312380052"		amazon.com	[2012-09-23]	6211
90138109	The Second Mrs. Gioconda	"Konigsburg, E.L."				"Atheneum Books for Young Readers (1998), Paperback, 160 pages"	1998	Paperback	138 p.; 5.24 inches	0.25 pounds	5.24 inches	7.76 inches	0.43 inches	5.24 x 0.43 x 7.76 inches	138	"_Historical Fiction, From:JillGerawan, 2012, Country:CA, stats, To:DavidMiller"	"NoLongerAvailable, 2012 Stats"	[0689821212]	"0689821212, 9780689821219"		amazon.com	[2012-09-23]	211773
90138238	Sarah and Abraham: The Wonderful Promise (Biblewise)	"Carine, Mackenzie"		"App, Fred"	Illustrator	"CF4K (2000), Paperback, 32 pages"	2000	Paperback	32 p.; 5.79 inches	0.18 pounds	5.79 inches	8.15 inches	0.12 inches	5.79 x 0.12 x 8.15 inches	32	"_Bible-Related, From:JillGerawan, 2012, Country:CA, stats, To:DavidMiller"	"NoLongerAvailable, 2012 Stats"	[1857921569]	"1857921569, 9781857921564"		amazon.com	[2012-09-23]	5087883
90138248	The Dragon and the Garden (Old Stories)	"Wilson, N.D."		"Bentley, Peter"	Illustrator	"Canon Press (2007), Hardcover, 32 pages"	2007	Hardcover	32 p.; 8.76 x 8.71 inches	0.69 pounds	8.71 inches	0.37 inches	8.76 inches	8.71 x 8.76 x 0.37 inches	32	"_Bible-Related, From:JillGerawan, 2012, Country:CA, stats, To:DavidMiller"	"NoLongerAvailable, 2012 Stats"	[1591280443]	"1591280443, 9781591280446"		amazon.com	[2012-09-23]	3243588
90138583	"Ramona Quimby, Age 8 (Avon Camelot Books)"	"Cleary, Beverly"		"Rogers, Jacqueline"	Illustrator	"HarperCollins (1992), Edition: Reprint, Paperback, 208 pages"	1992	Paperback	190 p.; 5.24 inches	0.3 pounds	5.24 inches	7.76 inches	0.51 inches	5.24 x 0.51 x 7.76 inches	190	"From:JillGerawan, 2012, Country:CA, stats, To:DavidMiller, _Chapter Book Series"	"NoLongerAvailable, 2012 Stats"	[0380709562]	"0380709562, 9780380709564"		amazon.com	[2012-09-23]	6270
90138836	Peril and Peace: Chronicles of the Ancient Church (History Lives series)	"Withrow, Mindy"		"Withrow, Brandon"		"CF4K (2006), Edition: Reprint, Paperback, 207 pages"	2006	Paperback	207 p.; 5.16 inches	0.44 pounds	5.16 inches	7.8 inches	0.63 inches	5.16 x 0.63 x 7.8 inches	207	"_History, From:JillGerawan, 2012, Country:CA, stats, To:DavidMiller"	"NoLongerAvailable, 2012 Stats"	[1845500822]	"1845500822, 9781845500825"		amazon.com	[2012-09-23]	1250542
90138846	The First Americans: Prehistory-1600 A History of US Book 1	"Hakim, Joy"				"Oxford University Press, USA (2007), Edition: 3 Revised, Paperback, 192 pages"	2007	Paperback	192 p.; 9.09 inches	0.94 pounds	9.09 inches	0.37 inches	7.51 inches	9.09 x 7.51 x 0.37 inches	192	"_History, From:JillGerawan, 2012, Country:CA, stats, To:DavidMiller"	"NoLongerAvailable, 2012 Stats"	[0195327152]	"0195327152, 9780195327151"		amazon.com	[2012-09-23]	110442
90138851	Ms. Frizzle's Adventures: Ancient Egypt	"Cole, Joanna"		"Degen, Bruce"	Illustrator	"Scholastic Paperbacks (2003), Paperback, 48 pages"	2003	Paperback	48 p.; 11.6 inches	0.45 pounds	11.6 inches	0.1 inches	8.7 inches	11.6 x 8.7 x 0.1 inches	48	"_History, From:JillGerawan, 2012, Country:CA, stats, To:DavidMiller"	"NoLongerAvailable, 2012 Stats"	[0590446819]	"0590446819, 9780590446815"		amazon.com	[2012-09-23]	2561158
90139140	Me and My Family Tree	"Sweeney, Joan"		"Cable, Annette"	Illustrator	"Dragonfly Books (2000), Edition: 1st Dragonfly Books Ed, Paperback, 32 pages"	2000	Paperback	32 p.; 8.98 inches	0.3 pounds	8.98 inches	8.98 inches	0.12 inches	8.98 x 0.12 x 8.98 inches	32	"_Picture Books, From:JillGerawan, 2012, Country:CA, stats, To:DavidMiller"	"NoLongerAvailable, 2012 Stats"	[0517885972]	"0517885972, 9780517885970"		amazon.com	[2012-09-23]	108848
90139202	For the Temple: A Tale of the Fall of Jerusalem	"Henty, G A"		"Highsmith, Clark"	Editor	"CreateSpace Independent Publishing Platform (2010), Paperback, 210 pages"	2010	Paperback	210 p.; 0.9 x 0.6 inches	0.69 pounds	0.6 inches	0.05 inches	0.9 inches	0.6 x 0.9 x 0.05 inches	210	"_History, From:JillGerawan, 2012, Country:CA, stats, To:DavidMiller"	"NoLongerAvailable, 2012 Stats"	[1451592906]	"1451592906, 9781451592900"		amazon.com	[2012-09-23]	118610
90517749	Manners & Customs of Bible lands	"Wight, Fred Hartley"				"Moody Press (1994), Paperback, 336 pages"	1994	Paperback	336 p.; 8.1 inches	0.6 pounds	8.1 inches	0.9 inches	5.3 inches	8.1 x 5.3 x 0.9 inches	336	"2012, Country:CA, stats, To:DavidMiller"	"NoLongerAvailable, 2012 Stats"	[091336729X]	"091336729X, 9780913367292"		amazon.com	[2012-10-07]	345190
92026358	Tales of the Resistance	"Mains, David R."		"Mains, Karen Burton|Stockman, Jack"	|Illustrator	"Chariot Family Pub (1986), Hardcover, 112 pages"	1986	Hardcover	112 p.; 10 inches	1.25 pounds	10 inches	0.7 inches	8.1 inches	10 x 8.1 x 0.7 inches	112	"_Bible-Related, To:DavidMiller, Country:CA, 2014"	"NoLongerAvailable, 2014 Stats"	[0891919384]	"0891919384, 9780891919384"		amazon.com	[2012-12-01]	391906
97362600	The Sugar Creek Gang Flies to Cuba					"WM. B. Eerdmans Publising Co. (1944), Unknown Binding"	1944	Paper Book								"From:AmyRhiger, _Chapter Book Series, To:DavidMiller, Country:CA, 2014"	"NoLongerAvailable, 2014 Stats"	[]			amazon.com	[2013-04-21]	60773
97362623	"One Stormy Day At Sugar Creek (Sugar Creek Gang Series, Volume 9)"					"Wm. B. Eerdmans Publishing Company (1948), Edition: 3rd printing, Hardcover"	1948	Paper Book	7.6 inches	0.25 pounds	7.6 inches	0.6 inches	5.3 inches	7.6 x 5.3 x 0.6 inches		"From:AmyRhiger, _Chapter Book Series, To:DavidMiller, Country:CA, 2014"	"NoLongerAvailable, 2014 Stats"	[]			amazon.com	[2013-04-21]	2727674
97362641	The Sugar Creek Gang goes North					"Scripture Press (1947), Unknown Binding"	1947	Paper Book								"From:AmyRhiger, _Chapter Book Series, To:DavidMiller, Country:CA, 2014"	"NoLongerAvailable, 2014 Stats"	[]			amazon.com	[2013-04-21]	459718
97362649	The Killer Cat (Sugar Creek Gang)					"Moody Pr (J) (1966), Unknown Binding"	1966	Paper Book	6.75 inches	0.74 pounds	6.75 inches	1 inch	4.25 inches	6.75 x 4.25 x 1 inches		"From:AmyRhiger, _Chapter Book Series, To:DavidMiller, Country:CA, 2014"	"NoLongerAvailable, 2014 Stats"	[]			amazon.com	[2013-04-21]	1783791
97362764	We Killed a Bear: a Sugar Creek Gang Story	"Hutchens, Paul"				"Wm. B. Eerdmans Publishing Company (1940), Edition: 8th Print, Hardcover"	1940	Hardcover	7.7 inches	0.9 pounds	7.7 inches	1.7 inches	5.2 inches	7.7 x 5.2 x 1.7 inches		"From:AmyRhiger, _Chapter Book Series, To:DavidMiller, Country:CA, 2014"	"NoLongerAvailable, 2014 Stats"	[]			amazon.com	[2013-04-21]	348511
97364194	Going to Town: My First Little House Books	"Wilder, Laura Ingalls"		"Graef, Renée"	Illustrator	"Scholastic (1996), Hardcover"	1996	Hardcover	9.1 inches	0.75 pounds	9.1 inches	0.3 inches	9.1 inches	9.1 x 9.1 x 0.3 inches		"_Hardback Picture Books, From:DavidMiller, Country:Yap, 2013, To:HeidiCollins"	"NoLongerAvailable, 2013 Stats"	[0590677322]	"0590677322, 9780590677325"		amazon.com	[2013-04-21]	587195
97364234	Thidwick the Big Hearted Moose	"Seuss, Dr."				"Random House (2010), Edition: Special Edition for Kohl's Care, Hardcover"	2010	Hardcover	11 inches	0.65 pounds	11 inches	0.2 inches	8 inches	11 x 8 x 0.2 inches		"_Hardback Picture Books, From:DavidMiller, To:KarenStark, Country:CA, 2013"	"NoLongerAvailable, 2013 Stats"	[0375872345]	"0375872345, 9780375872341"		amazon.com	[2013-04-21]	2327524
97364244	There's a Wocket in my Pocket Dr. Seuss Collector's Edition	"Seuss, Dr."				"n/a (2002), Hardcover"	2002	Hardcover	10.8 inches	0.65 pounds	10.8 inches	0.4 inches	7.9 inches	10.8 x 7.9 x 0.4 inches		"From:DavidMiller, _Hardback Picture Books, To:KadieRied, Country:Indonesia, 2014"	"NoLongerAvailable, 2014 Stats"	[0375872329]	"0375872329, 9780375872327"		amazon.com	[2013-04-21]	53889
97364258	The Berenstain Bears and the Joy of Giving	"Berenstain, Jan"		"Berenstain, Mike"		"Zonderkidz (2010), Edition: Original, Paperback, 32 pages"	2010	Paperback	32 p.; 7.99 inches	0.24 pounds	7.99 inches	7.99 inches	0.08 inches	7.99 x 0.08 x 7.99 inches	32	"_Picture Books, From:DavidMiller, To:BrandiBates, Country:Romania, 2013"	"NoLongerAvailable, 2013 Stats"	[0310712556]	"0310712556, 9780310712558"		amazon.com	[2013-04-21]	10424232
97364277	Nellie the Brave: The Cherokee Trail of Tears (1838) (Sisters in Time #10)	"Jones, Veda Boyd"				"Barbour Books (2006), Paperback, 144 pages"	2006	Paperback	144 p.; 6.18 inches	0.49 pounds	6.18 inches	8.7 inches	0.39 inches	6.18 x 0.39 x 8.7 inches	144	"From:DavidMiller, _Historical Fiction, To:JamilaKurtz, Country:Kenya, 2017"	"NoLongerAvailable, 2017 Stats"	[1597890707]	"1597890707, 9781597890700"		amazon.com	[2013-04-21]	3335737
97364280	If You Lived With The Hopi Indians	"Kamma, Anne"		"Gardner, Linda"		"Scholastic Paperbacks (1999), Paperback, 80 pages"	1999	Paperback	80 p.; 8.9 inches	0.3 pounds	8.9 inches	7.4 inches	0.2 inches	8.9 x 0.2 x 7.4 inches	80	"From:DavidMiller, _History, Country:Romania, 2013, To:BrandiBates"	"NoLongerAvailable, 2013 Stats"	[0590397265]	"0590397265, 9780590397261"		amazon.com	[2013-04-21]	703284
97364302	Little Women-Treasury of Illustrated Classics Storybook Collection	"Alcott, Louisa May"				"Modern Publishing (2013), Edition: Ill, Hardcover, 192 pages"	2013	Hardcover	192 p.; 7.3 inches	0.5 pounds	7.3 inches	0.7 inches	4.7 inches	7.3 x 4.7 x 0.7 inches	192	"From:DavidMiller, _Children's Classics, To:SusanBae, Country:China, 2015"	"NoLongerAvailable, 2015 Stats"	[0766633357]	"0766633357, 9780766633353"		amazon.com	[2013-04-21]	12413314
97364328	Fox in Socks (Beginner Books(R))	"Seuss, Dr."				"Random House Books for Young Readers (1965), Edition: First Edition, Library Binding, 72 pages"	1965	Hardcover	72 p.	0.55 pounds		9.09 inches	6.89 inches	8.6 x 6.89 x 9.09 inches	72	"_Beginning Readers, From:DavidMiller, To:MissiMarsden, Country:China, 2013"	"NoLongerAvailable, 2013 Stats"	[0394900383]	"0394900383, 9780394900384"		amazon.com	[2013-04-21]	54638
97364329	The Big Balloon Race (I Can Read Book 3)	"Coerr, Eleanor"		"Croll, Carolyn"	Illustrator	"HarperCollins (1984), Edition: Reprint, Paperback, 64 pages"	1984	Paperback	64 p.; 5.51 inches	0.22 pounds	5.51 inches	8.5 inches	0.2 inches	5.51 x 0.2 x 8.5 inches	64	"_Beginning Readers, From:DavidMiller, To:ShannonPanjwani, 2013, Country:India"	"NoLongerAvailable, 2013 Stats"	[0064440532]	"0064440532, 9780064440530"		amazon.com	[2013-04-21]	34274
97364332	Now You See It! Pupstyle	"Foster, Dara"				"Scholastic Paperbacks (2011), Paperback, 64 pages"	2011	Paperback	64 p.; 8.7 inches	0.35 pounds	8.7 inches	0.3 inches	5.9 inches	8.7 x 5.9 x 0.3 inches	64	"_Beginning Readers, From:DavidMiller, To:YapLibrary, Country:Yap, 2013"	"NoLongerAvailable, 2013 Stats"	[0545285003]	"0545285003, 9780545285001"		amazon.com	[2013-04-21]	11594686
97364338	Absolutely Lucy #3: Look at Lucy! (A Stepping Stone Book(TM))	"Cooper, Ilene"		"Merrell, David"	Illustrator	"Random House Books for Young Readers (2009), Paperback, 112 pages"	2009	Paperback	112 p.; 5.25 inches	0.19 pounds	5.25 inches	7.61 inches	0.38 inches	5.25 x 0.38 x 7.61 inches	112	"From:DavidMiller, _In-Between Readers, To:BettyKurz, Country:Papua NG, 2015"	"NoLongerAvailable, 2015 Stats"	[0375855580]	"0375855580, 9780375855580"		amazon.com	[2013-04-21]	8457073
97364352	"Little Bear By Else Holmellund Minarik, I Can Read 1957, Weekly Reader Presents"	"Minarik, Else Holmellund"				"Harper and Row (1957), Hardcover"	1957	Hardcover								"From:DavidMiller, _Beginning Readers, To:RandallStone, Country:Hungary, 2015"	"NoLongerAvailable, 2015 Stats"	[]			amazon.com	[2013-04-21]	6227
97364358	The Long Way Westward (I Can Read Book 3)	"Sandin, Joan"		"Sandin, Joan"	Illustrator	"HarperCollins (1992), Edition: Reprint, Paperback, 64 pages"	1992	Paperback	64 p.; 8.72 inches	0.21 pounds	8.72 inches	0.19 inches	5.26 inches	8.72 x 5.26 x 0.19 inches	64	"_Beginning Readers, From:DavidMiller, To:RebekahConklin, Country:Malaysia, 2013"	"NoLongerAvailable, 2013 Stats"	[0064441989]	"0064441989, 9780064441988"		amazon.com	[2013-04-21]	1027742
97364364	Caring Animals (A Chapter Book)	"Hansen, Rosanna"				"Scholastic, Inc. (2003), Edition: First, Paperback, 43 pages"	2003	Paperback	43 p.	0.05 pounds				8.8 x 5.7 x 0.2 inches	43	"From:DavidMiller, _In-Between Readers, To:AllisonWillis, 2014, Country:India"	"NoLongerAvailable, 2014 Stats"	[0516244639]	"0516244639, 9780516244631"		amazon.com	[2013-04-21]	3614337
97364366	The Bravest Dog Ever: The True Story of Balto (Step-Into-Reading)	"Standiford, Natalie"		"Cook, Donald"		"Random House (1989), Paperback, 48 pages"	1989	Paperback	48 p.; 5.98 inches	0.23 pounds	5.98 inches	8.74 inches	0.16 inches	5.98 x 0.16 x 8.74 inches	48	"_Beginning Readers, From:DavidMiller, 2013, To:BethForshee, Country:China"	"NoLongerAvailable, 2013 Stats"	[0679880291]	"0679880291, 9780679880295"		amazon.com	[2013-04-21]	6307
97364384	Santa Paws To The Rescue (#3)	"Edwards, Nicholas"				"Scholastic Paperbacks (2000), Edition: 1ST, Paperback, 208 pages"	2000	Paperback	208 p.; 7.5 inches	0.3 pounds	7.5 inches	0.7 inches	5.2 inches	7.5 x 5.2 x 0.7 inches	208	"_Chapter Books, From:DavidMiller, To:YapLibrary, Country:Yap, 2013"	"NoLongerAvailable, 2013 Stats"	[0439208491]	"0439208491, 9780439208499"		amazon.com	[2013-04-21]	174844
97364404	Santa Paws (#1)	"Edwards, Nicholas"				"Scholastic Paperbacks (1996), Paperback, 151 pages"	1996	Paperback	151 p.	4.2 pounds				7.67 x 5.49 x 0.45 inches	151	"_Chapter Books, From:DavidMiller, To:YapLibrary, Country:Yap, 2013"	"NoLongerAvailable, 2013 Stats"	[0590624008]	"0590624008, 9780590624008"		amazon.com	[2013-04-21]	174842
97364410	The Green Book (Sunburst Book)	"Walsh, Jill Paton"				"Farrar, Straus and Giroux (BYR) (1986), Edition: Reprint, Paperback, 80 pages"	1986	Paperback	80 p.; 7.8 inches	0.15 pounds	7.8 inches	0.3 inches	5 inches	7.8 x 5 x 0.3 inches	80	"_Chapter Books, From:DavidMiller, To:KarenHall, Country:Indonesia, 2013"	"NoLongerAvailable, 2013 Stats"	[0374428026]	"0374428026, 9780374428020"		amazon.com	[2013-04-21]	486477
97364414	Otis Spofford	"Cleary, Beverly"		"Dockray, Tracy"	Illustrator	"HarperCollins (2001), Edition: Reissue, Paperback, 208 pages"	2001	Paperback	208 p.; 7.53 inches	0.33 pounds	7.53 inches	0.44 inches	5.09 inches	7.53 x 5.09 x 0.44 inches	208	"From:DavidMiller, To:KarenHall, Country:Indonesia, 2013, _Chapter Book Series"	"NoLongerAvailable, 2013 Stats"	[0380709198]	"0380709198, 9780380709199"		amazon.com	[2013-04-21]	166873
97364416	My Side of the Mountain	"George, Jean Craighead"				"Scholastic (1988), Paperback, 177 pages"	1988	Paperback	177 p.; 6.6 inches	0.3 pounds	6.6 inches	0.6 inches	4.1 inches	6.6 x 4.1 x 0.6 inches	177	"_Chapter Books, From:DavidMiller, To:BethForshee, Country:China, 2013"	"NoLongerAvailable, 2013 Stats"	[0590981811]	"0590981811, 9780590981811"		amazon.com	[2013-04-21]	22647
97364423	Girl Who Could Fly	"Forester, Victoria"				"Scholastic Inc. (2010), Paperback"	2010	Paper Book	8.43 inches	0.79 pounds	8.43 inches	0.73 inches	5.85 inches	8.43 x 5.85 x 0.73 inches		"_Chapter Books, From:DavidMiller, To:YapLibrary, Country:Yap, 2013"	"NoLongerAvailable, 2013 Stats"	[0545243920]	"0545243920, 9780545243926"		amazon.com	[2013-04-21]	4147503
97364427	Guinea Dog	"Jennings, Patrick"				"Scholastic (2010), Paperback"	2010	Paperback		0.31 pounds						"_Chapter Books, From:DavidMiller, To:JessieZacek, Country:CA, 2013"	"NoLongerAvailable, 2013 Stats"	[0545285275]	"0545285275, 9780545285278"		amazon.com	[2013-04-21]	9709019
97364432	"Santa Paws, Our Hero"	"Edwards, Nicholas"				"Scholastic Paperbacks (2002), Edition: First Edition, Paperback, 176 pages"	2002	Paperback	176 p.; 7.57 inches	0.28 pounds	7.57 inches	0.47 inches	5.26 inches	7.57 x 5.26 x 0.47 inches	176	"_Chapter Books, From:DavidMiller, To:YapLibrary, Country:Yap, 2013"	"NoLongerAvailable, 2013 Stats"	[0439372836]	"0439372836, 9780439372831"		amazon.com	[2013-04-21]	174846
97364439	Braving the Lake (Innerstar University)	"Falligant, Erin"		"Studios, Arcana"	Illustrator	"American Girl (2010), Edition: Pap/Psc, Paperback, 120 pages"	2010	Paperback	120 p.; 7.68 inches	0.39 pounds	7.68 inches	0.36 inches	5.22 inches	7.68 x 5.22 x 0.36 inches	120	"From:DavidMiller, _American Girl, 2015, To:JessicaAmis, Country:Turkey"	"NoLongerAvailable, 2015 Stats"	[1593697570]	"1593697570, 9781593697570"		amazon.com	[2013-04-21]	11055565
97364480	Katarina Witt: Magical Skater (Olympic Gold)	"Coffey, Wayne R."				"Blackbirch Pr Inc (1994), Edition: 1st, Library Binding, 63 pages"	1994	Hardcover	63 p.; 9.8 inches	0.65 pounds	9.8 inches	0.4 inches	7.1 inches	9.8 x 7.1 x 0.4 inches	63	"_Biographies, From:DavidMiller, To:YapLibrary, Country:Yap, 2013"	"NoLongerAvailable, 2013 Stats"	[1567110010]	"1567110010, 9781567110012"		amazon.com	[2013-04-21]	1811860
97364514	Ten Girls Who Made History (Lightkeepers)	"Irene, Howat"				"CF4K (2003), Edition: Reprint, Mass Market Paperback, 160 pages"	2003	Paperback	160 p.; 4.45 inches	0.23 pounds	4.45 inches	7.24 inches	0.43 inches	4.45 x 0.43 x 7.24 inches	160	"From:DavidMiller, _Biographies, To:AlyciaDarilek, Country:China, 2014"	"NoLongerAvailable, 2014 Stats"	[1857928377]	"1857928377, 9781857928372"		amazon.com	[2013-04-21]	4176519
97364521	The secret of platform 13	"Ibbotson, Eva"				"Scholastic (2000), Paperback, 231 pages"	2000	Paperback	231 p.	0.35 pounds				7.4 x 5 x 0.7 inches	231	"_Fantasy, From:DavidMiller, To:YapLibrary, Country:Yap, 2013"	"NoLongerAvailable, 2013 Stats"	[0439285127]	"0439285127, 9780439285124"		amazon.com	[2013-04-21]	55147
97364560	"Lamb Lessons (Animal Ark Pets, 11)"	"Baglio, Ben M."				"Scholastic Inc. (1997), Paperback"	1997	Paperback	7.6 inches	0.2 pounds	7.6 inches	0.6 inches	5.1 inches	7.6 x 5.1 x 0.6 inches		"_In-Between Readers, From:DavidMiller, To:YapLibrary, Country:Yap, 2013"	"NoLongerAvailable, 2013 Stats"	[0590596837]	"0590596837, 9780590596831"		amazon.com	[2013-04-21]	1981455
97364567	Gerbil Genius	"Baglio, Ben M."				"Scholastic, Inc. (1998), Paperback"	1998	Paperback	7.8 inches	0.3 pounds	7.8 inches	0.4 inches	5.4 inches	7.8 x 5.4 x 0.4 inches		"_In-Between Readers, From:DavidMiller, To:YapLibrary, Country:Yap, 2013"	"NoLongerAvailable, 2013 Stats"	[0590596810]	"0590596810, 9780590596817"		amazon.com	[2013-04-21]	1325956
97364570	Rabbit Race (Animal Ark Pets #3)	"Baglio, Ben M."				"Scholastic, Inc. (1997), Paperback"	1997	Paperback		0.22 pounds						"_In-Between Readers, From:DavidMiller, To:YapLibrary, Country:Yap, 2013"	"NoLongerAvailable, 2013 Stats"	[0590187430]	"0590187430, 9780590187435"		amazon.com	[2013-04-21]	1708228
97364574	Guinea Pig Gang (Animal Ark Pets #8)	"Baglio, Ben M."		"Howard, Paul"	Illustrator	"Scholastic (1996), Paperback"	1996	Paperback	7.5 inches	1 pound	7.5 inches	0.4 inches	5.1 inches	7.5 x 5.1 x 0.4 inches		"_In-Between Readers, From:DavidMiller, To:YapLibrary, Country:Yap, 2013"	"NoLongerAvailable, 2013 Stats"	[0590187481]	"0590187481, 9780590187480"		amazon.com	[2013-04-21]	1069781
97364577	Doggy Dare (Animal Ark Pets #12)	"Speirs, Ben M. Baglio; Illustrator-John"				"Scholastic, Inc. (1998), Paperback"	1998	Paperback		0.21 pounds						"_In-Between Readers, From:DavidMiller, Country:CA, 2013, To:JessieZacek"	"NoLongerAvailable, 2013 Stats"	[0590596845]	"0590596845, 9780590596848"		amazon.com	[2013-04-21]	1036310
97364579	Duckling Diary (Animal Ark Pets #10)	"Baglio, Ben M."				"Scholastic, Inc (1998), Paperback"	1998	Paperback	7.4 inches	0.15 pounds	7.4 inches	0.4 inches	5.2 inches	7.4 x 5.2 x 0.4 inches		"_In-Between Readers, From:DavidMiller, To:YapLibrary, Country:Yap, 2013"	"NoLongerAvailable, 2013 Stats"	[0590596829]	"0590596829, 9780590596824"		amazon.com	[2013-04-21]	1865762
97364582	Cody (Puppy Place #13)	"Miles, Ellen"				"Scholastic (2009), Paperback, 80 pages"	2009	Paperback	80 p.; 7.3 inches	0.15 pounds	7.3 inches	0.3 inches	5.1 inches	7.3 x 5.1 x 0.3 inches	80	"_In-Between Readers, From:DavidMiller, To:Kako, 2013, Country:USA"	"NoLongerAvailable, 2013 Stats"	[0545083508]	"0545083508, 9780545083508"		amazon.com	[2013-04-21]	6549097
97364583	The Puppy Place #20: Muttley	"Miles, Ellen"				"Scholastic Paperbacks (2011), Edition: Original, Mass Market Paperback, 96 pages"	2011	Paperback	96 p.; 7.61 inches	0.16 pounds	7.61 inches	0.26 inches	5.34 inches	7.61 x 5.34 x 0.26 inches	96	"_In-Between Readers, From:DavidMiller, To:YapLibrary, Country:Yap, 2013"	"NoLongerAvailable, 2013 Stats"	[0545253942]	"0545253942, 9780545253949"		amazon.com	[2013-04-21]	10425077
97364586	Gold Rush Winter (A Stepping Stone Book)	"Murphy, Claire Rudolf"		"Waldrep, Richard"	Illustrator	"Random House Books for Young Readers (2002), Paperback, 48 pages"	2002	Paperback	48 p.	0.16 pounds		1.95 inches	1.3 inches	7.5 x 1.3 x 1.95 inches	48	"_In-Between Readers, From:DavidMiller, To:MissiMarsden, Country:China, 2013"	"NoLongerAvailable, 2013 Stats"	[0307264130]	"0307264130, 9780307264138"		amazon.com	[2013-04-21]	3253973
97364590	"The Class Election from the Black Lagoon (Black Lagoon Adventures, No. 3)"	"Thaler, Mike"		"Lee, Jared"	Illustrator	"Scholastic (2004), Paperback, 64 pages"	2004	Paperback	64 p.; 7.58 inches	0.15 pounds	7.58 inches	0.33 inches	5.3 inches	7.58 x 5.3 x 0.33 inches	64	"_In-Between Readers, From:DavidMiller, To:YapLibrary, Country:Yap, 2013"	"NoLongerAvailable, 2013 Stats"	[043955716X]	"043955716X, 9780439557160"		amazon.com	[2013-04-21]	2250732
97364594	Thea Stilton and the Cherry Blossom Adventure: A Geronimo Stilton Adventure	"Stilton, Thea"				"Scholastic Paperbacks (2011), Edition: Special, Paperback, 176 pages"	2011	Paperback	176 p.; 7.36 inches	0.46 pounds	7.36 inches	0.51 inches	5.33 inches	7.36 x 5.33 x 0.51 inches	176	"_In-Between Readers, From:DavidMiller, To:AbbyHoudashelt, Country:China, 2013"	"NoLongerAvailable, 2013 Stats"	[0545227720]	"0545227720, 9780545227728"		amazon.com	[2013-04-21]	10310455
97364597	A to Z Mysteries; White House White-out (A to Z Mysteries)	"Roy, Ron"				"Scholastic (2008), Paperback"	2008	Paperback	7.4 inches	0.25 pounds	7.4 inches	0.5 inches	5.2 inches	7.4 x 5.2 x 0.5 inches		"From:DavidMiller, _In-Between Readers, To:VictoriaRice, Country:China, 2014"	"NoLongerAvailable, 2014 Stats"	[0545120489]	"0545120489, 9780545120487"		amazon.com	[2013-04-21]	4998149
97364602	"The Jewel Fairies Collection, Vol. 1: Books 1-4"	Scholastic		"Meadows, Daisy"		"Scholastic (2008), Paperback, 320 pages"	2008	Paperback	320 p.; 7.6 inches	0.42 pounds	7.6 inches	0.68 inches	5.36 inches	7.6 x 5.36 x 0.68 inches	320	"_In-Between Readers, From:DavidMiller, Country:Romania, 2013, To:BrandiBates"	"NoLongerAvailable, 2013 Stats"	[0545088380]	"0545088380, 9780545088381"		amazon.com	[2013-04-21]	8154220
97364605	The Mystery of the Purple Pool (The Boxcar Children Mysteries #38)	"Warner, Gertrude Chandler"				"Albert Whitman & Company (1994), Paperback, 128 pages"	1994	Paperback	128 p.; 7.57 inches	0.2 pounds	7.57 inches	0.32 inches	5.24 inches	7.57 x 5.24 x 0.32 inches	128	"_In-Between Readers, From:DavidMiller, To:DarcyCoady, Country:China, 2013, _Chapter Book Series"	"NoLongerAvailable, 2013 Stats"	[0807554081]	"0807554081, 9780807554081"		amazon.com	[2013-04-21]	295005
97364606	Jessica the Jazz Fairy: A Rainbow Magic Book (Dance Fairies #5)	"Meadows, Daisy"				"Scholastic Paperbacks (2009), Mass Market Paperback, 80 pages"	2009	Paperback	80 p.; 7.66 inches	0.25 pounds	7.66 inches	0.32 inches	5.24 inches	7.66 x 5.24 x 0.32 inches	80	"From:DavidMiller, _In-Between Readers, To:ElizabethBarrett, Country:Cambodia, 2017"	"NoLongerAvailable, 2017 Stats"	[0545106214]	"0545106214, 9780545106214"		amazon.com	[2013-04-21]	4539262
97364609	The Note in the Piano (Our Generation)	"Driscoll, Julie"				"Battat Incorporated (2007), Hardcover"	2007	Hardcover	8.1 inches	0.5 pounds	8.1 inches	0.5 inches	6.2 inches	8.1 x 6.2 x 0.5 inches		"From:DavidMiller, _In-Between Readers, To:VictoriaRice, Country:China, 2014"	"NoLongerAvailable, 2014 Stats"	[0979454239]	"0979454239, 9780979454233"		amazon.com	[2013-04-21]	10991375
97364616	Hey Ranger! Kids Ask Questions About Yellowstone National Park (Hey Ranger! Series)	"Justesen, Kim Williams"		"Newhouse, Judy"	Illustrator	"FalconGuides (2005), Edition: 1st, Paperback, 48 pages"	2005	Paperback	48 p.; 10.36 x 8.3 inches	0.35 pounds	8.3 inches	0.13 inches	10.36 inches	8.3 x 10.36 x 0.13 inches	48	"From:DavidMiller, _Science, To:SandraKleinert, Country:China, 2016"	"NoLongerAvailable, 2016 Stats"	[0762738464]	"0762738464, 9780762738465"		amazon.com	[2013-04-21]	10641033
97364618	A Walk in the Woods (Dover Nature Coloring Book)	"Barlowe, Dot"		"Books, Coloring"		"Dover Publications (2003), Paperback, 32 pages"	2003	Paperback	32 p.; 8.19 inches	0.3 pounds	8.19 inches	10.98 inches	0.16 inches	8.19 x 0.16 x 10.98 inches	32	"From:DavidMiller, _Science, To:KristiFlorek, Country:Ethiopia, 2014"	"NoLongerAvailable, 2014 Stats"	[9780486426440]	"9780486426440, 0486426440"		amazon.com	[2013-04-21]	135240
97364622	Stones: Would You Believe It!	"Chambers, Catherine"				"Raintree Steck-Vaughn Publishers (1996), Library Binding, 32 pages"	1996	Hardcover	32 p.; 9.15 inches	0.84 pounds	9.15 inches	0.61 inches	7.02 inches	9.15 x 7.02 x 0.61 inches	32	"_Science, From:DavidMiller, To:BethForshee, Country:China, 2013"	"NoLongerAvailable, 2013 Stats"	[0817241051]	"0817241051, 9780817241056"		amazon.com	[2013-04-21]	11183888
97364637	Simple Puppets From Everyday Materials	"Buetter, Barara"				"Sterling (1996), Hardcover, 80 pages"	1996	Hardcover	80 p.; 10.22 inches	1.18 pounds	10.22 inches	0.46 inches	8.7 inches	10.22 x 8.7 x 0.46 inches	80	"From:DavidMiller, _Activity Books, To:AmyRhiger, Country:Philippines, 2015"	"NoLongerAvailable, 2015 Stats"	[1895569052]	"1895569052, 9781895569056"		amazon.com	[2013-04-21]	1784861
97364651	Children's Puzzle Fun; Mind Teasing Fun (Kappa Activity Books)	various				"Kappa (2009), Paperback"	2009	Paperback								"_Activity Books, From:DavidMiller, To:QueentinaHaleyalgiy, Country:Yap, 2013"	"NoLongerAvailable, 2013 Stats"	[]			amazon.com	[2013-04-21]	13770224
97364659	A Treasury of Poems	"Prelutsky, Jack."				"Random House (1983), Edition: Fourth Edition, Hardcover"	1983	Hardcover	9.13 inches	1.58 pounds	9.13 inches	1.11 inches	6.57 inches	9.13 x 6.57 x 1.11 inches	248	"From:DavidMiller, _Poetry, To:EricaPatrick, Country:China, 2017"	"NoLongerAvailable, 2017 Stats"	[0394850106]	"0394850106, 9780394850108"		amazon.com	[2013-04-21]	80515
97364661	Poem Stew (Harper Trophy Book)	"Cole, William"		"Weinhaus, Karen Ann"	Illustrator	"HarperCollins (1983), Paperback, 96 pages"	1983	Paperback	96 p.; 8.8 inches	0.25 pounds	8.8 inches	0.4 inches	5.7 inches	8.8 x 5.7 x 0.4 inches	96	"From:DavidMiller, _Poetry, To:BrandiBates, 2014, Country:Romania"	"NoLongerAvailable, 2014 Stats"	[0064401367]	"0064401367, 9780064401364"		amazon.com	[2013-04-21]	307228
97364677	The One Year Book of Devotions for Kids #2	"Hour , Children's Bible"				"Tyndale Kids (1995), Edition: Reprinted, Paperback, 414 pages"	1995	Paperback	414 p.; 5.94 inches	1.2 pounds	5.94 inches	9.02 inches	1.02 inches	5.94 x 1.02 x 9.02 inches	414	"From:DavidMiller, _Bible-Related, To:PhilipinesOrphanage, Country:Philippines, 2014"	"NoLongerAvailable, 2014 Stats"	[0842345922]	"0842345922, 9780842345927"		amazon.com	[2013-04-21]	2983496
97364681	One Year Book of Devotions for Kids #3	"Hour , Children's Bible"				"Tyndale Kids (2004), Edition: Revised, Paperback, 384 pages"	2004	Paperback	384 p.; 6.26 inches	1.2 pounds	6.26 inches	9.25 inches	0.83 inches	6.26 x 0.83 x 9.25 inches	384	"From:DavidMiller, _Bible-Related, To:PhilipinesOrphanage, Country:Philippines, 2014"	"NoLongerAvailable, 2014 Stats"	[0842346627]	"0842346627, 9780842346627"		amazon.com	[2013-04-21]	1287537
99501011	Daktar: Diplomat in Bangladesh	"Olsen, Viggo"		"Lockerbie, Jeanette"	Collaborator	"Moody Press (1973), Hardcover, 352 pages"	1973	Hardcover	352 p.	1.6 pounds				9 x 6.3 x 1.4 inches	352	"_Biographies, To:DavidMiller, Country:CA, 2014"	"NoLongerAvailable, 2014 Stats"	[0802417450]	"0802417450, 9780802417459"		amazon.com	[2013-06-29]	593057
102212800	Rascal	"North, Sterling"				"Puffin (1990), Edition: Reissue, Paperback, 192 pages"	1990	Paperback	192 p.; 4.96 x 0.51 inches	0.34 pounds	0.51 inches	7.68 inches	4.96 inches	0.51 x 4.96 x 7.68 inches	192	"From:DeannaCarr, _Chapter Books, To:DavidMiller, Country:CA, 2014"	"NoLongerAvailable, 2014 Stats"	[0140344454]	"0140344454, 9780140344455"		amazon.com	[2013-09-22]	4490
102212991	The Adventures Of Sherlock Holmes	"Doyle, Arthur Conan, Sir"				"Modern Pub (2004), Hardcover"	2004	Hardcover	6.46 inches	0.66 pounds	6.46 inches	0.79 inches	6.3 inches	6.46 x 6.3 x 0.79 inches		"From:MichelleRyan, _Children's Classics, To:DavidMiller, Country:CA, 2014"	"NoLongerAvailable, 2014 Stats"	[0766607674]	"0766607674, 9780766607675"		amazon.com	[2013-09-22]	12056834
103411122	Ramona and Her Father (Ramona Quimby (Paperback))	"Cleary, Beverly"				"Yearling (1979), Paperback"	1979	Paperback		0.3 pounds				7.6 x 5.1 x 0.7 inches		"From:BarbMadsen, _Chapter Book Series, To:DavidMiller, Country:CA, 2014"	"NoLongerAvailable, 2014 Stats"	[0440472415]	"0440472415, 9780440472414"		amazon.com	[2013-11-04]	4489
104458033	The Lost Campers (Sugar Creek Gang #4)	"Hutchens, Paul"				"Moody Press (1968), Paperback, 127 pages"	1968	Paperback	127 p.; 6.76 inches	0.4 pounds	6.76 inches	0.94 inches	4.2 inches	6.76 x 4.2 x 0.94 inches	127	"_Chapter Book Series, From:DianeGadbaugh, To:DavidMiller, Country:CA, 2014"	"NoLongerAvailable, 2014 Stats"	[0802448046]	"0802448046, 9780802448040"		amazon.com	[2013-12-17]	348516
104924604	Encyclopedia Brown and the Case of the Midnight Visitor	"Sobol, Donald J."				"Yearling (1982), Paperback, 128 pages"	1982	Paperback	128 p.; 7.62 inches	1.1 pounds	7.62 inches	0.33 inches	5.18 inches	7.62 x 5.18 x 0.33 inches	128	"From:KatherynPark, _Chapter Book Series, To:DavidMiller, Country:CA, 2014"	"NoLongerAvailable, 2014 Stats"	[0553157388]	"0553157388, 9780553157383"		amazon.com	[2014-01-04]	572797
105333815	My Life as a Broken Bungee Cord (The Incredible Worlds of Wally McDoogle #3)	"Myers, Bill"				"Thomas Nelson (1993), Paperback, 128 pages"	1993	Paperback	128 p.; 5.51 x 0.35 inches	0.26 pounds	0.35 inches	7.52 inches	5.51 inches	0.35 x 5.51 x 7.52 inches	128	"_Chapter Book Series, From:RosalynnMiller, To:DavidMiller, Country:CA, 2014"	"NoLongerAvailable, 2014 Stats"	[0849934044]	"0849934044, 9780849934049"		amazon.com	[2014-01-17]	1172123
