101766723	"Teach Us, Amelia Bedelia"	"Parish, Peggy"		"Sweat, Lynn"	Illustrator	"Scholastic (1995), Paperback, 56 pages"	1995	Paperback	56 p.; 8.7 inches	0.25 pounds	8.7 inches	0.2 inches	5.8 inches	8.7 x 5.8 x 0.2 inches	56	"From:DianeShackleford, _Beginning Readers, To:TeresaPaix, Country:China, 2014"	"NoLongerAvailable, 2014 Stats"	[0590537733]	"0590537733, 9780590537735"		amazon.com	[2013-09-09]	126366
101766724	Biscuit Finds a Friend	"Capucilli, Alyssa Satin"				"Scholastic (2004), Edition: 1ST, Paperback, 24 pages"	2004	Paperback	24 p.	0.14 pounds				8.3 x 5.8 x 0.2 inches	24	"From:DianeShackleford, _Beginning Readers, 2014, To:ShannonPanjwani, Country:India"	"NoLongerAvailable, 2014 Stats"	[0439650348]	"0439650348, 9780439650342"		amazon.com	[2013-09-09]	370625
101766726	Tut's Mummy: Lost...and Found (Step into Reading)	"Donnelly, Judy"		"Watling, James"	Illustrator	"Random House Books for Young Readers (1988), Paperback, 48 pages"	1988	Paperback	48 p.; 5.98 x 0.14 inches	0.25 pounds	0.14 inches	9.25 inches	5.98 inches	0.14 x 5.98 x 9.25 inches	48	"From:DianeShackleford, _Beginning Readers, To:MifLittle, Country:Papua NG, 2015"	"NoLongerAvailable, 2015 Stats"	[0394891899]	"0394891899, 9780394891897"		amazon.com	[2013-09-09]	85351
101766727	North Pole South Pole	"Levinson, Nancy Smiler"		"Hearn, Diane Dawson"	Illustrator	"Scholastic (2003), Paperback, 40 pages"	2003	Paperback	40 p.; 8.8 inches	0.15 pounds	8.8 inches	0.1 inches	5.6 inches	8.8 x 5.6 x 0.1 inches	40	"From:DianeShackleford, _Beginning Readers, To:BethForshee, Country:China, 2014"	"NoLongerAvailable, 2014 Stats"	[043958745X]	"043958745X, 9780439587457"		amazon.com	[2013-09-09]	440507
101766730	The Bravest Dog Ever: The True Story of Balto (Step-Into-Reading)	"Standiford, Natalie"		"Cook, Donald"	Illustrator	"Random House (1989), Paperback, 48 pages"	1989	Paperback	48 p.; 6.3 x 0.16 inches	0.5 pounds	0.16 inches	8.9 inches	6.3 inches	0.16 x 6.3 x 8.9 inches	48	"From:DianeShackleford, _Beginning Readers, Country:CA, To:JessieZacek, 2013"	"NoLongerAvailable, 2013 Stats"	[0679880291]	"0679880291, 9780679880295"		amazon.com	[2013-09-09]	6307
101766738	"Amelia Bedelia and the Surprise Shower (I Can Read, Level 2)"	"Parish, Peggy"		"Thomas, Barbara Siebel"	Illustrator	"HarperCollins (1994), Edition: Revised, Paperback, 64 pages"	1994	Paperback	64 p.; 6.5 x 0.26 inches	0.21 pounds	0.26 inches	11.73 inches	6.5 inches	0.26 x 6.5 x 11.73 inches	64	"From:DianeShackleford, _Beginning Readers, To:AlyciaDarilek, Country:China, 2014"	"NoLongerAvailable, 2014 Stats"	[0064440192]	"0064440192, 9780064440196"		amazon.com	[2013-09-09]	94520
101766739	"The Great Shark Escape (The Magic School Bus Chapter Book, No. 7)"	"Johnston, Jennifer"		"Enik, Ted"	Illustrator	"Scholastic (2001), Edition: Reissue, Paperback, 96 pages"	2001	Paperback	96 p.; 5.2 x 0.28 inches	0.21 pounds	0.28 inches	7.48 inches	5.2 inches	0.28 x 5.2 x 7.48 inches	96	"From:DianeShackleford, _Science, To:KarenHall, Country:Indonesia, 2013"	"NoLongerAvailable, 2013 Stats"	[0439204216]	"0439204216, 9780439204217"		amazon.com	[2013-09-09]	134500
101766741	"The Search for the Missing Bones (The Magic School Bus Chapter Book, No. 2)"	"Moore, Eva"		"Enik, Ted"	Illustrator	"Scholastic (2000), Paperback, 80 pages"	2000	Paperback	80 p.; 5.24 x 0.28 inches	1 pound	0.28 inches	7.48 inches	5.24 inches	0.28 x 5.24 x 7.48 inches	80	"From:DianeShackleford, _Science, To:KarenHall, Country:Indonesia, 2013"	"NoLongerAvailable, 2013 Stats"	[0439107997]	"0439107997, 9780439107990"		amazon.com	[2013-09-09]	134504
101766747	The Magic School Bus And The Electric Field Trip	"Cole, Joanna"		"Degan, Bruce|Degen, Bruce"	|Illustrator	"Scholastic Paperbacks (1999), Edition: Reprint, Paperback, 48 pages"	1999	Paperback	48 p.; 9.84 x 0.2 inches	2 pounds	0.2 inches	8.27 inches	9.84 inches	0.2 x 9.84 x 8.27 inches	48	"From:DianeShackleford, _Science, To:SusanBae, Country:China, 2013"	"NoLongerAvailable, 2013 Stats"	[0590446835]	"0590446835, 9780590446839"		amazon.com	[2013-09-09]	233151
101766749	The Magic School Bus Inside the Human Body	"Cole, Joanna"		"Degen, Bruce"	Illustrator	"Scholastic Press (1990), Edition: Reprint, Paperback, 40 pages"	1990	Paperback	40 p.; 9.84 x 0.12 inches	2 pounds	0.12 inches	8.39 inches	9.84 inches	0.12 x 9.84 x 8.39 inches	40	"From:DianeShackleford, _Science, Country:India, To:ShannonPanjwani, 2014"	"NoLongerAvailable, 2014 Stats"	[0590414275]	"0590414275, 9780590414272"		amazon.com	[2013-09-09]	126439
101766753	First Encyclopedian of Our World (Usborne First Encyclopaedias)	"Brooks, Felicity"		"Hancock, David"	Illustrator	"Usborne Publishing Ltd (2010), Edition: New edition, Hardcover, 64 pages"	2010	Hardcover	64 p.	1.2 pounds		11.18 inches	8.9 inches	11.02 x 8.9 x 11.18 inches	64	"From:DianeShackleford, _Science, To:KarenHall, Country:Indonesia, 2013"	"NoLongerAvailable, 2013 Stats"	[1409514307]	"1409514307, 9781409514305"		amazon.com	[2013-09-09]	635939
101766755	Why Do Tigers Have Stripes? (Starting Point Science)	"Inwin, Mike"				"E.D.C. Publishing (1993), Paperback, 24 pages"	1993	Paperback	24 p.; 6.7 inches	0.15 pounds	6.7 inches	0.1 inches	6.7 inches	6.7 x 6.7 x 0.1 inches	24	"From:DianeShackleford, _Science, To:Kako, Country:USA, 2014"	"NoLongerAvailable, 2014 Stats"	[0746013000]	"0746013000, 9780746013007"		amazon.com	[2013-09-09]	6347
101766757	Penguins!	"Gibbons, Gail"				"Holiday House (1999), Paperback, 30 pages"	1999	Paperback	30 p.; 9.76 x 0.12 inches	0.32 pounds	0.12 inches	10 inches	9.76 inches	0.12 x 9.76 x 10 inches	30	"From:DianeShackleford, _Picture Books, To:BrandiBates, 2014, Country:Romania"	"NoLongerAvailable, 2014 Stats"	[0823415163]	"0823415163, 9780823415168"		amazon.com	[2013-09-09]	1171932
101766762	Eyewitness Explorers: Human Body (Eyewitness Explorers)	"Parker, Steve"				"DK CHILDREN (1998), Edition: 1st pbk. ed, Paperback, 64 pages"	1998	Paperback	64 p.; 7.58 inches	0.27 pounds	7.58 inches	0.21 inches	5.54 inches	7.58 x 5.54 x 0.21 inches	64	"From:DianeShackleford, _Science, To:KarenHall, Country:Indonesia, 2013"	"NoLongerAvailable, 2013 Stats"	[0789429829]	"0789429829, 9780789429827"		amazon.com	[2013-09-09]	1159295
101766764	The Stolen Sapphire: A Samantha Mystery (American Girl) (American Girl Mysteries)	"Buckey, Sarah M"		"Tibbles, Jean Paul"	Illustrator	"Amer Girl (2006), Paperback, 192 pages"	2006	Paperback	192 p.; 5.12 x 0.51 inches	0.53 pounds	0.51 inches	6.93 inches	5.12 inches	0.51 x 5.12 x 6.93 inches	192	"From:DianeShackleford, _American Girl, To:DarcyCoady, Country:China, 2014"	"NoLongerAvailable, 2014 Stats"	[1593690991]	"1593690991, 9781593690991"		amazon.com	[2013-09-09]	1382932
101766765	Meet Kirsten (American Girls Collection)	"Shaw, Janet"		"Graef, Renée"	Illustrator	"American Girl (1988), Paperback, 80 pages"	1988	Paperback	80 p.; 6.26 x 0.24 inches	0.3 pounds	0.24 inches	8.74 inches	6.26 inches	0.24 x 6.26 x 8.74 inches	80	"From:DianeShackleford, _American Girl, To:AlyciaDarilek, Country:China, 2015"	"NoLongerAvailable, 2015 Stats"	[0937295019]	"0937295019, 9780937295014"		amazon.com	[2013-09-09]	67040
101766766	"Meet Felicity (The American Girls Collection, Book 1)"	"Tripp, Valerie"		"Andreasen, Dan"	Illustrator	"American Girl (1991), Edition: 1st, Paperback, 88 pages"	1991	Paperback	88 p.; 6.26 x 0.24 inches	0.35 pounds	0.24 inches	8.74 inches	6.26 inches	0.24 x 6.26 x 8.74 inches	88	"From:DianeShackleford, _American Girl, To:JillKasowski, Country:China, 2014"	"NoLongerAvailable, 2014 Stats"	[1562470043]	"1562470043, 9781562470043"		amazon.com	[2013-09-09]	67038
101766780	Christmas in the Country	"Rylant, Cynthia"				"Scholastic Inc. (2003), Paperback, 29 pages"	2003	Paperback	29 p.	0.35 pounds				11 x 8.6 x 0.04 inches	29	"From:DianeShackleford, _Christmas, To:BrandiBates, 2014, Country:Romania"	"NoLongerAvailable, 2014 Stats"	[043959104X]	"043959104X, 9780439591041"		amazon.com	[2013-09-09]	293948
101766784	Roxaboxen (Picture Puffins)	"McLerran, Alice"		"Cooney, Barbara"	Illustrator	"Puffin (1992), Paperback, 32 pages"	1992	Paperback	32 p.; 9.3 inches	0.2 pounds	9.3 inches	0.5 inches	8 inches	9.3 x 8 x 0.5 inches	32	"From:DianeShackleford, _Picture Books, To:KarenHall, Country:Indonesia, 2013"	"NoLongerAvailable, 2013 Stats"	[0140544755]	"0140544755, 9780140544756"		amazon.com	[2013-09-09]	354214
101766787	A Child's Calendar	"Updike, John"				"Scholastic (1999), Unknown Binding"	1999	Paperback	3.15 inches	0.4 pounds	3.15 inches	0.47 inches	1.97 inches	3.15 x 1.97 x 0.47 inches		"From:DianeShackleford, _Picture Books, To:HeidiCollins, Country:Yap, 2013"	"NoLongerAvailable, 2013 Stats"	[0439284945]	"0439284945, 9780439284943"		amazon.com	[2013-09-09]	272826
101766800	Big Sister and Little Sister	"Zolotow, Charlotte"		"Alexander, Martha"	Illustrator	"HarperCollins (1990), Paperback, 32 pages"	1990	Paperback	32 p.; 9.9 inches	0.22 pounds	9.9 inches	0.13 inches	7.94 inches	9.9 x 7.94 x 0.13 inches	32	"From:DianeShackleford, _Picture Books, To:KarenHall, Country:Indonesia, 2013"	"NoLongerAvailable, 2013 Stats"	[0064432173]	"0064432173, 9780064432177"		amazon.com	[2013-09-09]	603435
101766805	Horses!	"Gibbons, Gail"				"Scholastic Inc. (2004), Paperback"	2004	Paperback	12 inches	0.25 pounds	12 inches	0.3 inches	8.6 inches	12 x 8.6 x 0.3 inches		"From:DianeShackleford, _Picture Books, To:BettyKurz, Country:Papua NG, 2016"	"NoLongerAvailable, 2016 Stats"	[0439649633]	"0439649633, 9780439649636"		amazon.com	[2013-09-09]	73077
101766806	Island Boy (Picture Puffins)	"Cooney, Barbara"		"Cooney, Barbara"	Illustrator	"Puffin (1991), Edition: Reprint, Paperback, 38 pages"	1991	Paperback	38 p.; 9.65 x 0.12 inches	0.29 pounds	0.12 inches	7.91 inches	9.65 inches	0.12 x 9.65 x 7.91 inches	38	"From:DianeShackleford, _Picture Books, To:BrandiBates, 2014, Country:Romania"	"NoLongerAvailable, 2014 Stats"	[0140507566]	"0140507566, 9780140507560"		amazon.com	[2013-09-09]	417989
101766808	Make Way for Ducklings	"McCloskey, Robert"		"McCloskey, Robert"	Illustrator	"Puffin (1999), Edition: Reprint, Paperback, 76 pages"	1999	Paperback	76 p.; 8.94 x 0.28 inches	0.66 pounds	0.28 inches	11.77 inches	8.94 inches	0.28 x 8.94 x 11.77 inches	76	"From:DianeShackleford, _Picture Books, To:KadieRied, Country:Indonesia, 2014"	"NoLongerAvailable, 2014 Stats"	[0140564349]	"0140564349, 9780140564341"		amazon.com	[2013-09-09]	20265
101766812	The Bee Tree	"Polacco, Patricia"				"Trumpet (1993), Paperback"	1993	Paperback	10 inches	0.03 pounds	10 inches	0.4 inches	8 inches	10 x 8 x 0.4 inches		"From:DianeShackleford, _Picture Books, To:BrandiBates, 2014, Country:Romania"	"NoLongerAvailable, 2014 Stats"	[0590221086]	"0590221086, 9780590221085"		amazon.com	[2013-09-09]	108859
101766814	A New Coat for Anna (Dragonfly Books)	"Ziefert, Harriet"				"Dragonfly Books (1988), Edition: Reprint, Paperback, 40 pages"	1988	Paperback	40 p.; 7.99 inches	0.34 pounds	7.99 inches	9.88 inches	0.16 inches	7.99 x 0.16 x 9.88 inches	40	"From:DianeShackleford, _Picture Books, To:ShannonPanjwani, 2013, Country:India"	"NoLongerAvailable, 2013 Stats"	[0394898613]	"0394898613, 9780394898612"		amazon.com	[2013-09-09]	32740
101766816	Meet the Barkers: Morgan and Moffat Go to School	"dePaola, Tomie"				"Puffin (2003), Edition: Reprint, Paperback, 32 pages"	2003	Paperback	32 p.; 9.25 x 0.13 inches	0.33 pounds	0.13 inches	10.51 inches	9.25 inches	0.13 x 9.25 x 10.51 inches	32	"From:DianeShackleford, _Picture Books, To:AlyciaDarilek, Country:China, 2014"	"NoLongerAvailable, 2014 Stats"	[0142500836]	"0142500836, 9780142500835"		amazon.com	[2013-09-09]	1541658
101766818	Christmas Tapestry	"Polacco, Patricia"				"Puffin (2008), Edition: Reprint, Paperback, 48 pages"	2008	Paperback	48 p.; 8.31 x 0.2 inches	0.44 pounds	0.2 inches	10.79 inches	8.31 inches	0.2 x 8.31 x 10.79 inches	48	"From:DianeShackleford, _Christmas, To:AlyciaDarilek, Country:China, 2014"	"NoLongerAvailable, 2014 Stats"	[0142411655]	"0142411655, 9780142411650"		amazon.com	[2013-09-09]	446659
101766820	Big Anthony: His Story	"dePaola, Tomie"				"Puffin (2001), Paperback, 32 pages"	2001	Paperback	32 p.; 11.01 inches	0.28 pounds	11.01 inches	0.09 inches	4.26 inches	11.01 x 4.26 x 0.09 inches	32	"From:DianeShackleford, _Picture Books, To:SusanBae, Country:China, 2013"	"NoLongerAvailable, 2013 Stats"	[0698118936]	"0698118936, 9780698118935"		amazon.com	[2013-09-09]	745661
101766828	How to Get Your Child Off the Refrigerator and On to Learning	"Barnier, Carol"		"Barnier, Carol"		"Emerald Books (2000), Paperback, 112 pages"	2000	Paperback	112 p.	0.74 pounds				11.1 x 8.6 x 0.4 inches	112	"From:DianeShackleford, _Education Resources, To:StephanieBraun, 2014, Country:Brazil"	"NoLongerAvailable, 2014 Stats"	[1883002702]	"1883002702, 9781883002701"		amazon.com	[2013-09-09]	117309
101766830	Educating the Wholehearted Child Revised & Expanded	"Clarkson, Clay"		"Clarkson, Sally"		"Whole Heart Ministries (2001), Edition: Revised, Paperback, 256 pages"	2001	Paperback	256 p.; 10.9 inches	1.6 pounds	10.9 inches	0.6 inches	8.5 inches	10.9 x 8.5 x 0.6 inches	256	"From:DianeShackleford, _Education Resources, To:HeidiCollins, Country:Yap, 2013"	"NoLongerAvailable, 2013 Stats"	[1888692006]	"1888692006, 9781888692006"		amazon.com	[2013-09-09]	91332
101766836	Heidi (Troll Illustrated Classics)	"Spyri, Johanna"		"Rowland, Jada"		"Troll Communications (2003), Paperback, 48 pages"	2003	Paperback	48 p.; 10.6 inches	0.35 pounds	10.6 inches	0.2 inches	8.2 inches	10.6 x 8.2 x 0.2 inches	48	"From:DianeShackleford, _Children's Classics, To:AlyciaDarilek"	NoLongerAvailable	[0816772363]	"0816772363, 9780816772360"		amazon.com	[2013-09-09]	9646258
101766848	"Amber: The Orange Fairy (Rainbow Magic: The Rainbow Fairies, No. 2)"	"Meadows, Daisy"		"Ripper, Georgie"	Illustrator	"Scholastic Inc. (2005), Edition: Boxed Set #1-#5, Bracelet Included, Paperback, 80 pages"	2005	Paperback	80 p.; 7.56 inches	0.15 pounds	7.56 inches	0.22 inches	6.76 inches	7.56 x 6.76 x 0.22 inches	80	"From:DianeShackleford, _In-Between Readers, 2017_inventory, To:AdamDrake, Country:Togo, 2018"	"NoLongerAvailable, 2018 Stats"	[0439744652]	"0439744652, 9780439744652"		amazon.com	[2013-09-09]	916802
101766851	KATIE THE KITTEN FAIRY (RAINBOW MAGIC)	"MEADOWS, DAISY"				"ORCHARD (2006), Paperback, 80 pages"	2006	Paperback	80 p.; 5.16 x 0.28 inches	0.25 pounds	0.28 inches	7.56 inches	5.16 inches	0.28 x 5.16 x 7.56 inches	80	"From:DianeShackleford, _In-Between Readers, To:AllisonTarus, Country:Kenya, 2016"	"NoLongerAvailable, 2016 Stats"	[1846161665]	"1846161665, 9781846161667"		amazon.com	[2013-09-09]	1200500
101766854	Pippi in the South Seas	"Lindgren, Astrid"				"Puffin (1977), Edition: Reissue, Paperback, 128 pages"	1977	Paperback	128 p.; 5 x 0.37 inches	0.25 pounds	0.37 inches	8.5 inches	5 inches	0.37 x 5 x 8.5 inches	128	"From:DianeShackleford, _Chapter Books, Country:China, 2015, To:RebekahConklin"	"NoLongerAvailable, 2015 Stats"	[0140309586]	"0140309586, 9780140309584"		amazon.com	[2013-09-09]	146603
101766857	The Bird House	"Rylant, Cynthia"		"Moser, Barry"	Illustrator	"Blue Sky Press (1998), Edition: First Edition, Hardcover, 32 pages"	1998	Hardcover	32 p.; 10.31 inches	0.79 pounds	10.31 inches	0.36 inches	8.37 inches	10.31 x 8.37 x 0.36 inches	32	"From:DianeShackleford, _Hardback Picture Books, To:BrandiBates, 2014, Country:Romania"	"NoLongerAvailable, 2014 Stats"	[059047345X]	"059047345X, 9780590473453"		amazon.com	[2013-09-09]	685203
101766860	Madeline and the Bad Hat	"Bemelmans, Ludwig"				"Puffin (2000), Edition: Reissue, Paperback, 64 pages"	2000	Paperback	64 p.; 8.39 x 0.2 inches	0.53 pounds	0.2 inches	11.81 inches	8.39 inches	0.2 x 8.39 x 11.81 inches	64	"From:DianeShackleford, _Hardback Picture Books, To:AlyciaDarilek, Country:China, 2014"	"NoLongerAvailable, 2014 Stats"	[0140566481]	"0140566481, 9780140566482"		amazon.com	[2013-09-09]	173752
101766864	The Illustrated Book of Ballet Stories	"Newman, Barbara"				"DK CHILDREN (1997), Hardcover, 64 pages"	1997	Hardcover	64 p.	1.26 pounds					64	"From:DianeShackleford, _Picture Books, To:BrandiBates, 2014, Country:Romania"	"NoLongerAvailable, 2014 Stats"	[0789420244]	"0789420244, 9780789420244"		amazon.com	[2013-09-09]	1854363
101766869	"My Brimful Book: Favorite Poems of Childhood, Mother Goose"	"Tudor, Tasha"		"Dennis, Wesley|Austin, Margot"	Illustrator|Illustrator	"Platt and Munk (1960), Edition: Reprint, Hardcover"	1960	Hardcover	12 inches	1.7 pounds	12 inches	0.5 inches	10.1 inches	12 x 10.1 x 0.5 inches		"From:DianeShackleford, _Hardback Picture Books, To:HeidiCollins, Country:Yap, 2013"	NoLongerAvailable	[]			amazon.com	[2013-09-09]	1626322
101766871	The Children's Illustrated Bible	"Thomas, Eric"				"Star Song Pub Co (1994), Hardcover"	1994	Hardcover	10.5 inches	2.8 pounds	10.5 inches	1 inch	8.25 inches	10.5 x 8.25 x 1 inches		"From:DianeShackleford, _Bible-Related, To:KarenHall, Country:Indonesia, 2013"	"NoLongerAvailable, 2013 Stats"	[156233106X]	"156233106X, 9781562331061"		amazon.com	[2013-09-09]	2912894
101766872	Just the Way You Are	"Lucado, Max"		"Martinez, Sergio"	Illustrator	"Crossway (1999), Edition: First Edition, Hardcover, 32 pages"	1999	Hardcover	32 p.; 9.49 x 0.31 inches	0.73 pounds	0.31 inches	10.51 inches	9.49 inches	0.31 x 9.49 x 10.51 inches	32	"From:DianeShackleford, _Bible-Related, To:SusanBae, Country:China, 2013"	"NoLongerAvailable, 2013 Stats"	[1581341148]	"1581341148, 9781581341140"		amazon.com	[2013-09-09]	111155
101766874	Because I Love You	"Lucado, Max"		"Heinze, Mitchell"	Illustrator	"Crossway (1999), Edition: 1st, Hardcover, 32 pages"	1999	Hardcover	32 p.; 9.02 inches	0.77 pounds	9.02 inches	10 inches	0.31 inches	9.02 x 0.31 x 10 inches	32	"From:DianeShackleford, _Bible-Related, _Picture Books, To:SusanBae, Country:China, 2013"	"NoLongerAvailable, 2013 Stats"	[0891079920]	"0891079920, 9780891079927"		amazon.com	[2013-09-09]	110877
101766875	The Bandit of Ashley Downs: George Muller (Trailblazer Books #7)	"Jackson, Dave and Neta"				"Bethany House (1993), Paperback, 144 pages"	1993	Paperback	144 p.	0.31 pounds					144	"From:DianeShackleford, _Missionary Biographies, To:JillKasowski, 2013, Country:China"	"NoLongerAvailable, 2013 Stats"	[1556612702]	"1556612702, 9781556612701"		amazon.com	[2013-09-09]	486461
101766878	Mere Christianity	"Lewis, C. S."				"Touchstone Books (1996), Edition: 1st Touchstone Ed, Paperback, 191 pages"	1996	Paperback	191 p.	0.41 pounds				8.3 x 5.4 x 0.5 inches	191	"From:DianeShackleford, _Inklings, To:CherylMcFaddin, Country:Tanzania, 2016"	"NoLongerAvailable, 2016 Stats"	[0684823780]	"0684823780, 9780684823782"		amazon.com	[2013-09-09]	1595966
101766881	One Hundred and One Devotions for Homeschool Moms	"Wellwood, Jackie"				"Crossway (1999), Paperback, 224 pages"	1999	Paperback	224 p.; 5.39 x 0.59 inches	0.59 pounds	0.59 inches	8.27 inches	5.39 inches	0.59 x 5.39 x 8.27 inches	224	"From:DianeShackleford, _Education Resources, To:VictoriaRice, Country:China, 2014"	"NoLongerAvailable, 2014 Stats"	[1581341393]	"1581341393, 9781581341393"		amazon.com	[2013-09-09]	1166778
101766888	The Daring Book for Girls	"Buchanan, Andrea J."		"Peskowitz, Miriam"		"William Morrow (2012), Hardcover, 288 pages"	2012	Hardcover	288 p.; 9.8 inches	2.25 pounds	9.8 inches	1.1 inches	7.8 inches	9.8 x 7.8 x 1.1 inches	288	"From:DianeShackleford, _Activity Books, To:BrandiBates, 2014, Country:Romania"	"NoLongerAvailable, 2014 Stats"	[0062208969]	"0062208969, 9780062208965"		amazon.com	[2013-09-09]	3883629
101766890	I Am the Mummy Heb-Nefert	"Bunting, Eve"		"Christiana, David"	Illustrator	"HMH Books for Young Readers (2000), Edition: Reprint, Paperback, 32 pages"	2000	Paperback	32 p.; 7.52 x 0.12 inches	0.3 pounds	0.12 inches	10.75 inches	7.52 inches	0.12 x 7.52 x 10.75 inches	32	"From:DianeShackleford, _History, To:BethPotter, Country:Kyrgyzstan, 2014"	"NoLongerAvailable, 2014 Stats"	[0152024646]	"0152024646, 9780152024642"		amazon.com	[2013-09-09]	349938
101766896	Lewis & Clark: The adventure into the West	"Burd, Frank"				"John Hinde Curteich (2001), Paperback, 32 pages"	2001	Paperback	32 p.; 9.6 inches	0.25 pounds	9.6 inches	0.1 inches	6.6 inches	9.6 x 6.6 x 0.1 inches	32	"From:DianeShackleford, _History, 2017_inventory, 2018inv"	BookEnds	[]			amazon.com	[2013-09-09]	5817677
101766899	America Votes: How Our President Is Elected	"Granfield, Linda"		"Bjorkman, Steve"	Illustrator	"Kids Can Press (2003), Edition: 1St Edition, Hardcover, 64 pages"	2003	Hardcover	64 p.; 9.6 inches	0.95 pounds	9.6 inches	0.4 inches	8.7 inches	9.6 x 8.7 x 0.4 inches	64	"From:DianeShackleford, _History, To:AlyciaDarilek, Country:China, 2014"	"NoLongerAvailable, 2014 Stats"	[1553370864]	"1553370864, 9781553370864"		amazon.com	[2013-09-09]	440046
101766901	The Buried City of Pompeii: Picturebook	"Tanaka, Shelley"				"Hyperion (2000), Edition: Special, Paperback, 48 pages"	2000	Paperback	48 p.; 10.9 inches	0.35 pounds	10.9 inches	0.5 inches	8.9 inches	10.9 x 8.9 x 0.5 inches	48	"From:DianeShackleford, _History, To:DarcyCoady, Country:China, 2014"	"NoLongerAvailable, 2014 Stats"	[0786815418]	"0786815418, 9780786815418"		amazon.com	[2013-09-09]	345512
101766904	Greek Myths for Young Children (Stories for Young Children)	"Amery, Heather"		"Edwards, Linda"	Illustrator	"Usborne Pub Ltd (2000), Hardcover, 128 pages"	2000	Hardcover	128 p.; 8.9 x 0.81 inches	1.1 pounds	0.81 inches	11.22 inches	8.9 inches	0.81 x 8.9 x 11.22 inches	128	"From:DianeShackleford, _History, To:KarenHall, Country:Indonesia, 2013"	"NoLongerAvailable, 2013 Stats"	[0746037252]	"0746037252, 9780746037256"		amazon.com	[2013-09-09]	1261357
101766916	The Reader's Digest Children's Atlas of the World	"Owen, Weldon"				"Readers Digest (1998), Hardcover, 128 pages"	1998	Hardcover	128 p.; 13.3 inches	2.75 pounds	13.3 inches	0.7 inches	10.8 inches	13.3 x 10.8 x 0.7 inches	128	"From:DianeShackleford, _Geography, To:JessicaAmis, Country:USA, 2014"	"NoLongerAvailable, 2014 Stats"	[1575841568]	"1575841568, 9781575841564"		amazon.com	[2013-09-09]	1215053
101773246	Strega Nona Meets Her Match	"dePaola, Tomie"				"Puffin (1996), Edition: Reprint, Paperback, 32 pages"	1996	Paperback	32 p.; 8.27 x 0.12 inches	0.27 pounds	0.12 inches	10.51 inches	8.27 inches	0.12 x 8.27 x 10.51 inches	32	"From:DianeShackleford, _Picture Books, To:DarcyCoady, Country:China, 2013"	"NoLongerAvailable, 2013 Stats"	[0698114116]	"0698114116, 9780698114111"		amazon.com	[2013-09-09]	343595
