119424504	Skinnybones	"Park, Barbara"				"Yearling (1997), Edition: Revised, Paperback, 128 pages"	1997	Paperback	128 p.; 5.35 inches	0.2 pounds	5.35 inches	7.59 inches	0.31 inches	5.35 x 0.31 x 7.59 inches	128	"_Sports, To:KristyMarlin, Country:Rwanda, 2015, From:EleanorPettus"	"NoLongerAvailable, 2015 Stats"	[067988792X]	"067988792X, 9780679887928"		amazon.com	[2015-06-24]	41389
120638476	Jacob Have I Loved	"Paterson, Katherine"	Author			"Harper Keypoint (2000), 256 pages"	2000	Paperback	256 p.; 4.19 inches	0.35 pounds	4.19 inches	6.75 inches	0.64 inches	4.19 x 0.64 x 6.75 inches	256	"From:EleanorPettus, To:DierdreDollar, Country:Mozambique, 2017, _Chapter Books"	"NoLongerAvailable, 2017 Stats"	[0590434985]	"0590434985, 9780590434980"		amazon.com	[2015-08-09]	21584
120638487	The Stories Julian Tells (A Stepping Stone Book(TM))	"Cameron, Ann"	Author	"Strugnell, Ann"	Illustrator	"Random House Books for Young Readers (1989), Edition: Reprint, 80 pages"	1989	Paperback	80 p.; 5.19 inches	0.14 pounds	5.19 inches	7.56 inches	0.19 inches	5.19 x 0.19 x 7.56 inches	80	"_In-Between Readers, From:EleanorPettus, To:MichelleKiprop, Country:Kenya, 2015"	"NoLongerAvailable, 2015 Stats"	[0394828925]	"0394828925, 9780394828923"		amazon.com	[2015-08-09]	447152
