129798071	Where's Waldo? The Fantastic Journey: Mini Edition	"Handford, Martin"	Author	"Handford, Martin"	Illustrator	"Candlewick (2002), Edition: Act Min, 32 pages"	2002	Hardcover	32 p.; 5.29 inches	0.27 pounds	5.29 inches	6.36 inches	0.34 inches	5.29 x 0.34 x 6.36 inches	32	"From:EllieWarner, _Activity Books, To:AshleiWarren, Country:China, 2016"	"NoLongerAvailable, 2016 Stats"	[9780763619220]	"9780763619220, 0763619221"		amazon.com books	[2016-05-03]	5392143
129798129	Where's Waldo Now?: Mini Edition	"Handford, Martin"	Author	"Handford, Martin"	Illustrator	"Candlewick (2002), Edition: Book and Access, 32 pages"	2002	Hardcover	32 p.; 5.29 inches	0.27 pounds	5.29 inches	6.38 inches	0.36 inches	5.29 x 0.36 x 6.38 inches	32	"From:EllieWarner, _Activity Books, To:AshleiWarren, Country:China, 2016"	"NoLongerAvailable, 2016 Stats"	[0763619213]	"0763619213, 9780763619213"		amazon.com books	[2016-05-03]	52239
130255080	Mouse in the House	"Publishing, DK"	Author			"DK CHILDREN (2001), Edition: First, 32 pages"	2001	Hardcover	32 p.; 10.22 inches	1.15 pounds	10.22 inches	13.22 inches	0.32 inches	10.22 x 0.32 x 13.22 inches	32	"_Hardback Picture Books, From:EllieWarner, To:DinaraDonner, Country:Kazakhstan, 2016"	"NoLongerAvailable, 2016 Stats"	[1879431114]	"1879431114, 9781879431119"		amazon.com books	[2016-05-19]	941633
130255108	A Country Mouse In The Town House	"Publishing, DK"	Author			"Dorling Kindersley (1995), 32 pages"	2001	Hardcover	32 p.; 13.28 inches	1.2 pounds	13.28 inches	10.26 inches	0.34 inches	13.28 x 0.34 x 10.26 inches	32	"_Hardback Picture Books, From:EllieWarner, To:DinaraDonner, Country:Kazakhstan, 2016"	"NoLongerAvailable, 2016 Stats"	[0789400219]	"0789400219, 9780789400215"		amazon.com books	[2016-05-19]	641971
130256807	The Action Bible	"Mauss, Doug"	Editor	"Cariello, Sergio"	Illustrator	"David C. Cook (2010), Edition: New, 752 pages"	2010	Hardcover	752 p.; 7 x 1.5 inches	1.2 pounds	1.5 inches	10.5 inches	7 inches	1.5 x 7 x 10.5 inches	752	"_Bible-Related, From:EllieWarner, To:Kako, Country:USA, 2016"	"NoLongerAvailable, 2016 Stats"	[0781444993]	"0781444993, 9780781444996"		amazon.com books	[2016-05-19]	10414444
132217085	Princess Things to Make and Do (Usborne Activities)	"Brocklehurst, Ruth"	Author	"Baggott, Stella"	Illustrator	"Usborne Pub Ltd (2004), 34 pages"	2004	Paperback	34 p.; 9.37 inches		9.37 inches	12.01 inches	0.16 inches	9.37 x 0.16 x 12.01 inches	34	"_Activity Books, From:EllieWarner, To:NatashaEnns, Country:Indonesia, 2016"	"NoLongerAvailable, 2016 Stats"	[0746063466]	"0746063466, 9780746063460"		amazon.com books	[2016-07-12]	1289927
132217146	"Amelia Bedelia, Bookworm (I Can Read Level 2)"	"Parish, Herman"	Author	"Sweat, Lynn"	Illustrator	"Greenwillow Books (2005), Edition: Reprint, 64 pages"	2005	Paperback	64 p.; 6 inches	0.26 pounds	6 inches	9 inches	0.19 inches	6 x 0.19 x 9 inches	64	"_Beginning Readers, From:EllieWarner, +reserve KadieRied, Country:Indonesia"	Missing	[0060518928]	"0060518928, 9780060518929"		amazon.com books	[2016-07-12]	123343
132369288	Apes and Monkeys (Eyes on Nature)	"Grassy, John"	Author			"Kidsbooks Incorporated (1997), 29 pages"	1997	Paperback	29 p.; 9.1 inches	0.15 pounds	9.1 inches	0.5 inches	7.5 inches	9.1 x 7.5 x 0.5 inches	29	"_Science, From:EllieWarner, missing2017"	Missing	[1561565946]	"1561565946, 9781561565948"		amazon.com books	[2016-07-17]	572615
132369294	Bears (Eyes on Nature)	"Olson, Donald"	Author			"Kidsbooks (1997), 29 pages"	1997	Paperback	29 p.	0.24 pounds				9.2 x 7.4 x 0.3 inches	29	"_Science, From:EllieWarner, To:ElcoVanBurg, Country:Papua Ind, 2016"	"NoLongerAvailable, 2016 Stats"	[1561565415]	"1561565415, 9781561565412"		amazon.com books	[2016-07-17]	1194946
132369307	"Paint the Prisons Bright: Corrie Ten Boom (Heroes of the Faith (Dallas, Tex.).)"	"Briscoe, Jill"	Author			"W Pub Group (1991), 83 pages"	1991	Paperback	83 p.; 5.88 x 0.66 inches		0.66 inches	9.06 inches	5.88 inches	0.66 x 5.88 x 9.06 inches	83	"_Biographies, From:EllieWarner, To:AlyciaDarilek, Country:China, 2016"	"NoLongerAvailable, 2016 Stats"	[0849933080]	"0849933080, 9780849933080"		amazon.com books	[2016-07-17]	2567916
132369318	"Vacation Story, Princess Caroline and Me....*American Girl"	"McDonald, Megan"	Author			American Girl (2007)	2007	Paperback	5.9 inches	0.05 pounds	5.9 inches	0.2 inches	4.3 inches	5.9 x 4.3 x 0.2 inches		"From:EllieWarner, _American Girl, 2017_inventory, To:AdamDrake, Country:Togo, 2017"	"NoLongerAvailable, 2017 Stats"	[]			amazon.com books	[2016-07-17]	11661581
132369340	Socks	"Cleary, Beverly"	Author	"Darwin, Beatrice"	Illustrator	"Scholastic (2001), 156 pages"	2001	Paperback	156 p.; 7.5 inches	0.25 pounds	7.5 inches	0.6 inches	5.2 inches	7.5 x 5.2 x 0.6 inches	156	"_Chapter Book Series, From:EllieWarner, To:AllisonTarus, Country:Kenya, 2017"	"NoLongerAvailable, 2017 Stats"	[0439353629]	"0439353629, 9780439353625"		amazon.com books	[2016-07-17]	70000
132369360	"Mystery Ranch (The Boxcar Children, Book 4)"	"Warner, Gertrude"	Author	"Gringhuis, Dirk"	Illustrator	"Scholastic Inc. (1989), 128 pages"	1989	Paperback	128 p.; 7.4 inches	0.2 pounds	7.4 inches	0.5 inches	4.9 inches	7.4 x 4.9 x 0.5 inches	128	"_Chapter Book Series, From:EllieWarner, To:EricaPatrick, Country:China, 2017"	"NoLongerAvailable, 2017 Stats"	[0590426877]	"0590426877, 9780590426879"		amazon.com books	[2016-07-17]	62228
132369362	Ramona the Pest	"Cleary, Beverly"	Author	"Darling, Louis"	Illustrator	"Scholastic (1999), 192 pages"	1999	Paperback	192 p.; 7.2 inches	0.3 pounds	7.2 inches	0.5 inches	5.2 inches	7.2 x 5.2 x 0.5 inches	192	"_Chapter Book Series, From:EllieWarner, To:MichelleAcker, Country:Guatemala, 2017"	"NoLongerAvailable, 2017 Stats"	[0439147999]	"0439147999, 9780439147996"		amazon.com books	[2016-07-17]	60160
132369391	Three Tales of My Father's Dragon	"Gannett, Ruth Stiles"	Author			"Random House Books for Young Readers (1997), Edition: 50 Anv, 256 pages"	1997	Hardcover	256 p.; 6.5 inches	0.84 pounds	6.5 inches	8.31 inches	0.85 inches	6.5 x 0.85 x 8.31 inches	256	"_In-Between Readers, From:EllieWarner, To:JaclynNace, Country:China, 2016"	"NoLongerAvailable, 2016 Stats"	[0679889116]	"0679889116, 9780679889113"		amazon.com books	[2016-07-17]	4736
132369397	Dinosaurs Before Dark (Magic Tree House	"Osborne, Mary Pope"	Author			"Scholastic (1992), 68 pages"	1992	Paperback	68 p.; 7.3 inches	0.15 pounds	7.3 inches	0.3 inches	5.1 inches	7.3 x 5.1 x 0.3 inches	68	"_In-Between Readers, From:EllieWarner, To:ElcoVanBurg, Country:Papua Ind, 2016"	"NoLongerAvailable, 2016 Stats"	[0590623524]	"0590623524, 9780590623520"		amazon.com books	[2016-07-17]	4213
132369405	Pulling Together	"Watkins, Dawn L"	Author	"Cooper, Carolyn|Pflug, Kathy"	Editor|Illustrator	"JourneyForth (1993), 144 pages"	1993	Paperback	144 p.; 5.49 inches	0.47 pounds	5.49 inches	8.44 inches	0.35 inches	5.49 x 0.35 x 8.44 inches	144	"_In-Between Readers, From:EllieWarner, To:AnnetteKendzoras, Country:Colombia, 2017"	"NoLongerAvailable, 2017 Stats"	[089084609X]	"089084609X, 9780890846094"		amazon.com books	[2016-07-17]	348416
132369413	Adventures At Shelby Stables	"Driscoll, Julie"	Author			"Unknown (2009), 99 pages"	2009	Hardcover	99 p.; 8 inches	0.5 pounds	8 inches	0.4 inches	6 inches	8 x 6 x 0.4 inches	99	"_In-Between Readers, From:EllieWarner, 2017_inventory, To:SandraKleinert, Country:China, 2018"	"NoLongerAvailable, 2018 Stats"	[0979454255]	"0979454255, 9780979454257"		amazon.com books	[2016-07-17]	11463851
132369427	Cam Jansen and the Triceratops Pops Mystery	"Adler, David A"	Author			"Puffin Books (1998), Edition: 1st, 56 pages"	1998	Paperback	56 p.; 7.3 inches	0.05 pounds	7.3 inches	0.5 inches	5 inches	7.3 x 5 x 0.5 inches	56	"_In-Between Readers, From:EllieWarner, 2017_inventory, To:LanaFerguson, Country:Palau, 2017"	"NoLongerAvailable, 2017 Stats"	[0590200089]	"0590200089, 9780590200080"		amazon.com books	[2016-07-17]	947770
132369431	"Ivy and Bean and the Ghost that Had to Go (Ivy & Bean, Book 2) (Bk. 2)"	"Barrows, Annie"	Author	"Blackall, Sophie"	Artist	"Chronicle Books (2007), 136 pages"	2007	Paperback	136 p.; 5.5 inches	0.45 pounds	5.5 inches	7.25 inches	0.42 inches	5.5 x 0.42 x 7.25 inches	136	"_In-Between Readers, From:EllieWarner, 2017_inventory, To:MeganBrewster, Country:Peru, 2017"	"NoLongerAvailable, 2017 Stats"	[0811849112]	"0811849112, 9780811849111"		amazon.com books	[2016-07-17]	2427612
132369454	"Black Beauty Finds a Home (Anna Sewell's the Adventures of Black Beauty, 4)"	"Richardson, I. M."	Author	"Dugan, Karen"	Illustrator	"Troll Communications Llc (1983), Edition: First Edition, 32 pages"	1983	Paperback	32 p.; 9 inches	0.65 pounds	9 inches	0.2 inches	7.9 inches	9 x 7.9 x 0.2 inches	32	"_Picture Books, From:EllieWarner, 2017_inventory, To:LanaFerguson, Country:Palau, 2017"	"NoLongerAvailable, 2017 Stats"	[0893758175]	"0893758175, 9780893758172"		amazon.com books	[2016-07-17]	1016327
132369470	The Fantastic Book of Horses	book	Author			Scholastic	?	Paperback	11 inches	0.25 pounds	11 inches	0.2 inches	8.2 inches	11 x 8.2 x 0.2 inches		"_Horses, From:EllieWarner, To:NancyNey, Country:Senegal, 2017"	"NoLongerAvailable, 2017 Stats"	[0439355761]	"0439355761, 9780439355766"		amazon.com books	[2016-07-17]	621815
132369476	The Usborne Complete Book of Riding & Pony Care (Complete Book of Riding and Pony Care)	"Dickins, Rosie"	Author	"Langrish, Bob|Rain, Mikki"	Photographer|Illustrator	"Usborne Pub Ltd (2002), 144 pages"	2002	Paperback	144 p.; 8.5 x 0.5 inches	1.48 pounds	0.5 inches	10.75 inches	8.5 inches	0.5 x 8.5 x 10.75 inches	144	"_Horses, From:EllieWarner, To:DierdreDollar, Country:Mozambique, 2017"	"NoLongerAvailable, 2017 Stats"	[0439442931]	"0439442931, 9780439442930"		amazon.com books	[2016-07-17]	111521
132369481	Album of horses	"Henry, Marguerite"	Author			"Scholastic (1994), Edition: Reprint., 110 pages"	1994	Paperback	110 p.; 10.94 inches	0.66 pounds	10.94 inches	0.31 inches	9.06 inches	10.94 x 9.06 x 0.31 inches	110	"_Horses, From:EllieWarner, To:SandraKleinert, Country:China, 2016"	"NoLongerAvailable, 2016 Stats"	[0590486888]	"0590486888, 9780590486880"		amazon.com books	[2016-07-17]	59653
132369486	The Visual Dictionary of the Horse	"Publishing, DK"	Author			"DK (1994), Edition: Eyewitness Visual Dictionaries, 64 pages"	1994	Hardcover	64 p.; 10.44 inches		10.44 inches	12.22 inches	0.46 inches	10.44 x 0.46 x 12.22 inches	64	"_Horses, From:EllieWarner, To:SandraKleinert, Country:China, 2016"	"NoLongerAvailable, 2016 Stats"	[1564585042]	"1564585042, 9781564585042"		amazon.com books	[2016-07-17]	4722960
132369498	The Journey of Desire: Searching for the Life We Only Dreamed of	"Eldredge, John"	Author			"Thomas Nelson (2000), Edition: 1st, 228 pages"	2000	Hardcover	228 p.; 5.59 inches	0.75 pounds	5.59 inches	8.31 inches	0.98 inches	5.59 x 0.98 x 8.31 inches	228	"_Adult Non-Fiction, From:EllieWarner, To:VictoriaRice, Country:China, 2017"	"NoLongerAvailable, 2017 Stats"	[0785268820]	"0785268820, 9780785268826"		amazon.com books	[2016-07-17]	4929
132369502	The Joy of a Promise Kept: The Powerful Role Wives Play	"Lucado, Denalyn"	Author			"Multnomah Books (1998), 208 pages"	1998	Paperback	208 p.; 6 inches		6 inches	9 inches	0.5 inches	6 x 0.5 x 9 inches	208	"_Adult Non-Fiction, From:EllieWarner, To:BettyKurz, Country:Papua NG, 2016"	"NoLongerAvailable, 2016 Stats"	[1576733386]	"1576733386, 9781576733387"		amazon.com books	[2016-07-17]	217419
132369503	Uncommon Beauty: 7 Qualities of a Beautiful Woman	"Heald, Cynthia"	Author			"Tyndale House Publishers, Inc. (2007), 208 pages"	2007	Paperback	208 p.; 5 inches	0.38 pounds	5 inches	7 inches	0.5 inches	5 x 0.5 x 7 inches	208	"_Adult Non-Fiction, From:EllieWarner, To:HeidiCollins, Country:Yap, 2016"	"NoLongerAvailable, 2016 Stats"	[1414300859]	"1414300859, 9781414300856"		amazon.com books	[2016-07-17]	4454535
132369518	The Stuarts (History of Britain Ser. ; No. F895-5)	"Wood, Tim"	Author			"Ladybird Books (1990), 64 pages"	1990	Paperback	64 p.; 7.64 inches	0.13 pounds	7.64 inches	0.16 inches	5.12 inches	7.64 x 5.12 x 0.16 inches	64	"_History, From:EllieWarner, 2017_inventory, To:MollyHeinze, Country:China, 2018"	"NoLongerAvailable, 2018 Stats"	[185543010X]	"185543010X, 9781855430105"		amazon.com books	[2016-07-17]	959218
