63680098	Rainbow Magic the Jewel Fairies (india the moonstone fairy)	meadows				"scholastic inc. (2005), Paperback"	2005	Paperback								"_In-Between Readers, From:GentryZuzunaga, Country:China, 2012, To:MissiMarsden, stats"	NoLongerAvailable	[0545039126]	"0545039126, 9780545039123"		amazon.com	[2010-08-20]	897874
74421289	Who's in the Jungle? (Lift -the-flap 'n' Learn)	"DePrisco, Dorthea"		"Gilvan-Cartwright, Chris"	Illustrator	"Piggy Toes Press (2007), Board book"	2007	Board book	5.9 inches	0.3 pounds	5.9 inches	0.3 inches	5.8 inches	5.9 x 5.8 x 0.3 inches		"From:GentryZuzunaga, Country:Indonesia, +reserve AbbyBurris"	Missing	[1581177690]	"1581177690, 9781581177695"		amazon.com	[2011-06-12]	5781382
74421296	Candy Floss	"Godden, Rumer"				"Philomel (1991), Hardcover, 54 pages"	1991	Hardcover	54 p.; 9.6 inches	0.95 pounds	9.6 inches	0.6 inches	8.5 inches	9.6 x 8.5 x 0.6 inches	54	"From:GentryZuzunaga, 2011, Country:India, To:ShannonPanjwani"	NoLongerAvailable	[0399218076]	"0399218076, 9780399218071"		amazon.com	[2011-06-12]	1397651
74421309	Alphabet Adventure	"Wood, Audrey"		"Wood, Bruce"	Illustrator	"Blue Sky Press (2001), Hardcover, 40 pages"	2001	Hardcover	40 p.; 11.07 x 9.99 inches	1.06 pounds	9.99 inches	0.37 inches	11.07 inches	9.99 x 11.07 x 0.37 inches	40	"From:GentryZuzunaga, To:LagoaAllianceSchoolLibrary, Country:Philippines, 2012, stats"	"NoLongerAvailable, 2012 Stats"	[043908069X]	"043908069X, 9780439080699"		amazon.com	[2011-06-12]	80619
74421740	"Kid's Almanac for the 21st Century: Special Millennium Edition, Full-Color Throughout"	"Pascoe, Elaine"		"Kops, Deborah|Italiano, Bob|Bell, David C"	|Illustrator|Illustrator	"A Blackbirch Graphics Book/Scholastic Reference (2000), Paperback"	2000	Paperback	8.8 inches	1.3 pounds	8.8 inches	0.7 inches	6 inches	8.8 x 6 x 0.7 inches		"From:GentryZuzunaga, _Activity Books, To:EaglesLanding, Country:USA, 2014"	"NoLongerAvailable, 2014 Stats"	[043917984X]	"043917984X, 9780439179843"		amazon.com	[2011-06-12]	712170
74421754	The Diamond of Drury Lane (Cat Royal Adventure)	"Golding, Julia"				"Square Fish (2009), Edition: 1, Paperback, 448 pages"	2009	Paperback	448 p.; 7.6 inches	0.75 pounds	7.6 inches	1.3 inches	5.1 inches	7.6 x 5.1 x 1.3 inches	448	"From:GentryZuzunaga, Country:Indonesia, 2013, To:CyndiRichardson"	"NoLongerAvailable, 2013 Stats"	[0312561237]	"0312561237, 9780312561239"		amazon.com	[2011-06-12]	1504936
88993656	The Story of Thomas Alva Edison (Landmark Books)	"Cousins, Margaret"				"Random House Books for Young Readers (1981), Paperback, 192 pages"	1981	Paperback	192 p.; 5.12 inches	0.47 pounds	5.12 inches	7.87 inches	0.59 inches	5.12 x 0.59 x 7.87 inches	192	"From:GentryZuzunaga, _Biographies, To:AndreSavage, Country:France"	NoLongerAvailable	[0394848837]	"0394848837, 9780394848839"		amazon.com	[2012-08-19]	167403
88993677	Peter Rabbit Tales: Four Complete Stories	"Potter, Beatrix"				"Warne (1995), Paperback, 80 pages"	1995	Paperback	80 p.; 7.8 inches		7.8 inches	0.67 inches	5.56 inches	7.8 x 5.56 x 0.67 inches	80	"From:GentryZuzunaga, Country:Lebanon, 2012, stats, To:PhoebeShaw"	"NoLongerAvailable, 2012 Stats"	[0723236658]	"0723236658, 9780723236658"		amazon.com	[2012-08-19]	7494881
104912186	Big Pig on a Dig (Phonics Readers)	"Cox, Phil Roxbee"		"Tyler, Jenny|Cartwright, Stephen"	Editor|Illustrator	"Usborne Books (2006), Edition: Revised, Paperback, 16 pages"	2006	Paperback	16 p.; 8.27 x 0.08 inches	0.22 pounds	0.08 inches	7.99 inches	8.27 inches	0.08 x 8.27 x 7.99 inches	16	"From:GentryZuzunaga, _Beginning Readers, 2014, To:ShannonPanjwani, Country:India"	"NoLongerAvailable, 2014 Stats"	[0794515010]	"0794515010, 9780794515010"		amazon.com	[2014-01-04]	445019
104912193	Cow Takes a Bow	"Punter, Russell"				"Usborne Publishing Ltd, Paperback"	?	Paperback								"From:GentryZuzunaga, _Beginning Readers, To:RandallStone, Country:Hungary, 2015"	"NoLongerAvailable, 2015 Stats"	[1409550516]	"1409550516, 9781409550518"		amazon.com	[2014-01-04]	13714417
104912197	Goose on the Loose (Usborne Phonics Books)	"Roxbee-Cox, Phil"		"Tyler, Jenny|Cartwright, Stephen"	Editor|Illustrator	"Usborne Books (2003), Edition: Brdbk, Board book, 10 pages"	2003	Board book	10 p.; 6.84 inches	0.39 pounds	6.84 inches	0.38 inches	6.24 inches	6.84 x 6.24 x 0.38 inches	10	"From:GentryZuzunaga, _Beginning Readers, Country:India, 2014, To:ShannonPanjwani"	"NoLongerAvailable, 2014 Stats"	[0794503055]	"0794503055, 9780794503055"		amazon.com	[2014-01-04]	136080
104912208	Under the Sea (Usborne Lift-the-Flap)	"Smith, Alastair"		"Scott, Peter|Tatchell, Judy|Russell, Ruth"	Illustrator||Illustrator	"Usborne Pub Ltd (2003), Hardcover, 16 pages"	2003	Hardcover	16 p.; 10.24 x 0.47 inches	0.95 pounds	0.47 inches	9.76 inches	10.24 inches	0.47 x 10.24 x 9.76 inches	16	"From:GentryZuzunaga, _Science, Country:India, To:ShannonPanjwani, 2014"	"NoLongerAvailable, 2014 Stats"	[0794505090]	"0794505090, 9780794505097"		amazon.com	[2014-01-04]	1285242
104912212	Mysteries & Marvels of Nature	"Dalby, Elizabeth"		"Tatchell, Judy|Whatmore, Candice"	Editor|Illustrator	"Usborne Books (2008), Paperback, 128 pages"	2008	Paperback	128 p.; 9.02 x 0.43 inches	1.45 pounds	0.43 inches	11.26 inches	9.02 inches	0.43 x 9.02 x 11.26 inches	128	"From:GentryZuzunaga, _Science, Country:India, To:ShannonPanjwani, 2014"	"NoLongerAvailable, 2014 Stats"	[0794517382]	"0794517382, 9780794517380"		amazon.com	[2014-01-04]	1788544
104912214	First Encyclopedia of Seas & Oceans (Usborne First Encyclopedia)	"Denne, Ben"		"Hancock, David"	Illustrator	"Usborne Pub Ltd (2011), Edition: Pap/Psc, Paperback, 64 pages"	2011	Paperback	64 p.; 8.27 x 0.2 inches	0.7 pounds	0.2 inches	10.43 inches	8.27 inches	0.2 x 8.27 x 10.43 inches	64	"From:GentryZuzunaga, _Science, Country:India, To:ShannonPanjwani, 2014"	"NoLongerAvailable, 2014 Stats"	[0794530486]	"0794530486, 9780794530488"		amazon.com	[2014-01-04]	136164
116323462	Usborne The Children's Book of Art: Internet Linked	"Dickins, Rosie"		"Armstrong, Carrie|Mayer, Uwe"	Editor|Illustrator	"Usborne Pub Ltd (2006), Edition: First U.S. Edition, Hardcover, 64 pages"	2006	Hardcover	64 p.; 10.9 inches	1 pound	10.9 inches	0.5 inches	9.32 inches	10.9 x 9.32 x 0.5 inches	64	"Country:India, 2015, From:GentryZuzunaga, To:ShannonPanjwani"	"NoLongerAvailable, 2015 Stats"	[0794512232]	"0794512232, 9780794512231"		amazon.com	[2015-02-17]	995775
124510679	Usborne The Children's Book of Art: Internet Linked	"Dickins, Rosie"	Author	"Armstrong, Carrie|Mayer, Uwe"	Editor|Illustrator	"Usborne Pub Ltd (2006), Edition: First U.S. Edition, 64 pages"	2006	Hardcover	64 p.; 9 x 0.75 inches	1 pound	0.75 inches	10.5 inches	9 inches	0.75 x 9 x 10.5 inches	64	"_Arts, From:GentryZuzunaga, To:BrandiBates, Country:Romania, 2015"	"NoLongerAvailable, 2015 Stats"	[0794512232]	"0794512232, 9780794512231"		amazon.com books	[2015-12-26]	995775
124660680	Classical Music Sticker Book (Sticker Reference)	"Marks, Anthony"	Author			"Usborne Books (2014), 32 pages"	2014	Paperback	32 p.	0.7 pounds					32	"_Activity Books, To:JessicaAmis, Country:Turkey, 2015, From:GentryZuzunaga"	"NoLongerAvailable, 2015 Stats"	[0794531253]	"0794531253, 9780794531256"		amazon.com books	[2015-12-31]	16966755
124660690	Renaissance Sticker Book	"Brocklehurst, Ruth"	Author			"Usborne Books (2015), Edition: Teacher's Edition, 42 pages"	2015	Paperback	42 p.; 8.23 inches	0.16 pounds	8.23 inches	10.83 inches	0.12 inches	8.23 x 0.12 x 10.83 inches	42	"_Activity Books, To:JessicaAmis, Country:Turkey, 2015, From:GentryZuzunaga"	"NoLongerAvailable, 2015 Stats"	[1409550230]	"1409550230, 9781409550235"		amazon.com books	[2015-12-31]	16972560
124660698	"See Inside How Things Work (Usborne Flap Book) Brdbk Edition by Mason, Conrad [2010]"					"Usborne Books, Edition: Brdbk"	?	Board book								"_Science, To:JessicaAmis, Country:Turkey, 2015, From:GentryZuzunaga"	"NoLongerAvailable, 2015 Stats"	[]			amazon.com books	[2015-12-31]	9242397
124660756	My Very First Art Coloring Book	"Dickens, Rosie"	Author	"Ballesteros, Carles"	Illustrator	"Usborne Pub Ltd (2012), Edition: Csm Nov St, 28 pages"	2012	Paperback	28 p.; 8.25 x 0.25 inches	0.45 pounds	0.25 inches	9.5 inches	8.25 inches	0.25 x 8.25 x 9.5 inches	28	"_Activity Books, To:JessicaAmis, Country:Turkey, 2015, From:GentryZuzunaga"	"NoLongerAvailable, 2015 Stats"	[079453273X]	"079453273X, 9780794532734"		amazon.com books	[2015-12-31]	12032488
124660780	What Makes You Ill (Starting Point Science)	"Unwin, Mike"	Author	"Figg, Non|Spenceley, Annabel|Chen, Kuo Kang"	Contributor|Illustrator|Illustrator	"Usborne Pub Ltd (2006), Edition: Revised, 24 pages"	2006	Paperback	24 p.; 7 x 0.25 inches	0.3 pounds	0.25 inches	7 inches	7 inches	0.25 x 7 x 7 inches	24	"_Science, To:JessicaAmis, Country:Turkey, 2015, From:GentryZuzunaga"	"NoLongerAvailable, 2015 Stats"	[0794516246]	"0794516246, 9780794516246"		amazon.com books	[2015-12-31]	96668
124660786	Why Do People Eat (Starting Point Science)	"Needham, Kate"	Author	"Figg, Non|Spenceley, Annabel|Chen, Kuo Kang|Dark, Lindy"	Contributor|Illustrator|Illustrator|Contributor	"Usborne Pub Ltd (2006), Edition: Revised, 24 pages"	2006	Paperback	24 p.; 7 x 0.25 inches	0.3 pounds	0.25 inches	7 inches	7 inches	0.25 x 7 x 7 inches	24	"_Science, To:JessicaAmis, Country:Turkey, 2015, From:GentryZuzunaga"	"NoLongerAvailable, 2015 Stats"	[0794516238]	"0794516238, 9780794516239"		amazon.com books	[2015-12-31]	96702
124878629	The Story of Inventions	"Claybourne, Anna"	Author	"Larkum, Adam"	Illustrator	"Usborne Pub Ltd (2007), Edition: New, 96 pages"	2007	Paperback	96 p.; 6.75 x 0.25 inches	0.73 pounds	0.25 inches	9.25 inches	6.75 inches	0.25 x 6.75 x 9.25 inches	96	"_Historical Fiction, Country:India, 2016, From:GentryZuzunaga, To:ShannonPanjwani"	"NoLongerAvailable, 2016 Stats"	[0794517102]	"0794517102, 9780794517106"		amazon.com books	[2016-01-05]	6453727
124878686	Electricity and Magnetism (Paperback) (Usborne Understand Science)	"Learning, National Geographic Learning National Geographic"	Author			"National Geographic School Pub (2010), Edition: 1, 32 pages"	2010	Paperback	32 p.; 8 x 0.25 inches	0.5 pounds	0.25 inches	9.75 inches	8 inches	0.25 x 8 x 9.75 inches	32	"_Science, Country:India, 2016, From:GentryZuzunaga, To:ShannonPanjwani"	"NoLongerAvailable, 2016 Stats"	[0794522173]	"0794522173, 9780794522179"		amazon.com books	[2016-01-05]	360249
124878770	Mysteries and Marvels of Science: Internet Linked	"Clarke, Phillip"	Author			"Usborne Pub Ltd (2008), 96 pages"	2008	Paperback	96 p.; 8.5 x 0.5 inches	1.1 pounds	0.5 inches	11 inches	8.5 inches	0.5 x 8.5 x 11 inches	96	"_Science, From:GentryZuzunaga, +reserve LeighaMackin, Country:Indonesia"	Missing	[0794519857]	"0794519857, 9780794519858"		amazon.com books	[2016-01-05]	1225032
124878840	The Usborne Complete Book of the Microscope: Internet-Linked	"Rogers, Kirsteen"	Author	"Fearn, Laura|Dowswell, Paul"	Contributor|Editor	"Educational Development Corp. (2006), Edition: Revised, 96 pages"	2006	Paperback	96 p.; 8.5 x 0.25 inches	1.15 pounds	0.25 inches	10.75 inches	8.5 inches	0.25 x 8.5 x 10.75 inches	96	"_Science, Country:India, 2016, From:GentryZuzunaga, To:ShannonPanjwani"	"NoLongerAvailable, 2016 Stats"	[0794515584]	"0794515584, 9780794515584"		amazon.com books	[2016-01-05]	34656
128948257	"The Usborne Book of Wild Places: Mountains, Jungles & Deserts"	"Wilkes, Angela"	Author	"Dennis, Peter"	Illustrator	"Usborne (1994), Edition: Revised, 98 pages"	1994	Paperback	98 p.; 8 x 0.5 inches	0.56 pounds	0.5 inches	8.25 inches	8 inches	0.5 x 8 x 8.25 inches	98	"_Science, From:GentryZuzunaga, To:MichelleKiprop, Country:Kenya, 2016"	"NoLongerAvailable, 2016 Stats"	[0746007981]	"0746007981, 9780746007983"		amazon.com books	[2016-04-06]	6348
128948288	What's Under the Sea (Starting Point Science)	"Tahta, Sophy"	Author	"Trotter, Stuart"	Illustrator	"Usborne Pub Ltd (2006), 24 pages"	2006	Paperback	24 p.; 7 x 0.25 inches	0.15 pounds	0.25 inches	7.25 inches	7 inches	0.25 x 7 x 7.25 inches	24	"_Science, From:GentryZuzunaga, To:MichelleKiprop, Country:Kenya, 2016"	"NoLongerAvailable, 2016 Stats"	[079451409X]	"079451409X, 9780794514099"		amazon.com books	[2016-04-06]	6345
128948325	"How Flowers Grow (Usborne Beginners, Level 1)"	"Helbrough, Emma"	Author	"Parker, Laura|MacKinnon, Catherine-Anne|Mayer, Uwe|Silver, Maggie"	Contributor|Contributor|Illustrator|Illustrator	"Usborne Pub Ltd (2007), Edition: Reprint, 32 pages"	2007	Hardcover	32 p.; 6 x 0.25 inches	0.4 pounds	0.25 inches	8.25 inches	6 inches	0.25 x 6 x 8.25 inches	32	"_Science, From:GentryZuzunaga, To:MichelleKiprop, Country:Kenya, 2016"	"NoLongerAvailable, 2016 Stats"	[0794513409]	"0794513409, 9780794513405"		amazon.com books	[2016-04-06]	672287
128948358	"Caterpillars and Butterflies (Beginners Nature, Level 1)"	"Turnbull, Stephanie"	Author	"Mayer, Uwe|Guille, Rosanne"	Illustrator|Illustrator	"Usborne Pub Ltd (2007), 32 pages"	2007	Hardcover	32 p.; 6.25 x 0.5 inches	0.4 pounds	0.5 inches	8.25 inches	6.25 inches	0.5 x 6.25 x 8.25 inches	32	"_Science, From:GentryZuzunaga, To:MichelleKiprop, Country:Kenya, 2016"	"NoLongerAvailable, 2016 Stats"	[0794513379]	"0794513379, 9780794513375"		amazon.com books	[2016-04-06]	5332721
128948404	First Encyclopedia of the Human Body (First Encyclopedias)	"Chandler, Fiona"	Author	"Woodcock, John|Hancock, David"	Illustrator|Illustrator	"Usborne Pub Ltd (2011), 64 pages"	2011	Paperback	64 p.; 8.75 x 0.25 inches	0.6 pounds	0.25 inches	11.25 inches	8.75 inches	0.25 x 8.75 x 11.25 inches	64	"_Science, From:GentryZuzunaga, To:MichelleKiprop, Country:Kenya, 2016"	"NoLongerAvailable, 2016 Stats"	[0794530605]	"0794530605, 9780794530600"		amazon.com books	[2016-04-06]	136071
128948482	The Usborne Book of Living Long Ago: Everyday life through the Ages (Explainers)	"Brooks, Felicity"	Author	"Evans, Cheryl|Cook, Janet|Gower, Teri|Smith, Guy|Lyon, Chris"	Editor|Editor|Illustrator|Illustrator|Illustrator	"Usborne Pub Ltd (1994), 96 pages"	1994	Paperback	96 p.; 7.75 x 0.5 inches	0.55 pounds	0.5 inches	8.25 inches	7.75 inches	0.5 x 7.75 x 8.25 inches	96	"_History, From:GentryZuzunaga, To:MichelleKiprop, Country:Kenya, 2016"	"NoLongerAvailable, 2016 Stats"	[0746011091]	"0746011091, 9780746011096"		amazon.com books	[2016-04-06]	3777689
128948579	Then and Now (Usborne Talkabout Books)	"Amery, Heather"	Author	"Bryant-Mole, Karen|Firmin, Peter"	Contributor|Illustrator	"Usborne Pub Ltd (2008), Edition: Revised, 24 pages"	2008	Paperback	24 p.; 7.5 x 0.25 inches	0.3 pounds	0.25 inches	7.75 inches	7.5 inches	0.25 x 7.5 x 7.75 inches	24	"_Picture Books, From:GentryZuzunaga, To:MichelleKiprop, Country:Kenya, 2016"	"NoLongerAvailable, 2016 Stats"	[0794522114]	"0794522114, 9780794522117"		amazon.com books	[2016-04-06]	6336
128949751	Usborne Time Traveler	"Hindley, Judy"	Author	"Cartwright, Stephen|Hindley, Judy|Wingage, Philippa|Goffe, Toni"	Illustrator|Editor|Editor|Illustrator	"Usborne Pub Ltd (1998), 130 pages"	1998	Hardcover	130 p.; 9 x 0.75 inches	0.01 pounds	0.75 inches	11.25 inches	9 inches	0.75 x 9 x 11.25 inches	130	"_History, From:GentryZuzunaga, To:DeborahHays, Country:Bulgaria, 2016"	"NoLongerAvailable, 2016 Stats"	[0746033656]	"0746033656, 9780746033654"		amazon.com books	[2016-04-06]	6341
132369899	Usborne Time Traveler	"Hindley, Judy"	Author	"Cartwright, Stephen|Hindley, Judy|Wingage, Philippa|Goffe, Toni"	Illustrator|Editor|Editor|Illustrator	"Usborne Pub Ltd (1998), 130 pages"	1998	Hardcover	130 p.; 9 x 0.75 inches	0.01 pounds	0.75 inches	11.25 inches	9 inches	0.75 x 9 x 11.25 inches	130	"_History, From:GentryZuzunaga, To:MandiWood, Country:Turkey, 2016"	"NoLongerAvailable, 2016 Stats"	[0746033656]	"0746033656, 9780746033654"		amazon.com books	[2016-07-17]	6341
135097210	Usborne Time Traveler	"Hindley, Judy"	Editor	"Cartwright, Stephen|Wingage, Philippa|Goffe, Toni"	Illustrator|Editor|Illustrator	"Usborne Pub Ltd (1998), 130 pages"	1998	Hardcover	130 p.; 9 x 0.75 inches	0.01 pounds	0.75 inches	11.25 inches	9 inches	0.75 x 9 x 11.25 inches	130	"_History, From:GentryZuzunaga, To:LeighaMackin, Country:Indonesia, 2017"	"NoLongerAvailable, 2017 Stats"	[0746033656]	"0746033656, 9780746033654"		amazon.com books	[2016-10-10]	6341
137293804	The Usborne Book of Bible Stories (Bible Tales Readers)	"Amery, Heather (Rtl)"	Author			"Usborne Pub Ltd (2007), Edition: HAR/COM, 198 pages"	2007	Hardcover	198 p.; 8.5 x 1.25 inches	2.05 pounds	1.25 inches	8.5 inches	8.5 inches	1.25 x 8.5 x 8.5 inches	198	"_Bible-Related, From:GentryZuzunaga, To:BettyKurz, Country:Papua NG, 2017"	"NoLongerAvailable, 2017 Stats"	[0794516599]	"0794516599, 9780794516598"		amazon.com books	[2016-12-29]	136156
137294125	Improve Your Survival Skills (Usborne Superskills)	"Smith, Lucy"	Author	"Cook, Janet"	Editor	"Usborne Pub Ltd (2008), 48 pages"	2008	Paperback	48 p.; 5.75 x 0.25 inches	0.3 pounds	0.25 inches	8 inches	5.75 inches	0.25 x 5.75 x 8 inches	48	"From:GentryZuzunaga, To:ShannonPanjwani, Country:India, 2016"	"NoLongerAvailable, 2016 Stats"	[0794522181]	"0794522181, 9780794522186"		amazon.com books	[2016-12-29]	95289
137294134	True Stories of Everest Adventures	"Dowswell, Paul"	Author			"EDC Publishing/ Usborne Books (2015), 144 pages"	2015	Paperback							144	"From:GentryZuzunaga, To:ShannonPanjwani, Country:India, 2016"	"NoLongerAvailable, 2016 Stats"	[]			amazon.com books	[2016-12-29]	5540235
137294156	True Stories of Survival	"Dowswell, P."	Author			"Usborne Books (2016), 100 pages"	2016	Paperback	100 p.	0.85 pounds					100	"From:GentryZuzunaga, To:ShannonPanjwani, Country:India, 2016"	"NoLongerAvailable, 2016 Stats"	[0794536484]	"0794536484, 9780794536480"		amazon.com books	[2016-12-29]	17684034
137294193	Understanding Your Brain (Science for Beginners)	"Treays, Rebecca"	Author	"Fox, Christyan"	Illustrator	"Usborne Pub Ltd (2004), 32 pages"	2004	Paperback	32 p.; 8.75 x 0.25 inches	0.31 pounds	0.25 inches	10.5 inches	8.75 inches	0.25 x 8.75 x 10.5 inches	32	"From:GentryZuzunaga, To:ShannonPanjwani, Country:India, 2016"	"NoLongerAvailable, 2016 Stats"	[0794508537]	"0794508537, 9780794508531"		amazon.com books	[2016-12-29]	402798
137294210	The Usborne Complete Book of the Human Body: Internet Linked (Complete Books)	"Claybourne, Anna"	Author	"Moncrieff, Stephen|Percival, Juliet"	Illustrator|Illustrator	"Usborne Pub Ltd (2006), 112 pages"	2006	Paperback	112 p.; 8.5 x 0.5 inches	1.3 pounds	0.5 inches	11 inches	8.5 inches	0.5 x 8.5 x 11 inches	112	"From:GentryZuzunaga, To:ShannonPanjwani, Country:India, 2016"	"NoLongerAvailable, 2016 Stats"	[0794515576]	"0794515576, 9780794515577"		amazon.com books	[2016-12-29]	332663
137294385	Anne of Green Gables	"Sims, Lesley"	Author	"Marks, Alan"	Illustrator	"Usborne Books (2015), 24 pages"	2015	Hardcover	24 p.; 12 inches	1 pound	12 inches	10 inches	12 inches	12 x 12 x 10 inches	24	"From:GentryZuzunaga, To:ShannonPanjwani, Country:India, 2016"	"NoLongerAvailable, 2016 Stats"	[0794537502]	"0794537502, 9780794537500"		amazon.com books	[2016-12-29]	17776428
137294415	Usborne Fairies Coloring and Sticker Book	Usborne	Author			"EDC / USBO (2013), 42 pages"	2013	Paperback	42 p.; 10.7 inches	0.45 pounds	10.7 inches	0.2 inches	8.4 inches	10.7 x 8.4 x 0.2 inches	42	"From:GentryZuzunaga, To:ShannonPanjwani, Country:India, 2016"	"NoLongerAvailable, 2016 Stats"	[0794523099]	"0794523099, 9780794523091"		amazon.com books	[2016-12-29]	18867254
137295286	Winter Wonderland Sticker Book	"Watt, Fiona"	Author	"Baggott, Stella"	Illustrator	"Usborne Books (2012), 23 pages"	2012	Paperback	23 p.; 11.8 inches	0.65 pounds	11.8 inches	0.3 inches	9.2 inches	11.8 x 9.2 x 0.3 inches	23	"From:GentryZuzunaga, To:ShannonPanjwani, Country:India, 2016"	"NoLongerAvailable, 2016 Stats"	[0794533205]	"0794533205, 9780794533205"		amazon.com books	[2016-12-29]	18867309
137295413	Usborne World of Animals	"Davidson, Susanna"	Author	"Jackson, Ian|Montgomery, Lee"	Illustrator|Illustrator	"Usborne Pub Ltd (2009), 128 pages"	2009	Paperback	128 p.; 8.5 x 0.5 inches	1.1 pounds	0.5 inches	10.75 inches	8.5 inches	0.5 x 8.5 x 10.75 inches	128	"From:GentryZuzunaga, To:LeighaMackin, Country:Indonesia, 2017"	"NoLongerAvailable, 2017 Stats"	[0794520332]	"0794520332, 9780794520335"		amazon.com books	[2016-12-29]	962472
137295444	First Encyclopedia of the Human Body (First Encyclopedias)	"Chandler, Fiona"	Author	"Woodcock, John|Hancock, David"	Illustrator|Illustrator	"EDC Publishing/Usborne Books (2011), 64 pages"	2011	Paperback	64 p.; 8.75 x 0.25 inches	0.6 pounds	0.25 inches	11.25 inches	8.75 inches	0.25 x 8.75 x 11.25 inches	64	"From:GentryZuzunaga, To:LeighaMackin, Country:Indonesia, 2017"	"NoLongerAvailable, 2017 Stats"	[0794530605]	"0794530605, 9780794530600"		amazon.com books	[2016-12-29]	136071
137295488	Science Activities (Usborne Science Activities)	"Edon, Helen"	Author	"Abel, Simone|Parekh, Radhi|Felstead, Jane"	Illustrator|Contributor|Contributor	"Usborne Pub Ltd (2010), 74 pages"	2010	Hardcover	74 p.; 8.75 x 0.5 inches	0.65 pounds	0.5 inches	8.75 inches	8.75 inches	0.5 x 8.75 x 8.75 inches	74	"From:GentryZuzunaga, To:LeighaMackin, Country:Indonesia, 2017"	"NoLongerAvailable, 2017 Stats"	[0794527523]	"0794527523, 9780794527525"		amazon.com books	[2016-12-29]	11514590
137295496	Night Animals (Beginners Nature)	"Meredith, Susan"	Author	"Larkum, Adam|Donaera, Patrizia"	Illustrator|Illustrator	"Usborne Pub Ltd (2007), 32 pages"	2007	Hardcover	32 p.; 6 x 0.25 inches	0.4 pounds	0.25 inches	9 inches	6 inches	0.25 x 6 x 9 inches	32	"From:GentryZuzunaga, To:LeighaMackin, Country:Indonesia, 2017"	"NoLongerAvailable, 2017 Stats"	[0794516564]	"0794516564, 9780794516567"		amazon.com books	[2016-12-29]	578457
137295516	Why Do People Eat (Starting Point Science)	"Needham, Kate"	Author	"Figg, Non|Spenceley, Annabel|Chen, Kuo Kang|Dark, Lindy"	Contributor|Illustrator|Illustrator|Contributor	"Usborne Pub Ltd (2006), Edition: Revised, 24 pages"	2006	Paperback	24 p.; 7 x 0.25 inches	0.3 pounds	0.25 inches	7 inches	7 inches	0.25 x 7 x 7 inches	24	"From:GentryZuzunaga, To:LeighaMackin, Country:Indonesia, 2017"	"NoLongerAvailable, 2017 Stats"	[0794516238]	"0794516238, 9780794516239"		amazon.com books	[2016-12-29]	96702
137295533	What Makes You Ill (Starting Point Science)	"Unwin, Mike"	Author	"Figg, Non|Spenceley, Annabel|Chen, Kuo Kang"	Contributor|Illustrator|Illustrator	"Usborne Pub Ltd (2006), Edition: Revised, 24 pages"	2006	Paperback	24 p.; 7 x 0.25 inches	0.3 pounds	0.25 inches	7 inches	7 inches	0.25 x 7 x 7 inches	24	"From:GentryZuzunaga, To:LeighaMackin, Country:Indonesia, 2017"	"NoLongerAvailable, 2017 Stats"	[0794516246]	"0794516246, 9780794516246"		amazon.com books	[2016-12-29]	96668
137295684	"Drawing, Doodling and Coloring Fashion (Doodling Books)"	"Watt, Fiona"	Author			"Usborne Books (2013), 126 pages"	2013	Paperback	126 p.; 11.9 inches	1.2 pounds	11.9 inches	0.5 inches	9.7 inches	11.9 x 9.7 x 0.5 inches	126	"From:GentryZuzunaga, To:AliciaDarilek, Country:China, 2017"	"NoLongerAvailable, 2017 Stats"	[0794533361]	"0794533361, 9780794533366"		amazon.com books	[2016-12-29]	16557413
137295704	Sticker Dolly Dressing Ice Skaters	"Watt, Fiona"	Author			"Usborne Books (2014), 34 pages"	2014	Paperback	34 p.	0.7 pounds					34	"From:GentryZuzunaga, To:AliciaDarilek, Country:China, 2017"	"NoLongerAvailable, 2017 Stats"	[0794530699]	"0794530699, 9780794530693"		amazon.com books	[2016-12-29]	16701762
137295708	First Thousand Words in English (Usborne Internet-Linked First Thousand Words)	"Amery, Heather"	Author	"Cartwright, Stephen|Olley, Mike"	Illustrator|Editor	"Usborne Books (2013), 63 pages"	2013	Hardcover	63 p.; 12.1 inches	1.36 pounds	12.1 inches	0.5 inches	9.1 inches	12.1 x 9.1 x 0.5 inches	63	"From:GentryZuzunaga, To:AliciaDarilek, Country:China, 2017"	"NoLongerAvailable, 2017 Stats"	[0794533949]	"0794533949, 9780794533946"		amazon.com books	[2016-12-29]	366245
137295715	Big Book of English Words	Various	Author			"Usborne Books (2014), 34 pages"	2014	Board book	34 p.	1.5 pounds					34	"From:GentryZuzunaga, To:AliciaDarilek, Country:China, 2017"	"NoLongerAvailable, 2017 Stats"	[0794527027]	"0794527027, 9780794527020"		amazon.com books	[2016-12-29]	14740524
137295736	Winter Activity Pack (Box Sets)	Various	Author			"Usborne Books (2014), 4 pages"	2014	Hardcover	4:00 PM	1.2 pounds					4	"From:GentryZuzunaga, To:AliciaDarilek, Country:China, 2017"	"NoLongerAvailable, 2017 Stats"	[0794534058]	"0794534058, 9780794534059"		amazon.com books	[2016-12-29]	18867323
137295901	The Usborne Book of Living Long Ago: Everyday life through the Ages (Explainers)	"Brooks, Felicity"	Author	"Evans, Cheryl|Cook, Janet|Gower, Teri|Smith, Guy|Lyon, Chris"	Editor|Editor|Illustrator|Illustrator|Illustrator	"Usborne Pub Ltd (1994), 96 pages"	1994	Paperback	96 p.; 7.75 x 0.5 inches	0.55 pounds	0.5 inches	8.25 inches	7.75 inches	0.5 x 7.75 x 8.25 inches	96	"_Sonlight, From:GentryZuzunaga, To:AliHuYoung, 2017"	"NoLongerAvailable, 2017 Stats"	[0746011091]	"0746011091, 9780746011096"		amazon.com books	[2016-12-29]	3777689
137295919	"The Usborne Book of Wild Places: Mountains, Jungles & Deserts"	"Wilkes, Angela"	Author	"Dennis, Peter"	Illustrator	"Usborne (1994), Edition: Revised, 98 pages"	1994	Paperback	98 p.; 8 x 0.5 inches	0.56 pounds	0.5 inches	8.25 inches	8 inches	0.5 x 8 x 8.25 inches	98	"_Sonlight, From:GentryZuzunaga, To:TriciaBlackford, Country:Chad, 2018"	"NoLongerAvailable, 2018 Stats"	[0746007981]	"0746007981, 9780746007983"		amazon.com books	[2016-12-29]	6348
137295930	Usborne CHILDREN'S ENCYCLOPEDIA New Edition SoftCover w QR & Internet Links	"Brooks, Felicity"	Author			"Usborne Books (2014), 320 pages"	2014	Paperback	320 p.; 9.5 inches	2.25 pounds	9.5 inches	0.9 inches	7.4 inches	9.5 x 7.4 x 0.9 inches	320	"_Sonlight, From:GentryZuzunaga, To:AngieBorges, Country:Turkey, 2017"	"NoLongerAvailable, 2017 Stats"	[0794528430]	"0794528430, 9780794528430"		amazon.com books	[2016-12-29]	16169520
137296146	"Caterpillars and Butterflies (Beginners Nature, Level 1)"	"Turnbull, Stephanie"	Author	"Mayer, Uwe|Guille, Rosanne"	Illustrator|Illustrator	"Usborne Pub Ltd (2007), 32 pages"	2007	Hardcover	32 p.; 6.25 x 0.5 inches	0.4 pounds	0.5 inches	8.25 inches	6.25 inches	0.5 x 6.25 x 8.25 inches	32	"_Sonlight, From:GentryZuzunaga, To:KadieRied, Country:Indonesia, 2017"	"NoLongerAvailable, 2017 Stats"	[0794513379]	"0794513379, 9780794513375"		amazon.com books	[2016-12-29]	5332721
137296151	"Eggs and Chicks (Beginners Nature, Level 1)"	"Patchett, Fiona"	Author	"Kushii, Tetsuo|Wray, Zoe"	Illustrator|Illustrator	"Usborne Pub Ltd (2007), 32 pages"	2007	Hardcover	32 p.; 6.25 x 0.25 inches	0.4 pounds	0.25 inches	8 inches	6.25 inches	0.25 x 6.25 x 8 inches	32	"_Sonlight, From:GentryZuzunaga, To:KrisanneEmch, Country:Indonesia, 2017"	"NoLongerAvailable, 2017 Stats"	[0794513425]	"0794513425, 9780794513429"		amazon.com books	[2016-12-29]	973872
137296157	"How Flowers Grow (Usborne Beginners, Level 1)"	"Helbrough, Emma"	Author	"Parker, Laura|MacKinnon, Catherine-Anne|Mayer, Uwe|Silver, Maggie"	Contributor|Contributor|Illustrator|Illustrator	"Usborne Pub Ltd (2007), Edition: Reprint, 32 pages"	2007	Hardcover	32 p.; 6 x 0.25 inches	0.4 pounds	0.25 inches	8.25 inches	6 inches	0.25 x 6 x 8.25 inches	32	"_Sonlight, From:GentryZuzunaga, To:AliHuYoung, Country:China, 2017"	"NoLongerAvailable, 2017 Stats"	[0794513409]	"0794513409, 9780794513405"		amazon.com books	[2016-12-29]	672287
137296163	"Weather (Usborne Beginners, Level 2)"	"Chen, Kuo Kang"	Illustrator	"Haggerty, Tim"	Illustrator	"Usborne Pub Ltd (2006), 32 pages"	2006	Hardcover	32 p.; 6 x 0.25 inches	0.4 pounds	0.25 inches	8.25 inches	6 inches	0.25 x 6 x 8.25 inches	32	"_Sonlight, From:GentryZuzunaga, To:KacieMann, Country:Indonesia, 2017"	"NoLongerAvailable, 2017 Stats"	[0794512534]	"0794512534, 9780794512538"		amazon.com books	[2016-12-29]	278413
137296168	"Under the Sea: Internet Referenced (Beginners Nature - New Format, Level 1)"	"Patchett, Fiona"	Author	"Kushii, Tetsuo|Wray, Zoe"	Illustrator|Illustrator	"Usborne Pub Ltd (2006), 32 pages"	2006	Hardcover	32 p.; 6 x 0.25 inches	0.4 pounds	0.25 inches	8.25 inches	6 inches	0.25 x 6 x 8.25 inches	32	"_Sonlight, From:GentryZuzunaga, To:AliHuYoung, Country:China, 2017"	"NoLongerAvailable, 2017 Stats"	[0794513360]	"0794513360, 9780794513368"		amazon.com books	[2016-12-29]	587567
137296173	"Tadpoles and Frogs (Beginners Nature, Level 1)"	"Milbourne, Anna"	Author	"Wray, Zoe|Donaera, Patrizia"	Illustrator|Illustrator	"Usborne Pub Ltd (2007), 32 pages"	2007	Hardcover	32 p.; 6 x 0.25 inches	0.4 pounds	0.25 inches	8 inches	6 inches	0.25 x 6 x 8 inches	32	"_Sonlight, From:GentryZuzunaga, To:AliHuYoung, Country:China, 2017"	"NoLongerAvailable, 2017 Stats"	[079451345X]	"079451345X, 9780794513450"		amazon.com books	[2016-12-29]	1221289
137296181	"Usborne Science Activities, Vol. 2"	"Edom, Helen"	Author			"Usborne Pub Ltd (2009), 112 pages"	2009	Hardcover	112 p.; 8.5 x 0.5 inches	0.83 pounds	0.5 inches	8.5 inches	8.5 inches	0.5 x 8.5 x 8.5 inches	112	"_Sonlight, From:GentryZuzunaga"	Missing	[0794524214]	"0794524214, 9780794524210"		amazon.com books	[2016-12-29]	6279
137297504	Breaking Stalin's Nose	"Yelchin, Eugene"	Author	"Yelchin, Eugene"	Illustrator	"Henry Holt and Co. (BYR) (2011), Edition: 1, 161 pages"	2011	Ebook							161	"_Sonlight, From:GentryZuzunaga, To:ShannonPanjwani, 2016"	"NoLongerAvailable, 2016 Stats"	[9781429949958]	"9781429949958, 1429949953"		amazon.com books	[2016-12-29]	11480195
137297522	What Do Artists Use? (Learning Center Emergent Readers)	"Canizares, Susan"	Author			"Scholastic Trade (1998), 14 pages"	1998	Paperback	14 p.; 7 x 0.25 inches		0.25 inches	8.5 inches	7 inches	0.25 x 7 x 8.5 inches	14	"_Sonlight, From:GentryZuzunaga, To:ShannonPanjwani, 2016"	"NoLongerAvailable, 2016 Stats"	[0439045916]	"0439045916, 9780439045919"		amazon.com books	[2016-12-29]	1598656
137297525	The Story of Heidi (Usborne Young Reading Gift Books)	"Spyri, Johanna"	Author	"Marks, Alan|Sebag-Montefiore, Mary"	Illustrator|Narrator	"Usborne Pub Ltd (2006), 64 pages"	2006	Hardcover	64 p.; 5 x 0.5 inches	0.49 pounds	0.5 inches	8 inches	5 inches	0.5 x 5 x 8 inches	64	"_Sonlight, From:GentryZuzunaga, To:ShannonPanjwani, 2016"	"NoLongerAvailable, 2016 Stats"	[0794512372]	"0794512372, 9780794512378"		amazon.com books	[2016-12-29]	9649801
137297528	Once Upon a Time	Various	Author	"DePaola, Tomie"	Illustrator	"Putnam Juvenile (1986), Edition: First Edition"	1986	Paperback	10.06 inches	0.4 pounds	10.06 inches	7.96 inches	0.18 inches	10.06 x 0.18 x 7.96 inches	64	"_Sonlight, From:GentryZuzunaga, To:ShannonPanjwani, 2016"	"NoLongerAvailable, 2016 Stats"	[0399213708]	"0399213708, 9780399213700"		amazon.com books	[2016-12-29]	6135649
141312447	"Set Consist of Geography: Realms, Regions and Concepts, Seventh Edition and Goodes World Atlas"	"Blij, Harm J. de"	Author			"Wiley (1995), Edition: 7, 591 pages"	1995	Hardcover	591 p.; 10.8 inches	2.5 pounds	10.8 inches	0.5 inches	8.9 inches	10.8 x 8.9 x 0.5 inches	591	"_Geography, From:GentryZuzunaga, To:JanetAllison, Country:Tanzania, 2017"	"NoLongerAvailable, 2017 Stats"	[0471115045]	"0471115045, 9780471115045"		amazon.com books	[2017-05-07]	21512055
141312458	Introducing physical geography					Wiley (1995)	1995	Paper Book	11 inches	1.74 pounds	11 inches	1.3 inches	8.7 inches	11 x 8.7 x 1.3 inches		"_Geography, From:GentryZuzunaga, To:JanetAllison, Country:Tanzania, 2017"	"NoLongerAvailable, 2017 Stats"	[0555114708]	"0555114708, 9780555114704"		amazon.com books	[2017-05-07]	3956248
141312476	Exploring Creation with Physical Science Student Text	"Wile, Dr. Jay"	Author			"Apologia Educational Ministries (2007), Edition: 2, 498 pages"	2007	Hardcover	498 p.; 11.1 inches	4.1 pounds	11.1 inches	1.4 inches	9 inches	11.1 x 9 x 1.4 inches	498	"_Science, From:GentryZuzunaga, To:JanetAllison, Country:Tanzania, 2017"	"NoLongerAvailable, 2017 Stats"	[193201277X]	"193201277X, 9781932012774"		amazon.com books	[2017-05-07]	344929
141315442	"The Tale of Despereaux: Being the Story of a Mouse, a Princess, Some Soup and a Spool of Thread"	"DiCamillo, Kate"	Author	"Ering, Timothy Basil"	Illustrator	"Candlewick (2006), 272 pages"	2006	Paperback	272 p.; 5.13 inches	0.64 pounds	5.13 inches	7.69 inches	0.75 inches	5.13 x 0.75 x 7.69 inches	272	"_Fantasy, From:GentryZuzunaga, To:JanetAllison, Country:Tanzania, 2017"	"NoLongerAvailable, 2017 Stats"	[0763625299]	"0763625299, 9780763625290"		amazon.com books	[2017-05-07]	6953
141315453	More Than Anything Else	"Bradby, Marie"	Author	"Soentpiet, Chris K."	Illustrator	Scholastic (1997)	1997	Paperback	9.68 inches		9.68 inches	0.08 inches	8.42 inches	9.68 x 8.42 x 0.08 inches		"_Picture Books, From:GentryZuzunaga, To:JanetAllison, Country:Tanzania, 2017"	"NoLongerAvailable, 2017 Stats"	[059010313X]	"059010313X, 9780590103138"		amazon.com books	[2017-05-07]	166790
141315461	Earthquakes & Volcanoes (Natural Disaster (Good Apple))	"Deery, Ruth"	Author	"Miller-Ray, Sue E."	Illustrator	"Good Apple (1985), 48 pages"	1985	Paperback	48 p.; 10.88 inches		10.88 inches	0.32 inches	8.38 inches	10.88 x 8.38 x 0.32 inches	48	"_Picture Books, From:GentryZuzunaga, To:JanetAllison, Country:Tanzania, 2017"	"NoLongerAvailable, 2017 Stats"	[0866532722]	"0866532722, 9780866532723"		amazon.com books	[2017-05-07]	706833
141315465	Jungle Animals	"Ganeri, Anita"	Author			"Dempsey Parr Books (2000), 32 pages"	2000	Paperback	32 p.; 10.9 inches	0.2 pounds	10.9 inches	0.2 inches	8 inches	10.9 x 8 x 0.2 inches	32	"_Picture Books, From:GentryZuzunaga, To:JanetAllison, Country:Tanzania, 2017"	"NoLongerAvailable, 2017 Stats"	[1840847786]	"1840847786, 9781840847789"		amazon.com books	[2017-05-07]	3826234
146437206	"Here A Chick, There A Chick"	"McMillan, Bruce"	Author			Scholastic (1983)	1983	Paperback								"_Picture Books, From:GentryZuzunaga, To:GingerIvey, Country:Oman, 2017"	"NoLongerAvailable, 2017 Stats"	[0590300253]	"0590300253, 9780590300254"		amazon.com books	[2017-09-26]	417947
146894161	"The Usborne Book of Wild Places: Mountains, Jungles & Deserts"	"Wilkes, Angela"	Author	"Dennis, Peter"	Illustrator	"Usborne (1994), Edition: Revised, 98 pages"	1994	Paperback	98 p.; 8 x 0.5 inches	0.56 pounds	0.5 inches	8.25 inches	8 inches	0.5 x 8 x 8.25 inches	98	"_Science, From:GentryZuzunaga, To:AdamDrake, Country:Togo, 2018"	"NoLongerAvailable, 2018 Stats"	[0746007981]	"0746007981, 9780746007983"		amazon.com books	[2017-10-09]	6348
146894186	The Magic School Bus Inside a Beehive	"Cole, Joanna"	Author	"Degen, Bruce"	Illustrator	"Scholastic (1998), Edition: Reprint, 48 pages"	1998	Paperback	48 p.; 8.25 x 0.25 inches	0.35 pounds	0.25 inches	10 inches	8.25 inches	0.25 x 8.25 x 10 inches	48	"_Science, From:GentryZuzunaga, To:EmilyParakkal, Country:India, 2018"	"NoLongerAvailable, 2018 Stats"	[0590110063]	"0590110063, 9780590110068"		amazon.com books	[2017-10-09]	233152
146894205	Snake (Life Story)	"Chinery, Michael"	Author	"Watts, Barrie|Ovenden, Denys"	Photographer|Illustrator	"Troll Communications (1998), 32 pages"	1998	Paperback	32 p.; 8.98 inches	0.2 pounds	8.98 inches	5.94 inches	0.11 inches	8.98 x 0.11 x 5.94 inches	32	"_Science, From:GentryZuzunaga, 2018inv, #reserve LaurelJeremiadoss, Country:Uganda, 2019"	"NoLongerAvailable, 2019 Stats"	[0816721076]	"0816721076, 9780816721078"		amazon.com books	[2017-10-09]	2805389
146894248	"Build With Beakman: Bacteria Farm/Book, 5 Petri Dishes, Cardholder, Gelatin, and Swabs (Beakman's World)"	"Colombo, Luann"	Author	"Georgeson, Peter"	Illustrator	"Andrews Mcmeel Pub (1994), Edition: Book and Access, 24 pages"	1994	Paperback	24 p.; 9.75 x 1.5 inches	0.3 pounds	1.5 inches	8.75 inches	9.75 inches	1.5 x 9.75 x 8.75 inches	24	"_Science, From:GentryZuzunaga, 2018inv"	BookEnds	[0836270134]	"0836270134, 9780836270136"		amazon.com books	[2017-10-09]	2095528
146894290	Black Gold illustrated by Wesley Dennis	"Henry, Marguerite"	Author			"RAND MCNALLY & COMPANY (1957), Edition: 1st, 173 pages"	1957	Hardcover	173 p.	1.5 pounds					173	"_Science, From:GentryZuzunaga, To:MollyHeinze, Country:China, 2018"	"NoLongerAvailable, 2018 Stats"	[]			amazon.com books	[2017-10-09]	4116
146894332	Samantha's Cookbook: A Peek at Dining in the Past with Meals You Can Cook Today (American Girls Pastimes)	"Company, Pleasant"	Author	"Evert, Jodi|Mahal, Susan"	Editor|Illustrator	"Pleasant Company Publications (1994), Edition: 1st, 44 pages"	1994	Paperback	44 p.; 10.85 inches	0.45 pounds	10.85 inches	0.24 inches	8.48 inches	10.85 x 8.48 x 0.24 inches	44	"_American Girl, From:GentryZuzunaga, To:EmilyParakkal, Country:India, 2018"	"NoLongerAvailable, 2018 Stats"	[1562471147]	"1562471147, 9781562471149"		amazon.com books	[2017-10-09]	318092
146894381	"A Christmas Carol: In Prose, Being a Ghost Story of Christmas"	"Dickens, Charles"	Author	"Hyman, Trina Schart"	Illustrator	"Holiday House (1986), Edition: First Edition, 118 pages"	1986	Hardcover	118 p.; 9.82 inches	1.02 pounds	9.82 inches	0.89 inches	6.67 inches	9.82 x 6.67 x 0.89 inches	118	"_Children's Classics, From:GentryZuzunaga, Oversize, 2018inv"	BookEnds	[0823404862]	"0823404862, 9780823404865"		amazon.com books	[2017-10-09]	1549
146894497	I'm Glad I'm Your Dad (Happy Day Books)	"Horlacher, Bill"	Author			Standard Pub (1996)	1996	Paperback	6.13 x 0.14 inches	0.35 pounds	0.14 inches	8.04 inches	6.13 inches	0.14 x 6.13 x 8.04 inches		"_GoldenBooks, From:GentryZuzunaga, To:AmyRhiger, Country:Philippines, 2017"	"NoLongerAvailable, 2017 Stats"	[0784704503]	"0784704503, 9780784704509"		amazon.com books	[2017-10-09]	917163
146894512	I'm Glad I'm Your Mother (Happy Day)	"Horlacher, Bill"	Author	"Johnson, Meredith"	Illustrator	"Happy Day Book (2013), 16 pages"	2013	Paperback	16 p.; 6.13 inches	0.05 pounds	6.13 inches	8 inches	0.13 inches	6.13 x 0.13 x 8 inches	16	"_GoldenBooks, From:GentryZuzunaga, To:AmyRhiger, Country:Philippines, 2017"	"NoLongerAvailable, 2017 Stats"	[1414392923]	"1414392923, 9781414392929"		amazon.com books	[2017-10-09]	2993831
146894548	The Complete Adventures of Peter Rabbit	"Potter, Beatrix"	Author			"Warne (1984), 80 pages"	1984	Paperback	80 p.; 8.31 inches	0.74 pounds	8.31 inches	11.06 inches	0.25 inches	8.31 x 0.25 x 11.06 inches	80	"_Beatrix Potter, From:GentryZuzunaga, To:DeborahHays, Country:Bulgaria, 2017"	"NoLongerAvailable, 2017 Stats"	[0140504443]	"0140504443, 9780140504446"		amazon.com books	[2017-10-09]	7494881
146894592	Over the River and Through the Woods (Cartwheel)	"Gurney, John Steven"	Author	"Gurney, John S."	Illustrator	"Cartwheel Books (1992), Edition: 1"	1992	Paperback	8.07 x 8.02 inches	0.2 pounds	8.02 inches	0.17 inches	8.07 inches	8.02 x 8.07 x 0.17 inches		"_Picture Books, From:GentryZuzunaga, To:HannahPatton, Country:SE Asia-L, 2017"	"NoLongerAvailable, 2017 Stats"	[043913658X]	"043913658X, 9780439136587"		amazon.com books	[2017-10-09]	22221838
146894608	The Letters Are Lost!	"Ernst, Lisa Campbell"	Author			"Scholastic (1996), 32 pages"	1996	Paperback	32 p.; 9.8 inches	0.35 pounds	9.8 inches	0.2 inches	8.6 inches	9.8 x 8.6 x 0.2 inches	32	"_Picture Books, From:GentryZuzunaga, To:StephanieDixon, Country:India, 2018"	"NoLongerAvailable, 2018 Stats"	[0590329928]	"0590329928, 9780590329927"		amazon.com books	[2017-10-09]	322207
146894615	Scrambled Eggs Super	"Seuss, Dr."	Author			Random House Books for Young Readers (1980)	1980	Paperback	10.6 inches	0.5 pounds	10.6 inches	0.4 inches	7.9 inches	10.6 x 7.9 x 0.4 inches		"_Picture Books, From:GentryZuzunaga, To:VickiDueker, Country:China, 2018"	"NoLongerAvailable, 2018 Stats"	[0394845447]	"0394845447, 9780394845449"		amazon.com books	[2017-10-09]	73263
146894637	Five Little Ducks	"Beck, Ian"	Author			"Trumpet (1992), Edition: A Trumpet Club Special Edition"	1992	Paperback	8.43 inches	0.79 pounds	8.43 inches	0.73 inches	5.85 inches	8.43 x 5.85 x 0.73 inches		"_Picture Books, From:GentryZuzunaga, 2018inv"	BookEnds	[0590062085]	"0590062085, 9780590062084"		amazon.com books	[2017-10-09]	812700
146894643	How Many Days To America Small Book	"Short, Deborah J"	Author			"National Geographic School Pub (2000), Edition: 1"	2000	Paperback	7.75 x 0.1 inches	0.4 pounds	0.1 inches	9.5 inches	7.75 inches	0.1 x 7.75 x 9.5 inches	32	"_Picture Books, From:GentryZuzunaga, To:GraceDowning, Country:Indonesia, 2018"	"NoLongerAvailable, 2018 Stats"	[1563347342]	"1563347342, 9781563347344"		amazon.com books	[2017-10-09]	322069
146894649	Is It Dark? is It Light?	"Lankford, Mary D."	Author			"Scholastic Inc. (1991), 20 pages"	1991	Paperback	20 p.; 11 inches	0.3 pounds	11 inches	0.1 inches	9 inches	11 x 9 x 0.1 inches	20	"_Picture Books, From:GentryZuzunaga, To:BethDevine, Country:Papua NG, 2018"	"NoLongerAvailable, 2018 Stats"	[0590459805]	"0590459805, 9780590459808"		amazon.com books	[2017-10-09]	1329327
146894677	THE EWOKS JOIN FIGHT	"Wars, Star"	Author			"Random House Books for Young Readers (1983), 30 pages"	1983	Paperback	30 p.; 7.72 inches	0.09 pounds	7.72 inches	0.16 inches	7.64 inches	7.72 x 7.64 x 0.16 inches	30	"_Picture Books, From:GentryZuzunaga, To:AnishaHopkinson, Country:Papua Ind, 2018"	"NoLongerAvailable, 2018 Stats"	[0394858581]	"0394858581, 9780394858586"		amazon.com books	[2017-10-09]	55684
146894706	My First Book of Sign Language (Whistlestop Books; Troll Books)	"Holub, Joan"	Illustrator			"Troll Communications (1998), 32 pages"	1998	Paperback	32 p.; 7.8 inches	0.2 pounds	7.8 inches	0.1 inches	0.3 inches	7.8 x 0.3 x 0.1 inches	32	"_Picture Books, From:GentryZuzunaga, 2018inv, To:VickiWard, Country:Togo, 2019"	"NoLongerAvailable, 2019 Stats"	[081674033X]	"081674033X, 9780816740338"		amazon.com books	[2017-10-09]	779160
146894719	What Mommies Do Best / What Daddies Do Best	"Numeroff, Laura"	Author	"Munsinger, Lynn"	Illustrator	"Scholastic (2000), Edition: 1st Edition 1st Printing, 40 pages"	2000	Paperback	40 p.; 9.6 inches	0.25 pounds	9.6 inches	0.2 inches	7.6 inches	9.6 x 7.6 x 0.2 inches	40	"_Picture Books, From:GentryZuzunaga, To:SandraKleinert, Country:China, 2018"	"NoLongerAvailable, 2018 Stats"	[0439188652]	"0439188652, 9780439188654"		amazon.com books	[2017-10-09]	3819691
146894741	Goodnight Moon	"Brown, Margaret Wisw"	Author			"Viking Childrens Books (1989), Edition: FIRST THUS, 32 pages"	1989	Paperback	32 p.; 8.25 x 0.25 inches	0.2 pounds	0.25 inches	6.75 inches	8.25 inches	0.25 x 8.25 x 6.75 inches	32	"_Picture Books, From:GentryZuzunaga, To:AllisonTarus, Country:Kenya, 2018"	"NoLongerAvailable, 2018 Stats"	[0590092421]	"0590092421, 9780590092425"		amazon.com books	[2017-10-09]	39272
146894769	Miss Nelson Is Missing!	"Allard, Harry; Marshall, James"	Author			"Scholastic, Incorporated (1978), Edition: First"	1978	Paperback	8.92 inches	0.2 pounds	8.92 inches	0.15 inches	7.45 inches	8.92 x 7.45 x 0.15 inches		"_Picture Books, From:GentryZuzunaga, To:VickiDueker, Country:China, 2018"	"NoLongerAvailable, 2018 Stats"	[0590118773]	"0590118773, 9780590118774"		amazon.com books	[2017-10-09]	134441
146894777	Corduroy	"Freeman, Don"	Author			"Puffin Books (1976), Edition: unknown, 32 pages"	1976	Paperback	32 p.; 7.13 inches	0.15 pounds	7.13 inches	8.88 inches	0.14 inches	7.13 x 0.14 x 8.88 inches	32	"_Picture Books, From:GentryZuzunaga, To:MandyBronson, Country:Chad, 2017"	"NoLongerAvailable, 2017 Stats"	[0140501738]	"0140501738, 9780140501735"		amazon.com books	[2017-10-09]	94778
146894823	World Countries Workbook with Reward Stickers!: Fun All Around (K-Grade 1)	"Workbook, A"	Author			"Dalmation Press, LLC (2011)"	2011	Paperback								"_Activity Books, From:GentryZuzunaga, To:ShannonPanjwani, Country:India, 2018"	"NoLongerAvailable, 2018 Stats"	[]			amazon.com books	[2017-10-09]	20402830
146894891	Christian Family Bedtime Reading Book	"Klug, Lyn"	Editor	"Klug, Ron"	Editor	"Augsburg Fortress Pub (1982), Edition: First Edition?, 125 pages"	1982	Hardcover	125 p.; 9.6 inches	1.2 pounds	9.6 inches	0.7 inches	7.5 inches	9.6 x 7.5 x 0.7 inches	125	"_Bible-Related, From:GentryZuzunaga, To:AmyRhiger, Country:Philippines, 2017"	"NoLongerAvailable, 2017 Stats"	[0806619279]	"0806619279, 9780806619279"		amazon.com books	[2017-10-09]	4984496
146894921	On the Mountain: A Touch-and-Feel Adventure (A Nature Trail Book)	"Wood, A. J."	Author			"Silver Dolphin Books (2002), 16 pages"	2002	Hardcover	16 p.; 8.56 x 7.54 inches	0.85 pounds	7.54 inches	0.67 inches	8.56 inches	7.54 x 8.56 x 0.67 inches	16	"_Hardback Picture Books, From:GentryZuzunaga, To:AmyRhiger, Country:Philippines, 2017"	"NoLongerAvailable, 2017 Stats"	[1571453539]	"1571453539, 9781571453532"		amazon.com books	[2017-10-09]	2097407
146894946	The Way Mothers Are	"Schlein, Miriam"	Author	"Lasker, Joe"	Illustrator	Albert Whitman & Company (1963)	1963	Hardcover	8.3 x 0.5 inches		0.5 inches	9.3 inches	8.3 inches	0.5 x 8.3 x 9.3 inches		"_Hardback Picture Books, From:GentryZuzunaga, To:AmyRhiger, Country:Philippines, 2017"	"NoLongerAvailable, 2017 Stats"	[0807586927]	"0807586927, 9780807586921"		amazon.com books	[2017-10-09]	1099202
146894961	Do You See a Mouse?	"Waber, Bernard"	Author			"HMH Books for Young Readers (1995), Edition: Library Binding, 32 pages"	1995	Hardcover	32 p.; 10.5 inches		10.5 inches	8 inches	0.13 inches	10.5 x 0.13 x 8 inches	32	"_Hardback Picture Books, From:GentryZuzunaga, To:AmyRhiger, Country:Philippines, 2017"	"NoLongerAvailable, 2017 Stats"	[0395722926]	"0395722926, 9780395722923"		amazon.com books	[2017-10-09]	1604
146895026	Christopher Columbus (A Follett beginning-to-read book)	"Judson, Clara Ingram"	Author			"Follett Pub. Co (1960), 29 pages"	1960	Hardcover	29 p.; 7.9 inches	0.55 pounds	7.9 inches	0.4 inches	6.1 inches	7.9 x 6.1 x 0.4 inches	29	"_In-Between Readers, From:GentryZuzunaga, 2018inv, #reserve LaurenDucommun, Country:Papua Ind, 2019"	"NoLongerAvailable, 2019 Stats"	[0695812017]	"0695812017, 9780695812010"		amazon.com books	[2017-10-09]	2179897
146895042	"FOLLOW THAT FISH (Bank Street Ready-to-Read Series, Level 2)"	"Oppenheim, Joanne"	Author			"Bantam Books for Young Readers (1990), 32 pages"	1990	Paperback	32 p.; 6 x 0.25 inches	0.2 pounds	0.25 inches	9 inches	6 inches	0.25 x 6 x 9 inches	32	"_Beginning Readers, From:GentryZuzunaga, 2018inv"	BookEnds	[0553348507]	"0553348507, 9780553348507"		amazon.com books	[2017-10-09]	572837
146895054	Biscuit (My First I Can Read)	"Capucilli, Alyssa Satin"	Author	"Schories, Pat"	Illustrator	"HarperCollins (2006), Edition: Reprint, 32 pages"	2006	Paperback	32 p.; 5.25 x 0.25 inches	0.14 pounds	0.25 inches	8.75 inches	5.25 inches	0.25 x 5.25 x 8.75 inches	32	"_Beginning Readers, From:GentryZuzunaga, To:CrystalGrotzke, Country:Spain, 2018"	"NoLongerAvailable, 2018 Stats"	[0064442128]	"0064442128, 9780064442121"		amazon.com books	[2017-10-09]	5712671
146895076	"Soccer for Juniors: A Guide for Players, Parents, and Coaches"	"Pollock, Robert"	Author			"Wiley (1999), Edition: 2, 208 pages"	1999	Paperback	208 p.; 5.46 inches		5.46 inches	8.3 inches	0.46 inches	5.46 x 0.46 x 8.3 inches	208	"_Sports, From:GentryZuzunaga, 2018inv"	BookEnds	[0028627776]	"0028627776, 9780028627779"		amazon.com books	[2017-10-09]	383793
146895094	Mary Poppins (Odyssey Classics)	"Travers, Dr. P. L."	Author	"Travers, P. L."	Illustrator	"Sandpiper (1997), Edition: 1, 224 pages"	1997	Paperback	224 p.; 5.13 inches	0.46 pounds	5.13 inches	7.63 inches	0.61 inches	5.13 x 0.61 x 7.63 inches	224	"_Chapter Books, From:GentryZuzunaga, To:AliHuYoung, Country:China, 2018"	"NoLongerAvailable, 2018 Stats"	[0152017178]	"0152017178, 9780152017170"		amazon.com books	[2017-10-09]	38380
146895105	Bloomability	"Creech, Sharon"	Author			"HarperCollins (2012), Edition: Reprint, 288 pages"	2012	Paperback	288 p.; 5.13 inches	0.44 pounds	5.13 inches	7.63 inches	0.54 inches	5.13 x 0.54 x 7.63 inches	288	"_Chapter Books, From:GentryZuzunaga, 2018inv"	BookEnds	[006440823X]	"006440823X, 9780064408233"		amazon.com books	[2017-10-09]	1532044
146895136	Good Broth to Warm Our Bones	"Steven, Hugh"	Author			"Good News Pub (1982), 296 pages"	1982	Paperback	296 p.; 8 inches	0.55 pounds	8 inches	0.6 inches	5.3 inches	8 x 5.3 x 0.6 inches	296	"_Missionary Biographies, From:GentryZuzunaga, 2018inv, To:ElizabethTsukayama, Country:Japan, 2019"	"NoLongerAvailable, 2019 Stats"	[0891072721]	"0891072721, 9780891072720"		amazon.com books	[2017-10-09]	459481
146895178	Joni: An Unforgettable Story	"Tada, Joni Eareckson"	Author			Zondervan Publishing Company (1977)	1977	Paperback	6.8 inches	0.25 pounds	6.8 inches	0.6 inches	4.2 inches	6.8 x 4.2 x 0.6 inches		"_Biographies, From:GentryZuzunaga, To:AndiMiller, Country:Philippines, 2018"	"NoLongerAvailable, 2018 Stats"	[0310239621]	"0310239621, 9780310239628"		amazon.com books	[2017-10-09]	10736
146895208	Silver Days	"Levitin, Sonia"	Author			"Aladdin (1992), 192 pages"	1992	Paperback	192 p.; 5.12 inches	0.28 pounds	5.12 inches	7.64 inches	0.52 inches	5.12 x 0.52 x 7.64 inches	192	"_Historical Fiction, From:GentryZuzunaga, 2018inv, #reserve RenessaBelohlavek, Country:Kyrgyzstan, 2019"	"NoLongerAvailable, 2019 Stats"	[0689715706]	"0689715706, 9780689715709"		amazon.com books	[2017-10-09]	2577063
146895231	Journey to the River Sea	"Ibbotson, Eva"	Author	"Hawkes, Kevin"	Illustrator	"Scholastic Trade (2004), Edition: First Scholastic Pr., 298 pages"	2004	Paperback	298 p.; 7.5 inches	0.5 pounds	7.5 inches	0.9 inches	5.2 inches	7.5 x 5.2 x 0.9 inches	298	"_Historical Fiction, From:GentryZuzunaga, 2018inv"	BookEnds	[0439567637]	"0439567637, 9780439567633"		amazon.com books	[2017-10-09]	1660
146895251	"Mandie and the Ghost Bandits (Mandie, Book 3)"	"Leppard, Lois Gladys"	Author			"Bethany House Publishers (1984), 128 pages"	1984	Paperback	128 p.; 7.04 inches	0.17 pounds	7.04 inches	0.36 inches	4.28 inches	7.04 x 4.28 x 0.36 inches	128	"_Historical Fiction, From:GentryZuzunaga, To:TriciaBlackford, Country:Chad, 2018"	"NoLongerAvailable, 2018 Stats"	[0871234424]	"0871234424, 9780871234421"		amazon.com books	[2017-10-09]	67002
146895280	"Mandie and the Secret Tunnel (Mandie, Book 1)"	"Leppard, Lois Gladys"	Author			"Bethany House (1983), Edition: 1sr, 144 pages"	1983	Paperback	144 p.; 7.02 inches	0.21 pounds	7.02 inches	0.4 inches	4.27 inches	7.02 x 4.27 x 0.4 inches	144	"_Historical Fiction, From:GentryZuzunaga, To:TriciaBlackford, Country:Chad, 2018"	"NoLongerAvailable, 2018 Stats"	[0871233207]	"0871233207, 9780871233202"		amazon.com books	[2017-10-09]	67009
146895304	"Mandie and the Forbidden Attic (Mandie, Book 4)"	"Leppard, Lois Gladys"	Author			"Bethany House Publishers (1985), 128 pages"	1985	Paperback	128 p.; 7.02 inches	0.18 pounds	7.02 inches	0.38 inches	4.24 inches	7.02 x 4.24 x 0.38 inches	128	"_Historical Fiction, From:GentryZuzunaga, To:TriciaBlackford, Country:Chad, 2018"	"NoLongerAvailable, 2018 Stats"	[0871238225]	"0871238225, 9780871238221"		amazon.com books	[2017-10-09]	67000
146895322	"Mandie and the Charleston Phantom (Mandie, Book 7)"	"Leppard, Lois Gladys"	Author			"Bethany House Publishers (1986), 144 pages"	1986	Paperback	144 p.; 7.12 inches	0.19 pounds	7.12 inches	0.4 inches	4.28 inches	7.12 x 4.28 x 0.4 inches	144	"_Historical Fiction, From:GentryZuzunaga, To:TriciaBlackford, Country:Chad, 2018"	"NoLongerAvailable, 2018 Stats"	[0871236508]	"0871236508, 9780871236500"		amazon.com books	[2017-10-09]	3045553
146895335	"Mandie and the Cherokee Legend (Mandie, Book 2)"	"Leppard, Lois"	Author			"Bethany House Publishers (1983), 138 pages"	1983	Paperback	138 p.; 7.01 inches	0.21 pounds	7.01 inches	0.43 inches	4.27 inches	7.01 x 4.27 x 0.43 inches	138	"_Historical Fiction, From:GentryZuzunaga, To:TriciaBlackford, Country:Chad, 2018"	"NoLongerAvailable, 2018 Stats"	[0871233215]	"0871233215, 9780871233219"		amazon.com books	[2017-10-09]	66997
146895372	Ella Enchanted	"Levine, Gail"	Author			"Scholastic (1997), Edition: 11th Printing, 232 pages"	1997	Paperback	7.5 inches	0.4 pounds	7.5 inches	0.7 inches	5.2 inches	7.5 x 5.2 x 0.7 inches	232	"_Fantasy, From:GentryZuzunaga, #reserve RebeccaKonuch, Country:Philippines, 2018"		[0590920685]	"0590920685, 9780590920681"		amazon.com books	[2017-10-09]	6378
146895380	Damosel: In Which the Lady of the Lake Renders a Frank and Often Startling Account of her Wondrous Life and Times	"Spinner, Stephanie"	Author			"Knopf Books for Young Readers (2008), 208 pages"	2008	Hardcover	208 p.; 5.78 inches	0.76 pounds	5.78 inches	8.49 inches	0.85 inches	5.78 x 0.85 x 8.49 inches	208	"_Fantasy, From:GentryZuzunaga, 2018inv"	BookEnds	[0375836349]	"0375836349, 9780375836343"		amazon.com books	[2017-10-09]	5340069
146895436	"Ramona Quimby, Age 8"	"Cleary, Beverly"	Author	"Rogers, Jacqueline"	Illustrator	"HarperCollins (2016), Edition: Edition Unstated, 208 pages"	2016	Paperback	208 p.; 5.13 inches	0.3 pounds	5.13 inches	7.63 inches	0.42 inches	5.13 x 0.42 x 7.63 inches	208	"_Chapter Book Series, From:GentryZuzunaga, To:ShelleyJung, Country:China, 2018"	"NoLongerAvailable, 2018 Stats"	[0380709562]	"0380709562, 9780380709564"		amazon.com books	[2017-10-09]	6270
146895456	Ramona and Her Father (Ramona Quimby (Paperback))	"Cleary, Beverly"	Author			Yearling (1979)	1979	Paperback	7.6 inches	0.3 pounds	7.6 inches	0.7 inches	5.1 inches	7.6 x 5.1 x 0.7 inches		"_Chapter Book Series, From:GentryZuzunaga, To:ShelleyJung, Country:China, 2018"	"NoLongerAvailable, 2018 Stats"	[0440472415]	"0440472415, 9780440472414"		amazon.com books	[2017-10-09]	4489
146895472	"Love Comes Softly, Book 1"	"Oke, Janette"	Author			"Bethany House Pub (1979), 188 pages"	1979	Paperback	188 p.; 5.32 x 0.5 inches	0.4 pounds	0.5 inches	8 inches	5.32 inches	0.5 x 5.32 x 8 inches	188	"_Adult Fiction, From:GentryZuzunaga, 2018inv"	BookEnds	[0871233428]	"0871233428, 9780871233424"		amazon.com books	[2017-10-09]	95431
146895490	Love's Unending Legacy (Love Comes Softly Series #5)	"Oke, Janette"	Author			"Bantam Doubleday Direct (1984), Edition: Janette Oke Collection, 224 pages"	1984	Paperback	224 p.; 7.96 inches	1 pound	7.96 inches	0.84 inches	5.46 inches	7.96 x 5.46 x 0.84 inches	224	"_Adult Fiction, From:GentryZuzunaga, 2018inv"	BookEnds	[0871236168]	"0871236168, 9780871236166"		amazon.com books	[2017-10-09]	95435
146895511	Pride and Prejudice (Puffin Classics)	"Austen, Jane"	Author	"Jennings, Linda"	Editor	"Puffin Books (1995), Edition: Abridged, 384 pages"	1995	Paperback	384 p.; 5.13 inches	0.56 pounds	5.13 inches	7.81 inches	0.68 inches	5.13 x 0.68 x 7.81 inches	384	"_Adult Classics, From:GentryZuzunaga, 2018inv, To:ShanaHoward, Country:Indonesia, 2019"	"NoLongerAvailable, 2019 Stats"	[0140373373]	"0140373373, 9780140373370"		amazon.com books	[2017-10-09]	7869317
157918876	Prayers for Children	"Books, Golden"	Author	"Wilkin, Eloise"	Illustrator	"Golden Books (2005), 38 pages"	2005	Board book	38 p.; 7.52 inches		7.52 inches	9.12 inches	1.4 inches	7.52 x 1.4 x 9.12 inches	38	"_Board Books, From:GentryZuzunaga, Oversize, 2018inv, To:RachelAnderson, Country:Uganda, 2019"	"NoLongerAvailable, 2019 Stats"	[0375831584]	"0375831584, 9780375831584"		amazon.com books	[2018-07-03]	33972
