120236685	The Life and Times of the Honeybee	"Micucci, Charles"	Author			"HMH Books for Young Readers (1997), 32 pages"	1997	Paperback	32 p.; 9.06 inches	0.33 pounds	9.06 inches	9 inches	0.15 inches	9.06 x 0.15 x 9 inches	32	"_Science, From:JanicePerkins, To:HeidiCollins, Country:Yap, 2015"	"NoLongerAvailable, 2015 Stats"	[039586139X]	"039586139X, 9780395861394"		amazon.com	[2015-07-25]	1189532
120236686	Space Exploration (Awesome Space)	"Farndon, John"	Author			"Copper Beech (2001), 32 pages"	2001	Hardcover	32 p.; 10.48 inches		10.48 inches	0.34 inches	9.26 inches	10.48 x 9.26 x 0.34 inches	32	"_Science, From:JanicePerkins, To:AmyRhiger, Country:Philippines, 2015"	"NoLongerAvailable, 2015 Stats"	[0761324119]	"0761324119, 9780761324119"		amazon.com	[2015-07-25]	8545542
120236701	The Three Billy Goats Gruff: A Split-page Surprise Book	"Ziefert, Harriet"	Author	"Rader, Laura"	Illustrator	"Tambourine (1995), Edition: 1st, 1 pages"	1995	Hardcover	1 p.; 7.25 x 0.5 inches	0.65 pounds	0.5 inches	9.75 inches	7.25 inches	0.5 x 7.25 x 9.75 inches	1	"_Hardback Picture Books, From:JanicePerkins, To:BettyKurz, Country:Papua NG, 2016"	"NoLongerAvailable, 2016 Stats"	[0688132596]	"0688132596, 9780688132590"		amazon.com	[2015-07-25]	8266960
120236704	Dinosaur (Disney's Wonderful World of Reading)	"Milne, A.A."	Author	Walt Disney Company	Adapter	"Grolier Books (2000), 40 pages"	2000	Hardcover	40 p.	0.4 pounds					40	"_Hardback Picture Books, From:JanicePerkins, To:AmyRhiger, Country:Philippines, 2015"	"NoLongerAvailable, 2015 Stats"	[0717264475]	"0717264475, 9780717264476"		amazon.com	[2015-07-25]	2551052
120236707	The Berenstain Bears on the Moon	"Berenstain, Stan"	Author			"Random House Books for Young Readers (1985), 48 pages"	1985	Hardcover	48 p.; 9.32 inches	0.2 pounds	9.32 inches	0.42 inches	6.75 inches	9.32 x 6.75 x 0.42 inches	48	"_Picture Books, From:JanicePerkins, To:AnishaHopkinson, Country:Papua Ind, 2015"	"NoLongerAvailable, 2015 Stats"	[0394871804]	"0394871804, 9780394871806"		amazon.com	[2015-07-25]	50587
120236711	The Tooth Book	"Seuss, Dr."	Author			"Scholsatic Book CLub (1981), Edition: First Edition"	1981	Hardcover	9.13 inches	1.58 pounds	9.13 inches	1.11 inches	6.57 inches	9.13 x 6.57 x 1.11 inches	38	"From:JanicePerkins, _Beginning Readers, To:AnitaRinaldo, 2016, Country:Kazakhstan"	"NoLongerAvailable, 2016 Stats"	[0717267504]	"0717267504, 9780717267507"		amazon.com	[2015-07-25]	303562
120236713	The Prince and the Pauper (Walt Disney's Wonderful World of Reading)	"Disney, Walt"	Contributor			"Grolier Books (1993), Edition: 1st, 40 pages"	1993	Hardcover	40 p.	0.39 pounds					40	"_Hardback Picture Books, From:JanicePerkins, To:AmyRhiger, Country:Philippines, 2015"	"NoLongerAvailable, 2015 Stats"	[0717283208]	"0717283208, 9780717283200"		amazon.com	[2015-07-25]	1087271
120236718	And to Think That I Saw It on Mulberry Street	"Seuss, Dr."	Author			"Random House Books for Young Readers (1989), 40 pages"	1989	Hardcover	40 p.; 8.38 inches	0.65 pounds	8.38 inches	11.31 inches	0.3 inches	8.38 x 0.3 x 11.31 inches	40	"From:JanicePerkins, _Beginning Readers, To:ElcoVanBurg, Country:Papua Ind, 2016"	"NoLongerAvailable, 2016 Stats"	[0394844947]	"0394844947, 9780394844947"		amazon.com	[2015-07-25]	308646
120236724	Disney's Duck Tales - Webby Saves the Day	"Disney, Walt"	Author			"Random House (1988), Edition: First US"	1988	Hardcover	8.6 inches	0.35 pounds	8.6 inches	0.4 inches	6.1 inches	8.6 x 6.1 x 0.4 inches		"_Hardback Picture Books, From:JanicePerkins, To:AmyRhiger, Country:Philippines, 2015"	"NoLongerAvailable, 2015 Stats"	[0679801936]	"0679801936, 9780679801931"		amazon.com	[2015-07-25]	839968
120236738	101 Dalmations (Disney's Wonderful World of Reading)	"Disney, Walt"	Contributor			"Random House (1981), Edition: 1st, 39 pages"	1981	Hardcover	39 p.; 11.2 inches	1.45 pounds	11.2 inches	0.6 inches	8.3 inches	11.2 x 8.3 x 0.6 inches	39	"_Hardback Picture Books, From:JanicePerkins, To:AmyRhiger, Country:Philippines, 2015"	"NoLongerAvailable, 2015 Stats"	[]			amazon.com	[2015-07-25]	10873925
120236745	Disney's The Rescuers Down Under	The Walt Disney Company	Author			"Grolier Enterprises Inc. (1993), Edition: First US, 42 pages"	1993	Hardcover	42 p.	0.39 pounds				8.6 x 6.1 x 0.3 inches	42	"_Hardback Picture Books, From:JanicePerkins, To:AmyRhiger, Country:Philippines, 2015"	"NoLongerAvailable, 2015 Stats"	[0717283216]	"0717283216, 9780717283217"		amazon.com	[2015-07-25]	654781
120236746	TOD AND COPPER (Disney's Wonderful World of Reading)	Disney Book Club	Author			"Random House Books for Young Readers (1981), 42 pages"	1981	Hardcover	42 p.; 8.9 inches	0.35 pounds	8.9 inches	0.3 inches	6.4 inches	8.9 x 6.4 x 0.3 inches	42	"_Hardback Picture Books, From:JanicePerkins, To:AmyRhiger, Country:Philippines, 2015"	"NoLongerAvailable, 2015 Stats"	[0394848195]	"0394848195, 9780394848198"		amazon.com	[2015-07-25]	1121506
120236752	Freckle Juice	"Blume, Judy"	Author	"Lisker, Sonia O."	Illustrator	"Four Winds Press (1971), 40 pages"	1971	Hardcover	40 p.	0.44 pounds					40	"_Hardback Picture Books, From:JanicePerkins, To:BettyKurz, Country:Papua NG, 2016"	"NoLongerAvailable, 2016 Stats"	[0590072420]	"0590072420, 9780590072427"		amazon.com	[2015-07-25]	17
120236760	Mouse and Mole's Great Race (Weekly Reader Children's Book Club Presents)	"Massie, Diane Redfield"	Author			Weekly Reader (1982)	1982	Hardcover		1.2 pounds						"_Hardback Picture Books, From:JanicePerkins, To:HeidiCollins, Country:Yap, 2015"	"NoLongerAvailable, 2015 Stats"	[]			amazon.com	[2015-07-25]	2858016
120236773	Who Took the Farmer's Hat?	"Nodset, Joan L."	Author	"Siebel, Fritz"	Illustrator	"HarperCollins (1988), Edition: Reissue, 32 pages"	1988	Paperback	32 p.; 9.75 inches	0.22 pounds	9.75 inches	6.5 inches	0.09 inches	9.75 x 0.09 x 6.5 inches	32	"_Picture Books, From:JanicePerkins, To:HeidiCollins, Country:Yap, 2015"	"NoLongerAvailable, 2015 Stats"	[0064431746]	"0064431746, 9780064431743"		amazon.com	[2015-07-25]	332666
120236775	Legend of the Bluebonnet	"dePaola, Tomie"	Author			Putnam Juvenile (1992)	1992	Paperback	10.04 inches	0.3 pounds	10.04 inches	8 inches	0.1 inches	10.04 x 0.1 x 8 inches		"_Picture Books, From:JanicePerkins, To:BrandiBates, Country:Romania, 2015"	"NoLongerAvailable, 2015 Stats"	[0399224114]	"0399224114, 9780399224119"		amazon.com	[2015-07-25]	233147
120236780	The Tigger Movie	Disney	Author			"Grolier (2000), Edition: First Edition"	2000	Hardcover	8.66 inches	0.44 pounds	8.66 inches	0.31 inches	6.22 inches	8.66 x 6.22 x 0.31 inches		"_Winnie-the-Pooh, From:JanicePerkins, 2017_inventory, 2018inv, To:VickiWard, Country:Togo, 2019"	"NoLongerAvailable, 2019 Stats"	[]			amazon.com	[2015-07-25]	96440
120236789	Winnie the Pooh and Tigger Too (Disney's Wonderful World of Reading)	Disney Book Club	Author			"Random House Books for Young Readers (1976), Edition: 1st, 42 pages"	1976	Hardcover	42 p.; 9.5 inches	0.36 pounds	9.5 inches	0.4 inches	6.8 inches	9.5 x 6.8 x 0.4 inches	42	"_Winnie-the-Pooh, From:JanicePerkins, To:JoyDarby, Country:China, 2017"	"NoLongerAvailable, 2017 Stats"	[0394825691]	"0394825691, 9780394825694"		amazon.com	[2015-07-25]	1023450
120236795	God Made Outer Space	"Heno, Jr. Head"	Author			"Standard Publications (2013), 16 pages"	2013	Paperback	16 p.; 8.1 inches	0.55 pounds	8.1 inches	0.45 inches	6.3 inches	8.1 x 6.3 x 0.45 inches	16	"_Bible-Related, From:JanicePerkins, To:AmyRhiger, Country:Philippines, 2015"	"NoLongerAvailable, 2015 Stats"	[0784717028]	"0784717028, 9780784717028"		amazon.com	[2015-07-25]	2344903
120236799	Daniel in the Lion's Den A Mini Pop-Up Book					"Standard Publishing and Intervisual Com. (1990), 12 pages"	1990	Paper Book							12	"_Bible-Related, From:JanicePerkins, To:AmyRhiger, Country:Philippines, 2015"	"NoLongerAvailable, 2015 Stats"	[0872392228]	"0872392228, 9780872392229"		amazon.com	[2015-07-25]	9143384
120236808	"Great Bible Stories For Children, Beauifully Illustrated"	"Easterly, R. Lane"	Author			Royal (1974)	1974	Hardcover	10.9 inches	1.65 pounds	10.9 inches	0.8 inches	8.4 inches	10.9 x 8.4 x 0.8 inches		"_Bible-Related, From:JanicePerkins, To:AmyRhiger, Country:Philippines, 2015"	"NoLongerAvailable, 2015 Stats"	[]			amazon.com	[2015-07-25]	1835600
120236823	Innkeeper's Daughter (Arch Books)	"Greene, Carol"	Author	"Wind, Betty"	Illustrator	"Concordia Publishing House (1973), Edition: Arch Books, 32 pages"	1973	Paperback	32 p.	0.05 pounds					32	"_Bible-Related, From:JanicePerkins, To:AmyRhiger, Country:Philippines, 2015"	"NoLongerAvailable, 2015 Stats"	[057006077X]	"057006077X, 9780570060772"		amazon.com	[2015-07-25]	816527
120236826	I'm Glad I'm Your Mother	"Horlacher, Billy"	Author			"Standard Publishing Company (2005), 16 pages"	2005	Paperback	16 p.; 7.6 inches	0.55 pounds	7.6 inches	0.1 inches	5.9 inches	7.6 x 5.9 x 0.1 inches	16	"_Bible-Related, From:JanicePerkins, To:JuliaDawkins, Country:Oman, 2016"	"NoLongerAvailable, 2016 Stats"	[0784716870]	"0784716870, 9780784716878"		amazon.com	[2015-07-25]	2993831
120236834	A child's storybook of Bible people	"Haan, Sheri Dunham"	Author			"Baker Book House (1973), Edition: No Edition Stated, 239 pages"	1973	Hardcover	239 p.; 9.13 inches	1.58 pounds	9.13 inches	1.11 inches	6.57 inches	9.13 x 6.57 x 1.11 inches	239	"_Bible-Related, From:JanicePerkins, To:AmyRhiger, Country:Philippines, 2015"	"NoLongerAvailable, 2015 Stats"	[0801040779]	"0801040779, 9780801040771"		amazon.com	[2015-07-25]	10654107
120236845	"Mr. Brown Can Moo, Can You : Dr. Seuss's Book of Wonderful Noises (Bright and Early Board Books)"	"Seuss, Dr."	Author			"Random House Books for Young Readers (1996), 24 pages"	1996	Board book	65 p.	1 pound				5.91 x 4.11 x 0.51 inches	65	"_Beginning Readers, From:JanicePerkins, To:MarissaMundell, Country:Hungary, 2016"	"NoLongerAvailable, 2016 Stats"	[0679882820]	"0679882820, 9780679882824"		amazon.com	[2015-07-25]	8924639
120236851	"The Good Bad Cat (A School Zone Start to Read! Book, Level 1)"	"Antle, Nancy"	Author	"Sandford, John|Gregorich, Barbara"	Illustrator|Editor	"School Zone Publishing Company (1985), 16 pages"	1985	Paperback	16 p.; 6.56 inches	0.25 pounds	6.56 inches	8.94 inches	0.06 inches	6.56 x 0.06 x 8.94 inches	16	"_Beginning Readers, From:JanicePerkins, To:DalainaMay, Country:Indonesia, 2015"	"NoLongerAvailable, 2015 Stats"	[0887430120]	"0887430120, 9780887430121"		amazon.com	[2015-07-25]	7575624
120236863	Richard Scarry's The Best Mistake Ever! and Other Stories (Step into Reading)	"Scarry, Richard"	Author			"Random House Books for Young Readers (1984), Edition: Copyright 1984, 48 pages"	1984	Paperback	48 p.; 6 inches	0.24 pounds	6 inches	9 inches	0.18 inches	6 x 0.18 x 9 inches	48	"_Beginning Readers, From:JanicePerkins, To:HannahPatton, Country:SE Asia, 2015"	"NoLongerAvailable, 2015 Stats"	[0394868161]	"0394868161, 9780394868165"		amazon.com	[2015-07-25]	301830
120236868	The Cat in the Hat Comes Back (Beginner Books)	"Seuss, Dr."	Author			"Random House Books for Young Readers (1958), Edition: Book Club Edition, 72 pages"	1958	Hardcover	72 p.; 6.58 inches	0.82 pounds	6.58 inches	9.3 inches	0.47 inches	6.58 x 0.47 x 9.3 inches	72	"_Beginning Readers, From:JanicePerkins, To:NatashaEnns, Country:Indonesia, 2016"	"NoLongerAvailable, 2016 Stats"	[0394900022]	"0394900022, 9780394900025"		amazon.com	[2015-07-25]	73332
120236979	Ten Apples Up On Top!	"LeSieg, Theo."	Author	"McKie, Roy"	Illustrator	"Beginner Books (1961), 72 pages"	1961	Hardcover	72 p.; 6.82 inches	0.55 pounds	6.82 inches	9.28 inches	0.4 inches	6.82 x 0.4 x 9.28 inches	72	"_Beginning Readers, From:JanicePerkins, To:AnitaRinaldo, 2016, Country:Kazakhstan"	"NoLongerAvailable, 2016 Stats"	[0394800192]	"0394800192, 9780394800196"		amazon.com	[2015-07-25]	210189
120237532	Bears on Wheels	"Berenstain, Stan"	Author			"Random House Books for Young Readers (1969), Edition: BCE, 36 pages"	1969	Hardcover	36 p.; 6.82 inches	0.37 pounds	6.82 inches	9.26 inches	0.36 inches	6.82 x 0.36 x 9.26 inches	36	"_Beginning Readers, From:JanicePerkins, To:HannahPatton, Country:SE Asia, 2015"	"NoLongerAvailable, 2015 Stats"	[039480967X]	"039480967X, 9780394809670"		amazon.com	[2015-07-25]	72922
120237571	Glasses for D W	"Brown, Marc"	Author			GROLIER BOOK CLUB (1996)	1996	Hardcover	24 p.; 8.5 inches	0.15 pounds	8.5 inches	0.2 inches	5.8 inches	8.5 x 5.8 x 0.2  inches	24	"_Beginning Readers, From:JanicePerkins, To:NatashaEnns, Country:Indonesia, 2016"	"NoLongerAvailable, 2016 Stats"	[0679867406]	"0679867406, 9780679867401"		amazon.com	[2015-07-25]	73049
120237628	Sir Small and the Dragonfly (Step into Reading)	"O'Connor, Jane"	Author	"O'Brien, John"	Illustrator	"Random House Books for Young Readers (1988), 32 pages"	1988	Paperback	32 p.; 6 inches	0.18 pounds	6 inches	9 inches	0.17 inches	6 x 0.17 x 9 inches	32	"_Beginning Readers, From:JanicePerkins, To:HannahPatton, Country:SE Asia, 2015"	"NoLongerAvailable, 2015 Stats"	[9780394896250]	"9780394896250, 0394896254"		amazon.com	[2015-07-25]	856604
120237697	The Foot Book: Dr. Seuss's Wacky Book of Opposites	"Seuss, Dr."	Author			"Random House Books for Young Readers (1996), Edition: Brdbk, 24 pages"	1996	Board book	24 p.; 4.25 inches	0.29 pounds	4.25 inches	5.75 inches	0.46 inches	4.25 x 0.46 x 5.75 inches	24	"_Beginning Readers, From:JanicePerkins, To:AnitaRinaldo, 2016, Country:Kazakhstan"	"NoLongerAvailable, 2016 Stats"	[0679882804]	"0679882804, 9780679882800"		amazon.com	[2015-07-25]	8929079
120237701	I Can Read With My Eyes Shut! (Beginner Books)	"Seuss, Dr."	Author			"Random House Books for Young Readers (1978), Edition: First Edition, 48 pages"	1978	Hardcover	48 p.; 6.74 inches	0.47 pounds	6.74 inches	9.28 inches	0.35 inches	6.74 x 0.35 x 9.28 inches	48	"_Beginning Readers, From:JanicePerkins, To:StephanieBraun, Country:Brazil, 2015"	"NoLongerAvailable, 2015 Stats"	[0394839129]	"0394839129, 9780394839127"		amazon.com	[2015-07-25]	73092
120237710	"The Case of the Christmas Snowman (Jigsaw Jones Mystery, No. 2)"	"Preller, James"	Author	"Alley, R. W."	Illustrator	"Scholastic (1998), 74 pages"	1998	Paperback	74 p.; 7.61 inches	1100 pounds	7.61 inches	0.27 inches	5.27 inches	7.61 x 5.27 x 0.27 inches	74	"_In-Between Readers, From:JanicePerkins, To:JessicaAmis, Country:Turkey, 2016"	"NoLongerAvailable, 2016 Stats"	[0590691260]	"0590691260, 9780590691260"		amazon.com	[2015-07-25]	1094781
120237716	The Lucky Lottery (A to Z Mysteries)	"Roy, Ron"	Author	"Gurney, John Steven"	Illustrator	"Random House Books for Young Readers (2000), 96 pages"	2000	Paperback	96 p.; 5.2 inches	0.16 pounds	5.2 inches	7.63 inches	0.25 inches	5.2 x 0.25 x 7.63 inches	96	"_In-Between Readers, From:JanicePerkins, To:RobinSmith, Country:France, 2016"	"NoLongerAvailable, 2016 Stats"	[0679894608]	"0679894608, 9780679894605"		amazon.com	[2015-07-25]	1002596
120237721	"I'm Growing, Too!"	"Jones, Mary A"	Author			Dalmatian Press (2004)	2004	Board book	7 inches		7 inches	9.9 inches	0.7 inches	7 x 0.7 x 9.9 inches	28	"_Board Books, From:JanicePerkins, To:AmyRhiger, Country:Philippines, 2015"	"NoLongerAvailable, 2015 Stats"	[1403705402]	"1403705402, 9781403705402"		amazon.com	[2015-07-25]	3973032
120237722	Misty of Chincoteague	"Henry, Marguerite"	Author			"Aladdin (1991), Edition: Reprint, 176 pages"	1991	Paperback	176 p.; 5.3 inches	0.4 pounds	5.3 inches	7.6 inches	0.5 inches	5.3 x 0.5 x 7.6 inches	176	"_Horse Stories, From:JanicePerkins, To:MandiWood, Country:Turkey, 2016"	"NoLongerAvailable, 2016 Stats"	[0689714920]	"0689714920, 9780689714924"		amazon.com	[2015-07-25]	33780
120237731	The Biggest Dinosaurs (Look-Look)	Golden Books	Author			"Golden Books (1990), 24 pages"	1990	Paperback	24 p.; 8 x 0.25 inches	0.14 pounds	0.25 inches	8 inches	8 inches	0.25 x 8 x 8 inches	24	"_Dinosaurs, From:JanicePerkins, To:CarlaOverton, Country:Mozambique, 2015"	"NoLongerAvailable, 2015 Stats"	[0307119777]	"0307119777, 9780307119773"		amazon.com	[2015-07-25]	2725900
120237749	George's Marvelous Medicine	"Dahl, Roald"	Author	"Blake, Quentin"	Illustrator	"Scholastic Inc. (1997), 89 pages"	1997	Paperback	89 p.	0.15 pounds				7.4 x 5.1 x 0.4 inches	89	"_Chapter Books, From:JanicePerkins, To:CherylMcFaddin, Country:Tanzania, 2016"	"NoLongerAvailable, 2016 Stats"	[0590032747]	"0590032747, 9780590032742"		amazon.com	[2015-07-25]	28674
133321573	How Things Work (World Explorers)	"society, national geographic"	Author			"National Geographic (1983), Edition: 1983 National Geographic, 104 pages"	1983	Hardcover	104 p.; 10.6 inches	1.5 pounds	10.6 inches	0.5 inches	9.1 inches	10.6 x 9.1 x 0.5 inches	104	"_Science, From:JanicePerkins, To:CherylYi, Country:China, 2017"	"NoLongerAvailable, 2017 Stats"	[0870444255]	"0870444255, 9780870444258"		amazon.com books	[2016-08-14]	8554167
