54266280	"THE SHY LITTLE KITTEN, A Little Golden Book"	"Schurr, Cathleen (Story by) Gustaf Tenggren (pictures by)"				"Golden Press, New York (1974), Hardcover"	1974	Book								"_GoldenBooks, To:SusanBae, Country:China, 2013, From:JenTangel"	"NoLongerAvailable, 2013 Stats"	[]			amazon.com	[2009-12-19]	1115075
88996237	"OK, kids (Bob books)"	"Maslen, Bobby Lynn"				"Scholastic (1999), Unknown Binding"	1999	Paperback	5.3 inches	0.05 pounds	5.3 inches	0.1 inches	3.8 inches	5.3 x 3.8 x 0.1 inches		"From:JenTangel, _Beginning Readers, Country:Bangladesh, 2012, To:QuynhParlane, stats"	"NoLongerAvailable, 2012 Stats"	[0439145058]	"0439145058, 9780439145053"		amazon.com	[2012-08-19]	1355115
88996246	Rub-a-dub (Bob books)	"Maslen, Bobby Lynn"				"Scholastic (1999), Unknown Binding"	1999	Paper Book	5.5 inches	0.15 pounds	5.5 inches	0.2 inches	4.1 inches	5.5 x 4.1 x 0.2 inches		"From:JenTangel, _Beginning Readers, Country:Bangladesh, 2012, To:QuynhParlane, stats"	"NoLongerAvailable, 2012 Stats"	[0439145066]	"0439145066, 9780439145060"		amazon.com	[2012-08-19]	1355117
88996257	The Sad Cat (Bob Books)	"Maslen, Bobby Lynn"		"Maslen, John R."	Foreword	"Scholastic, Inc. (1999), Paperback"	1999	Paperback	5.3 inches	0.1 pounds	5.3 inches	0.1 inches	4.1 inches	5.3 x 4.1 x 0.1 inches		"From:JenTangel, _Beginning Readers, Country:Bangladesh, 2012, To:QuynhParlane, stats"	"NoLongerAvailable, 2012 Stats"	[0439145090]	"0439145090, 9780439145091"		amazon.com	[2012-08-19]	1355121
88996277	Summer (Bob Books Plus for Beginning Readers)	"Maslen, Bobby Lynn"		"Maslen, John R"	Illustrator	"Scholastic, Inc. (1996), Paperback"	1996	Paperback	5.2 inches	0.1 pounds	5.2 inches	0.01 inches	4.2 inches	5.2 x 4.2 x 0.01 inches		"From:JenTangel, _Beginning Readers, Country:Bangladesh, 2012, To:QuynhParlane, stats"	"NoLongerAvailable, 2012 Stats"	[0590938142]	"0590938142, 9780590938143"		amazon.com	[2012-08-19]	1355131
88996285	Kittens: Bob Books Plus					"Scholastic (1996), Paperback"	1996	Paper Book	5.5 inches	0.1 pounds	5.5 inches	0.05 inches	4.2 inches	5.5 x 4.2 x 0.05 inches		"From:JenTangel, _Beginning Readers, Country:Bangladesh, 2012, To:QuynhParlane, stats"	"NoLongerAvailable, 2012 Stats"	[]			amazon.com	[2012-08-19]	1355133
88996306	"Joe's Toe (Even More Bob Books for Young Readers, Set 3, Book 2)"	"Maslen, Bobby Lynn"		"Maslen, John R."	Illustrator	"Scholastic, Inc. (1994), Paperback"	1994	Paperback								"From:JenTangel, _Beginning Readers, Country:Bangladesh, 2012, To:QuynhParlane, stats"	"NoLongerAvailable, 2012 Stats"	[]			amazon.com	[2012-08-19]	1042718
88996312	"The Visit (Even More Bob Books for Young Readers, Set III, Book6)"	"Maslen, Bobby Lynn"		"Maslen, John R."	Illustrator	"Scholastic (1994), Paperback, 24 pages"	1994	Paperback	24 p.; 5.5 inches	0.1 pounds	5.5 inches	0.2 inches	4 inches	5.5 x 4 x 0.2  inches	24	"From:JenTangel, _Beginning Readers, Country:Bangladesh, 2012, To:QuynhParlane, stats"	"NoLongerAvailable, 2012 Stats"	[0590224204]	"0590224204, 9780590224208"		amazon.com	[2012-08-19]	1110751
101761066	"Bed Bugs (Bob Books Kids! Level B, Set 1, Book 8)"	"Maslen, Bobby Lynn"				"Scholastic (1996), Paperback, 12 pages"	1996	Paperback	12 p.; 5.12 inches	0.04 pounds	5.12 inches	0.16 inches	4.02 inches	5.12 x 4.02 x 0.16 inches	12	"From:JenTangel, _Beginning Readers, To:BethForshee, Country:China, 2014"	"NoLongerAvailable, 2014 Stats"	[0439175674]	"0439175674, 9780439175678"		amazon.com	[2013-09-08]	1355134
101761077	"Jesus and His Friends (I Can Read! / Beginner's Bible, The)"	"Pulley, Kelly"				"Zonderkidz (2007), Paperback, 32 pages"	2007	Paperback	32 p.; 6.54 x 0.12 inches	0.16 pounds	0.12 inches	8.86 inches	6.54 inches	0.12 x 6.54 x 8.86 inches	32	"From:JenTangel, _Beginning Readers, To:KristiNaizer, Country:Morocco, 2013"	"NoLongerAvailable, 2013 Stats"	[0310714613]	"0310714613, 9780310714613"		amazon.com	[2013-09-08]	6495913
101761093	Berenstains' A Book (Bright & Early Book.)	"Berenstain, Stan"				"Random House Books for Young Readers (1997), Hardcover"	1997	Hardcover		0.3 pounds				8.6 x 6.1 x 0.3 inches		"From:JenTangel, _Beginning Readers, To:LockwoodSchool, Country:Papua NG, 2014"	"NoLongerAvailable, 2014 Stats"	[0679987053]	"0679987053, 9780679987055"		amazon.com	[2013-09-08]	301780
101761102	The Berenstains' B Book (Bright & Early Books(R))	"Berenstain, Stan"		"Berenstain, Jan"		"Random House Books for Young Readers (1971), Edition: Club Books, Hardcover, 36 pages"	1971	Hardcover	36 p.	0.35 pounds				8.5 x 1.4 x 0.2 inches	36	"From:JenTangel, _Beginning Readers, To:LockwoodSchool, Country:Papua NG, 2014"	"NoLongerAvailable, 2014 Stats"	[0394823249]	"0394823249, 9780394823249"		amazon.com	[2013-09-08]	94622
101761110	"Arthur's Reading Race (Step-Into-Reading, Step 3)"	"Brown, Marc"				"Random House Books for Young Readers (1996), Edition: bOOK cLUB, Paperback, 24 pages"	1996	Paperback	24 p.; 9 x 6 inches	0.29 pounds	6 inches	0.2 inches	9 inches	6 x 9 x 0.2 inches	24	"From:JenTangel, _Beginning Readers, To:EaglesRest, Country:Thailand, 2014"	"NoLongerAvailable, 2014 Stats"	[0679867384]	"0679867384, 9780679867388"		amazon.com	[2013-09-08]	4084
101761115	"Jesus Feeds the People (I Can Read! / Beginner's Bible, The)"	Zondervan				"Zonderkidz (2010), Paperback, 32 pages"	2010	Paperback	32 p.; 6.22 x 0.1 inches	0.16 pounds	0.1 inches	8.82 inches	6.22 inches	0.1 x 6.22 x 8.82 inches	32	"From:JenTangel, _Beginning Readers, To:KristiNaizer, Country:Morocco, 2013"	"NoLongerAvailable, 2013 Stats"	[0310717795]	"0310717795, 9780310717799"		amazon.com	[2013-09-08]	11084072
101761121	Thomas and the School Trip	"Awdry, Rev. W."		"Bell, Owain"	Illustrator	"Grolier Books and Random House (1993), Paperback, 30 pages"	1993	Paperback	30 p.; 5.94 x 0.12 inches	0.38 pounds	0.12 inches	8.98 inches	5.94 inches	0.12 x 5.94 x 8.98 inches	30	"From:JenTangel, _Beginning Readers, To:YapLibrary, Country:Yap, 2013"	"NoLongerAvailable, 2013 Stats"	[0679843655]	"0679843655, 9780679843658"		amazon.com	[2013-09-08]	445283
101761140	Pony Crazy (Turtleback School & Library Binding Edition) (Pony Scouts (Pb))	"Hapka, Catherine"		"Kennedy, Anne"	Illustrator	"Turtleback (2010), Edition: Reprint, Library Binding, 32 pages"	2010	Hardcover	32 p.; 5.91 x 0.39 inches	0.4 pounds	0.39 inches	8.66 inches	5.91 inches	0.39 x 5.91 x 8.66 inches	32	"From:JenTangel, _Beginning Readers, To:AllisonWillis, Country:India, 2014"	"NoLongerAvailable, 2014 Stats"	[0606148493]	"0606148493, 9780606148498"		amazon.com	[2013-09-08]	7997971
101761144	"Search for Scooby Snacks (Scooby-Doo! Picture Clue Book, level 1)"	"Inc., Scholastic"		"Scholastic|Wasserman, Robin"	|	"Scholastic (2000), Paperback, 32 pages"	2000	Paperback	32 p.; 6.18 x 0.12 inches	1.6 pounds	0.12 inches	8.82 inches	6.18 inches	0.12 x 6.18 x 8.82 inches	32	"From:JenTangel, _Beginning Readers, To:YapLibrary, Country:Yap, 2013"	"NoLongerAvailable, 2013 Stats"	[0439161665]	"0439161665, 9780439161664"		amazon.com	[2013-09-08]	610505
101761150	Disney's Tarzan (Disney's Wonderful World of Reading)	Disney				"Grolier Books (1999), Edition: First Edition, Hardcover"	1999	Hardcover		0.32 pounds				8.6 x 6 x 0.3 inches		"From:JenTangel, _Beginning Readers, To:YapLibrary, Country:Yap, 2013"	"NoLongerAvailable, 2013 Stats"	[0717289079]	"0717289079, 9780717289073"		amazon.com	[2013-09-08]	10739147
101761156	"Scholastic Reader Level 1: A Bug, a Bear, and a Boy"	"Mcphail, David"				"Cartwheel (1998), Paperback, 32 pages"	1998	Paperback	32 p.; 5.94 x 0.16 inches	0.15 pounds	0.16 inches	8.9 inches	5.94 inches	0.16 x 5.94 x 8.9 inches	32	"From:JenTangel, _Beginning Readers, To:KristiNaizer, Country:Morocco, 2013"	"NoLongerAvailable, 2013 Stats"	[0590149040]	"0590149040, 9780590149044"		amazon.com	[2013-09-08]	695922
101761158	"The Mystery of the Missing Dog (Invisible Inc., No. 2: Hello Reader! Level 4)"	"Levy, Elizabeth"		"Brunkus, Denise"	Illustrator	"Cartwheel (1995), Paperback, 48 pages"	1995	Paperback	48 p.	1.6 pounds					48	"From:JenTangel, _Beginning Readers, To:AllisonWillis, 2014, Country:India"	"NoLongerAvailable, 2014 Stats"	[0590474847]	"0590474847, 9780590474849"		amazon.com	[2013-09-08]	2547556
101761159	Babar and the Ghost (Step into Reading)	"Brunhoff, Laurent De"				"Random House Books for Young Readers (1986), Paperback, 48 pages"	1986	Paperback	48 p.	0.2 pounds					48	"From:JenTangel, _Beginning Readers, To:StephanieBraun, Country:Brazil, 2015"	"NoLongerAvailable, 2015 Stats"	[0679828133]	"0679828133, 9780679828136"		amazon.com	[2013-09-08]	10819025
101761162	The big snowball (All aboard reading)	"Lewison, Wendy Cheyette"				"Scholastic (2001), Paperback, 24 pages"	2001	Paperback	24 p.; 9 inches	0.2 pounds	9 inches	0.2 inches	6 inches	9 x 6 x 0.2 inches	24	"From:JenTangel, _Beginning Readers, To:LeighaMackin, Country:Indonesia, 2014"	"NoLongerAvailable, 2014 Stats"	[0439375320]	"0439375320, 9780439375320"		amazon.com	[2013-09-08]	2213189
101761173	The Fire Engine Book (Little Golden Book)	"Gergely, Tibor"		"Muldrow, Diane|Gergely, Tibor"	Editor|Illustrator	"Golden Books (2001), Edition: 1, Hardcover, 24 pages"	2001	Hardcover	24 p.; 6.97 x 0.24 inches	1 pound	0.24 inches	7.68 inches	6.97 inches	0.24 x 6.97 x 7.68 inches	24	"From:JenTangel, _GoldenBooks, To:SusanBae, Country:China, 2013"	"NoLongerAvailable, 2013 Stats"	[0307960242]	"0307960242, 9780307960245"		amazon.com	[2013-09-08]	167215
101761176	Walt Disney's Alice in Wonderland (Little Golden Books)	"Disney, RH"		"Disney, RH"	Illustrator	"Golden/Disney (2010), Hardcover, 24 pages"	2010	Hardcover	24 p.; 6.46 x 0.2 inches	0.25 pounds	0.2 inches	7.83 inches	6.46 inches	0.2 x 6.46 x 7.83 inches	24	"From:JenTangel, _GoldenBooks, To:AllisonWillis, 2014, Country:India"	"NoLongerAvailable, 2014 Stats"	[0736426701]	"0736426701, 9780736426701"		amazon.com	[2013-09-08]	12265092
101761179	Three Little Pigs (Little Golden Book)	"Books, Golden"				"Golden/Disney (2004), Edition: 1, Hardcover, 24 pages"	2004	Hardcover	24 p.; 6.5 x 0.2 inches	0.25 pounds	0.2 inches	7.76 inches	6.5 inches	0.2 x 6.5 x 7.76 inches	24	"From:JenTangel, _GoldenBooks, To:DebbiSkinner, Country:China, 2014"	"NoLongerAvailable, 2014 Stats"	[0736423125]	"0736423125, 9780736423120"		amazon.com	[2013-09-08]	147735
101761185	The Lion's Paw (Little Golden Book)	"Watson, Jane Werner"		"Tenggren, Gustaf"	Illustrator	"Golden Books (2000), Edition: 1, Hardcover, 24 pages"	2000	Hardcover	24 p.; 6.65 x 0.24 inches	0.26 pounds	0.24 inches	8.11 inches	6.65 inches	0.24 x 6.65 x 8.11 inches	24	"From:JenTangel, _GoldenBooks, To:SusanBae, Country:China, 2013"	"NoLongerAvailable, 2013 Stats"	[0307960080]	"0307960080, 9780307960085"		amazon.com	[2013-09-08]	640175
101761188	Walt Disney's Mother Goose	"Disney, RH"		"Disney, RH"	Illustrator	"Golden/Disney (2004), Hardcover, 24 pages"	2004	Hardcover	24 p.; 6.57 x 0.24 inches	0.25 pounds	0.24 inches	8.03 inches	6.57 inches	0.24 x 6.57 x 8.03 inches	24	"From:JenTangel, _GoldenBooks, To:DarcyCoady, Country:China, 2013"	"NoLongerAvailable, 2013 Stats"	[0736423109]	"0736423109, 9780736423106"		amazon.com	[2013-09-08]	702335
101761191	Tawny Scrawny Lion (Little Golden Book)	"Jackson, Kathryn"		"Tenggren, Gustaf"	Illustrator	"Golden Books (2001), Edition: 1, Hardcover, 24 pages"	2001	Hardcover	24 p.; 6.42 x 0.2 inches	0.5 pounds	0.2 inches	7.95 inches	6.42 inches	0.2 x 6.42 x 7.95 inches	24	"From:JenTangel, _GoldenBooks, To:EaglesRest, Country:Thailand, 2014"	"NoLongerAvailable, 2014 Stats"	[0307021688]	"0307021688, 9780307021687"		amazon.com	[2013-09-08]	9171274
101761238	The Story of Jonah: Adapted from the Book of Jonah (A Little Golden Book)	"Broughton, Pamela"		"Collier, Roberta"	Illustrator	"Western Publishing Company (1987), Hardcover, 24 pages"	1987	Hardcover	24 p.	0.25 pounds					24	"From:JenTangel, _GoldenBooks, To:EaglesRest, Country:Thailand, 2014"	"NoLongerAvailable, 2014 Stats"	[0307020819]	"0307020819, 9780307020819"		amazon.com	[2013-09-08]	34609
101761245	Snoopy's Bk Of Shapes Concept (Snoopy Concept Books)	"Books, Golden"				"Golden Books (1987), Hardcover, 24 pages"	1987	Hardcover	24 p.; 9 inches	0.35 pounds	9 inches	0.4 inches	6.2 inches	9 x 6.2 x 0.4 inches	24	"From:JenTangel, _GoldenBooks, To:HeidiCollins, Country:Yap, 2013"	"NoLongerAvailable, 2013 Stats"	[0307109305]	"0307109305, 9780307109309"		amazon.com	[2013-09-08]	6760770
101761261	"Clifford, the Big Red Dog"	"Bridwell, Norman"				"Scholastic Trade (1985), Paperback, 32 pages"	1985	Paperback	32 p.; 8 inches	0.25 pounds	8 inches	0.25 inches	8 inches	8 x 8 x 0.25 inches	32	"From:JenTangel, _Picture Books, To:YapLibrary, Country:Yap, 2013"	"NoLongerAvailable, 2013 Stats"	[0590334700]	"0590334700, 9780590334709"		amazon.com	[2013-09-08]	54614
101761270	"Meet Kai-lan! (Ni Hao, Kai-lan)"	"Matheis, Mickie"		"Fruchter, Jason|Chikasawa, Aka"	Illustrator|Illustrator	"Simon Spotlight/Nickelodeon (2009), Paperback, 24 pages"	2009	Paperback	24 p.; 7.81 x 0.15 inches	0.1 pounds	0.15 inches	7.87 inches	7.81 inches	0.15 x 7.81 x 7.87 inches	24	"From:JenTangel, _Picture Books, To:YapLibrary, Country:Yap, 2013"	"NoLongerAvailable, 2013 Stats"	[1416985026]	"1416985026, 9781416985020"		amazon.com	[2013-09-08]	8364872
101761272	The Caterpillow Fight (Giggle Club)	"McBratney, Sam"		"Barton, Jill"	Illustrator	"Candlewick (1997), Edition: 1, Paperback, 24 pages"	1997	Paperback	24 p.	0.5 pounds				7.9 x 7.9 x 0.1 inches	24	"From:JenTangel, _Picture Books, To:YapLibrary, Country:Yap, 2013"	"NoLongerAvailable, 2013 Stats"	[0763601241]	"0763601241, 9780763601249"		amazon.com	[2013-09-08]	795877
101761279	"Clifford Takes a Trip (Clifford, the Big Red Dog)"	"Bridwell, Norman"				"Scholastic Trade (1985), Paperback, 38 pages"	1985	Paperback	38 p.; 7.8 inches	0.2 pounds	7.8 inches	0.2 inches	7.8 inches	7.8 x 7.8 x 0.2 inches	38	"From:JenTangel, _Picture Books, To:AnishaHopkinson, Country:Papua Ind, 2014"	"NoLongerAvailable, 2014 Stats"	[0590335545]	"0590335545, 9780590335546"		amazon.com	[2013-09-08]	134372
101761286	Chrysanthemum	"Henkes, Kevin"				"Scholastic (1991), Edition: 1st, Paperback, 32 pages"	1991	Paperback	32 p.; 9.5 inches	0.3 pounds	9.5 inches	0.6 inches	8 inches	9.5 x 8 x 0.6 inches	32	"From:JenTangel, _Picture Books, To:DarcyCoady, Country:China, 2013"	"NoLongerAvailable, 2013 Stats"	[0590135651]	"0590135651, 9780590135658"		amazon.com	[2013-09-08]	360961
101761287	Ira Sleeps Over	"Waber, Bernard"				"HMH Books for Young Readers (1975), Paperback, 48 pages"	1975	Paperback	48 p.; 7.91 x 0.2 inches	0.3 pounds	0.2 inches	9.96 inches	7.91 inches	0.2 x 7.91 x 9.96 inches	48	"From:JenTangel, _Picture Books, To:RenessaBelohlavek, Country:Kyrgyzstan, 2014"	"NoLongerAvailable, 2014 Stats"	[0395205034]	"0395205034, 9780395205037"		amazon.com	[2013-09-08]	2457423
101761288	clifford's puppy days	"bridwell, norman"				"Scholastic Books (1989), Paperback"	1989	Paperback		0.45 pounds						"From:JenTangel, _Picture Books, To:AnishaHopkinson, Country:Papua Ind, 2014"	"NoLongerAvailable, 2014 Stats"	[0590421891]	"0590421891, 9780590421898"		amazon.com	[2013-09-08]	159928
101761291	Clifford's Pals	"Bridwell, Norman"				"Scholastic Trade (1985), Paperback"	1985	Paperback	8 inches	0.2 pounds	8 inches	0.2 inches	8 inches	8 x 8 x 0.2 inches		"From:JenTangel, _Picture Books, To:KristiFlorek, Country:Ethiopia, 2014"	"NoLongerAvailable, 2014 Stats"	[0590335820]	"0590335820, 9780590335829"		amazon.com	[2013-09-08]	552690
101761297	Rapunzel (Fairy Tale Classics)	"Grimm, Brothers"				"Troll Communications (1997), Paperback, 32 pages"	1997	Paperback	32 p.; 8.9 inches	0.1 pounds	8.9 inches	0.1 inches	7.4 inches	8.9 x 7.4 x 0.1 inches	32	"From:JenTangel, _Picture Books, To:JoyGealsen, Country:Papua Ind, 2016"	"NoLongerAvailable, 2016 Stats"	[0893751138]	"0893751138, 9780893751135"		amazon.com	[2013-09-08]	440580
101761311	Clifford's Good Deeds	"Bridwell, Norman"		"Bridwell, Norman"	Drawings	"Scholastic Book Services (1975), Edition: 1st., Paperback, 48 pages"	1975	Paperback	48 p.; 7.9 inches	0.2 pounds	7.9 inches	0.2 inches	6 inches	7.9 x 6 x 0.2 inches	48	"From:JenTangel, _Picture Books, To:KristiFlorek, Country:Ethiopia, 2014"	"NoLongerAvailable, 2014 Stats"	[0590013793]	"0590013793, 9780590013796"		amazon.com	[2013-09-08]	166251
101761317	"The Berenstain Bears Ready, Get Set, Go!"	"Berenstain, Stan"		"Berenstain, Jan"		"Random House Books for Young Readers (1988), Paperback, 32 pages"	1988	Paperback	32 p.; 7.7 inches	0.3 pounds	7.7 inches	0.5 inches	7.7 inches	7.7 x 7.7 x 0.5 inches	32	"From:JenTangel, _Beginning Readers, To:RandallStone, Country:Hungary, 2015"	"NoLongerAvailable, 2015 Stats"	[039480564X]	"039480564X, 9780394805641"		amazon.com	[2013-09-08]	167133
101761318	Clifford's First Autumn (Clifford 8x8)	"Bridwell, Norman"				"Cartwheel (1997), Paperback, 32 pages"	1997	Paperback	32 p.; 7.99 x 0.12 inches	0.17 pounds	0.12 inches	7.99 inches	7.99 inches	0.12 x 7.99 x 7.99 inches	32	"From:JenTangel, _Picture Books, To:DarcyCoady, Country:China, 2013"	"NoLongerAvailable, 2013 Stats"	[0590341308]	"0590341308, 9780590341301"		amazon.com	[2013-09-08]	1004416
101761324	Clifford Goes to Hollywood	"Bridwell, Norman"				"Scholastic, Paperback"	?	Paperback		0.1 pounds				7.8 x 7.8 x 0.2 inches		"From:JenTangel, _Picture Books, To:AnishaHopkinson, Country:Papua Ind, 2014"	"NoLongerAvailable, 2014 Stats"	[0590401157]	"0590401157, 9780590401159"		amazon.com	[2013-09-08]	134371
101761350	Clifford and the Grouchy Neighbors	"Bridwell, Norman"				"Scholastic (1985), Paperback"	1985	Paperback	7.7 inches	0.2 pounds	7.7 inches	0.2 inches	7 inches	7.7 x 7 x 0.2 inches		"From:JenTangel, _Picture Books, To:YapLibrary, Country:Yap, 2013"	"NoLongerAvailable, 2013 Stats"	[0590334611]	"0590334611, 9780590334617"		amazon.com	[2013-09-08]	6031280
101761353	Penguin's Big Surprise	"Jenkin-Pearce, Susie"				"Scholastic Book Services (2007), Paperback"	2007	Paperback								"From:JenTangel, _Picture Books, To:RandallStone, Country:Hungary, 2015"	"NoLongerAvailable, 2015 Stats"	[054504510X]	"054504510X, 9780545045100"		amazon.com	[2013-09-08]	3189036
101761398	A Star for Jesus (ZonderKidz)	"Bowman, Crystal"		"Gévry, Claudine|Nuffer, Bruce"	Illustrator|Editor	"Zondervan (2006), Hardcover, 14 pages"	2006	Board book	14 p.; 10.75 x 0.35 inches	0.75 pounds	0.35 inches	8.27 inches	10.75 inches	0.35 x 10.75 x 8.27 inches	14	"From:JenTangel, _Board Books, To:HeidiCollins, Country:Yap, 2013"	"NoLongerAvailable, 2013 Stats"	[0310712165]	"0310712165, 9780310712169"		amazon.com	[2013-09-08]	7628911
101761400	Winnie-the-Pooh's Giant Lift-the-Flap Book	"Milne, A. A."		"Shepard, Ernest H."	Illustrator	"Dutton Juvenile (1997), Edition: First Edition, Board book, 12 pages"	1997	Board book	12:00 PM	0.85 pounds				11.7 x 9.8 x 0.3 inches	12	"From:JenTangel, _Board Books, To:HeidiCollins, Country:Yap, 2013"	"NoLongerAvailable, 2013 Stats"	[0525458417]	"0525458417, 9780525458418"		amazon.com	[2013-09-08]	1831687
101761416	Giant Treasury of Peter Rabbit	"Potter, Beatrix"		"Wilkins, Cary|Wilkins, Cary"	Editor|Introduction	"Derrydale (1998), Edition: First Derrydale 1980 Edition, Hardcover, 92 pages"	1998	Hardcover	92 p.	1.1 pounds				11.1 x 8.6 x 0.6 inches	92	"From:JenTangel, _Beatrix Potter, To:HeidiCollins, Country:Yap, 2013"	"NoLongerAvailable, 2013 Stats"	[0517316870]	"0517316870, 9780517316870"		amazon.com	[2013-09-08]	344997
101761427	Braids and Bows: A Book of Instruction	"Johnson, Anne Akers"		"Stoneking, Robin"		"Klutz (1992), Edition: Book and Access, Spiral-bound, 80 pages"	1992	Paper Book	80 p.; 9.3 inches	1.37 pounds	9.3 inches	0.5 inches	1.1 inches	9.3 x 1.1 x 0.5 inches	80	"From:JenTangel, _Activity Books, 2015, To:JessicaAmis, Country:Turkey"	"NoLongerAvailable, 2015 Stats"	[]			amazon.com	[2013-09-08]	508891
101761450	Dazzle the Dinosaur	"Pfister, Marcus"				"Scholastic (1995), Hardcover"	1995	Hardcover	11.7 inches	0.65 pounds	11.7 inches	0.5 inches	8.7 inches	11.7 x 8.7 x 0.5 inches		"From:JenTangel, _Hardback Picture Books, To:YapLibrary, Country:Yap, 2013"	"NoLongerAvailable, 2013 Stats"	[0590545469]	"0590545469, 9780590545464"		amazon.com	[2013-09-08]	303325
101761459	Where the Wild Things Are	"Sendak, Maurice"		"Sendak, Maurice"	Illustrator	"HarperCollins (1984), Edition: 50 ANV, Paperback, 48 pages"	1984	Paperback	48 p.; 8 inches	0.9 pounds	8 inches	8 inches	3 inches	8 x 3 x 8 inches	48	"From:JenTangel, _Hardback Picture Books, To:KristiNaizer, Country:Morocco, 2013"	"NoLongerAvailable, 2013 Stats"	[0064431789]	"0064431789, 9780064431781"		amazon.com	[2013-09-08]	5537
101761463	Bru the Brown Bear	"borg, inga"				"Warne (1961), Edition: First Edition, Hardcover, 34 pages"	1961	Hardcover	34 p.; 9 inches	1.38 pounds	9 inches	1 inch	6 inches	9 x 6 x 1 inches	34	"From:JenTangel, _Hardback Picture Books, To:HeidiCollins, Country:Yap, 2013"	"NoLongerAvailable, 2013 Stats"	[]			amazon.com	[2013-09-08]	14236268
101761469	Happy Families: Shaped Board Book (Potter Shaped Board Book)	"Potter, Beatrix"				"Warne (1991), Board book, 12 pages"	1991	Board book	12 p.; 6.9 inches	0.2 pounds	6.9 inches	0.3 inches	6.5 inches	6.9 x 6.5 x 0.3 inches	12	"From:JenTangel, _Board Books, To:BrigitteSchoenenberger, Country:Senegal, 2014"	"NoLongerAvailable, 2014 Stats"	[0723237832]	"0723237832, 9780723237839"		amazon.com	[2013-09-08]	544869
101761476	What's Inside My Body? A First Guide to the Wonders and Workings of the Human Body	"Royston, Angela"				"DK Publishing (1999), Hardcover, 17 pages"	1999	Hardcover	17 p.	0.5 pounds				9 x 7.4 x 0.3 inches	17	"From:JenTangel, _Science, To:KatrinaShedd, Country:China, 2013"	"NoLongerAvailable, 2013 Stats"	[0590455346]	"0590455346, 9780590455343"		amazon.com	[2013-09-08]	160217
101761490	O. Whillikers in the Hall of Champions	"Carty, Jay"		"Daniels, Norm|Nash, Phil"	Illustrator|	"Gospel Light Pubns (2000), Paperback, 112 pages"	2000	Paperback	112 p.; 9.2 inches	0.65 pounds	9.2 inches	0.3 inches	7.2 inches	9.2 x 7.2 x 0.3 inches	112	"From:JenTangel, _Bible-Related, To:AmyRhiger, Country:Philippines, 2015"	"NoLongerAvailable, 2015 Stats"	[0830726349]	"0830726349, 9780830726349"		amazon.com	[2013-09-08]	9250303
101761493	Uncle Wiggily's Story Book	"Garis, Howard R."				"Grosset & Dunlap (1987), Hardcover, 247 pages"	1987	Hardcover	247 p.; 6.97 x 0.91 inches	1.19 pounds	0.91 inches	9.17 inches	6.97 inches	0.91 x 6.97 x 9.17 inches	247	"From:JenTangel, _Children's Classics, To:KarenHall, Country:Indonesia, 2013"	"NoLongerAvailable, 2013 Stats"	[0448400901]	"0448400901, 9780448400907"		amazon.com	[2013-09-08]	433943
101761499	Friends Through Thick and Thin	"Gaither, Gloria"		"Benson|Benson, Peggy|MacKenzie, Joy"	||	"Zondervan Publishing Company (1999), Paperback, 224 pages"	1999	Paperback	224 p.; 8.3 inches	0.55 pounds	8.3 inches	0.7 inches	5.6 inches	8.3 x 5.6 x 0.7 inches	224	"From:JenTangel, To:HeidiCollins, Country:Yap, 2013, _Adult Non-Fiction, _Biographies, _Adult Fiction, _Bible-Related"	"NoLongerAvailable, 2013 Stats"	[0310229138]	"0310229138, 9780310229131"		amazon.com	[2013-09-08]	710595
101761501	Lost	"McPhail, David"				"Trumpet Club (1991), Paperback"	1991	Paperback								"From:JenTangel, _Picture Books, To:DeborahHays, Country:Bulgaria, 2016"	"NoLongerAvailable, 2016 Stats"	[0440844215]	"0440844215, 9780440844211"		amazon.com	[2013-09-08]	610322
101761510	Wow! I'm Reading: Fun Activities to Make Reading Happen (Williamson Little Hands Book)	"Hauser, Jill Frankel"				"Williamson Publishing Company (2000), Paperback, 144 pages"	2000	Paperback	144 p.; 11.02 x 0.39 inches	1.1 pounds	0.39 inches	8.07 inches	11.02 inches	0.39 x 11.02 x 8.07 inches	144	"From:JenTangel, _Education Resources, To:BettyKurz, Country:Papua NG, 2015"	"NoLongerAvailable, 2015 Stats"	[1885593414]	"1885593414, 9781885593412"		amazon.com	[2013-09-08]	977499
110479150	Hide and Seek Fog (Mulberry Books)	"Tresselt, Alvin"		"Duvoisin, Roger"	Illustrator	"HarperCollins (1988), Edition: Reprint, Paperback, 40 pages"	1988	Paperback	40 p.; 9.71 inches	0.27 pounds	9.71 inches	0.12 inches	7.75 inches	9.71 x 7.75 x 0.12 inches	40	"To:HeidiCollins, Country:Yap, 2014, From:JenTangel"	"NoLongerAvailable, 2014 Stats"	[0688078133]	"0688078133, 9780688078133"		amazon.com	[2014-07-06]	1155306
110479212	The Guinea Pig ABC	"Duke, Kate"				"Dutton Juvenile (1983), Edition: 1st, Hardcover, 32 pages"	1983	Hardcover	32 p.; 8.25 x 0.25 inches	0.85 pounds	0.25 inches	11 inches	8.25 inches	0.25 x 8.25 x 11 inches	32	"To:HeidiCollins, Country:Yap, 2014, From:JenTangel"	"NoLongerAvailable, 2014 Stats"	[0525440585]	"0525440585, 9780525440581"		amazon.com	[2014-07-06]	871800
112122212	I Can Read About Birds	"Schultz, Ellen"				"Troll Communications Llc (1979), Paperback"	1979	Paperback	8.4 inches	0.15 pounds	8.4 inches	0.3 inches	5.4 inches	8.4 x 5.4 x 0.3 inches		"_Science, From:JenTangel, To:BeccaPlatte, Country:China, 2017"	"NoLongerAvailable, 2017 Stats"	[0893752045]	"0893752045, 9780893752040"		amazon.com	[2014-08-31]	1130110
112122233	The Snowman	"Briggs, Raymond"				"Dragonfly Books (1986), Paperback, 32 pages"	1986	Paperback	32 p.	0.3 pounds		11.57 inches	8.11 inches	11.18 x 8.11 x 11.57 inches	32	"_Picture Books, From:JenTangel, To:AnishaHopkinson, 2014, Country:Papua Ind"	"NoLongerAvailable, 2014 Stats"	[0394884663]	"0394884663, 9780394884660"		amazon.com	[2014-08-31]	404334
112122236	Clifford's Thanksgiving Visit	"Bridwell, Norman"				"Scholastic (1993), Paperback, 32 pages"	1993	Paperback	32 p.; 7.87 x 0.11 inches	0.17 pounds	0.11 inches	7.87 inches	7.87 inches	0.11 x 7.87 x 7.87 inches	32	"_Picture Books, From:JenTangel, To:AmyGerst, Country:Ethiopia, 2014"	"NoLongerAvailable, 2014 Stats"	[0590469878]	"0590469878, 9780590469876"		amazon.com	[2014-08-31]	166256
112122239	Peter and the Wolf	"Eastman, David"		"Prokofiev, Sergey|Atkinson, Allen"	|Illustrator	"Troll Communications Llc (1988), Paperback, 32 pages"	1988	Paperback	32 p.; 9.1 inches	0.15 pounds	9.1 inches	0.1 inches	7.2 inches	9.1 x 7.2 x 0.1 inches	32	"_Picture Books, From:JenTangel, 2018inv"	BookEnds	[0816710589]	"0816710589, 9780816710584"		amazon.com	[2014-08-31]	536923
112122240	Night Noises	"Fox, Mem"				"Trumpet Club (Harcourt) (1992), Paperback"	1992	Paperback	9.5 inches	0.2 pounds	9.5 inches	0.1 inches	9.5 inches	9.5 x 9.5 x 0.1 inches		"_Picture Books, From:JenTangel, To:HillaryChang, Country:Indonesia, 2015"	"NoLongerAvailable, 2015 Stats"	[044084701X]	"044084701X, 9780440847014"		amazon.com	[2014-08-31]	172007
112122243	Peter and the Wolf	"Eastman, David"		"Prokofiev, Sergey|Atkinson, Allen"	|Illustrator	"Troll Communications Llc (1988), Paperback, 32 pages"	1988	Paperback	32 p.; 9.1 inches	0.15 pounds	9.1 inches	0.1 inches	7.2 inches	9.1 x 7.2 x 0.1 inches	32	"_Picture Books, From:JenTangel, To:LeighaMackin, Country:Indonesia, 2014"	"NoLongerAvailable, 2014 Stats"	[0816710589]	"0816710589, 9780816710584"		amazon.com	[2014-08-31]	536923
112122245	With love	"Goodall, Jane"				"Scholastic (1999), Unknown Binding"	1999	Paper Book	9.5 inches	0.15 pounds	9.5 inches	0.1 inches	8 inches	9.5 x 8 x 0.1 inches		"_Picture Books, From:JenTangel, To:BettyKurz, Country:Papua NG, 2015"	"NoLongerAvailable, 2015 Stats"	[0439073782]	"0439073782, 9780439073783"		amazon.com	[2014-08-31]	2081083
112122248	"Goodbye, geese"	"Carlstrom, Nancy White"		"Young, Ed"	Illustrator	"Scholastic (1992), Paperback, 24 pages"	1992	Paperback	24 p.; 10.8 inches	0.3 pounds	10.8 inches	0.1 inches	8.3 inches	10.8 x 8.3 x 0.1 inches	24	"_Picture Books, From:JenTangel, To:BettyKurz, Country:Papua NG, 2016"	"NoLongerAvailable, 2016 Stats"	[0590454072]	"0590454072, 9780590454070"		amazon.com	[2014-08-31]	1086420
112122251	Today Was a Terrible Day (Picture Puffin Books)	"Giff, Patricia Reilly"		"Natti, Susanna"	Illustrator	"Puffin (1984), Edition: Reprint, Paperback, 32 pages"	1984	Paperback	32 p.; 8.85 inches	0.21 pounds	8.85 inches	0.15 inches	7.12 inches	8.85 x 7.12 x 0.15 inches	32	"_Picture Books, From:JenTangel, To:KathyChristiansen, Country:Zimbabwe, 2015"	"NoLongerAvailable, 2015 Stats"	[0140504532]	"0140504532, 9780140504538"		amazon.com	[2014-08-31]	175849
112122255	Jorinda and Joringel	"Cutts, David"		"Rickman, David|Grimm, the Brothers"	|	"Troll Communications Llc (1988), Paperback, 32 pages"	1988	Paperback	32 p.; 8.9 inches	0.2 pounds	8.9 inches	0.2 inches	6.7 inches	8.9 x 6.7 x 0.2 inches	32	"_Picture Books, From:JenTangel, To:JuliaDawkins, Country:Oman, 2016"	"NoLongerAvailable, 2016 Stats"	[081671066X]	"081671066X, 9780816710669"		amazon.com	[2014-08-31]	13694343
112122265	Mystery of the Russian Ruby (A Pop-Up Whodunit)	"Smyth, Iain"				"Dutton Juvenile (1994), Edition: Pop, Hardcover, 12 pages"	1994	Hardcover	12 p.; 11.8 inches	1.15 pounds	11.8 inches	0.5 inches	8.3 inches	11.8 x 8.3 x 0.5 inches	12	"_Hardback Picture Books, From:JenTangel, To:ValReddix, Country:USA, 2014"	"NoLongerAvailable, 2014 Stats"	[0525452745]	"0525452745, 9780525452744"		amazon.com	[2014-08-31]	277306
112122271	Snow Happy To Be Here	"Hawkinson, cheryl"				"Hallmark (2007), Edition: 1ST, Hardcover"	2007	Hardcover	10.9 inches	0.85 pounds	10.9 inches	0.4 inches	9.4 inches	10.9 x 9.4 x 0.4 inches		"_Hardback Picture Books, From:JenTangel, To:SandraKleinert, Country:China, 2015"	"NoLongerAvailable, 2015 Stats"	[1595301755]	"1595301755, 9781595301758"		amazon.com	[2014-08-31]	4217255
112122277	The Very Hungry Caterpillar	"Carle, Eric"				"Philomel (1981), Edition: 1, Hardcover, 32 pages"	1981	Hardcover	32 p.; 12.25 x 8.63 inches	1.01 pounds	8.63 inches	0.5 inches	12.25 inches	8.63 x 12.25 x 0.5 inches	32	"_Hardback Picture Books, From:JenTangel, To:AnnetteKendzoras, Country:Colombia, 2014"	"NoLongerAvailable, 2014 Stats"	[0399208534]	"0399208534, 9780399208539"		amazon.com	[2014-08-31]	55332
112122279	The Midnight Unicorn	"Reed, Neil"		"Books, Fernleigh"	Producer	"Sterling (2006), Hardcover, 36 pages"	2006	Hardcover	36 p.; 11.81 x 0.48 inches	1.45 pounds	0.48 inches	11.81 inches	11.81 inches	0.48 x 11.81 x 11.81 inches	36	"_Hardback Picture Books, From:JenTangel, To:KaraSchaffler, Country:Madagascar, 2015"	"NoLongerAvailable, 2015 Stats"	[140273218X]	"140273218X, 9781402732188"		amazon.com	[2014-08-31]	3347564
112122288	Mouses Book Of Months (Poke and Look)	"Coccinella, La"				"Grosset & Dunlap (1987), Paperback, 20 pages"	1987	Paperback	20 p.; 7.8 inches	1.02 pounds	7.8 inches	1 inch	5.12 inches	7.8 x 5.12 x 1 inches	20	"_Board Books, From:JenTangel, To:KadieRied, Country:Indonesia, 2015"	"NoLongerAvailable, 2015 Stats"	[0448014653]	"0448014653, 9780448014654"		amazon.com	[2014-08-31]	8696717
112122296	Happy Birthday (Brand New Readers)	"Martin, David"				"Candlewick Pr (2000), Paperback"	2000	Paperback	7.8 inches	0.05 pounds	7.8 inches	0.1 inches	5.5 inches	7.8 x 5.5 x 0.1 inches		"_Beginning Readers, From:JenTangel, To:DebbiSkinner, Country:China, 2014"	"NoLongerAvailable, 2014 Stats"	[0763611808]	"0763611808, 9780763611804"		amazon.com	[2014-08-31]	781630
112122298	"Just Like Me (Learn to Read, Read to Learn: Emergent Reader Level 2)"	"Hood, Christine"				"Creative Teaching Press (1998), Paperback, 16 pages"	1998	Paperback	16 p.; 8.7 x 6 inches	0.1 pounds	6 inches	0.1 inches	8.7 inches	6 x 8.7 x 0.1 inches	16	"_Beginning Readers, From:JenTangel, To:BrigitteSchoenenberger, Country:Senegal, 2014"	"NoLongerAvailable, 2014 Stats"	[1574711350]	"1574711350, 9781574711356"		amazon.com	[2014-08-31]	5668032
112122303	"Clifford's Valentines (Scholastic Reader, Level 1)"	"Bridwell, Norman"				"Cartwheel (2002), Paperback, 32 pages"	2002	Paperback	32 p.; 8.8 inches	0.1 pounds	8.8 inches	0.2 inches	5.8 inches	8.8 x 5.8 x 0.2 inches	32	"_Beginning Readers, From:JenTangel, To:AmyGerst, Country:Ethiopia, 2014"	"NoLongerAvailable, 2014 Stats"	[0439183006]	"0439183006, 9780439183000"		amazon.com	[2014-08-31]	1838553
112122313	Windows on Literacy Emergent (Social Studies: Technology): What's Did They Drive?	"Wong, George"				"National Geographic School Pub (2007), Edition: 1, Paperback, 12 pages"	2007	Paperback							12	"_Beginning Readers, From:JenTangel, Country:Madagascar, 2015, To:RebekahPotgieter"	"NoLongerAvailable, 2015 Stats"	[0792286685]	"0792286685, 9780792286684"		amazon.com	[2014-08-31]	13406019
112122328	It's Not Easy Being a Bunny (Beginner Books(R))	"Sadler, Marilyn"				"Random House Books for Young Readers (1983), Edition: 0, Hardcover, 48 pages"	1983	Hardcover	48 p.; 9.34 inches	0.44 pounds	9.34 inches	0.34 inches	6.74 inches	9.34 x 6.74 x 0.34 inches	48	"_Beginning Readers, From:JenTangel, To:SharonMercer, Country:Hungary, 2015"	"NoLongerAvailable, 2015 Stats"	[0394861027]	"0394861027, 9780394861029"		amazon.com	[2014-08-31]	209865
112122343	The Cranium Ultimate Book of Fantastic Fun & Games: Share the Fun with Family and Friends	"Cranium, Inc."				"LB Kids (2007), Edition: Pck Brdgm, Paperback, 54 pages"	2007	Paperback	54 p.; 10 x 2.36 inches	2.65 pounds	2.36 inches	10 inches	10 inches	2.36 x 10 x 10 inches	54	"_Activity Books, From:JenTangel, To:CourtneySpoon, Country:Papua Ind, 2014"	"NoLongerAvailable, 2014 Stats"	[0316012084]	"0316012084, 9780316012089"		amazon.com	[2014-08-31]	4781550
131989174	The Magic Pot: An African Folktale	"McGovern, Ann"	Author	"Longtemps, Kenneth"	Illustrator	"Macmillan Publishing Company, Inc. (1975), Edition: 1st, 32 pages"	1975	Paperback	32 p.; 8.7 inches	0.45 pounds	8.7 inches	0.2 inches	7.6 inches	8.7 x 7.6 x 0.2 inches	32	"From:JenTangel, _Picture Books, To:JanaEads, Country:Tanzania, 2016"	"NoLongerAvailable, 2016 Stats"	[]			amazon.com books	[2016-07-06]	8983378
131989200	They're Off! : The Story of the Pony Express	"Harness, Cheryl"	Author	"Harness, Cheryl"	Illustrator	"Simon & Schuster Books for Young Readers (2002), 32 pages"	2002	Paperback	32 p.; 8.5 inches	0.31 pounds	8.5 inches	11 inches	0.2 inches	8.5 x 0.2 x 11 inches	32	"From:JenTangel, _Picture Books, To:JanaEads, Country:Tanzania, 2016"	"NoLongerAvailable, 2016 Stats"	[0689851219]	"0689851219, 9780689851216"		amazon.com books	[2016-07-06]	1506602
131989797	Incredibly Awesome Crafts for Kids	"Gardens, Better Homes and"	Author			"Meredith Books (1992), Edition: New edition, 168 pages"	1992	Paperback	168 p.; 9.76 inches	1.19 pounds	9.76 inches	0.34 inches	9.16 inches	9.76 x 9.16 x 0.34 inches	168	"From:JenTangel, _Activity Books, To:JanaEads, Country:Tanzania, 2016"	"NoLongerAvailable, 2016 Stats"	[0696019841]	"0696019841, 9780696019845"		amazon.com books	[2016-07-06]	1019435
131990044	Build a Doodle Circus	"Armstrong, Beverly"	Author			Learning Works (1992)	1992	Paperback	11.02 x 4.13 inches		4.13 inches	0.23 inches	11.02 inches	4.13 x 11.02 x 0.23 inches		"From:JenTangel, _Activity Books, To:JanaEads, Country:Tanzania, 2016"	"NoLongerAvailable, 2016 Stats"	[0881601330]	"0881601330, 9780881601336"		amazon.com books	[2016-07-06]	4629632
132076873	Spider and the Sky God: An Akan Legend (Legends of the World)	"Chocolate, Deborah M. Newton"	Author			"Troll Communications (1997), 32 pages"	1997	Paperback	32 p.; 8.92 inches	0.25 pounds	8.92 inches	0.13 inches	7.99 inches	8.92 x 7.99 x 0.13 inches	32	"From:JenTangel, _Picture Books, To:SarahHalter, Country:Tanzania, 2016"	"NoLongerAvailable, 2016 Stats"	[0816728127]	"0816728127, 9780816728121"		amazon.com books	[2016-07-09]	987772
132076911	The Big Snow	"Hader, Berta"	Author			"Scholastic (1990), 44 pages"	1990	Paperback	44 p.; 9.7 inches	0.2 pounds	9.7 inches	0.3 inches	8.2 inches	9.7 x 8.2 x 0.3 inches	44	"From:JenTangel, _Picture Books, To:SarahHalter, Country:Tanzania, 2016"	"NoLongerAvailable, 2016 Stats"	[0590444395]	"0590444395, 9780590444392"		amazon.com books	[2016-07-09]	4589
132076965	"Talk, Talk: An Ashanti Legend"	"Chocolate, Deborah"	Author			"Troll (2003), 32 pages"	2003	Paperback	32 p.; 9 inches	0.25 pounds	9 inches	0.15 inches	8.06 inches	9 x 8.06 x 0.15 inches	32	"From:JenTangel, _Picture Books, To:SarahHalter, Country:Tanzania, 2016"	"NoLongerAvailable, 2016 Stats"	[0816728186]	"0816728186, 9780816728183"		amazon.com books	[2016-07-09]	322172
132077077	Daniel Boone and the Wilderness Road (Adventures in Frontier America Series)	"Chambers, Catherine E."	Author	"Guzzi, George"	Illustrator	"Troll Communications (1984), 32 pages"	1984	Hardcover	32 p.; 8.75 x 0.5 inches		0.5 inches	9.5 inches	8.75 inches	0.5 x 8.75 x 9.5 inches	32	"From:JenTangel, _History, To:SarahHalter, Country:Tanzania, 2016"	"NoLongerAvailable, 2016 Stats"	[0816700370]	"0816700370, 9780816700370"		amazon.com books	[2016-07-09]	1985542
132148320	In My Mother's House (Picture Puffin)	"Clark, Ann Nolan"	Author			"Puffin (1992), 64 pages"	1992	Paperback	64 p.; 7.16 inches	0.35 pounds	7.16 inches	8.92 inches	0.17 inches	7.16 x 0.17 x 8.92 inches	64	"_Picture Books, From:JenTangel, To:LauraGass, Country:Tanzania, 2016"	"NoLongerAvailable, 2016 Stats"	[0140544968]	"0140544968, 9780140544961"		amazon.com books	[2016-07-10]	1028749
132148329	Beacons of Light Lighthouses	"Gibbons, Gail"	Author			"Scholastic (1990), 30 pages"	1990	Paperback	30 p.; 9.5 inches	0.3 pounds	9.5 inches	0.2 inches	7.7 inches	9.5 x 7.7 x 0.2 inches	30	"_Picture Books, From:JenTangel, To:AnishaHopkinson, Country:Indonesia, 2016"	"NoLongerAvailable, 2016 Stats"	[059046048X]	"059046048X, 9780590460484"		amazon.com books	[2016-07-10]	445014
132148342	The Way to Start a Day	"Baylor, Byrd"	Author	"Parnall, Peter"	Illustrator	"Aladdin (1986), Edition: Reprint, 32 pages"	1986	Paperback	32 p.; 7.75 inches	0.22 pounds	7.75 inches	10 inches	0.2 inches	7.75 x 0.2 x 10 inches	32	"_Picture Books, From:JenTangel, To:LauraGass, Country:Tanzania, 2016"	"NoLongerAvailable, 2016 Stats"	[0689710542]	"0689710542, 9780689710544"		amazon.com books	[2016-07-10]	440861
132148350	The Goat in the Rug	"Blood, Charles L."	Author	"Parker, Nancy Winslow"	Illustrator	"Aladdin (1990), Edition: Reprint, 40 pages"	1990	Paperback	40 p.; 7.25 inches	0.25 pounds	7.25 inches	10 inches	0.2 inches	7.25 x 0.2 x 10 inches	40	"_Picture Books, From:JenTangel, To:HannahPatton, Country:SE Asia-L, 2016"	"NoLongerAvailable, 2016 Stats"	[0689714181]	"0689714181, 9780689714184"		amazon.com books	[2016-07-10]	545231
132148368	The Emperor and the Nightingale	"Andersen, Hans Christian"	Author	"Watling, James"	Illustrator	Troll Communications Llc (1998)	1998	Paperback	7.5 x 0.25 inches		0.25 inches	9.5 inches	7.5 inches	0.25 x 7.5 x 9.5 inches		"_Picture Books, From:JenTangel, To:JuliaDawkins, Country:Oman, 2016"	"NoLongerAvailable, 2016 Stats"	[089375112X]	"089375112X, 9780893751128"		amazon.com books	[2016-07-10]	634559
132148391	The Funny Little Woman	"Mosel, Arlene"	Author	"Lent, Blair"	Illustrator	"Puffin (1977), 4 pages"	1977	Paperback	4 p.; 20 inches	0.2 pounds	20 inches	20 inches	20 inches	20 x 20 x 20 inches	4	"_Picture Books, From:JenTangel, To:LauraGass, Country:Tanzania, 2016"	"NoLongerAvailable, 2016 Stats"	[0525442553]	"0525442553, 9780525442554"		amazon.com books	[2016-07-10]	96221
132148424	The Emperor and the Kite	"Yolen, Jane"	Author			"Philomel Books (1988), Edition: Reissue, 32 pages"	1988	Hardcover	32 p.; 9.56 inches	0.83 pounds	9.56 inches	9.25 inches	0.4 inches	9.56 x 0.4 x 9.25 inches	32	"_Picture Books, From:JenTangel, To:LauraGass, Country:Tanzania, 2016"	"NoLongerAvailable, 2016 Stats"	[0399214992]	"0399214992, 9780399214998"		amazon.com books	[2016-07-10]	172042
132148432	Sixteen Runaway Pumpkins	"Ochiltree, Dianne"	Author	"Lanquetin, Anne-Sophie"	Illustrator	"Scholastic (2005), 22 pages"	2005	Paperback	22 p.	0.19 pounds				9.6 x 8.5 x 0.1 inches	22	"_Picture Books, From:JenTangel, To:SandraKleinert, Country:China, 2016"	"NoLongerAvailable, 2016 Stats"	[0439799392]	"0439799392, 9780439799393"		amazon.com books	[2016-07-10]	1691797
132148442	T is for Turkey: A True Thanksgiving Story	"Stone, Tanya Lee"	Author	"Kelley, Gerald"	Illustrator	"Price Stern Sloan (2009), 24 pages"	2009	Paperback	24 p.; 10.02 inches	0.24 pounds	10.02 inches	8 inches	0.07 inches	10.02 x 0.07 x 8 inches	24	"_Picture Books, From:JenTangel, To:SandraKleinert, Country:China, 2016"	"NoLongerAvailable, 2016 Stats"	[0843125705]	"0843125705, 9780843125702"		amazon.com books	[2016-07-10]	8702637
132148459	The Girl Who Loved Wild Horses	"Goble, Paul"	Author	"Goble, Paul"	Illustrator	"Aladdin (1993), Edition: Reissue, 32 pages"	1993	Paperback	32 p.; 8 inches	0.27 pounds	8 inches	10 inches	0.2 inches	8 x 0.2 x 10 inches	32	"_Picture Books, From:JenTangel, To:LauraGass, Country:Tanzania, 2016"	"NoLongerAvailable, 2016 Stats"	[0689716966]	"0689716966, 9780689716966"		amazon.com books	[2016-07-10]	53870
132148471	The Legend of the Bluebonnet	"DePaola, Tomie"	Author			"Puffin Books (1996), Edition: Reissue, 32 pages"	1996	Paperback	32 p.; 8 inches	0.3 pounds	8 inches	10 inches	0.14 inches	8 x 0.14 x 10 inches	32	"_Picture Books, From:JenTangel, To:BettyKurz, Country:Papua NG, 2016"	"NoLongerAvailable, 2016 Stats"	[0698113594]	"0698113594, 9780698113596"		amazon.com books	[2016-07-10]	233147
132148485	Hats Hats Hats	"Morris, Ann; Heyman, Ken"	Author			"Scholastic Book Services (2008), 32 pages"	2008	Paperback	32 p.; 9.33 x 7.78 inches	0.2 pounds	7.78 inches	0.16 inches	9.33 inches	7.78 x 9.33 x 0.16 inches	32	"_Picture Books, From:JenTangel, To:BettyKurz, Country:Papua NG, 2016"	"NoLongerAvailable, 2016 Stats"	[0590448781]	"0590448781, 9780590448789"		amazon.com books	[2016-07-10]	171971
132148499	The coin counting book	"Williams, Rozanne Lanczak"	Author			Scholastic (2002)	2002	Paperback	10.9 inches	0.25 pounds	10.9 inches	0.1 inches	8.1 inches	10.9 x 8.1 x 0.1 inches		"_Picture Books, From:JenTangel, To:CarrieYu, Country:China, 2017"	"NoLongerAvailable, 2017 Stats"	[0439404789]	"0439404789, 9780439404785"		amazon.com books	[2016-07-10]	1759
132148510	tom	"De Paola, Tomie"	Author			"paperback no dj (1994), 30 pages"	1994	Paperback	30 p.; 10 inches	0.01 pounds	10 inches	0.01 inches	8 inches	10 x 8 x 0.01 inches	30	"_Picture Books, From:JenTangel, To:SandraKleinert, Country:China, 2016"	"NoLongerAvailable, 2016 Stats"	[0590480936]	"0590480936, 9780590480932"		amazon.com books	[2016-07-10]	403304
132148568	There's Something in My Attic	"Mayer, Mercer"	Author			"Puffin Books (1992), Edition: Reissue, 32 pages"	1992	Paperback	32 p.; 8.38 inches	0.26 pounds	8.38 inches	10.5 inches	0.13 inches	8.38 x 0.13 x 10.5 inches	32	"_Picture Books, From:JenTangel, To:JaclynNace, Country:China, 2016"	"NoLongerAvailable, 2016 Stats"	[0140548130]	"0140548130, 9780140548136"		amazon.com books	[2016-07-10]	96502
132148578	Let the Celebrations Begin!	"Wild, Margaret"	Author	"Vivas, Julie"	Illustrator	Orchard Books (NY) (1996)	1996	Paperback	10.98 inches	0.29 pounds	10.98 inches	0.13 inches	8.27 inches	10.98 x 8.27 x 0.13 inches		"_Picture Books, From:JenTangel, To:TeresaPaix, Country:China, 2016"	"NoLongerAvailable, 2016 Stats"	[053107076X]	"053107076X, 9780531070765"		amazon.com books	[2016-07-10]	830854
132148583	How Is a Crayon Made?	"Oz, Charles"	Author			"Scholastic Canada, Limited (1988), 28 pages"	1988	Paperback	28 p.; 8.2 inches	0.25 pounds	8.2 inches	0.1 inches	8.2 inches	8.2 x 8.2 x 0.1 inches	28	"_Picture Books, From:JenTangel, To:LauraGass, Country:Tanzania, 2016"	"NoLongerAvailable, 2016 Stats"	[059045997X]	"059045997X, 9780590459976"		amazon.com books	[2016-07-10]	548820
132148589	The Emperor and the Nightingale	"Andersen, Hans Christian"	Author	"Watling, James"	Illustrator	Troll Communications Llc (1998)	1998	Paperback	7.5 x 0.25 inches		0.25 inches	9.5 inches	7.5 inches	0.25 x 7.5 x 9.5 inches		"_Picture Books, From:JenTangel, To:TeresaPaix, Country:China, 2016"	"NoLongerAvailable, 2016 Stats"	[089375112X]	"089375112X, 9780893751128"		amazon.com books	[2016-07-10]	634559
132148602	Jorinda and Joringel	"Cutts, David"	Author			"Troll Communications Llc (1988), 32 pages"	1988	Paperback	32 p.; 7.25 x 0.25 inches	0.15 pounds	0.25 inches	9.25 inches	7.25 inches	0.25 x 7.25 x 9.25 inches	32	"_Picture Books, From:JenTangel, To:AliciaVining, Country:Indonesia, 2016"	"NoLongerAvailable, 2016 Stats"	[081671066X]	"081671066X, 9780816710669"		amazon.com books	[2016-07-10]	13694343
132148610	Gift Of The Nile - Pbk	"Mike, Jan M."	Author			"Troll Communications (1996), 32 pages"	1996	Paperback	32 p.; 8.44 inches	0.25 pounds	8.44 inches	7.88 inches	0.11 inches	8.44 x 0.11 x 7.88 inches	32	"_Picture Books, From:JenTangel, To:BettyKurz, Country:Papua NG, 2016"	"NoLongerAvailable, 2016 Stats"	[0816728143]	"0816728143, 9780816728145"		amazon.com books	[2016-07-10]	322046
132148617	Amigo	"Baylor, Byrd"	Author	"Williams, Garth"	Illustrator	"Aladdin (1989), 48 pages"	1989	Paperback	48 p.; 8.25 inches	0.3 pounds	8.25 inches	10.25 inches	0.2 inches	8.25 x 0.2 x 10.25 inches	48	"_Picture Books, From:JenTangel, To:HannahPatton, Country:SE Asia-L, 2016"	"NoLongerAvailable, 2016 Stats"	[0689712995]	"0689712995, 9780689712999"		amazon.com books	[2016-07-10]	94528
132148681	"A Humpback Whale Tale (Go, Diego, Go!)"	"Spelvin, Justin"	Adapter	"Zalme, Ron"	Illustrator	"Simon Spotlight/Nickelodeon (2006), 24 pages"	2006	Paperback	24 p.; 8 inches	0.15 pounds	8 inches	8 inches	0.1 inches	8 x 0.1 x 8 inches	24	"_Picture Books, From:JenTangel, To:TheresaLewis, Country:Mexico, 2017"	"NoLongerAvailable, 2017 Stats"	[1416915117]	"1416915117, 9781416915119"		amazon.com books	[2016-07-10]	2902621
132148688	The Paper Crane (Reading Rainbow Book)	"Bang, Molly"	Author	"Bang, Molly"	Illustrator	"Greenwillow Books (1987), Edition: Reprint, 32 pages"	1987	Paperback	32 p.; 8.88 inches	0.26 pounds	8.88 inches	7.88 inches		8.88 x 8.86 x 7.88 inches	32	"_Picture Books, From:JenTangel, To:BettyKurz, Country:Papua NG, 2016"	"NoLongerAvailable, 2016 Stats"	[0688073336]	"0688073336, 9780688073336"		amazon.com books	[2016-07-10]	324286
132148695	Hummingbird King - Pbk (Legends of the World)	Palacios	Author			"Troll Communications (1998), 32 pages"	1998	Paperback	32 p.; 7.8 inches	0.25 pounds	7.8 inches	9 inches	0.2 inches	7.8 x 0.2 x 9 inches	32	"_Picture Books, From:JenTangel, To:JasmineJayawardene, Country:Sri Lanka, 2016"	"NoLongerAvailable, 2016 Stats"	[0816730520]	"0816730520, 9780816730520"		amazon.com books	[2016-07-10]	1759526
132148711	The Bracelet	"Uchida, Yoshiko"	Author			"Puffin Books (1996), 32 pages"	1996	Paperback	32 p.; 8.06 inches	0.75 pounds	8.06 inches	9.44 inches	0.13 inches	8.06 x 0.13 x 9.44 inches	32	"_Picture Books, From:JenTangel, To:BettyKurz, Country:Papua NG, 2016"	"NoLongerAvailable, 2016 Stats"	[069811390X]	"069811390X, 9780698113909"		amazon.com books	[2016-07-10]	1381104
132148729	Some Birthday!	"Polacco, Patricia"	Author	"Polacco, Patricia"	Illustrator	"Simon & Schuster/Paula Wiseman Books (1991), 40 pages"	1991	Hardcover	40 p.; 8.5 inches	0.9 pounds	8.5 inches	10.5 inches	0.3 inches	8.5 x 0.3 x 10.5 inches	40	"_Picture Books, From:JenTangel, To:LauraGass, Country:Tanzania, 2016"	"NoLongerAvailable, 2016 Stats"	[0671727508]	"0671727508, 9780671727505"		amazon.com books	[2016-07-10]	1208937
132148738	Diego and Papi to the Rescue (Go Diego Go (8x8))	"Wax, Wendy A"	Author	"Hom, John"	Illustrator	"Simon Spotlight/Nickelodeon (2007), 24 pages"	2007	Paperback	24 p.; 8 inches	0.13 pounds	8 inches	8 inches	0.1 inches	8 x 0.1 x 8 inches	24	"_Picture Books, From:JenTangel, To:WillekeJongkind, Country:Papua Ind, 2016"	"NoLongerAvailable, 2016 Stats"	[1416927816]	"1416927816, 9781416927815"		amazon.com books	[2016-07-10]	3081633
132148747	Thunder Cake	"Polacco, Patricia"	Author			Scholastic (1990)	1990	Paperback	10.7 inches	0.25 pounds	10.7 inches	0.2 inches	8.3 inches	10.7 x 8.3 x 0.2 inches	30	"_Picture Books, From:JenTangel, To:BettyKurz, Country:Papua NG, 2016"	"NoLongerAvailable, 2016 Stats"	[0590454269]	"0590454269, 9780590454261"		amazon.com books	[2016-07-10]	74553
132148769	Helga's Dowry: A Troll Love Story	"De Paola, Tomie"	Author			"Harcourt Childrens Books (J) (1977), 32 pages"	1977	Hardcover	32 p.; 8.25 x 0.5 inches	0.55 pounds	0.5 inches	10.25 inches	8.25 inches	0.5 x 8.25 x 10.25 inches	32	"_Picture Books, From:JenTangel, To:JasmineJayawardene, Country:Sri Lanka, 2016"	"NoLongerAvailable, 2016 Stats"	[0152337016]	"0152337016, 9780152337018"		amazon.com books	[2016-07-10]	403099
132148808	The Buddy Files: The Case of the Library Monster (Book 5)	"Butler, Dori Hillestad"	Author	"Tugeau, Jeremy"	Illustrator	"Albert Whitman & Company (2012), 128 pages"	2012	Paperback	128 p.; 5.5 inches	0.35 pounds	5.5 inches	7.9 inches	0.4 inches	5.5 x 0.4 x 7.9 inches	128	"From:JenTangel, _In-Between Readers, To:RobinSmith, Country:France, 2017"	"NoLongerAvailable, 2017 Stats"	[9780807509364]	"9780807509364, 0807509361"		amazon.com books	[2016-07-10]	11006869
132148826	Asia (Geography)	"Sabin, Louis"	Author			Troll Communications Llc (1986)	1986	Paperback	6.25 x 0.25 inches		0.25 inches	8.5 inches	6.25 inches	0.25 x 6.25 x 8.5 inches		"_In-Between Readers, From:JenTangel, To:JackieKadiri, Country:Tanzania, 2016"	"NoLongerAvailable, 2016 Stats"	[0816702756]	"0816702756, 9780816702756"		amazon.com books	[2016-07-10]	3442534
132148829	Asia (Geography)	"Sabin, Louis"	Author			Troll Communications Llc (1986)	1986	Paperback	6.25 x 0.25 inches		0.25 inches	8.5 inches	6.25 inches	0.25 x 6.25 x 8.5 inches		"_In-Between Readers, From:JenTangel, To:JanetAllison, Country:Tanzania, 2017"	"NoLongerAvailable, 2017 Stats"	[0816702756]	"0816702756, 9780816702756"		amazon.com books	[2016-07-10]	3442534
132148834	Asia (Geography)	"Sabin, Louis"	Author			Troll Communications Llc (1986)	1986	Paperback	6.25 x 0.25 inches		0.25 inches	8.5 inches	6.25 inches	0.25 x 6.25 x 8.5 inches		"_In-Between Readers, From:JenTangel, To:KathyChristiansen, Country:Zimbabwe, 2017"	"NoLongerAvailable, 2017 Stats"	[0816702756]	"0816702756, 9780816702756"		amazon.com books	[2016-07-10]	3442534
132148874	Paul Bunyan and His Blue Ox (A Troll First-Start Tall Tale)	Jensen	Author			"Troll Communications (1997), 32 pages"	1997	Paperback	32 p.; 5.86 inches	0.1 pounds	5.86 inches	8.56 inches	0.09 inches	5.86 x 0.09 x 8.56 inches	32	"_Beginning Readers, From:JenTangel, To:StephanieBraun, Country:Brazil, 2016"	"NoLongerAvailable, 2016 Stats"	[0816731632]	"0816731632, 9780816731633"		amazon.com books	[2016-07-10]	2031383
132148892	Scholastic True or False: Pets	"Berger, Melvin"	Author			"Scholastic Reference (2009), 48 pages"	2009	Paperback	48 p.; 6 x 0.25 inches	0.15 pounds	0.25 inches	9 inches	6 inches	0.25 x 6 x 9 inches	48	"_Beginning Readers, From:JenTangel, 2017_inventory, To:RachelHendricks, Country:Turkey, 2018"	"NoLongerAvailable, 2018 Stats"	[0545003962]	"0545003962, 9780545003964"		amazon.com books	[2016-07-10]	8085902
132148936	Family Celebrations: Meeting Christ in Your Holidays and Special Occasions	"Hibbard, Ann"	Author			"Wolgemuth & Hyatt Pub (1988), Edition: 1st, 262 pages"	1988	Paperback	262 p.; 5.29 x 0.84 inches		0.84 inches	8.01 inches	5.29 inches	0.84 x 5.29 x 8.01 inches	262	"_Parenting, From:JenTangel, missing2017"	Missing	[0943497361]	"0943497361, 9780943497365"		amazon.com books	[2016-07-10]	589776
132148947	A Mother's Manual for Holiday Survival	"Peel, Kathy"	Author			"F O C U S Pub (1991), 135 pages"	1991	Paperback	135 p.; 8.75 x 0.25 inches		0.25 inches	11 inches	8.75 inches	0.25 x 8.75 x 11 inches	135	"_Parenting, From:JenTangel, To:BettyKurz, Country:Papua NG, 2017"	"NoLongerAvailable, 2017 Stats"	[1561790400]	"1561790400, 9781561790401"		amazon.com books	[2016-07-10]	4036
132148971	FAMILY FUN NIGHT ACTIVITIES KIT					DISNEY EDITION (2006)	2006	Paper Book	9.5 inches	1.75 pounds	9.5 inches	3.1 inches	9.4 inches	9.5 x 9.4 x 3.1 inches		"_Parenting, From:JenTangel, To:AnishaHopkinson, Country:Papua NG, 2017"	"NoLongerAvailable, 2017 Stats"	[]			amazon.com books	[2016-07-10]	18050313
132148995	East o' the Sun and West o' the Moon (Works in Translation)	"Lewis, Naomi"	Author	"Lynch, P. J.|Dasent, George Webbe"	Illustrator|Translator	"Candlewick (2005), Edition: 1st U.S. ed, 48 pages"	2005	Hardcover	48 p.; 8.96 inches	0.95 pounds	8.96 inches	10.72 inches	0.4 inches	8.96 x 0.4 x 10.72 inches	48	"_Hardback Picture Books, From:JenTangel, 2017_inventory, To:LauraLove, Country:China, 2018"	"NoLongerAvailable, 2018 Stats"	[1564020495]	"1564020495, 9781564020499"		amazon.com books	[2016-07-10]	6777611
132149002	East of the Sun and West of the Moon	"Willard, Nancy"	Author	"Moser, Barry"	Illustrator	"HMH Books for Young Readers (1989), Edition: 1st, 64 pages"	1989	Hardcover	64 p.; 11.26 inches	1.2 pounds	11.26 inches	0.43 inches	8.84 inches	11.26 x 8.84 x 0.43 inches	64	"_Hardback Picture Books, From:JenTangel, To:TeresaPaix, Country:China, 2016"	"NoLongerAvailable, 2016 Stats"	[0152247505]	"0152247505, 9780152247508"		amazon.com books	[2016-07-10]	684890
132149031	If You Give a Moose a Muffin	"Numeroff, Laura"	Author	"Bond, Felicia"	Illustrator	"HarperCollins (1991), Edition: 1st, 32 pages"	1991	Hardcover	32 p.; 8 inches	0.7 pounds	8 inches	9 inches	0.25 inches	8 x 0.25 x 9 inches	32	"_Hardback Picture Books, From:JenTangel, To:HannahPatton, Country:SE Asia-L, 2016"	"NoLongerAvailable, 2016 Stats"	[0060244054]	"0060244054, 9780060244057"		amazon.com books	[2016-07-10]	29258
132149049	Quilts Thematic Unit	"Zimmerman, Susan A."	Author			"Teacher Created Resources (1996), 80 pages"	1996	Paperback	80 p.; 11.03 inches		11.03 inches	0.25 inches	8.5 inches	11.03 x 8.5 x 0.25 inches	80	"_Education Resources, From:JenTangel, To:AliciaDarilek, Country:China, 2017"	"NoLongerAvailable, 2017 Stats"	[1557344604]	"1557344604, 9781557344601"		amazon.com books	[2016-07-10]	3215886
132149063	Fractions wipe-off fun	Troll	Author			troll (1997)	1997	Paperback	8.7 inches	0.1 pounds	8.7 inches	0.3 inches	5.5 inches	8.7 x 5.5 x 0.3 inches		"_Education Resources, From:JenTangel, 2017_inventory, To:RenessaBelohlavek, Country:Kyrgyzstan, 2018"	"NoLongerAvailable, 2018 Stats"	[0816743517]	"0816743517, 9780816743513"		amazon.com books	[2016-07-10]	10311962
132149081	"Native Americans, Grades 4-6"	"Zaun, Kathy"	Author			Instructional Fair (1994)	1994	Paperback	8.43 inches	1.11 pounds	8.43 inches	0.73 inches	5.85 inches	8.43 x 5.85 x 0.73 inches		"_Education Resources, From:JenTangel, 2017_inventory, 2018inv"	BookEnds	[1568220634]	"1568220634, 9781568220635"		amazon.com books	[2016-07-10]	12012752
132149138	Doll Play (American Girl)	"Magruder, Trula"	Author			"American Girl (2010), Edition: Act Csm No, 64 pages"	2010	Paper Book	64 p.; 7 inches	0.47 pounds	7 inches	7 inches	0.63 inches	7 x 0.63 x 7 inches	64	"_American Girl, From:JenTangel, To:AlyciaDarilek, Country:China, 2016"	"NoLongerAvailable, 2016 Stats"	[1593697961]	"1593697961, 9781593697969"		amazon.com books	[2016-07-11]	11164494
132149140	Lend a Hand (American Girl (Quality))	"Lundsten, Apryl"	Author	"Anton, Carrie|Wilber, Lisa"	Editor|Designer	"American Girl (2011), Edition: Original, 64 pages"	2011	Paperback	64 p.; 7 inches	0.39 pounds	7 inches	7 inches	0.5 inches	7 x 0.5 x 7 inches	64	"_American Girl, From:JenTangel, 2017_inventory, To:AdamDrake, Country:Togo, 2017"	"NoLongerAvailable, 2017 Stats"	[1593698275]	"1593698275, 9781593698270"		amazon.com books	[2016-07-11]	11059905
132149164	Nessa's Fish	"Luenn, Nancy"	Author	"Waldman, Neil"	Illustrator	"Macmillan/McGraw Hill (1996), 32 pages"	1996	Paperback	32 p.; 7.8 inches	1.02 pounds	7.8 inches	1 inch	5.12 inches	7.8 x 5.12 x 1 inches	32	"_Cultures, From:JenTangel, To:BettyKurz, Country:Papua NG, 2016"	"NoLongerAvailable, 2016 Stats"	[0021790604]	"0021790604, 9780021790609"		amazon.com books	[2016-07-11]	3398317
132149173	Dancing Drum (Native American Legends & Lore)	Cohlene	Author			"Troll Communications (1998), 48 pages"	1998	Paperback	48 p.; 7.72 inches	0.25 pounds	7.72 inches	8.96 inches	0.14 inches	7.72 x 0.14 x 8.96 inches	48	"_Cultures, From:JenTangel, To:BettyKurz, Country:Papua NG, 2016"	"NoLongerAvailable, 2016 Stats"	[0816723621]	"0816723621, 9780816723621"		amazon.com books	[2016-07-11]	8409024
132149177	Children of the Earth and Sky: Five Stories About Native American Children	"Krensky, Stephen"	Author	"Watling, James"	Illustrator	"Scholastic Trade (1992), Edition: English Language, 32 pages"	1992	Paperback	32 p.; 8 x 0.25 inches	0.2 pounds	0.25 inches	10.25 inches	8 inches	0.25 x 8 x 10.25 inches	32	"_Cultures, From:JenTangel, To:BettyKurz, Country:Papua NG, 2016"	"NoLongerAvailable, 2016 Stats"	[0590428535]	"0590428535, 9780590428538"		amazon.com books	[2016-07-11]	833839
132149196	Aboriginals of Australia	"Baglin, Douglas and Barbara Mullins"	Author	"photos, color"	Illustrator	"Mulavon (1984), 34 pages"	1984	Paperback	34 p.	1.74 pounds					34	"_Cultures, From:JenTangel, To:BettyKurz, Country:Papua NG, 2016"	"NoLongerAvailable, 2016 Stats"	[0858990261]	"0858990261, 9780858990265"		amazon.com books	[2016-07-11]	5106430
132149201	Legends of the Sun and Moon (Cambridge Legends)	"Hadley, Eric"	Author			"Cambridge University Press (1989), 32 pages"	1989	Paperback	32 p.; 8.82 inches		8.82 inches	11.3 inches	0.39 inches	8.82 x 0.39 x 11.3 inches	32	"_Cultures, From:JenTangel, To:TeresaPaix, Country:China, 2016"	"NoLongerAvailable, 2016 Stats"	[0521379121]	"0521379121, 9780521379120"		amazon.com books	[2016-07-11]	5948188
132149218	Ashanti to Zulu: African Traditions (Picture Puffin Books)	"Musgrove, Margaret"	Author	"Dillon, Leo|Dillon, Diane"	Illustrator|Illustrator	"Puffin Books (1992), Edition: Reprint, 32 pages"	1992	Paperback	32 p.; 8.49 inches	0.29 pounds	8.49 inches	10.48 inches	0.09 inches	8.49 x 0.09 x 10.48 inches	32	"_Cultures, From:JenTangel, To:BettyKurz, Country:Papua NG, 2016"	"NoLongerAvailable, 2016 Stats"	[0140546049]	"0140546049, 9780140546040"		amazon.com books	[2016-07-11]	23582
132149225	Sapo Enamorado (Spanish Edition)	"Velthujis, Max"	Author			"Ediciones Ekare (1994), 28 pages"	1994	Hardcover	28 p.; 9.3 inches	0.5 pounds	9.3 inches	0.32 inches	8.1 inches	9.3 x 8.1 x 0.32 inches	28	"_Cultures, From:JenTangel, To:TommiGarrick, Country:Nicaragua, 2017"	"NoLongerAvailable, 2017 Stats"	[9802571121]	"9802571121, 9789802571123"		amazon.com books	[2016-07-11]	1812329
132149229	Rehema's Journey: A Visit in Tanzania (Blue Ribbon Book)	"Margolies, Barbara A."	Author			"Scholastic Trade (1997), 32 pages"	1997	Paperback	32 p.; 8 x 0.25 inches	0.25 pounds	0.25 inches	11 inches	8 inches	0.25 x 8 x 11 inches	32	"_Cultures, From:JenTangel, To:BettyKurz, Country:Papua NG, 2016"	"NoLongerAvailable, 2016 Stats"	[0590428470]	"0590428470, 9780590428477"		amazon.com books	[2016-07-11]	3133907
132149239	A Visit to Mexico (Friends Everywhere)	"Packard, Mary"	Author			"Golden Books (1992), 1 pages"	1992	Paperback	1 p.; 8.25 x 0.5 inches	0.55 pounds	0.5 inches	8 inches	8.25 inches	0.5 x 8.25 x 8 inches	1	"_Cultures, From:JenTangel, To:BettyKurz, Country:Papua NG, 2016"	"NoLongerAvailable, 2016 Stats"	[0307626652]	"0307626652, 9780307626653"		amazon.com books	[2016-07-11]	1005548
132149243	Dara's Cambodian New Year	"Chiemruom, Sothea"	Author			"Aladdin (1994), 23 pages"	1994	Paperback	23 p.; 7.25 x 0.25 inches	0.25 pounds	0.25 inches	9.25 inches	7.25 inches	0.25 x 7.25 x 9.25 inches	23	"_Cultures, From:JenTangel, To:BettyKurz, Country:Papua NG, 2016"	"NoLongerAvailable, 2016 Stats"	[067188607X]	"067188607X, 9780671886073"		amazon.com books	[2016-07-11]	649943
132149269	Fun with Easy Origami: 32 Projects and 24 Sheets of Origami Paper (Dover Origami Papercraft) by Dover (1993) Paperback					Dover Publications (1800)	1800	Paperback								"_Activity Books, From:JenTangel, To:ShannonPanjwani, Country:India, 2016"	"NoLongerAvailable, 2016 Stats"	[]			amazon.com books	[2016-07-11]	18050338
132149274	Better Homes and Gardens Bird Buddies (Fun-to-Do Project Books)	"Gardens, Better Homes and"	Author	"Darling, Jennifer|Granseth, Sandra"	Other Contributor|Other Contributor	"Better Homes & Gardens Books (1989), Edition: 1st, 32 pages"	1989	Hardcover	32 p.; 8.6 x 0.4 inches	0.71 pounds	0.4 inches	11.3 inches	8.6 inches	0.4 x 8.6 x 11.3 inches	32	"_Activity Books, From:JenTangel, To:BeccaPlatte, Country:China, 2017"	"NoLongerAvailable, 2017 Stats"	[0696018926]	"0696018926, 9780696018923"		amazon.com books	[2016-07-11]	252355
132149284	Wee Sing More Bible Songs book	"Beall, Pamela Conn"	Author			"Price Stern Sloan (1995), 64 pages"	1995	Paperback	64 p.; 5.04 inches	0.2 pounds	5.04 inches	8.4 inches	0.19 inches	5.04 x 0.19 x 8.4 inches	64	"_Activity Books, From:JenTangel, To:JuliaDawkins, Country:Oman, 2016"	"NoLongerAvailable, 2016 Stats"	[0843138920]	"0843138920, 9780843138924"		amazon.com books	[2016-07-11]	468787
132149293	Wee Sing Sing Along book	"Beall, Pamela Conn"	Author			"Price Stern Sloan (1987), 64 pages"	1987	Paperback	64 p.; 8.42 inches	0.2 pounds	8.42 inches	5.16 inches	0.18 inches	8.42 x 0.18 x 5.16 inches	64	"_Activity Books, From:JenTangel, To:JessicaWatters, Country:China, 2016"	"NoLongerAvailable, 2016 Stats"	[0843103116]	"0843103116, 9780843103113"		amazon.com books	[2016-07-11]	380358
132149305	Wee Sing Bible Songs	"Beall, Pamela Conn"	Author	"Klein, Nancy Spence"	Illustrator	"Price Stern Sloan (1989), 64 pages"	1989	Paperback	64 p.; 8.44 inches	0.5 pounds	8.44 inches	5.42 inches	0.18 inches	8.44 x 0.18 x 5.42 inches	64	"_Activity Books, From:JenTangel, To:JaclynNace, Country:China, 2016"	"NoLongerAvailable, 2016 Stats"	[0843115661]	"0843115661, 9780843115666"		amazon.com books	[2016-07-11]	54772
132149312	Wee Sing Fun 'n' Folk book	"Beall, Pamela Conn"	Author			"Price Stern Sloan (1989), 64 pages"	1989	Paperback	64 p.; 8.42 inches		8.42 inches	5.2 inches	0.19 inches	8.42 x 0.19 x 5.2 inches	64	"_Activity Books, From:JenTangel, 2017_inventory, 2018inv"	BookEnds	[0843127600]	"0843127600, 9780843127607"		amazon.com books	[2016-07-11]	54774
132149319	Wee Sing More Bible Songs book	"Beall, Pamela Conn"	Author			"Price Stern Sloan (1995), 64 pages"	1995	Paperback	64 p.; 5.04 inches	0.2 pounds	5.04 inches	8.4 inches	0.19 inches	5.04 x 0.19 x 8.4 inches	64	"_Activity Books, From:JenTangel, To:CarrieYu, Country:China, 2017"	"NoLongerAvailable, 2017 Stats"	[0843138920]	"0843138920, 9780843138924"		amazon.com books	[2016-07-11]	468787
132149326	Wee Sing Christmas Book	"Beall, Pamela Conn"	Author			"Price Stern Sloan (1989), Edition: 1st, 62 pages"	1989	Paperback	62 p.; 7.96 inches		7.96 inches	5.16 inches	0.19 inches	7.96 x 0.19 x 5.16 inches	62	"_Activity Books, From:JenTangel, To:JoyGealsen, Country:Papua Ind, 2016"	"NoLongerAvailable, 2016 Stats"	[0843111976]	"0843111976, 9780843111972"		amazon.com books	[2016-07-11]	73462
132149332	"Wee Sing America, (Book Only)"	"Beall, Pamela Conn"	Author			"Price Stern Sloan (1994), 64 pages"	1994	Paperback	64 p.; 5.34 inches	0.2 pounds	5.34 inches	8.36 inches	0.26 inches	5.34 x 0.26 x 8.36 inches	64	"_Activity Books, From:JenTangel, 2017_inventory, 2018inv, To:SilviaEisenmann, Country:Japan, 2019"	"NoLongerAvailable, 2019 Stats"	[084313805X]	"084313805X, 9780843138054"		amazon.com books	[2016-07-11]	546137
132149372	Ralph S. Mouse	"Cleary, Beverly"	Author			"Scholastic Inc (1982), Edition: 2, 160 pages"	1982	Paperback	160 p.; 7.4 inches	0.1 pounds	7.4 inches	0.5 inches	5.1 inches	7.4 x 5.1 x 0.5 inches	160	"_Chapter Book Series, From:JenTangel, 2017_inventory, #reserve TashSharpe, Country:Indonesia, 2017"	"NoLongerAvailable, 2017 Stats"	[0590687301]	"0590687301, 9780590687300"		amazon.com books	[2016-07-11]	23208
132149387	Science-Just Add Salt	"Markle, Sandra"	Author	"Otani, June"	Illustrator	"Scholastic Trade (1995), 59 pages"	1995	Paperback	59 p.; 5.25 x 0.25 inches	0.1 pounds	0.25 inches	7.5 inches	5.25 inches	0.25 x 5.25 x 7.5 inches	59	"_Science, From:JenTangel, 2017_inventory, To:KarynMerrill, Country:France, 2018"	"NoLongerAvailable, 2018 Stats"	[0590465376]	"0590465376, 9780590465373"		amazon.com books	[2016-07-11]	514355
132149397	The Bone Detectives: How Forensic Anthropologists Solve Crimes and Uncover Mysteries of the Dead	"Jackson, Donna M."	Author			"Megan Tingley (2001), 48 pages"	2001	Paperback	48 p.; 8.5 inches		8.5 inches	11 inches	0.2 inches	8.5 x 0.2 x 11 inches	48	"_Science, From:JenTangel, To:JanetAllison, Country:Tanzania, 2017"	"NoLongerAvailable, 2017 Stats"	[0316829617]	"0316829617, 9780316829618"		amazon.com books	[2016-07-11]	1222350
132149417	Butterfly and the Bog Beast : A Book about Butterfly Camouflage (Magic School Bus)	"Krulik, Nancy"	Author	The Thompson Brothers	Illustrator	"Scholastic (1996), 32 pages"	1996	Paperback	32 p.; 8 x 0.25 inches	0.2 pounds	0.25 inches	8 inches	8 inches	0.25 x 8 x 8 inches	32	"_Science, From:JenTangel, To:ElcoVanBurg, Country:Papua Ind, 2016"	"NoLongerAvailable, 2016 Stats"	[0590508342]	"0590508342, 9780590508346"		amazon.com books	[2016-07-11]	167282
132149425	National Wildlife Refuge System Coloring Book	"Fish and Wildlife Service, U. S."	Author			"CreateSpace Independent Publishing Platform (2013), Edition: Clr, 36 pages"	2013	Paperback	36 p.; 8.5 inches	0.24 pounds	8.5 inches	11 inches	0.09 inches	8.5 x 0.09 x 11 inches	36	"_Science, From:JenTangel, 2017_inventory, 2018inv"	BookEnds	[1491014113]	"1491014113, 9781491014110"		amazon.com books	[2016-07-11]	18050365
132149431	I know how we fight germs (Sam's science)	"Rowan, Kate"	Author			Scholastic (2000)	2000	Paperback	9.6 inches	0.25 pounds	9.6 inches	0.5 inches	9 inches	9.6 x 9 x 0.5 inches		"_Science, From:JenTangel, To:BettyKurz, Country:Papua NG, 2016"	"NoLongerAvailable, 2016 Stats"	[043920710X]	"043920710X, 9780439207102"		amazon.com books	[2016-07-11]	1232363
132149454	"Found: The Secrets of Crittenden County, Book Three"	"Gray, Shelley Shepard"	Author			"Avon Inspire (2012), Edition: Original, 272 pages"	2012	Paperback	272 p.; 5.31 inches	0.4 pounds	5.31 inches	8 inches	0.61 inches	5.31 x 0.61 x 8 inches	272	"_Adult Fiction, From:JenTangel, 2017_inventory"	Discards	[0062089757]	"0062089757, 9780062089755"		amazon.com books	[2016-07-11]	12415900
132149470	Buried In Ice: A Time Quest Book	"Beattie, Owen"	Author			"Scholastic (1993), 64 pages"	1993	Paperback	64 p.; 11.02 inches	0.5 pounds	11.02 inches	0.25 inches	8.52 inches	11.02 x 8.52 x 0.25 inches	64	"_History, From:JenTangel"	Discards	[0590438492]	"0590438492, 9780590438490"		amazon.com books	[2016-07-11]	7015412
132149477	Around the World In a Hundred Years	"Fritz, Jean"	Author	"Venti, Anthony Bacon"	Illustrator	"Scholastic Inc (1994), 128 pages"	1994	Paperback	128 p.; 8.9 inches	0.6 pounds	8.9 inches	0.4 inches	6.8 inches	8.9 x 6.8 x 0.4 inches	128	"_History, From:JenTangel, To:SandraKleinert, Country:China, 2016"	"NoLongerAvailable, 2016 Stats"	[0590489100]	"0590489100, 9780590489102"		amazon.com books	[2016-07-11]	4081
132195209	The Flag of the United States (New True Books)	"Fradin, Dennis B."	Author			"Childrens Pr (1989), 48 pages"	1989	Paperback	48 p.; 7 x 0.25 inches		0.25 inches	7.75 inches	7 inches	0.25 x 7 x 7.75 inches	48	"_Beginning Readers, From:JenTangel, To:ElizabethBarrett, Country:Cambodia, 2016"	"NoLongerAvailable, 2016 Stats"	[0516411586]	"0516411586, 9780516411583"		amazon.com books	[2016-07-11]	5929202
132202143	"The Ultimate Homeschool Physical Education Game Book: Fun & Easy-To-Use Games & Activities To Help You Teach Your Children Fitness, Movement & Sport Skills"	"Bailey, Guy"	Author			"Educators Press (2003), 190 pages"	2003	Paperback	190 p.; 8.5 inches	1.2 pounds	8.5 inches	11 inches	0.45 inches	8.5 x 0.45 x 11 inches	190	"_Activity Books, From:JenTangel, To:JoyGealsen, Country:Papua Ind, 2016"	"NoLongerAvailable, 2016 Stats"	[0966972740]	"0966972740, 9780966972740"		amazon.com books	[2016-07-12]	1625122
132202152	"The Completely Amazing, Slightly Outrageous State Quarters Atlas & Album"	"Press, Klutz"	Editor			"Klutz Press (2001), 50 pages"	2001	Paper Book	50 p.; 10.04 inches	1.09 pounds	10.04 inches	0.86 inches	9.72 inches	10.04 x 9.72 x 0.86 inches	50	"_Activity Books, From:JenTangel, To:EaglesLanding, Country:USA, 2016"	"NoLongerAvailable, 2016 Stats"	[157054607X]	"157054607X, 9781570546075"		amazon.com books	[2016-07-12]	228555
132202153	Thirteen Moons on Turtle's Back	"Bruchac, Joseph"	Author			"Philomel (1992), Edition: 1St Edition, 32 pages"	1992	Hardcover	32 p.; 8.88 inches	0.9 pounds	8.88 inches	11.28 inches	0.38 inches	8.88 x 0.38 x 11.28 inches	32	"_Cultures, From:JenTangel, To:BettyKurz, Country:Papua NG, 2016"	"NoLongerAvailable, 2016 Stats"	[0399221417]	"0399221417, 9780399221415"		amazon.com books	[2016-07-12]	418229
132217264	"Snow-White and Rose-Red / by Brothers Grimm, Illustrated by Marjorie Cooper"	"Grim, Brothers"	Author	"Cooper, Marjorie"	Illustrator	"Rand McNally (1967), 28 pages"	1967	Hardcover	28 p.; 9.9 inches	0.5 pounds	9.9 inches	0.3 inches	8.1 inches	9.9 x 8.1 x 0.3 inches	28	"_Hardback Picture Books, From:JenTangel, To:NatashaEnns, Country:Indonesia, 2016"	"NoLongerAvailable, 2016 Stats"	[]			amazon.com books	[2016-07-12]	9341215
133293378	They're Off! : The Story of the Pony Express	"Harness, Cheryl"	Author	"Harness, Cheryl"	Illustrator	"Simon & Schuster Children's Publishing (1996), Edition: 1st, 32 pages"	1996	Hardcover	32 p.; 8.76 inches	0.91 pounds	8.76 inches	11.4 inches	0.37 inches	8.76 x 0.37 x 11.4 inches	32	"_Picture Books, From:JenTangel, To:RachaelMontei, Country:Papua NG, 2016"	"NoLongerAvailable, 2016 Stats"	[0689805233]	"0689805233, 9780689805233"		amazon.com books	[2016-08-14]	1506602
145598420	The Tale of the Pie and the Patty-Pan (Peter Rabbit)	"Potter, Beatrix"	Author			"Warne (2002), Edition: 100th Anniversary ed., 58 pages"	2002	Hardcover	64 p.; 4.4 inches	0.24 pounds	4.4 inches	5.7 inches	0.4 inches	4.4 x 0.4 x 5.7 inches	64	"_Beatrix Potter, From:JenTangel, To:KadieRied, Country:Indonesia, 2017"	"NoLongerAvailable, 2017 Stats"	[0723247862]	"0723247862, 9780723247869"		amazon.com books	[2017-09-02]	67476
145598430	The Tale of Samuel Whiskers (Peter Rabbit)	"Potter, Beatrix"	Author			"Warne (2002), Edition: 100th Anniversary ed., 80 pages"	2002	Hardcover	80 p.; 4.5 inches	0.28 pounds	4.5 inches	5.75 inches	0.55 inches	4.5 x 0.55 x 5.75 inches	80	"_Beatrix Potter, From:JenTangel, To:KadieRied, Country:Indonesia, 2017"	"NoLongerAvailable, 2017 Stats"	[0723247854]	"0723247854, 9780723247852"		amazon.com books	[2017-09-02]	67475
145598439	Cecily Parsley's Nursery Rhymes (Peter Rabbit)	"Potter, Beatrix"	Author			"Warne (2002), 34 pages"	2002	Hardcover	34 p.; 4.49 inches	0.2 pounds	4.49 inches	5.75 inches	0.25 inches	4.49 x 0.25 x 5.75 inches	34	"_Beatrix Potter, From:JenTangel, To:RebeccaHurley, Country:Indonesia, 2018"	"NoLongerAvailable, 2018 Stats"	[0723247927]	"0723247927, 9780723247920"		amazon.com books	[2017-09-02]	66607
145598452	The Tale of the Flopsy Bunnies (Peter Rabbit)	"Potter, Beatrix"	Author			"Warne (1987), Edition: Reprint, 64 pages"	1987	Hardcover	64 p.; 5.52 inches	0.2 pounds	5.52 inches	4.38 inches	0.29 inches	5.52 x 0.29 x 4.38 inches	64	"_Beatrix Potter, From:JenTangel, To:KadieRied, Country:Indonesia, 2017"	"NoLongerAvailable, 2017 Stats"	[0723234698]	"0723234698, 9780723234692"		amazon.com books	[2017-09-02]	57123
161118409	"Biggest, Strongest, Fastest"	"Jenkins, Steve"	Author			Houghton Mifflin harcourt Publishing Company (2009)	2009	Hardcover	10.1 inches	0.55 pounds	10.1 inches	0.3 inches	8.1 inches	10.1 x 8.1 x 0.3 inches		"_Hardback Picture Books, From:JenTangel, To:AdamDrake, Country:Togo, 2018"	"NoLongerAvailable, 2018 Stats"	[0547255578]	"0547255578, 9780547255576"		amazon.com books	[2018-10-05]	622599
161119589	"Girls to the Rescue, Book #7: Tales of Clever, Courageous Girls from Around the World"	"Lansky, Bruce"	Author			"Meadowbrook (2000), Edition: Original, 112 pages"	2000	Paperback	112 p.; 5.25 inches	0.21 pounds	5.25 inches	7.5 inches	0.5 inches	5.25 x 0.5 x 7.5 inches	112	"_Chapter Books, From:JenTangel, To:AdamDrake, Country:Togo, 2018"	"NoLongerAvailable, 2018 Stats"	[0689840799]	"0689840799, 9780689840791"		amazon.com books	[2018-10-05]	1994653
163888319	Reader's Digest Bible For Children: Timeless Stories From The Old And New Testament	"Delval, Marie-Hélène"	Adapter			"Reader's Digest (1995), 165 pages"	1995	Hardcover	165 p.; 8.94 inches	2.1 pounds	8.94 inches	11.4 inches	0.72 inches	8.94 x 0.72 x 11.4 inches	165	"_Bible-Related, From:JenTangel, To:AmyRhiger, Country:Philippines, 2018"	"NoLongerAvailable, 2018 Stats"	[0895778157]	"0895778157, 9780895778154"		amazon.com books	[2018-12-31]	192306
167515820	Russia ABCs: A Book About the People and Places of Russia (Country ABCs)	"Berge, Ann"	Author	"Yesh, Jeff"	Illustrator	"Picture Window Books (2004), 32 pages"	2004	Paperback	32 p.; 10.7 inches	0.34 pounds	10.7 inches	9 inches	0.11 inches	10.7 x 0.11 x 9 inches	32	"_Cultures, From:JenTangel"	BookEnds	[1404803602]	"1404803602, 9781404803602"		amazon.com books	[2019-04-06]	4964582
167515821	Golden Slipper - Pbk (Legends of the World)	Lum	Author			"Troll Communications (1998), 32 pages"	1998	Paperback	32 p.; 8 inches	0.2 pounds	8 inches	9 inches	0.25 inches	8 x 0.25 x 9 inches	32	"_Cultures, From:JenTangel, #reserve VickiDueker, Country:Japan, 2019"	"NoLongerAvailable, 2019 Stats"	[0816734062]	"0816734062, 9780816734061"		amazon.com books	[2019-04-06]	9914593
167515822	The Littlest Matryoshka	"Bliss, Corinne Demas"	Author	"Brown, Kathryn"	Illustrator	"Hyperion Books for Children (1900), Edition: 1st, 32 pages"	1999	Hardcover	32 p.; 9.38 inches	0.72 pounds	9.38 inches	9.38 inches	0.38 inches	9.38 x 0.38 x 9.38 inches	32	"_Cultures, From:JenTangel, #reserve VickiDueker, Country:Japan, 2019"	"NoLongerAvailable, 2019 Stats"	[0786801530]	"0786801530, 9780786801534"		amazon.com books	[2019-04-06]	3637333
167515825	The Boy of the Three-Year Nap	"Snyder, Dianne"	Author	"Say, Allen"	Illustrator	"HMH Books for Young Readers (1993), Edition: Reissue, 32 pages"	1993	Paperback	32 p.; 10.31 inches	0.2 pounds	10.31 inches	9.5 inches	0.15 inches	10.31 x 0.15 x 9.5 inches	32	"_Cultures, From:JenTangel, #reserve VickiDueker, Country:Japan, 2019"	"NoLongerAvailable, 2019 Stats"	[039566957X]	"039566957X, 9780395669570"		amazon.com books	[2019-04-06]	322183
167515835	Pets (Learn to Draw)	"Mueller, Peter"	Author			"Walter Foster (2004), 40 pages"	2004	Paperback	40 p.; 8.37 inches	0.36 pounds	8.37 inches	10.87 inches	0.13 inches	8.37 x 0.13 x 10.87 inches	40	"_Activity Books, From:JenTangel, #reserve BeverlyVos, Country:Uganda, 2019"	"NoLongerAvailable, 2019 Stats"	[1560108185]	"1560108185, 9781560108184"		amazon.com	[2019-04-06]	5872524
167515843	Hailstones and Halibut Bones: Adventures in Colour (Adventures in Color)	"O'Neill, Mary"	Author	"Wallner, John C"	Illustrator	"Bantam Doubleday Dell Publishing Group (1989), Edition: Reissue, 64 pages"	1989	Hardcover	64 p.; 9.3 inches	1.2 pounds	9.3 inches	0.4 inches	6.3 inches	9.3 x 6.3 x 0.4 inches	64	"_Poetry, From:JenTangel"	BookEnds	[0440840627]	"0440840627, 9780440840626"		amazon.co.uk	[2019-04-06]	225
167515856	"On the Banks of Plum Creek (Little House, No 4)"	"Wilder, Laura Ingalls"	Author	"Williams, Garth"	Illustrator	"HarperCollins (2008), Edition: 1, 352 pages"	2008	Paperback	352 p.; 5.16 inches	0.54 pounds	5.16 inches	7.63 inches	0.81 inches	5.16 x 0.81 x 7.63 inches	352	"_Little House Books, From:JenTangel, #reserve VickiDueker, Country:Japan, 2019"	"NoLongerAvailable, 2019 Stats"	[0064400042]	"0064400042, 9780064400046"		amazon.com	[2019-04-06]	12471
167515861	Gladys Aylward: The Adventure of a Lifetime (Christian Heroes: Then & Now)	"Benge, Janet"	Author			"YWAM Publishing (1998), 203 pages"	1998	Paperback	203 p.; 5.27 inches	0.3 pounds	5.27 inches	8.05 inches	0.55 inches	5.27 x 0.55 x 8.05 inches	203	"_Missionary Biographies, From:JenTangel, To:MaryWard, Country:Togo, 2019"	"NoLongerAvailable, 2019 Stats, Awaiting Next Box"	[1576580199]	"1576580199, 9781576580196"		amazon.com books	[2019-04-06]	66773
167515865	"Junie B., First Grader: Aloha-ha-ha! (Junie B. Jones, No. 26)"	"Park, Barbara"	Author	"Brunkus, Denise"	Illustrator	"Random House Books for Young Readers (2007), Edition: Reprint, 128 pages"	2007	Paperback	128 p.; 5.19 inches	0.2 pounds	5.19 inches	7.63 inches	0.34 inches	5.19 x 0.34 x 7.63 inches	128	"_In-Between Readers, From:JenTangel, #reserve KatieRichardson, Country:USA, 2019"	"NoLongerAvailable, 2019 Stats"	[9780375834042]	"9780375834042, 0375834044"		amazon.com books	[2019-04-06]	2542202
167515868	Just Mom and Me Having Tea: A Fun Bible Study for Mothers and Daughters	"Murray, Mary J."	Author	"Wick, Lori"	Foreword	"Harvest House Publishers (2001), Edition: 39568th, 128 pages"	2001	Paperback	128 p.; 8 inches	0.25 pounds	8 inches	8 inches	0.28 inches	8 x 0.28 x 8 inches	128	"_Bible-Related, From:JenTangel, #reserve VickiDueker, Country:Japan, 2019"	"NoLongerAvailable, 2019 Stats"	[0736904263]	"0736904263, 9780736904261"		amazon.com books	[2019-04-06]	833350
167515873	Craft Fun (Craft Fun: Five Fun-filled Books in One)	"Schoenbrun, Dianea"	Author	"Lagaret, F. William"	Photographer	Mud Puddle Books (2006)	2006	Paperback	8.2 inches	0.25 pounds	8.2 inches	0.4 inches	5.6 inches	8.2 x 5.6 x 0.4 inches		"_Activity Books, From:JenTangel"	BookEnds	[1603111840]	"1603111840, 9781603111843"		amazon.com all media	[2019-04-06]	13344956
167515876	"Hoofbeats: Margret and Flynn, 1875"	"Duey, Kathleen"	Author			"Puffin Books (2008), 176 pages"	2008	Paperback	176 p.; 5 inches	0.34 pounds	5 inches	7.7 inches	0.45 inches	5 x 0.45 x 7.7 inches	176	"_Horse Stories, From:JenTangel"	BookEnds	[0142410195]	"0142410195, 9780142410196"		amazon.com books	[2019-04-06]	3259120
167515885	Changes for Kirsten (American Girl Collection)	"Shaw, Janet"	Author			"American Girl (1988), Edition: First Edition, 80 pages"	1988	Paperback	80 p.; 6.13 inches	0.55 pounds	6.13 inches	8.5 inches	0.25 inches	6.13 x 0.25 x 8.5 inches	80	"_American Girl, From:JenTangel"	BookEnds	[0937295450]	"0937295450, 9780937295458"		amazon.com books	[2019-04-06]	444867
167515889	Meet Molly	"Tripp, Valerie"	Author	"Backes, Nick"	Illustrator	"American Girl (1988), 59 pages"	1988	Paperback	59 p.; 6.13 inches	1 pound	6.13 inches	8.5 inches	0.25 inches	6.13 x 0.25 x 8.5 inches	59	"_American Girl, From:JenTangel, #reserve DeborahHayes, Country:Bulgaria, 2019"	"NoLongerAvailable, 2019 Stats"	[0937295078]	"0937295078, 9780937295076"		amazon.com books	[2019-04-06]	166765
167515893	Molly Learns a Lesson (American Girl Collection)	"Tripp, Valerie"	Author			"American Girl (1988), Edition: Edition Unstated, 88 pages"	1988	Paperback	88 p.; 6.13 inches	1 pound	6.13 inches	8.5 inches	0.25 inches	6.13 x 0.25 x 8.5 inches	88	"_American Girl, From:JenTangel, #reserve DeborahHayes, Country:Bulgaria, 2019"	"NoLongerAvailable, 2019 Stats"	[0937295167]	"0937295167, 9780937295168"		amazon.com books	[2019-04-06]	166780
167515899	More Games and Giggles: Wild About Animals! (American Girl Library)	"Wall, Jeanette"	Author	"Meisel, Paul"	Illustrator	"Amer Girl Pub (1998), Edition: 1st, 96 pages"	1998	Paperback	96 p.; 7.25 inches	0.45 pounds	7.25 inches	9.25 inches	0.5 inches	7.25 x 0.5 x 9.25 inches	96	"_American Girl, From:JenTangel"	BookEnds	[1562476645]	"1562476645, 9781562476649"		amazon.com books	[2019-04-06]	95537
167515906	The Story of Ferdinand (Puffin Storytime)	"Leaf, Munro"	Author	"Lawson, Robert"	Illustrator	"Puffin Books (2007), Edition: Pap/Com"	2007	Paperback	7.56 inches	0.54 pounds	7.56 inches	9.28 inches	0.34 inches	7.56 x 0.34 x 9.28 inches		"_Picture Books, From:JenTangel, To:AnaPalmiter, Country:Uganda, 2019"	"NoLongerAvailable, 2019 Stats"	[0142409529]	"0142409529, 9780142409527"		amazon.com books	[2019-04-06]	4706
167515910	Alphabet Mystery	"Wood, Audrey"	Author	"Wood, Bruce"	Illustrator	"Scholastic Inc (2004), Edition: First Scholastic paperback printing, 30 pages"	2004	Paperback	30 p.	0.3 pounds					30	"_Picture Books, From:JenTangel, To:KateFlikweert, Country:Uganda, 2019"	"NoLongerAvailable, 2019 Stats"	[0439683637]	"0439683637, 9780439683630"		amazon.com books	[2019-04-06]	80620
167515911	Just Plain Fancy	"Polacco, Patricia"	Author			Bantam Books (1990)	1990	Paperback	12 inches	0.5 pounds	12 inches	0.1 inches	9 inches	12 x 9 x 0.1 inches		"_Picture Books, From:JenTangel, #reserve SolveigGuttridge, Country:Kazakhstan, 2019"	"NoLongerAvailable, 2019 Stats"	[0440843596]	"0440843596, 9780440843597"		amazon.com	[2019-04-06]	171986
170561805	Baby Animals	Shapiro	Author			Franklin Watts (1980)	1980	Hardcover	6.6 inches	0.45 pounds	6.6 inches	0.6 inches	6.2 inches	6.6 x 6.2 x 0.6 inches		"_Hardback Picture Books, From:JenTangel"	BookEnds	[0531021416]	"0531021416, 9780531021415"		amazon.com books	[2019-07-06]	4455419
170561855	A Genuine and Moste Authentic Guide: Princess: A Glittering Guide for Young Ladies	"Sparklington, Madame"	Author			"Candlewick (2006), Edition: Ina Nov, 26 pages"	2006	Hardcover	26 p.; 10.6 inches	1.4 pounds	10.6 inches	10 inches	0.79 inches	10.6 x 0.79 x 10 inches	26	"_Hardback Picture Books, From:JenTangel"	BookEnds	[9780763634308]	"9780763634308, 0763634301"		amazon.com books	[2019-07-06]	3602994
170561881	Prehistoric Pinkerton	"Kellogg, Steven"	Author			"Dial (1987), Edition: 1st, 32 pages"	1987	Hardcover	32 p.; 8.98 inches	1 pound	8.98 inches	10.94 inches	0.32 inches	8.98 x 0.32 x 10.94 inches	32	"_Hardback Picture Books, From:JenTangel, #reserve GraceDowning, Country:Indonesia, 2019"	"NoLongerAvailable, 2019 Stats"	[0803703228]	"0803703228, 9780803703223"		amazon.com books	[2019-07-06]	1335985
170561924	The Golden Egg Book	"Brown, Margaret Wise"	Author	"Weisgard, Leonard"	Illustrator	"Golden Books (1983), Edition: Reissue, 28 pages"	1975	Hardcover	28 p.; 9.75 inches	1.3 pounds	9.75 inches	12.5 inches	0.25 inches	9.75 x 0.25 x 12.5 inches	28	"_Hardback Picture Books, From:JenTangel"	BookEnds	[0307120457]	"0307120457, 9780307120458"		amazon.com books	[2019-07-06]	157084
170561955	George Shrinks	"Joyce, William"	Author			HarperTrophy (1985)	1985	Paperback	8.5 inches	0.15 pounds	8.5 inches	0.1 inches	6.4 inches	8.5 x 6.4 x 0.1 inches		"_Picture Books, From:JenTangel"	BookEnds	[059045031X]	"059045031X, 9780590450317"		amazon.com books	[2019-07-06]	272920
170561973	Bear	"Schoenherr, John"	Author			"Scholastic Paperbacks (1998), Edition: English Language"	1998	Paperback	10.6 inches	0.2 pounds	10.6 inches	0.1 inches	8.2 inches	10.6 x 8.2 x 0.1 inches		"_Picture Books, From:JenTangel"	BookEnds	[0590454064]	"0590454064, 9780590454063"		amazon.com	[2019-07-06]	171926
170561999	RAGGEDY ANN in the Snow White Castle	"Gruelle, Johnny Gruelle and Justin C"	Author			"Bobbs-Merrill (1960), Edition: Reprint, 95 pages"	1960	Hardcover	95 p.; 9.2 inches	0.75 pounds	9.2 inches	0.6 inches	6.1 inches	9.2 x 6.1 x 0.6 inches	95	"_Children's Classics, From:JenTangel"	BookEnds	[]			amazon.com books	[2019-07-06]	2578911
170562081	Scamp (Disney Classic) (Little Golden Book)	"Books, Golden"	Author	"Books, Golden"	Illustrator	"Golden/Disney (2004), Edition: First Edition, 24 pages"	2004	Hardcover	24 p.; 6.62 inches	0.25 pounds	6.62 inches	8 inches	0.18 inches	6.62 x 0.18 x 8 inches	24	"_GoldenBooks, From:JenTangel"	BookEnds	[0736423117]	"0736423117, 9780736423113"		amazon.com all media	[2019-07-06]	2282741
170562108	52 Simple Ways to Make Christmas Special	"Dargatz, Jan"	Author			"Thomas Nelson Inc (1991), 142 pages"	1991	Paperback	142 p.; 5.25 inches		5.25 inches	8 inches	0.25 inches	5.25 x 0.25 x 8 inches	142	"_Christmas, From:JenTangel, #reserve MindyCampbell, Country:SE Asia-L, 2019"	"NoLongerAvailable, 2019 Stats"	[0840795963]	"0840795963, 9780840795960"		amazon.com all media	[2019-07-06]	2109718
170562122	Ten in the Bed: Reading Together at Home Beginnings					Candlewick Press (1988)	1988	Paper Book								"_Picture Books, From:JenTangel"	BookEnds	[]			amazon.com	[2019-07-06]	23431984
170562155	Storytime: Character-Building Stories for Children	"Petz, Michelle C."	Author			Pacific Press (2008)	2008	Paperback	10.5 inches	0.6 pounds	10.5 inches	0.3 inches	8 inches	10.5 x 8 x 0.3 inches		"_Bible-Related, From:JenTangel"	BookEnds	[0816322821]	"0816322821, 9780816322824"		amazon.com books	[2019-07-06]	10188477
170562163	God's Great Power: Object Lesson (Interactive Object Lessons)	"Whims, Joette"	Author			Standard Publishing Company (1996)	1996	Paperback	10.86 inches	0.43 pounds	10.86 inches	0.23 inches	8.41 inches	10.86 x 8.41 x 0.23 inches		"_Bible-Related, From:JenTangel"	BookEnds	[0784704783]	"0784704783, 9780784704783"		amazon.com	[2019-07-06]	2372428
170710920	How to Hold a Crocodile	The Diagram Group	Author			"Firefly Books (2003), Edition: 0002-, 196 pages"	2003	Hardcover	196 p.; 8.5 inches	1.01 pounds	8.5 inches	11.25 inches	0.75 inches	8.5 x 0.75 x 11.25 inches	196	"_Activity Books, From:JenTangel"	BookEnds	[1552978052]	"1552978052, 9781552978054"		amazon.com books	[2019-07-10]	599000
172782953	The Value of Friendship: The Story of Jane Addams (Valuetales Series)	"Johnson, Ann Donegan"	Author	"Pileggi, Steve"	Illustrator	"Value Communications (1980), Edition: 1st, 63 pages"	1980	Hardcover	63 p.; 10.1 inches	0.8 pounds	10.1 inches	0.4 inches	7.9 inches	10.1 x 7.9 x 0.4 inches	63	"_Biographies, From:JenTangel"	BookEnds	[9780916392451]	"9780916392451, 0916392457"		amazon.com books	[2019-08-31]	372862
173036352	Look Again!: Animal Disguises : A Real Life Pop-Up Book	"Mirocha, Paul"	Author			"W H Freeman & Co (1994), Edition: Pop, 12 pages"	1994	Hardcover	12 p.; 7 inches		7 inches	9 inches	0.75 inches	7 x 0.75 x 9 inches	12	"_Science, From:JenTangel, #reserve NamasikuSamasumo, Country:Zambia, 2019"	"NoLongerAvailable, 2019 Stats"	[0716765357]	"0716765357, 9780716765356"		amazon.com books	[2019-09-07]	2987099
173036354	So That's How the Moon Changes Shape (Rookie Read-About Science Series)	"Fowler, Allan"	Author			"Childrens Pr (1992), 31 pages"	1992	Paperback	31 p.; 5.75 inches	0.15 pounds	5.75 inches	6.75 inches	0.25 inches	5.75 x 0.25 x 6.75 inches	31	"_Science, From:JenTangel, #reserve NamasikuSamasumo, Country:Zambia, 2019"	"NoLongerAvailable, 2019 Stats"	[0516449176]	"0516449176, 9780516449173"		amazon.com books	[2019-09-07]	534490
173036358	Mysteries and Marvels of Ocean Life (Usborne Mysteries & Marvels)	"Cork, Barbara"	Author			"Edc Pub (1984), 32 pages"	1984	Paperback	32 p.; 7.5 inches	0.27 pounds	7.5 inches	10.25 inches	0.25 inches	7.5 x 0.25 x 10.25 inches	32	"_Science, From:JenTangel, #reserve NamasikuSamasumo, Country:Zambia, 2019"	"NoLongerAvailable, 2019 Stats"	[0860207536]	"0860207536, 9780860207535"		amazon.com books	[2019-09-07]	1225296
173036364	Usborne Mysteries & Marvels of Plant Life	Scholastic	Author			"Scholastic Inc. (1995), 32 pages"	1995	Paperback	32 p.	0.25 pounds					32	"_Science, From:JenTangel, #reserve NamasikuSamasumo, Country:Zambia, 2019"	"NoLongerAvailable, 2019 Stats"	[0590225138]	"0590225138, 9780590225137"		amazon.com books	[2019-09-07]	1366672
173036386	I Wonder Why Stars Twinkle: And Other Questions About Space	"Stott, Carole"	Author			"Kingfisher (1994), Edition: 1st Amer. ed, 32 pages"	1994	Hardcover	32 p.; 1 inches	0.99 pounds	1 inch	1 inch	1 inch	1 x 1 x 1 inches	32	"_Science, From:JenTangel, #reserve NamasikuSamasumo, Country:Zambia, 2019"	"NoLongerAvailable, 2019 Stats"	[1856978818]	"1856978818, 9781856978811"		amazon.com books	[2019-09-07]	440345
173036392	I Wonder Why Snakes Shed Thier Skin and Other Questions About Reptiles	"Ganeri, Anita"	Author			"Southwestern (1995), 32 pages"	1995	Hardcover	32 p.	1 pound				11.5 x 9.4 x 0.5 inches	32	"_Science, From:JenTangel, #reserve NamasikuSamasumo, Country:Zambia, 2019"	"NoLongerAvailable, 2019 Stats"	[0871974533]	"0871974533, 9780871974532"		amazon.com books	[2019-09-07]	544917
173036397	I Wonder Why Spiders Spin Webs and Other Questions About Creepy Crawlies (I wonder why series) by Amanda O'Neill (1995-04-27)					Kingfisher Books Ltd; edition (1995-04-27) (1869)	1869	Paperback								"_Science, From:JenTangel, #reserve NamasikuSamasumo, Country:Zambia, 2019"	"NoLongerAvailable, 2019 Stats"	[]			amazon.com books	[2019-09-07]	23675805
173036399	I Wonder Why Kangaroos Have Pouches: And Other Questions About Baby Animals	"Wood, Jenny"	Author			"Kingfisher (1996), Edition: 1st, 32 pages"	1996	Hardcover	32 p.; 8.6 inches	1.04 pounds	8.6 inches	10.76 inches	0.46 inches	8.6 x 0.46 x 10.76 inches	32	"_Science, From:JenTangel, #reserve NamasikuSamasumo, Country:Zambia, 2019"	"NoLongerAvailable, 2019 Stats"	[0753450135]	"0753450135, 9780753450130"		amazon.com books	[2019-09-07]	1204308
173036404	The Kelp Forest (Habitat Series)	"Hall, Howard"	Author			Blake Pub (1990)	1990	Paperback	8.75 x 0.25 inches		0.25 inches	11.25 inches	8.75 inches	0.25 x 8.75 x 11.25 inches		"_Science, From:JenTangel, #reserve NamasikuSamasumo, Country:Zambia, 2019"	"NoLongerAvailable, 2019 Stats"	[0918303214]	"0918303214, 9780918303219"		amazon.com	[2019-09-07]	3553418
173036407	1000 Facts About the Earth	"Butterfield, Moira"	Author			"Kingfisher (1995), 48 pages"	1995	Paperback	48 p.; 9.25 inches	0.6 pounds	9.25 inches	11 inches	0.25 inches	9.25 x 0.25 x 11 inches	48	"_Science, From:JenTangel, #reserve NamasikuSamasumo, Country:Zambia, 2019"	"NoLongerAvailable, 2019 Stats"	[1856978087]	"1856978087, 9781856978088"		amazon.com books	[2019-09-07]	4014
173036408	Macmillan Animal Encyclopedia for Children	"Few, Roger"	Author			"Simon & Schuster Children's Publishing (1991), Edition: 1st American ed, 120 pages"	1991	Hardcover	120 p.; 9.25 inches	1.84 pounds	9.25 inches	11.5 inches	0.5 inches	9.25 x 0.5 x 11.5 inches	120	"_Science, From:JenTangel, #reserve NamasikuSamasumo, Country:Zambia, 2019"	"NoLongerAvailable, 2019 Stats"	[0027624250]	"0027624250, 9780027624250"		amazon.com books	[2019-09-07]	1242839
173036435	Magnification: A Pop-Up Lift-the-Flap Book	"Norden, Beth B."	Author			"Dutton Juvenile (1993), Edition: 1st, 10 pages"	1993	Hardcover	10 p.; 20 inches	0.75 pounds	20 inches	20 inches	20 inches	20 x 20 x 20 inches	10	"_Science, From:JenTangel"	BookEnds	[0525674179]	"0525674179, 9780525674177"		amazon.com books	[2019-09-07]	1849833
173036439	Mr. Wizard's Supermarket Science	"Herbert, Don"	Author	"McKie, Roy"	Illustrator	"Random House (2003), 96 pages"	1980	Paperback	96 p.; 8 inches	0.78 pounds	8 inches	10.88 inches	0.31 inches	8 x 0.31 x 10.88 inches	96	"_Science, From:JenTangel"	BookEnds	[0394838009]	"0394838009, 9780394838007"		amazon.com books	[2019-09-07]	243582
173036458	Young Scientist (Voulme 9 - Construction - Machines)	"Book, World"	Author			World Book Inc	?	Hardcover	10.7 inches	1.45 pounds	10.7 inches	0.6 inches	8.5 inches	10.7 x 8.5 x 0.6 inches		"_Science, From:JenTangel"	BookEnds	[0716627930]	"0716627930, 9780716627937"		amazon.com books	[2019-09-07]	8118167
173036468	Explosive Reactions Experiment Log	"Schreiber, Anne"	Author			"Scholastic (2000), Edition: English Language"	2000	Paperback	9.6 inches	0.3 pounds	9.6 inches	0.5 inches	7.6 inches	9.6 x 7.6 x 0.5 inches		"_Science, From:JenTangel"	BookEnds	[0439223318]	"0439223318, 9780439223317"		amazon.com	[2019-09-07]	1540082
173036476	Chemical Reactions (Material Matters)	"Baldwin, Carol"	Author			"Raintree (2004), 48 pages"	2004	Paperback	48 p.; 9.96 inches	0.41 pounds	9.96 inches	0.23 inches	7.68 inches	9.96 x 7.68 x 0.23 inches	48	"_Science, From:JenTangel"	BookEnds	[1410909360]	"1410909360, 9781410909367"		amazon.com	[2019-09-07]	3053959
173036480	Acids & Bases (Material Matters)	"Baldwin, Carol"	Author			"Raintree (2004), 48 pages"	2004	Paperback	48 p.; 9.98 inches	0.41 pounds	9.98 inches	0.2 inches	7.7 inches	9.98 x 7.7 x 0.2 inches	48	"_Science, From:JenTangel"	BookEnds	[1410909352]	"1410909352, 9781410909350"		amazon.com	[2019-09-07]	8094517
173036482	Nonmetals (Material Matters)	"Baldwin, Carol"	Author			"Raintree (2004), 48 pages"	2004	Paperback	48 p.; 7.5 x 0.5 inches	0.41 pounds	0.5 inches	9.75 inches	7.5 inches	0.5 x 7.5 x 9.75 inches	48	"_Science, From:JenTangel"	BookEnds	[1410909395]	"1410909395, 9781410909398"		amazon.com books	[2019-09-07]	6242277
173036486	States of Matter (Material Matters)	"Baldwin, Carol"	Author			"Raintree (2004), 48 pages"	2004	Paperback	48 p.; 7.5 x 0.5 inches	0.41 pounds	0.5 inches	9.75 inches	7.5 inches	0.5 x 7.5 x 9.75 inches	48	"_Science, From:JenTangel"	BookEnds	[1410909409]	"1410909409, 9781410909404"		amazon.com	[2019-09-07]	8094511
173036496	"Mixtures, Compounds & Solutions (Material Matters)"	"Baldwin, Carol"	Author			"Raintree (2004), 48 pages"	2004	Paperback	48 p.; 7.5 x 0.25 inches	0.41 pounds	0.25 inches	9.75 inches	7.5 inches	0.25 x 7.5 x 9.75 inches	48	"_Science, From:JenTangel"	BookEnds	[1410909379]	"1410909379, 9781410909374"		amazon.com	[2019-09-07]	8094510
173036505	Astronomy Today (Random House Library of Knowledge)	"Ph.D., Dinah Moche"	Author			"Random House Books for Young Readers (1982), Edition: New edition, 96 pages"	1982	Paperback	96 p.; 9 inches	0.85 pounds	9 inches	10.75 inches	0.5 inches	9 x 0.5 x 10.75 inches	96	"_Science, From:JenTangel"	BookEnds	[0394844238]	"0394844238, 9780394844237"		amazon.com	[2019-09-07]	2050921
173036513	Complete Frog: A Guide for the Very Young Naturalist	"Lacey, Elizabeth A."	Author	"Santoro, Christopher"	Illustrator	"Lothrop Lee & Shepard (1989), Edition: 1st, 72 pages"	1989	Hardcover	72 p.; 8.25 inches	1.35 pounds	8.25 inches	10.25 inches	0.5 inches	8.25 x 0.5 x 10.25 inches	72	"_Science, From:JenTangel"	BookEnds	[0688080170]	"0688080170, 9780688080174"		amazon.com books	[2019-09-07]	2681372
173036524	"Water Science: Overflowing With Facts, Stories, And 40 Water Projects"	"Seed, Deborah"	Author			"Da Capo Press (1992), 112 pages"	1992	Paperback	112 p.; 8.25 inches		8.25 inches	9.25 inches	0.25 inches	8.25 x 0.25 x 9.25 inches	112	"_Science, From:JenTangel"	BookEnds	[020157778X]	"020157778X, 9780201577785"		amazon.com books	[2019-09-07]	3365884
