54384250	King Arthur - Troll Illustrated Classics	"Pyle, Howard"		"Tiritilli, Jerry|Hinkle, Don"	Illustrator|Adapter	"Troll Communications (1998), Paperback, 48 pages"	1998	Paperback	48 p.; 10.8 inches	0.35 pounds	10.8 inches	0.3 inches	8.5 inches	10.8 x 8.5 x 0.3 inches	48	"To:AlyciaDarilek, 2013, From:JessikaLeonard"	"NoLongerAvailable, 2013 Stats"	[081671214X]	"081671214X, 9780816712144"		amazon.com	[2009-12-22]	3647630
112123230	"The Winter of Red Snow: The Revolutionary War Diary of Abigail Jane Stewart, Valley Forge, Pennsylvania, 1777 (Dear America)"	"Gregory, Kristiana"				"Scholastic Inc. (1996), Edition: Library Binding, Hardcover, 176 pages"	1996	Hardcover	176 p.; 7.66 inches	0.58 pounds	7.66 inches	0.66 inches	5.5 inches	7.66 x 5.5 x 0.66 inches	176	"_Historical Fiction, From:JessikaLeonard, To:SandraKleinert, Country:China, 2015"	"NoLongerAvailable, 2015 Stats"	[0590226533]	"0590226533, 9780590226530"		amazon.com	[2014-08-31]	167437
112123252	The Man in the Woods	"Wells, Rosemary, Illustrated by Cover Art"				"Dial Books, (1984), Edition: First Edition, Paperback"	1984	Paperback	8.43 inches	0.79 pounds	8.43 inches	0.73 inches	5.85 inches	8.43 x 5.85 x 0.73 inches		"_Chapter Books, From:JessikaLeonard, To:AmyRhiger, Country:Philippines, 2016"	"NoLongerAvailable, 2016 Stats"	[0590437321]	"0590437321, 9780590437325"		amazon.com	[2014-08-31]	1607175
