153591679	The Journeyman	"Yates, Elizabeth"	Author			"JourneyForth (1990), Edition: Revised, 161 pages"	1990	Paperback	161 p.; 5.5 inches	0.55 pounds	5.5 inches	8.5 inches	0.5 inches	5.5 x 0.5 x 8.5 inches	161	"_Historical Fiction, From:LucyOlson, To:AlisaGreene, Country:China, 2018"	"NoLongerAvailable, 2018 Stats"	[0890845352]	"0890845352, 9780890845356"		amazon.com books	[2018-03-11]	85340
153779024	A Coloring Book of the Civil War	"Archambault, Alan"	Author			"Bellerophon Books (1983), Edition: Clr Csm, 48 pages"	1983	Paperback	48 p.; 8.75 inches	0.39 pounds	8.75 inches	11 inches	0.25 inches	8.75 x 0.25 x 11 inches	48	"_History, From:LucyOlson, To:RachaelMontei, Country:Papua NG, 2018"	"NoLongerAvailable, 2018 Stats"	[0883880474]	"0883880474, 9780883880470"		amazon.com books	[2018-03-14]	1998954
154076445	Beyond Amazing: Six Spectacular Science Pop-Ups	"Young, Jay"	Author			"Harpercollins Childrens Books (1997), Edition: First Edition, 12 pages"	1997	Hardcover	12 p.; 9 inches		9 inches	12 inches	1.25 inches	9 x 1.25 x 12 inches	12	"_Science, From:LucyOlson, To:RachaelMontei, Country:Papua NG, 2018"	"NoLongerAvailable, 2018 Stats"	[0694010553]	"0694010553, 9780694010554"		amazon.com books	[2018-03-21]	344741
154076460	MindGames: Number Games	"Moscovich, Ivan"	Author			"Workman Publishing Company (2000), 24 pages"	2000	Hardcover	24 p.; 7.96 inches	0.35 pounds	7.96 inches	10 inches	0.19 inches	7.96 x 0.19 x 10 inches	24	"_Education Resources, From:LucyOlson, To:RachaelMontei, Country:Papua NG, 2018"	"NoLongerAvailable, 2018 Stats"	[0761120181]	"0761120181, 9780761120186"		amazon.com books	[2018-03-21]	137015
154076462	Probability Games and Other Activities	"Moscovich, Ivan"	Author			"Workman Publishing Company (2000), 24 pages"	2000	Other	24 p.; 8 inches	0.4 pounds	8 inches	10 inches	0.22 inches	8 x 0.22 x 10 inches	24	"_Education Resources, From:LucyOlson, To:RachaelMontei, Country:Papua NG, 2018"	"NoLongerAvailable, 2018 Stats"	[0761120173]	"0761120173, 9780761120179"		amazon.com books	[2018-03-21]	4595807
154076512	Language Smarts A1: Quick Word Activities	"Wiseman, Randy"	Author			"Critical Thinking Books & Soft (1995), 46 pages"	1995	Paperback	46 p.; 10.7 inches	0.3 pounds	10.7 inches	0.2 inches	8.5 inches	10.7 x 8.5 x 0.2 inches	46	"_Education Resources, From:LucyOlson, To:RachaelMontei, Country:Papua NG, 2018"	"NoLongerAvailable, 2018 Stats"	[0894556347]	"0894556347, 9780894556340"		amazon.com books	[2018-03-21]	1499824
154076586	"Christian Character Qualities: Creating Lasting Impressions for the Next Generation (A Heritage Builders Book : Family Night Tool Chest, Book 3)"	"Weidmann, Jim"	Author			"Chariot Victor Pub (1998), Edition: 1st, 128 pages"	1998	Paperback	128 p.; 8.75 inches		8.75 inches	11 inches	0.5 inches	8.75 x 0.5 x 11 inches	128	"_Bible-Related, From:LucyOlson, To:RachaelMontei, Country:Papua NG, 2018"	"NoLongerAvailable, 2018 Stats"	[0781430143]	"0781430143, 9780781430142"		amazon.com books	[2018-03-21]	1219402
154076594	Manet (Eyewitness Art)	"Wright, Patricia"	Author			"DK ADULT (1993), Edition: 1st American ed, 64 pages"	1993	Hardcover	64 p.; 8.9 inches	1.3 pounds	8.9 inches	11.22 inches	0.52 inches	8.9 x 0.52 x 11.22 inches	64	"_Arts, From:LucyOlson, To:RachaelMontei, Country:Papua NG, 2018"	"NoLongerAvailable, 2018 Stats"	[1564581721]	"1564581721, 9781564581723"		amazon.com books	[2018-03-21]	408922
154469925	"Mr. Revere and I: Being an Account of certain Episodes in the Career of Paul Revere,Esq. as Revealed by his Horse"	"Lawson, Robert"	Author			"Little, Brown Books for Young Readers (1988), Edition: Reprint, 152 pages"	1988	Paperback	152 p.; 5.25 inches	0.32 pounds	5.25 inches	7.65 inches	0.5 inches	5.25 x 0.5 x 7.65 inches	152	"_Historical Fiction, From:LucyOlson, To:AlisaGreene, Country:China, 2018"	"NoLongerAvailable, 2018 Stats"	[9780316517294]	"9780316517294, 0316517291"		amazon.com books	[2018-03-30]	33807
158540998	If You Take a Mouse to School (If You Give. . .)	"Numeroff, Laura"	Author	"Bond, Felicia"	Illustrator	"Scholastic (2003), 32 pages"	2003	Paperback	32 p.	0.25 pounds				8.7 x 7.8 x 0.2 inches	32	"_Picture Books, From:LucyOlson, To:AmyLoker, Country:Indonesia, 2018"	"NoLongerAvailable, 2018 Stats"	[0439442605]	"0439442605, 9780439442602"		amazon.com books	[2018-07-21]	134420
158541005	Lentil (Picture Puffin Books)	"McCloskey, Robert"	Author			"Puffin Books (1978), 64 pages"	1978	Paperback	64 p.; 7.13 inches	0.34 pounds	7.13 inches	8.88 inches	0.24 inches	7.13 x 0.24 x 8.88 inches	64	"_Picture Books, From:LucyOlson, To:BethDevine, Country:Papua NG, 2018"	"NoLongerAvailable, 2018 Stats"	[0140502874]	"0140502874, 9780140502879"		amazon.com books	[2018-07-21]	4377
158541010	Sarah's New World: The Mayflower Adventure (1620) (Sisters in Time #1)	"Reece, Colleen L."	Author			"Barbour Books (2004), 144 pages"	2004	Paperback	144 p.; 6 inches	0.5 pounds	6 inches	8.25 inches	0.5 inches	6 x 0.5 x 8.25 inches	144	"_Historical Fiction, From:LucyOlson, 2018inv"	BookEnds	[1593102038]	"1593102038, 9781593102036"		amazon.com books	[2018-07-21]	7492083
158541013	"Squanto, Friend Of The Pilgrims"	"Bulla, Clyde Robert"	Author	"Buchard, Peter"	Illustrator	"Scholastic Paperbacks (1990), Edition: Reprint, 112 pages"	1990	Paperback	112 p.; 5.28 inches	0.2 pounds	5.28 inches	7.64 inches	0.34 inches	5.28 x 0.34 x 7.64 inches	112	"_Historical Fiction, From:LucyOlson, To:JessicaSmith, Country:China, 2018"	"NoLongerAvailable, 2018 Stats"	[0590440551]	"0590440551, 9780590440554"		amazon.com books	[2018-07-21]	34166
158541025	The Story of Inventions	"McHugh, Michael"	Author			"Christian Liberty Press (1992), 354 pages"	1992	Paperback	354 p.; 6 inches	1.1 pounds	6 inches	9 inches	0.75 inches	6 x 0.75 x 9 inches	354	"_History, From:LucyOlson, #reserve GingerIvey, Country:Oman"	"NoLongerAvailable, Awaiting Next Box"	[1930092407]	"1930092407, 9781930092402"		amazon.com books	[2018-07-21]	904859
158541059	The First Anesthetic: The Story of Crawford Long	"Boland, Frank Kells"	Author			"University of Georgia Press (2009), Edition: 1, 192 pages"	2009	Paperback	192 p.; 5.5 inches	0.55 pounds	5.5 inches	8.5 inches	0.44 inches	5.5 x 0.44 x 8.5 inches	192	"_History, From:LucyOlson, 2018inv"	BookEnds	[0820334367]	"0820334367, 9780820334363"		amazon.com books	[2018-07-21]	22113835
158541088	If you sailed on the Mayflower in 1620	"McGovern, Ann"	Author			SCHOLASTIC INC. @	?	Paperback								"_History, From:LucyOlson, 2018inv"	BookEnds	[]			amazon.com books	[2018-07-21]	2945397
158541136	The Story of Chocolate (Young Reading Series 1)	"Daynes, Katie"	Author	"Larkum, Adam"	Illustrator	"Usborne Pub Ltd (2004), 48 pages"	2004	Paperback	48 p.; 5.5 inches	0.19 pounds	5.5 inches	7.75 inches	0.25 inches	5.5 x 0.25 x 7.75 inches	48	"_In-Between Readers, From:LucyOlson, To:BrandiBates, Country:Romania, 2018"	"NoLongerAvailable, 2018 Stats"	[079450759X]	"079450759X, 9780794507596"		amazon.com books	[2018-07-21]	1829607
158541150	The Magic School Bus Sees Stars: A Book About Stars	"White, Nancy"	Author	"Ruiz, Art"	Illustrator	"Scholastic (1999), 32 pages"	1999	Paperback	32 p.; 8.5 inches	0.26 pounds	8.5 inches	8.25 inches	0.25 inches	8.5 x 0.25 x 8.25 inches	32	"_Science, From:LucyOlson, To:BritannyDobbs, Country:Indonesia, 2018"	"NoLongerAvailable, 2018 Stats"	[0590187325]	"0590187325, 9780590187329"		amazon.com books	[2018-07-21]	589013
159933504	Flower Fairies of the Spring	"Barker, Cicely Mary"	Author			"Warne (2018), 56 pages"	2018	Hardcover	56 p.; 4.5 inches	0.15 pounds	4.5 inches	5.75 inches	0.34 inches	4.5 x 0.34 x 5.75 inches	56	"_Poetry, From:LucyOlson, To:ShannonPanjwani, Country:India, 2018"	"NoLongerAvailable, 2018 Stats"	[0723237530]	"0723237530, 9780723237532"		amazon.com books	[2018-08-30]	133527
159933520	Flower Fairies of the Garden	"Barker, Cicely Mary"	Author			"Warne (1991), Edition: New edition, 56 pages"	1991	Hardcover	56 p.; 4.25 inches	0.05 pounds	4.25 inches	5.68 inches	0.26 inches	4.25 x 0.26 x 5.68 inches	56	"_Poetry, From:LucyOlson, To:ShannonPanjwani, Country:India, 2018"	"NoLongerAvailable, 2018 Stats"	[0723237581]	"0723237581, 9780723237587"		amazon.com books	[2018-08-30]	95054
159933534	Flower Fairies of the Wayside	"Barker, Cicely Mary"	Author			"Warne (1991), 56 pages"	1991	Hardcover	56 p.; 5.52 inches	0.2 pounds	5.52 inches	4.44 inches	0.27 inches	5.52 x 0.27 x 4.44 inches	56	"_Poetry, From:LucyOlson, To:ShannonPanjwani, Country:India, 2018"	"NoLongerAvailable, 2018 Stats"	[0723237573]	"0723237573, 9780723237570"		amazon.com books	[2018-08-30]	209736
159933717	Flower Fairies of the Summer	"Barker, Cicely Mary"	Author			"Warne (1991), Edition: Reprint, 56 pages"	1991	Hardcover	56 p.; 4.32 inches	0.2 pounds	4.32 inches	5.75 inches	0.27 inches	4.32 x 0.27 x 5.75 inches	56	"_Poetry, From:LucyOlson, To:ShannonPanjwani, Country:India, 2018"	"NoLongerAvailable, 2018 Stats"	[0723237549]	"0723237549, 9780723237549"		amazon.com books	[2018-08-30]	209734
160900264	Picture Puzzles (Brainbenders)	"Tyler, Judy"	Author			"Edc Pub (1980), 32 pages"	1980	Paperback	32 p.; 7.5 inches		7.5 inches	8 inches	0.25 inches	7.5 x 0.25 x 8 inches	32	"_Activity Books, From:LucyOlson, To:GingerIvey, Country:Oman, 2018"	"NoLongerAvailable, 2018 Stats"	[0860204332]	"0860204332, 9780860204336"		amazon.com books	[2018-09-28]	1611787
160900469	Learn To Draw with Jon Gnagy	"Gnagy, Jon"	Author			"Jon Gnagy (1960), 64 pages"	1960	Paperback	64 p.; 11.2 inches	0.3 pounds	11.2 inches	0.4 inches	9 inches	11.2 x 9 x 0.4 inches	64	"_Activity Books, From:LucyOlson, To:GingerIvey, Country:Oman, 2018"	"NoLongerAvailable, 2018 Stats"	[]			amazon.com books	[2018-09-28]	805281
161581238	Brain Puzzles (Brainbenders)	"Tyler, Jenny"	Author			"Usborne Pub Ltd (1980), 32 pages"	1980	Paperback	32 p.; 7.5 inches		7.5 inches	8 inches	0.25 inches	7.5 x 0.25 x 8 inches	32	"_Activity Books, From:LucyOlson, To:AndiMiller, Country:Philippines, 2018"	"NoLongerAvailable, 2018 Stats"	[0860204375]	"0860204375, 9780860204374"		amazon.com books	[2018-10-19]	252356
161581246	Das große Schlösser-Malbuch						?	Paperback		1.12 pounds						"_Activity Books, From:LucyOlson, To:AndiMiller, Country:Philippines, 2018"	"NoLongerAvailable, 2018 Stats"	[3730212427]	"3730212427, 9783730212424"		amazon.com books	[2018-10-19]	22425770
161581261	Geotrivia World (Rand McNally for Kids)	"Underwood, Juliette"	Author	"Jacoby, Susan"	Illustrator	"Rand McNally (1995), 32 pages"	1995	Paperback	32 p.; 8.75 inches	0.28 pounds	8.75 inches	11 inches	0.25 inches	8.75 x 0.25 x 11 inches	32	"_Activity Books, From:LucyOlson, To:AndiMiller, Country:Philippines, 2018"	"NoLongerAvailable, 2018 Stats"	[0528837435]	"0528837435, 9780528837432"		amazon.com books	[2018-10-19]	2146187
161581265	Usborne Science Encyclopedia (Encyclopedias Series)	"Craig, Annabel"	Author			"Usborne Pub Ltd (1998), Edition: Revised, Updated, 128 pages"	1998	Paperback	128 p.; 8 inches	0.97 pounds	8 inches	10 inches	0.5 inches	8 x 0.5 x 10 inches	128	"_Science, From:LucyOlson, To:AndiMiller, Country:Philippines, 2018"	"NoLongerAvailable, 2018 Stats"	[0746030525]	"0746030525, 9780746030523"		amazon.com books	[2018-10-19]	4762
161581270	Science Encyclopedia (Pocket Guides)	"Publishing, DK"	Author			"DK Children (1998), 512 pages"	1998	Paperback	512 p.; 4.08 inches	1.1 pounds	4.08 inches	5.02 inches	1.56 inches	4.08 x 1.56 x 5.02 inches	512	"_Science, From:LucyOlson, To:AndiMiller, Country:Philippines, 2018"	"NoLongerAvailable, 2018 Stats"	[0789428717]	"0789428717, 9780789428714"		amazon.com books	[2018-10-19]	11111533
161807991	The Usborne Book of Knowledge (Children's World)	"Bremner, Tony"	Author	"Kilpatrick, Cathy"	Contributor	"Usborne Pub Ltd (1993), Edition: Expanded, 240 pages"	1993	Hardcover	240 p.; 8.75 inches	2.5 pounds	8.75 inches	11.25 inches	1 inch	8.75 x 1 x 11.25 inches	240	"_Science, From:LucyOlson, To:HannahPatton, Country:SE Asia-L, 2019"	"NoLongerAvailable, 2019 Stats"	[0746003609]	"0746003609, 9780746003602"		amazon.com books	[2018-10-27]	96457
161808046	Insects Sticker Book (Spotter's Guide Sticker Books Series)	"Wootton, Anthony"	Author	"Jackson, Ian|Weare, Phil|Groombridge, Vicki|Bladon, Rachel|Testar, Sue|Brand, Maggie"	Illustrator|Illustrator|Illustrator|Editor|Illustrator|Illustrator	"Edc Pub (1997), 24 pages"	1997	Paperback	24 p.; 8 x 0.25 inches	0.37 pounds	0.25 inches	10.5 inches	8 inches	0.25 x 8 x 10.5 inches	24	"_Science, From:LucyOlson, To:HannahPatton, Country:SE Asia-L, 2018"	"NoLongerAvailable, 2018 Stats"	[0746030037]	"0746030037, 9780746030035"		amazon.com books	[2018-10-27]	1295727
173036323	Usborne Learning Games : Reading and Counting Activities for Young Children	"Gibson, Ray"	Author			"EDC Publishing (1993), 64 pages"	1993	Paperback	64 p.; 8 inches	0.49 pounds	8 inches	10 inches	0.25 inches	8 x 0.25 x 10 inches	64	"_Activity Books, From:LucyOlson, #reserve NamasikuSamasumo, Country:Zambia, 2019"	"NoLongerAvailable, 2019 Stats"	[0746012969]	"0746012969, 9780746012963"		amazon.com books	[2019-09-07]	95384
