53580513	Rabbit Hill	"Lawson, Robert"				"Dell (1974), Paperback, 128 pages"	1974	Book								"_Chapter Books, To:KarenHall, 2013, From:RachelGloger, Country:Indonesia"	"NoLongerAvailable, 2013 Stats"	[]			amazon.com	[2009-11-28]	33988
83113378	"Go, Dog. Go! (I Can Read It All By Myself Beginner Books)"	"Eastman, P.D."				"Random House Books for Young Readers (1966), Hardcover, 72 pages"	1966	Hardcover	72 p.; 6.79 inches	0.59 pounds	6.79 inches	9.37 inches	0.43 inches	6.79 x 0.43 x 9.37 inches	72	"_Beginning Readers, To:FaithKirby, Country:CA, 2012, stats, From:RachelGloger"	"NoLongerAvailable, 2012 Stats"	[0394900200]	"0394900200, 9780394900209"		amazon.com	[2012-02-20]	29237
89948888	Henry and Mudge and the Wild Wind: The Twelfth Book of Their Adventures	"Rylant, Cynthia"				"Simon & Schuster Children's Publishing (1993), Paperback, 40 pages"	1993	Paperback	40 p.; 5.6 inches	0.15 pounds	5.6 inches	0.5 inches	0.5 inches	5.6 x 0.5 x 0.5 inches	40	"Country:Romania, 2012, From:RachelGloger, To:BrandiBates, stats"	"NoLongerAvailable, 2012 Stats"	[0590980831]	"0590980831, 9780590980838"		amazon.com	[2012-09-18]	322060
89948890	"Henry and Mudge and the Bedtime Thumps, Book 9"	"Rylant, Cynthia"		"Stevenson, Sucie"	Illustrator	"Trumpet Club (1993), Paperback, 40 pages"	1993	Paperback	40 p.; 8.3 inches	0.05 pounds	8.3 inches	0.2 inches	5.6 inches	8.3 x 5.6 x 0.2 inches	40	"Country:Romania, 2012, From:RachelGloger, To:BrandiBates, stats"	"NoLongerAvailable, 2012 Stats"	[044084956X]	"044084956X, 9780440849568"		amazon.com	[2012-09-18]	4312
89948894	What Is Soil? (Sunshine Books)	"biddulph, fred and jeane"					1995	Paperback								"Country:Romania, 2012, From:RachelGloger, To:BrandiBates, stats"	"NoLongerAvailable, 2012 Stats"	[]			amazon.com	[2012-09-18]	4534416
89948909	"Whales, Dolphins & Sharks (Nature Series-Leveled Reader, Level 2 Reader)"	"S.p.A., Edizioni Larus"				"Creative Edge (2009), Paperback"	2009	Paperback	8.5 inches	0.1 pounds	8.5 inches	0.2 inches	7.6 inches	8.5 x 7.6 x 0.2 inches		"Country:Romania, 2012, From:RachelGloger, To:BrandiBates, stats"	"NoLongerAvailable, 2012 Stats"	[]			amazon.com	[2012-09-18]	9439349
89948921	"Bugs! Bugs! Bugs! (Eyewitness Readers, Level 2: Beginning to Read Alone)"	"Dussling, Jennifer"				"DK Children (1999), Edition: 1st, Paperback, 32 pages"	1999	Paperback	32 p.; 9.06 inches	0.16 pounds	9.06 inches	0.13 inches	5.94 inches	9.06 x 5.94 x 0.13 inches	32	"Country:Romania, 2012, From:RachelGloger, To:BrandiBates, stats"	"NoLongerAvailable, 2012 Stats"	[0789434385]	"0789434385, 9780789434388"		amazon.com	[2012-09-18]	625359
89948922	Danny and the Dinosaur	"Hoff, Syd"		"Hoff, Syd"	Illustrator	"HarperCollins (1992), Edition: Reissue, Paperback, 64 pages"	1992	Paperback	64 p.; 8.96 inches	0.27 pounds	8.96 inches	0.17 inches	6.01 inches	8.96 x 6.01 x 0.17 inches	64	"Country:Romania, 2012, From:RachelGloger, To:BrandiBates, stats"	"NoLongerAvailable, 2012 Stats"	[0064440028]	"0064440028, 9780064440028"		amazon.com	[2012-09-18]	33136
89948933	Spring Is Here!: A Story About Seeds (Ready-to-Read. Pre-Level 1)	"Holub, Joan"		"Terry, Will"	Illustrator	"Simon Spotlight (2008), Edition: Original, Paperback, 24 pages"	2008	Paperback	24 p.; 8.96 inches	0.13 pounds	8.96 inches	0.08 inches	5.98 inches	8.96 x 5.98 x 0.08 inches	24	"Country:Romania, 2012, From:RachelGloger, To:BrandiBates, stats"	"NoLongerAvailable, 2012 Stats"	[1416951318]	"1416951318, 9781416951315"		amazon.com	[2012-09-18]	5190609
89948936	"DK Readers: Busy, Buzzy Bee (Level 1: Beginning to Read)"	"Wallace, Karen"				"DK CHILDREN (1999), Edition: 0, Paperback, 32 pages"	1999	Paperback	32 p.; 8.91 inches	0.2 pounds	8.91 inches	0.11 inches	5.84 inches	8.91 x 5.84 x 0.11 inches	32	"Country:Romania, 2012, From:RachelGloger, To:BrandiBates, stats"	"NoLongerAvailable, 2012 Stats"	[0789447584]	"0789447584, 9780789447586"		amazon.com	[2012-09-18]	2359853
89948940	"Journey of a Humpback Whale (Dorling Kindersley Readers, Level 2: Beginning to Read Alone)"	"Jenner, Caryn"				"DK CHILDREN (2002), Edition: 1st, Paperback, 32 pages"	2002	Paperback	32 p.; 9.02 inches	0.2 pounds	9.02 inches	0.12 inches	4.36 inches	9.02 x 4.36 x 0.12 inches	32	"Country:Romania, 2012, From:RachelGloger, To:BrandiBates, stats"	"NoLongerAvailable, 2012 Stats"	[078948515X]	"078948515X, 9780789485151"		amazon.com	[2012-09-18]	7883960
89948942	"Wake Up, Sun! (Step-Into-Reading, Step 2)"	"Harrison, David L."				"Random House Books for Young Readers (1986), Paperback, 32 pages"	1986	Paperback	32 p.; 5.98 inches	0.14 pounds	5.98 inches	9.02 inches	0.16 inches	5.98 x 0.16 x 9.02 inches	32	"Country:Romania, 2012, From:RachelGloger, To:BrandiBates, stats"	"NoLongerAvailable, 2012 Stats"	[0394882563]	"0394882563, 9780394882567"		amazon.com	[2012-09-18]	301851
89948946	"Fishy Tales (DK Readers, Pre -- Level 1)"	"Publishing, DK"				"DK CHILDREN (2003), Edition: 1st, Paperback, 32 pages"	2003	Paperback	32 p.; 9.5 inches	0.25 pounds	9.5 inches	0.1 inches	8.1 inches	9.5 x 8.1 x 0.1 inches	32	"Country:Romania, 2012, From:RachelGloger, To:BrandiBates, stats"	"NoLongerAvailable, 2012 Stats"	[0789497972]	"0789497972, 9780789497970"		amazon.com	[2012-09-18]	2407874
89948952	A House For Mouse Level 1 (All-Star Readers: Level 1)	"Shook, Babs"		"Couri, Kathy"	Illustrator	"Reader's Digest (2000), Paperback, 32 pages"	2000	Paperback	32 p.; 8.8 inches	0.2 pounds	8.8 inches	0.2 inches	5.8 inches	8.8 x 5.8 x 0.2 inches	32	"Country:Romania, 2012, From:RachelGloger, To:BrandiBates, stats"	"NoLongerAvailable, 2012 Stats"	[1575843838]	"1575843838, 9781575843834"		amazon.com	[2012-09-18]	294686
89948960	The Berenstain Bears Clean House (I Can Read Book 1)	"Berenstain, Stan"		"Berenstain, Jan"		"HarperCollins (2004), Paperback, 32 pages"	2004	Paperback	32 p.; 5.98 inches	0.16 pounds	5.98 inches	8.98 inches	0.12 inches	5.98 x 0.12 x 8.98 inches	32	"Country:Romania, 2012, From:RachelGloger, To:BrandiBates, stats"	"NoLongerAvailable, 2012 Stats"	[0060583355]	"0060583355, 9780060583354"		amazon.com	[2012-09-18]	842796
90106582	The Magic School Bus Inside a Beehive	"Cole, Joanna"		"Degan, Bruce|Degen, Bruce"	Illustrator|Illustrator	"Scholastic Inc. (1998), Edition: Reprint, Paperback, 48 pages"	1998	Paperback	48 p.; 8.91 x 8.4 inches	0.31 pounds	8.4 inches	0.11 inches	8.91 inches	8.4 x 8.91 x 0.11 inches	48	"Country:Romania, 2012, From:RachelGloger, To:BrandiBates, stats"	"NoLongerAvailable, 2012 Stats"	[0590257218]	"0590257218, 9780590257213"		amazon.com	[2012-09-22]	233152
90106605	Richard Scarry's Mr. Fixit's Mixed-Up Christmas!: A Pop-up Book with Flaps and Pull-tabs on All Sides! (Richard Scarry Pop Up)	"Scarry, Richard"				"Little Simon (2001), Edition: First Edition, Hardcover, 12 pages"	2001	Hardcover	12 p.; 10.4 inches	0.8 pounds	10.4 inches	0.6 inches	8.5 inches	10.4 x 8.5 x 0.6 inches	12	"Country:Romania, 2012, From:RachelGloger, To:BrandiBates, stats"	"NoLongerAvailable, 2012 Stats"	[0689844875]	"0689844875, 9780689844874"		amazon.com	[2012-09-22]	3892182
90106669	Oscar Otter	"Benchley, Nathaniel"				"Demco Media (1980), Turtleback"	1980	Hardcover	8.75 inches	0.5 pounds	8.75 inches	0.5 inches	5.75 inches	8.75 x 5.75 x 0.5 inches		"Country:Romania, 2012, From:RachelGloger, To:BrandiBates, stats"	"NoLongerAvailable, 2012 Stats"	[0606124675]	"0606124675, 9780606124676"		amazon.com	[2012-09-22]	95697
90106678	Sammy the Seal	"Hoff, Syd"				"Harpercollins (1959), Library Binding"	1959	Hardcover	8.4 inches	0.7 pounds	8.4 inches	0.7 inches	6.2 inches	8.4 x 6.2 x 0.7 inches		"Country:Romania, 2012, From:RachelGloger, To:BrandiBates, stats"	"NoLongerAvailable, 2012 Stats"	[0060225262]	"0060225262, 9780060225261"		amazon.com	[2012-09-22]	258361
90106694	Ten Apples on Top	"Lesieg, Theo."				"Beginner Books (1961), Hardcover"	1961	Hardcover	9 inches	0.15 pounds	9 inches	0.5 inches	6.7 inches	9 x 6.7 x 0.5 inches		"Country:Romania, 2012, From:RachelGloger, To:BrandiBates, stats"	"NoLongerAvailable, 2012 Stats"	[]			amazon.com	[2012-09-22]	210189
90106706	Wings on Things	"Brown, Marc"				"BEGINNER BOOKS, Hardcover"	?	Hardcover	9 inches	1.38 pounds	9 inches	1 inch	6 inches	9 x 6 x 1 inches		"Country:Romania, 2012, From:RachelGloger, To:BrandiBates, stats"	"NoLongerAvailable, 2012 Stats"	[]			amazon.com	[2012-09-22]	445313
90106722	Daniel's Duck	"Bulla, Clyde Robert"				"Demco Media (1982), Turtleback"	1982	Hardcover	8.5 inches	0.45 pounds	8.5 inches	0.25 inches	5.5 inches	8.5 x 5.5 x 0.25 inches		"Country:Romania, 2012, From:RachelGloger, To:BrandiBates, stats"	"NoLongerAvailable, 2012 Stats"	[060600422X]	"060600422X, 9780606004220"		amazon.com	[2012-09-22]	33135
90119611	100 Bible Stories	"Elkins, Stephen"					2005	Hardcover	208 p.; 8.4 inches	1.4 pounds	8.4 inches	1.2 inches	6.9 inches	8.4 x 6.9 x 1.2 inches	208	"_Bible-Related, From:RachelGloger, To:PhilipinesOrphanage, Country:Philippines, 2014"	"NoLongerAvailable, 2014 Stats"	[]			amazon.com	[2012-09-23]	2057944
90119635	Walt Disney's Noah's Ark	"Peterson, Walt Disney story adapted by Monique"		"Grant, Illustrations adapted by Campbell"	Illustrator		2005	Hardcover								"_Bible-Related, From:RachelGloger, To:HeidiCollins, Country:Yap, 2013"	"NoLongerAvailable, 2013 Stats"	[]			amazon.com	[2012-09-23]	3757325
90119643	Mother Goose in California	"Hansen, Doug"		"Hansen, Doug"	Illustrator	"Heyday (2009), Hardcover, 40 pages"	2009	Hardcover	40 p.; 12.28 inches	1.04 pounds	12.28 inches	0.39 inches	9.16 inches	12.28 x 9.16 x 0.39 inches	40	"_Hardback Picture Books, From:RachelGloger, To:BrandiBates, Country:Romania, 2013"	"NoLongerAvailable, 2013 Stats"	[1597141011]	"1597141011, 9781597141017"		amazon.com	[2012-09-23]	9331042
90119648	In My World	"Ehlert, Lois"				"Harcourt Children's Books (2002), Edition: 1st, Hardcover, 40 pages"	2002	Hardcover	40 p.; 8.46 inches	0.69 pounds	8.46 inches	0.43 inches	8.24 inches	8.46 x 8.24 x 0.43 inches	40	"From:RachelGloger, _Hardback Picture Books, To:TeresaPaix, Country:China, 2014"	"NoLongerAvailable, 2014 Stats"	[0152162690]	"0152162690, 9780152162696"		amazon.com	[2012-09-23]	70821
90119652	Dinosaur Bob and His Adventures with the Family Lazardo (Reading Rainbow Book)	"Joyce, William"		"Joyce, William"	Illustrator	"HarperCollins (1995), Edition: New, Hardcover, 48 pages"	1995	Hardcover	48 p.; 10.28 inches	0.93 pounds	10.28 inches	9.84 inches	0.39 inches	10.28 x 0.39 x 9.84 inches	48	"_Hardback Picture Books, From:RachelGloger, To:KarenStark, Country:CA, 2013"	"NoLongerAvailable, 2013 Stats"	[0060210745]	"0060210745, 9780060210748"		amazon.com	[2012-09-23]	414962
90119662	Who's who at the zoo?	"Weiss, Ellen"				"Western Pub. Co. Inc., in conjuction with Children's Television Workshop (1992), Hardcover, 30 pages"	1992	Hardcover	30 p.; 8.5 inches	0.25 pounds	8.5 inches	0.1 inches	7.8 inches	8.5 x 7.8 x 0.1 inches	30	"_Hardback Picture Books, From:RachelGloger, To:YapLibrary, Country:Yap, 2013"	"NoLongerAvailable, 2013 Stats"	[0307231577]	"0307231577, 9780307231574"		amazon.com	[2012-09-23]	303602
90119666	What to Expect When Mommy's Having a Baby (What to Expect Kids)	"Murkoff, Heidi"		"Rader, Laura"	Illustrator	"HarperFestival (2000), Edition: 1, Hardcover, 32 pages"	2000	Paperback	32 p.; 8.78 x 8.56 inches	0.63 pounds	8.56 inches	0.34 inches	8.78 inches	8.56 x 8.78 x 0.34 inches	32	"From:RachelGloger, _Hardback Picture Books, To:BettyKurz, Country:Papua NG, 2016"	"NoLongerAvailable, 2016 Stats"	[0694013218]	"0694013218, 9780694013210"		amazon.com	[2012-09-23]	520036
90119668	The Yawn Heard 'Round the World	"Thomas, Scott"		"Mai-Wyss, Tatjana"	Illustrator	"Tricycle Press (2003), Hardcover, 30 pages"	2003	Hardcover	30 p.; 10.28 inches	0.78 pounds	10.28 inches	8.5 inches	0.39 inches	10.28 x 0.39 x 8.5 inches	30	"From:RachelGloger, _Hardback Picture Books, To:HeidiCollins, Country:Yap, 2014"	"NoLongerAvailable, 2014 Stats"	[1582460515]	"1582460515, 9781582460512"		amazon.com	[2012-09-23]	4080901
90119677	Sleepy Time Olie	"Joyce, William"		"Joyce, William"	Illustrator	"HarperCollins (2001), Edition: First Edition, Hardcover, 40 pages"	2001	Hardcover	40 p.; 10.31 inches	1.23 pounds	10.31 inches	10.35 inches	0.39 inches	10.31 x 0.39 x 10.35 inches	40	"_Hardback Picture Books, From:RachelGloger, To:KarenStark, Country:CA, 2013"	"NoLongerAvailable, 2013 Stats"	[0060296135]	"0060296135, 9780060296131"		amazon.com	[2012-09-23]	533598
90119680	I'm a Big Brother! (Padded Large Learner)	"Books, Parragon"				"Parragon Books (2012), Edition: 1ST, Hardcover, 32 pages"	2012	Hardcover	32 p.; 10.1 inches	0.8 pounds	10.1 inches	0.4 inches	8.1 inches	10.1 x 8.1 x 0.4 inches	32	"From:RachelGloger, _Hardback Picture Books, To:MicheleFisher, Country:Japan, 2015"	"NoLongerAvailable, 2015 Stats"	[1405450231]	"1405450231, 9781405450232"		amazon.com	[2012-09-23]	4446760
90119681	"Marsupial Sue Presents ""The Runaway Pancake"": Book and CD"	"Lithgow, John"		"Davis, Jack E."	Illustrator	"Simon & Schuster Books For Young Readers (2005), Hardcover, 40 pages"	2005	Hardcover	40 p.; 11.16 inches	0.97 pounds	11.16 inches	0.32 inches	8.94 inches	11.16 x 8.94 x 0.32 inches	40	"_Hardback Picture Books, From:RachelGloger, To:YapLibrary, Country:Yap, 2013"	"NoLongerAvailable, 2013 Stats"	[0689878478]	"0689878478, 9780689878473"		amazon.com	[2012-09-23]	632438
90119686	Fisher-Price Counting Rhymes	Fisher-Price				"Modern Publishing (1998), Hardcover"	1998	Hardcover		1.4 pounds						"_Hardback Picture Books, From:RachelGloger, To:KarenStark, Country:CA, 2013"	"NoLongerAvailable, 2013 Stats"	[0766601862]	"0766601862, 9780766601864"		amazon.com	[2012-09-23]	4023728
90119689	Arf! Beg! Catch!: Dogs from A to Z	"Horenstein, Henry"				"Scholastic (1999), Hardcover, 40 pages"	1999	Hardcover	40 p.; 12.3 inches	0.95 pounds	12.3 inches	0.3 inches	9 inches	12.3 x 9 x 0.3 inches	40	"_Hardback Picture Books, From:RachelGloger, To:IVTC, Country:USA, 2013"	"NoLongerAvailable, 2013 Stats"	[0590033808]	"0590033808, 9780590033800"		amazon.com	[2012-09-23]	205791
90119697	"Yay, You! : Moving Out, Moving Up, Moving On"	"Boynton, Sandra"		"Boynton, Sandra"	Illustrator	"Little Simon (2001), Edition: 1st, Hardcover, 32 pages"	2001	Hardcover	32 p.; 8.54 x 8.48 inches	0.68 pounds	8.48 inches	0.33 inches	8.54 inches	8.48 x 8.54 x 0.33 inches	32	"From:RachelGloger, _Hardback Picture Books, To:TeresaPaix, Country:China, 2014"	"NoLongerAvailable, 2014 Stats"	[068984283X]	"068984283X, 9780689842832"		amazon.com	[2012-09-23]	149738
90119755	"She Sells Seashells by the Seashore: A Tongue Twister Story (Hello Reader! (DO NOT USE, please choose level and binding))"	"Kim, Grace"		"Hammel, Patricia"		"Scholastic (1996), Paperback"	1996	Paperback	8.92 inches	0.17 pounds	8.92 inches	0.17 inches	5.96 inches	8.92 x 5.96 x 0.17 inches		"From:RachelGloger, _Beginning Readers, To:AmyConner, Country:Kazakhstan, 2015"	"NoLongerAvailable, 2015 Stats"	[0590265849]	"0590265849, 9780590265843"		amazon.com	[2012-09-23]	134481
90119775	Hop on Pop	"Seuss, Dr.;Geisel, Theodore Seuss"				"Random House Children's Books (1963), Edition: Book Club Edition, Hardcover"	1963	Hardcover	72 p.; 9.27 inches	0.55 pounds	9.27 inches	0.4 inches	6.71 inches	9.27 x 6.71 x 0.4  inches	72	"_Beginning Readers, From:RachelGloger, Country:Indonesia, 2013, To:CyndiRichardson"	"NoLongerAvailable, 2013 Stats"	[039480029X]	"039480029X, 9780394800295"		amazon.com	[2012-09-23]	50421
90119781	Are You My Mother?	"Eastman, P.D."				"Random House Books for Young Readers (1960), Edition: 1, Hardcover, 72 pages"	1960	Hardcover	72 p.; 6.73 inches	0.6 pounds	6.73 inches	9.25 inches	0.43 inches	6.73 x 0.43 x 9.25 inches	72	"_Beginning Readers, From:RachelGloger, Country:CA, 2013, To:JessieZacek"	"NoLongerAvailable, 2013 Stats"	[0394800184]	"0394800184, 9780394800189"		amazon.com	[2012-09-23]	50276
90119783	"Go, Dog. Go! (Beginner Books)"	"Eastman, P.D."				"Random House/Beginner Books (1961), Edition: 1st, Hardcover, 72 pages"	1961	Hardcover	72 p.; 6.74 inches	0.54 pounds	6.74 inches	9.29 inches	0.46 inches	6.74 x 0.46 x 9.29 inches	72	"_Beginning Readers, From:RachelGloger, To:SabinaSchumacher, Country:Egypt, 2013"	"NoLongerAvailable, 2013 Stats"	[0394800206]	"0394800206, 9780394800202"		amazon.com	[2012-09-23]	29237
90119786	"Dancing with Manatees (Hello Reader!, Level 4)"	"McNulty, Faith"		"Shiffman, Lena"		"Cartwheel (1994), Paperback, 48 pages"	1994	Paperback	48 p.	0.17 pounds		2.27 inches	1.5 inches	8.66 x 1.5 x 2.27 inches	48	"From:RachelGloger, _Beginning Readers, To:SusanBae, Country:China, 2013"	"NoLongerAvailable, 2013 Stats"	[0590464019]	"0590464019, 9780590464017"		amazon.com	[2012-09-23]	322022
90119788	"When the Giants Came to Town (Hello Reader! (DO NOT USE, please choose level and binding))"	"Leonard, Marcia"		"Alley, R. W."	Illustrator	"Scholastic (1994), Paperback, 1 pages"	1994	Paperback	1:00 PM	0.25 pounds		2.29 inches	1.52 inches	1.52 x 2.29 inches	1	"_Beginning Readers, From:RachelGloger, To:MissiMarsden, Country:China, 2013"	"NoLongerAvailable, 2013 Stats"	[0590468928]	"0590468928, 9780590468923"		amazon.com	[2012-09-23]	134535
90119798	"Molly the Brave and Me (Step-Into-Reading, Step 3)"	"O'Connor, Jane"		"Hamanaka, Sheila"	Illustrator	"Random House Books for Young Readers (1990), Paperback, 48 pages"	1990	Paperback	48 p.; 5.98 inches	0.26 pounds	5.98 inches	9.02 inches	0.16 inches	5.98 x 0.16 x 9.02 inches	48	"_Beginning Readers, From:RachelGloger, To:YapLibrary, Country:Yap, 2013"	"NoLongerAvailable, 2013 Stats"	[0394841751]	"0394841751, 9780394841755"		amazon.com	[2012-09-23]	1723111
90119802	Who Am I? (My First Hello Reader!)	"Christensen, Nancy"		"Barnes-Murphy, Rowan"		"Cartwheel Books (1993), Edition: 1, Paperback, 32 pages"	1993	Paperback	32 p.; 8.9 inches	0.05 pounds	8.9 inches	0.1 inches	6 inches	8.9 x 6 x 0.1 inches	32	"_Beginning Readers, From:RachelGloger, To:SabinaSchumacher, Country:Egypt, 2013"	"NoLongerAvailable, 2013 Stats"	[0590461923]	"0590461923, 9780590461924"		amazon.com	[2012-09-23]	573536
90119804	Grandpa at the Beach (Mondo)	"Lewis, Rob"				"Mondo Pub (1998), Paperback, 48 pages"	1998	Paperback	48 p.; 8.3 inches	0.27 pounds	8.3 inches	0.18 inches	6.15 inches	8.3 x 6.15 x 0.18 inches	48	"From:RachelGloger, _Beginning Readers, To:AmyConner, Country:Kazakhstan, 2015"	"NoLongerAvailable, 2015 Stats"	[1572555521]	"1572555521, 9781572555525"		amazon.com	[2012-09-23]	5744082
90119807	"Dark Night, Sleepy Night: Level 1 (Easy-to-Read, Puffin)"	"Ziefert, Harriet"				"Puffin (1993), Paperback, 32 pages"	1993	Paperback	32 p.; 8.8 inches	0.15 pounds	8.8 inches	0.12 inches	5.8 inches	8.8 x 5.8 x 0.12 inches	32	"_Beginning Readers, From:RachelGloger, To:AlyciaDarilek, Country:China, 2013, stats"	"NoLongerAvailable, 2013 Stats"	[0140365389]	"0140365389, 9780140365382"		amazon.com	[2012-09-23]	2511372
90119809	Scholastic Reader Level 2: Wake Me in Spring!	"Preller, James"		"Scherer, Jeffrey"	Illustrator	"Cartwheel (1994), Paperback, 32 pages"	1994	Paperback	32 p.; 9 inches	0.14 pounds	9 inches	0.09 inches	6.08 inches	9 x 6.08 x 0.09 inches	32	"_Beginning Readers, From:RachelGloger, To:VictoriaRice, 2013, Country:China"	"NoLongerAvailable, 2013 Stats"	[0590475002]	"0590475002, 9780590475006"		amazon.com	[2012-09-23]	644950
90119811	The Silly Story of Goldie Locks and the Three Squares (Hello Reader! Math Level 2)	"Maccarone, Grace"		"Kennedy, Anne"	Illustrator	"Scholastic (1996), Paperback, 1 pages"	1996	Paperback	1 p.; 8.8 inches	0.15 pounds	8.8 inches	0.3 inches	5.7 inches	8.8 x 5.7 x 0.3 inches	1	"From:RachelGloger, _Beginning Readers, To:AlyciaDarilek, Country:China, 2014"	"NoLongerAvailable, 2014 Stats"	[059054344X]	"059054344X, 9780590543446"		amazon.com	[2012-09-23]	134517
90119816	No! No! Word Bird	"Moncure, Jane B."		"Hohag, Linda"	Illustrator	"Child's World Inc (1981), Library Binding, 32 pages"	1981	Hardcover	32 p.; 9.83 inches	0.6 pounds	9.83 inches	0.35 inches	7.58 inches	9.83 x 7.58 x 0.35 inches	32	"_Beginning Readers, From:RachelGloger, To:YapLibrary, Country:Yap, 2013"	"NoLongerAvailable, 2013 Stats"	[0895651610]	"0895651610, 9780895651617"		amazon.com	[2012-09-23]	6557216
90119821	Berenstains' A Book (Bright & Early Book.)	"Berenstain, Stan"				"Random House Books for Young Readers (1997), Hardcover"	1997	Hardcover	8.6 inches	0.2 pounds	8.6 inches	0.3 inches	6.1 inches	8.6 x 6.1 x 0.3 inches		"_Beginning Readers, From:RachelGloger, Country:CA, 2012, stats, To:LisaGeromette"	"NoLongerAvailable, 2012 Stats"	[0679987053]	"0679987053, 9780679987055"		amazon.com	[2012-09-23]	301780
90119827	It's Not Easy Being Big! (Bright & Early)	"Pierre, Stephanie St."				"Random House Books for Young Readers (1998), Hardcover, 48 pages"	1998	Hardcover	48 p.; 8.8 inches	0.3 pounds	8.8 inches	0.5 inches	6.3 inches	8.8 x 6.3 x 0.5 inches	48	"_Beginning Readers, From:RachelGloger, To:YapLibrary, Country:Yap, 2013"	"NoLongerAvailable, 2013 Stats"	[0679988106]	"0679988106, 9780679988106"		amazon.com	[2012-09-23]	179103
90119837	And to Think That I Saw It on Mulberry Street	"Seuss, Dr."				"Random House Books for Young Readers (1989), Hardcover, 40 pages"	1989	Hardcover	40 p.; 8.31 inches	0.68 pounds	8.31 inches	11.33 inches	0.42 inches	8.31 x 0.42 x 11.33 inches	40	"_Beginning Readers, From:RachelGloger, Country:China, 2012, stats, To:DarcyCoady"	"NoLongerAvailable, 2012 Stats"	[0394844947]	"0394844947, 9780394844947"		amazon.com	[2012-09-23]	308646
90119840	"Sword In The Stone, The (level 2) (Hello Reader)"	"Maccarone, Grace"		"Boddy, Joe"	Illustrator	"Cartwheel (1992), Paperback, 32 pages"	1992	Paperback	32 p.; 9.02 inches	0.14 pounds	9.02 inches	0.09 inches	6.08 inches	9.02 x 6.08 x 0.09 inches	32	"_Beginning Readers, From:RachelGloger, To:RachelDoriot, 2013, Country:Papua NG"	"NoLongerAvailable, 2013 Stats"	[0590455273]	"0590455273, 9780590455275"		amazon.com	[2012-09-23]	273055
90119844	"Thank You, Amelia Bedelia (I Can Read Book Level 2)"	"Parish, Peggy"		"Thomas, Barbara Siebel"	Illustrator	"HarperCollins (1993), Edition: Revised, Paperback, 64 pages"	1993	Paperback	64 p.; 5.51 inches	0.25 pounds	5.51 inches	8.5 inches	0.28 inches	5.51 x 0.28 x 8.5 inches	64	"_Beginning Readers, From:RachelGloger, To:TrishaCaster, Country:China, 2012, stats"	"NoLongerAvailable, 2012 Stats"	[0064441717]	"0064441717, 9780064441711"		amazon.com	[2012-09-23]	365582
90119846	"The Big Dinosaur Dig (DK Readers, Level 3)"	"Ripley, Esther"				"DK CHILDREN (2003), Paperback, 48 pages"	2003	Paperback	48 p.; 8.96 inches	0.28 pounds	8.96 inches	0.15 inches	6.38 inches	8.96 x 6.38 x 0.15 inches	48	"_Beginning Readers, From:RachelGloger, To:TrishaCaster, Country:China, 2012, stats"	"NoLongerAvailable, 2012 Stats"	[0789492903]	"0789492903, 9780789492906"		amazon.com	[2012-09-23]	2764010
90119848	"Star Wars: What Is A Wookiee? (DK Readers, Level 1)"	"Buller, Laura"				"DK CHILDREN (2005), Edition: first american edition 2005, Paperback, 32 pages"	2005	Paperback	32 p.; 8.92 inches	0.17 pounds	8.92 inches	0.1 inches	5.94 inches	8.92 x 5.94 x 0.1 inches	32	"_Beginning Readers, From:RachelGloger, To:KyleLeon, Country:Costa Rica, 2012, stats"	"NoLongerAvailable, 2012 Stats"	[0756611571]	"0756611571, 9780756611576"		amazon.com	[2012-09-23]	273140
90119853	"Great Black Heroes: Five Brave Explorers (Scholastic Reader, Level 4)"	"Hudson, Wade"		"Garnett, Ron"	Illustrator	"Cartwheel (1995), Edition: 1, Paperback, 48 pages"	1995	Paperback	48 p.; 9.04 inches	0.2 pounds	9.04 inches	0.47 inches	6.12 inches	9.04 x 6.12 x 0.47 inches	48	"From:RachelGloger, _Beginning Readers, To:BettyKurz, Country:Papua NG, 2015"	"NoLongerAvailable, 2015 Stats"	[0590480324]	"0590480324, 9780590480321"		amazon.com	[2012-09-23]	3040102
90119855	"Soccer Sam (Step into Reading, Step 4)"	"Marzollo, Jean"		"Sims, Blanche"		"Random House Books for Young Readers (1987), Paperback, 48 pages"	1987	Paperback	48 p.; 4.96 inches	0.15 pounds	4.96 inches	8.66 inches	0.16 inches	4.96 x 0.16 x 8.66 inches	48	"_Beginning Readers, From:RachelGloger, To:KatrinaShedd, Country:China, 2013"	"NoLongerAvailable, 2013 Stats"	[039488406X]	"039488406X, 9780394884066"		amazon.com	[2012-09-23]	528684
90119859	Look! I Can Read!	"Hood, Susan"				"Scholastic (2000), Paperback, 32 pages"	2000	Paperback	32 p.; 8.7 inches	0.2 pounds	8.7 inches	0.2 inches	6 inches	8.7 x 6 x 0.2 inches	32	"_Beginning Readers, From:RachelGloger, To:IVTC, Country:USA, 2013"	"NoLongerAvailable, 2013 Stats"	[043926720X]	"043926720X, 9780439267205"		amazon.com	[2012-09-23]	7460482
90119865	Martin and the Tooth Fairy (School Friends)	"Chardiet, Bernice"		"MacCarone, Grace"		"Scholastic Paperbacks (1991), Edition: First Edition, Paperback"	1991	Paperback	7.5 inches	0.1 pounds	7.5 inches	0.1 inches	5.1 inches	7.5 x 5.1 x 0.1 inches		"_In-Between Readers, From:RachelGloger, To:Kako, 2013, Country:USA"	"NoLongerAvailable, 2013 Stats"	[0590433059]	"0590433059, 9780590433051"		amazon.com	[2012-09-23]	1020915
90119868	The Twiddle Twins' Music Box Mystery	"Goldsmith, Howard"		"Jordan, Charles"	Illustrator	"Mondo Pub (1997), Paperback, 40 pages"	1997	Paperback								"_In-Between Readers, From:RachelGloger, To:JillKasowski, 2013, Country:China"	"NoLongerAvailable, 2013 Stats"	[1572554754]	"1572554754, 9781572554757"		amazon.com	[2012-09-23]	8030768
90119870	The Trouble With Herbert	"Eyles, Heather"		"Smith, Wendy"	Illustrator	"Mondo-Tronics (1996), Paperback, 63 pages"	1996	Paperback								"_In-Between Readers, From:RachelGloger, To:JillKasowski, 2013, Country:China"	"NoLongerAvailable, 2013 Stats"	[1572552182]	"1572552182, 9781572552180"		amazon.com	[2012-09-23]	1424512
90119873	"Three Pigs, One Wolf, Seven Magic Shapes (level 3) (Scholastic Reader, Math)"	"Maccarone, Grace"		"Neuhaus, David"	Illustrator	"Cartwheel (1998), Paperback, 32 pages"	1998	Paperback	32 p.; 9.08 inches	0.16 pounds	9.08 inches	0.11 inches	6.06 inches	9.08 x 6.06 x 0.11 inches	32	"_In-Between Readers, From:RachelGloger, To:Kako, 2013"	NoLongerAvailable	[0590308572]	"0590308572, 9780590308571"		amazon.com	[2012-09-23]	1105111
90119897	"26 Fairmount Avenue (Newbery Honor Book, 2000)"	"dePaola, Tomie"		"dePaola, Tomie"	Illustrator	"Puffin (2001), Paperback, 80 pages"	2001	Paperback	80 p.; 7.5 inches	0.15 pounds	7.5 inches	0.3 inches	5 inches	7.5 x 5 x 0.3 inches	80	"_In-Between Readers, From:RachelGloger, To:VictoriaRice, Country:China, 2013"	"NoLongerAvailable, 2013 Stats"	[0698118642]	"0698118642, 9780698118645"		amazon.com	[2012-09-23]	32716
90119902	Amber Brown Sees Red	"Danziger, Paula / illust by Tony Ross"				"scholastic 1997 (1997), Edition: First Edition, Paperback"	1997	Paperback	8.43 inches	0.79 pounds	8.43 inches	0.73 inches	5.85 inches	8.43 x 5.85 x 0.73 inches	130	"_Chapter Books, From:RachelGloger, To:KatrinaShedd, Country:China, 2013"	"NoLongerAvailable, 2013 Stats"	[0590947281]	"0590947281, 9780590947282"		amazon.com	[2012-09-23]	94518
90119905	Amber Brown Goes Fourth	"Danziger, Paula"		"Ross, Tony"	Illustrator	"Scholastic Paperbacks (1996), Mass Market Paperback, 112 pages"	1996	Paperback	112 p.; 7.67 inches	0.18 pounds	7.67 inches	0.52 inches	5.33 inches	7.67 x 5.33 x 0.52 inches	112	"From:RachelGloger, _In-Between Readers, To:JessicaAmis, Country:Turkey, 2016"	"NoLongerAvailable, 2016 Stats"	[0590934252]	"0590934252, 9780590934251"		amazon.com	[2012-09-23]	94515
90119907	Amber Brown Is Not a Crayon	"Danziger, Paula"		"Ross, Tony"	Illustrator	"Scholastic Paperbacks (1995), Paperback, 80 pages"	1995	Paperback	80 p.; 7.52 inches	0.13 pounds	7.52 inches	0.2 inches	5.36 inches	7.52 x 5.36 x 0.2 inches	80	"From:RachelGloger, _In-Between Readers, To:VictoriaRice, Country:China, 2014"	"NoLongerAvailable, 2014 Stats"	[059045899X]	"059045899X, 9780590458993"		amazon.com	[2012-09-23]	94517
90119910	"Right On, Winky Blue! (Mondo)"	"Jane, Pamela"		"Tilley, Debbie"	Illustrator	"Mondo Pub (2000), Paperback, 64 pages"	2000	Paperback	64 p.; 7.4 inches	0.15 pounds	7.4 inches	0.1 inches	5 inches	7.4 x 5 x 0.1 inches	64	"_Chapter Books, From:RachelGloger, To:YapLibrary, Country:Yap, 2013"	"NoLongerAvailable, 2013 Stats"	[1572556234]	"1572556234, 9781572556232"		amazon.com	[2012-09-23]	9092516
90119913	Amber Brown Wants Extra Credit	"Danziger, Paula"		"Ross, Tony"	Illustrator	"Scholastic Paperbacks (1997), Paperback, 128 pages"	1997	Paperback	128 p.	0.2 pounds		2.03 inches	1.27 inches	7.4 x 1.27 x 2.03 inches	128	"From:RachelGloger, _In-Between Readers, To:JessicaAmis, Country:Turkey, 2016"	"NoLongerAvailable, 2016 Stats"	[0590947168]	"0590947168, 9780590947169"		amazon.com	[2012-09-23]	94519
90119924	The Whispering Rabbit (A Little Golden Book)	"Brown, Margaret Wise"		"Szekeres, Cyndy"	Illustrator	"Golden Books (1997), Hardcover, 24 pages"	1997	Hardcover	24 p.; 7.7 inches	0.2 pounds	7.7 inches	0.3 inches	6.5 inches	7.7 x 6.5 x 0.3 inches	24	"_GoldenBooks, From:RachelGloger, Country:Yap, 2013, To:HeidiCollins"	"NoLongerAvailable, 2013 Stats"	[0307001385]	"0307001385, 9780307001382"		amazon.com	[2012-09-23]	503182
90119931	The Poky Little Puppy (A Little Golden Book Classic)	"Lowrey, Janette Sebring"		"Tenggren, Gustaf"	Illustrator	"Golden Books (2001), Edition: 1, Hardcover, 24 pages"	2001	Hardcover	24 p.; 6.42 inches	0.26 pounds	6.42 inches	7.8 inches	0.2 inches	6.42 x 0.2 x 7.8 inches	24	"From:RachelGloger, _GoldenBooks, To:AmyGerst, Country:Ethiopia, 2014"	"NoLongerAvailable, 2014 Stats"	[0307021343]	"0307021343, 9780307021342"		amazon.com	[2012-09-23]	34525
90119936	The Little Red Hen (Little Golden Book)	"Muldrow, Diane"		"Miller, J.P."	Illustrator	"Golden Books (2001), Hardcover, 24 pages"	2001	Hardcover	24 p.; 6.5 inches	0.26 pounds	6.5 inches	7.8 inches	0.2 inches	6.5 x 0.2 x 7.8 inches	24	"_GoldenBooks, From:RachelGloger, To:LisaGeromette, Country:CA, 2012, stats"	NoLongerAvailable	[0307960307]	"0307960307, 9780307960306"		amazon.com	[2012-09-23]	553224
90119942	Walt Disney's Dumbo: A Little Golden Book	"Slater, Teddy"		"Dias, Ron|Guenther, Annie"	Illustrator|Illustrator	"Golden Books (1988), Edition: 1st, Hardcover, 111 pages"	1988	Hardcover	111 p.; 7.7 inches	0.25 pounds	7.7 inches	0.1 inches	6.5 inches	7.7 x 6.5 x 0.1 inches	111	"From:RachelGloger, _GoldenBooks, Country:Madagascar, 2015, To:RebekahPotgieter"	"NoLongerAvailable, 2015 Stats"	[0307010406]	"0307010406, 9780307010407"		amazon.com	[2012-09-23]	12268817
90119955	The Saggy Baggy Elephant (Little Golden Book)	"Jackson, K."		"Jackson, B.|Tenggren"	|Illustrator	"Golden Books (1999), Edition: 1, Hardcover, 24 pages"	1999	Hardcover	24 p.; 6.5 inches	0.26 pounds	6.5 inches	7.8 inches	0.2 inches	6.5 x 0.2 x 7.8 inches	24	"_GoldenBooks, From:RachelGloger, Country:Yap, 2013, To:HeidiCollins"	"NoLongerAvailable, 2013 Stats"	[0307021106]	"0307021106, 9780307021106"		amazon.com	[2012-09-23]	167364
90119982	The Quicksand Question (A to Z Mysteries)	"Roy, Ron"				"Unknown (2002), Paperback, 80 pages"	2002	Paperback	80 p.; 7.4 inches	0.15 pounds	7.4 inches	0.3 inches	5.2 inches	7.4 x 5.2 x 0.3 inches	80	"From:RachelGloger, _In-Between Readers, To:VictoriaRice, Country:China, 2014"	"NoLongerAvailable, 2014 Stats"	[0439444640]	"0439444640, 9780439444644"		amazon.com	[2012-09-23]	1270680
90119987	The New Baby at Your House	"Cole, Joanna"		"Miller, Margaret"	Illustrator	"HarperCollins (1999), Edition: Revised, Paperback, 48 pages"	1999	Paperback	48 p.; 7.99 inches	0.31 pounds	7.99 inches	8.98 inches	0.16 inches	7.99 x 0.16 x 8.98 inches	48	"_Picture Books, From:RachelGloger, To:YapLibrary, Country:Yap, 2013"	"NoLongerAvailable, 2013 Stats"	[0688166989]	"0688166989, 9780688166984"		amazon.com	[2012-09-23]	1009056
90119990	The Three Little Pigs (Reading Railroad Books)	"Marshall, James"		"Marshall, James"	Illustrator	"Grosset & Dunlap (2000), Edition: 1, Mass Market Paperback, 32 pages"	2000	Paperback	32 p.; 8.02 x 8 inches	0.2 pounds	8 inches	0.13 inches	8.02 inches	8 x 8.02 x 0.13 inches	32	"From:RachelGloger, _Picture Books, To:BrandiBates, 2014, Country:Romania"	"NoLongerAvailable, 2014 Stats"	[0448422883]	"0448422883, 9780448422886"		amazon.com	[2012-09-23]	273111
90119991	Do Pirates Take Baths?	"Tucker, Kathy"		"Westcott, Nadine"		"Albert Whitman & Company (1997), Edition: Reprint, Paperback, 32 pages"	1997	Paperback	32 p.; 7.99 inches	0.25 pounds	7.99 inches	10 inches	0.12 inches	7.99 x 0.12 x 10 inches	32	"_Picture Books, From:RachelGloger, Country:Yap, 2013, To:HeidiCollins"	"NoLongerAvailable, 2013 Stats"	[080751697X]	"080751697X, 9780807516973"		amazon.com	[2012-09-23]	272897
90119995	Pirate Potty	"Berger, Samantha"		"Cartwright, Amy"	Illustrator	"Cartwheel Books (2010), Paperback, 24 pages"	2010	Paperback	24 p.; 7.94 x 7.08 inches	0.35 pounds	7.08 inches	0.19 inches	7.94 inches	7.08 x 7.94 x 0.19 inches	24	"_Picture Books, From:RachelGloger, Country:Romania, 2012, To:BrandiBates, stats"	"NoLongerAvailable, 2012 Stats"	[0545172950]	"0545172950, 9780545172950"		amazon.com	[2012-09-23]	9745102
90119997	In the city (Beginning literacy)	"Pasternac, Susana"				"Scholastic (1994), Paperback, 16 pages"	1994	Paperback	16 p.; 8 inches	0.25 pounds	8 inches	0.1 inches	6 inches	8 x 6 x 0.1  inches	16	"From:RachelGloger, _Picture Books, To:DebbiSkinner, Country:China, 2014"	"NoLongerAvailable, 2014 Stats"	[0590273728]	"0590273728, 9780590273725"		amazon.com	[2012-09-23]	6757237
90119999	Monster for Hire	"Wilson, Trevor"		"Newey, Regina"	Illustrator	"Mondo Publishing (1995), Paperback, 32 pages"	1995	Paperback	32 p.; 9.53 inches	0.19 pounds	9.53 inches	0.12 inches	7.3 inches	9.53 x 7.3 x 0.12 inches	32	"_Picture Books, From:RachelGloger, To:YapLibrary, Country:Yap, 2013"	"NoLongerAvailable, 2013 Stats"	[1879531615]	"1879531615, 9781879531611"		amazon.com	[2012-09-23]	6033351
90120007	Fortunately	"Charlip, Remy"		"Charlip, Remy"	Illustrator	"Aladdin (1993), Paperback, 48 pages"	1993	Paperback	48 p.; 7.01 inches	0.3 pounds	7.01 inches	9.96 inches	0.16 inches	7.01 x 0.16 x 9.96 inches	48	"_Picture Books, From:RachelGloger, To:DarcyCoady, Country:China, 2012, stats"	"NoLongerAvailable, 2012 Stats"	[0689716605]	"0689716605, 9780689716607"		amazon.com	[2012-09-23]	175836
90120009	disney pixar treasury a collection of short stories	Disney				"disney press (2006), Paperback"	2006	Paperback	9.3 inches	0.35 pounds	9.3 inches	0.2 inches	7.3 inches	9.3 x 7.3 x 0.2 inches		"_Picture Books, From:RachelGloger, To:IVTC, Country:USA, 2013"	"NoLongerAvailable, 2013 Stats"	[1423107136]	"1423107136, 9781423107132"		amazon.com	[2012-09-23]	12478217
90120012	One Hundred Hungry Ants	"Pinczes, Elinor J"		"Pinczes, Elinor|MacKain, Bonnie"	|Illustrator	"Sandpiper (1999), Edition: Reprint, Paperback, 32 pages"	1999	Paperback	32 p.; 8.82 inches	0.26 pounds	8.82 inches	7.91 inches	0.16 inches	8.82 x 0.16 x 7.91 inches	32	"_Picture Books, From:RachelGloger, Country:CA, 2012, stats, To:LisaGeromette"	"NoLongerAvailable, 2012 Stats"	[0395971233]	"0395971233, 9780395971239"		amazon.com	[2012-09-23]	1699
90120016	Love You Forever	"Munsch, Robert"		"McGraw, Sheila"	Illustrator	"Firefly Books Ltd. (1995), Paperback, 32 pages"	1995	Paperback	32 p.; 8.07 inches	0.2 pounds	8.07 inches	8.07 inches	0.16 inches	8.07 x 0.16 x 8.07 inches	32	"_Picture Books, From:RachelGloger, To:FaithKirby, Country:CA, 2012, stats"	"NoLongerAvailable, 2012 Stats"	[0920668372]	"0920668372, 9780920668375"		amazon.com	[2012-09-23]	3964
90120018	Old Woman Who Lived in a Vinegar Bottle [Paperback]	"DOUGLAS, ANN"				"MONDO (1987), Paperback, 24 pages"	1987	Paperback							24	"_Picture Books, From:RachelGloger, To:YapLibrary, Country:Yap, 2013"	"NoLongerAvailable, 2013 Stats"	[1572551852]	"1572551852, 9781572551855"		amazon.com	[2012-09-23]	5789715
90120019	Lucy Takes a Holiday	"Murdocca, Sal"				"Mondo Pub (1998), Paperback"	1998	Paperback	10.66 inches	0.35 pounds	10.66 inches	0.2 inches	8.5 inches	10.66 x 8.5 x 0.2 inches		"_Picture Books, From:RachelGloger, To:YapLibrary, Country:Yap, 2013"	"NoLongerAvailable, 2013 Stats"	[1572555610]	"1572555610, 9781572555617"		amazon.com	[2012-09-23]	3614643
90120021	I'm a Big Sister	"Cole, Joanna"		"Chambliss, Maxie"	Illustrator	"HarperCollins (1997), Hardcover, 32 pages"	1997	Hardcover	32 p.; 6.89 inches	0.4 pounds	6.89 inches	6.14 inches	0.28 inches	6.89 x 0.28 x 6.14 inches	32	"From:RachelGloger, _Hardback Picture Books, Country:Madagascar, 2015, To:RebekahPotgieter"	"NoLongerAvailable, 2015 Stats"	[0688145094]	"0688145094, 9780688145095"		amazon.com	[2012-09-23]	179096
90120022	The Frog Who Would Be King (Based on a German Folktale)	"Walker, Kate"		"Cox, David"	Illustrator	"Mondo Pub (1995), Paperback, 32 pages"	1995	Paperback	32 p.; 9.37 inches	0.23 pounds	9.37 inches	0.17 inches	8.02 inches	9.37 x 8.02 x 0.17 inches	32	"_Picture Books, From:RachelGloger, To:IVTC, Country:USA, 2013"	"NoLongerAvailable, 2013 Stats"	[1572550201]	"1572550201, 9781572550209"		amazon.com	[2012-09-23]	5638149
90120024	Just My Friend & Me	"Mayer, Mercer"		"Mayer, Mercer"	Illustrator	"Random House Books for Young Readers (2001), Edition: Reissue, Paperback, 24 pages"	2001	Paperback	24 p.; 8 inches	0.15 pounds	8 inches	8 inches	0.14 inches	8 x 0.14 x 8 inches	24	"_Picture Books, From:RachelGloger, To:AmySeidlitz, Country:Malaysia, 2012, stats"	"NoLongerAvailable, 2012 Stats"	[0307119475]	"0307119475, 9780307119476"		amazon.com	[2012-09-23]	73135
90120026	Parts	"Arnold, Tedd"				"SCOLASTIC (1999), Paperback"	1999	Paperback	8.5 inches	0.35 pounds	8.5 inches	0.2 inches	8.1 inches	8.5 x 8.1 x 0.2 inches		"_Picture Books, From:RachelGloger, Country:Morocco, 2012, stats, To:MeganSchell"	"NoLongerAvailable, 2012 Stats"	[0439042925]	"0439042925, 9780439042925"		amazon.com	[2012-09-23]	303470
90120029	The way I feel	"Cain, Janan"				"Scholastic Inc (2001), Paperback, 27 pages"	2001	Paperback	27 p.; 9.8 inches	0.35 pounds	9.8 inches	0.1 inches	9.1 inches	9.8 x 9.1 x 0.1 inches	27	"_Picture Books, From:RachelGloger, Country:Morocco, 2012, stats, To:MeganSchell"	"NoLongerAvailable, 2012 Stats"	[0439321166]	"0439321166, 9780439321167"		amazon.com	[2012-09-23]	137057
90120036	Chato's Kitchen	"Soto, Gary and Guevara, Susan"				"Scholastic Inc. (1995), Paperback, 32 pages"	1995	Paperback	32 p.; 10.5 inches	0.05 pounds	10.5 inches	0.25 inches	8.5 inches	10.5 x 8.5 x 0.25 inches	32	"_Picture Books, From:RachelGloger, To:YapLibrary, Country:Yap, 2013"	"NoLongerAvailable, 2013 Stats"	[0590897489]	"0590897489, 9780590897488"		amazon.com	[2012-09-23]	610090
90120040	Leola and the honeybears: An African-American retelling of Goldilocks and the Three Bears	"Rosales, Melodye"				"Scholastic (2000), Paperback, 37 pages"	2000	Paperback	37 p.; 12 inches	0.65 pounds	12 inches	0.03 inches	9 inches	12 x 9 x 0.03 inches	37	"_Picture Books, From:RachelGloger, To:YapLibrary, Country:Yap, 2013"	"NoLongerAvailable, 2013 Stats"	[0590383698]	"0590383698, 9780590383691"		amazon.com	[2012-09-23]	2443268
90120048	Bugs!	"Lerner, Lisa"				"Hampton-Brown, Paperback"	?	Paperback								"From:RachelGloger, _Science, To:AmyRhiger, Country:Philippines, 2015"	"NoLongerAvailable, 2015 Stats"	[0736206140]	"0736206140, 9780736206143"		amazon.com	[2012-09-23]	5150115
90120051	Water (The Four Elements)	"Vendrell, Carme Sole"		"Parramon, J. M."		"Barrons Juveniles (1985), Paperback, 32 pages"	1985	Paperback	32 p.; 8.1 inches	0.35 pounds	8.1 inches	0.3 inches	8 inches	8.1 x 8 x 0.3 inches	32	"From:RachelGloger, _Science, To:HeidiCollins, Country:Yap, 2015"	"NoLongerAvailable, 2015 Stats"	[0812035992]	"0812035992, 9780812035995"		amazon.com	[2012-09-23]	813151
90120055	Extremely Weird Fishes	"Lovett, Sarah"				"John Muir Pubns (1992), Edition: 1st, Paperback, 48 pages"	1992	Paperback	48 p.; 10.63 inches	0.49 pounds	10.63 inches	0.24 inches	8.35 inches	10.63 x 8.35 x 0.24 inches	48	"From:RachelGloger, _Science, +reserve WillekeJonkind, Country:Papua Ind"	Missing	[1562610414]	"1562610414, 9781562610418"		amazon.com	[2012-09-23]	3266123
90120056	Welcome to the Sea Of Sand	"Yolen, Jane"		"Regan, Laura"	Illustrator	"Scholastic (1997), Edition: 1, Paperback"	1997	Paperback	10.6 inches	0.3 pounds	10.6 inches	0.2 inches	8.5 inches	10.6 x 8.5 x 0.2 inches		"From:RachelGloger, _Picture Books, To:DeborahHays, Country:Bulgaria, 2016"	"NoLongerAvailable, 2016 Stats"	[0590636170]	"0590636170, 9780590636179"		amazon.com	[2012-09-23]	4770
90120058	Forest Fires: Run for Your Life!	"Nobisso, Josephine"				"Mondo Pub (2000), Paperback, 42 pages"	2000	Paperback	42 p.	0.01 pounds		0.02 inches	0.02 inches	10.4 x 0.02 x 0.02 inches	42	"From:RachelGloger, _Science, To:BettyKurz, Country:Papua NG, 2015"	"NoLongerAvailable, 2015 Stats"	[1572557931]	"1572557931, 9781572557932"		amazon.com	[2012-09-23]	5149985
90120059	Where Does the Butterfly Go When It Rains?	"Garelick, May"		"Wilton, Nicholas"	Illustrator	"Mondo Pub (1997), Paperback, 32 pages"	1997	Paperback	32 p.; 9.94 inches	0.32 pounds	9.94 inches	0.12 inches	7.22 inches	9.94 x 7.22 x 0.12 inches	32	"From:RachelGloger, _Science, To:BrandiBates, 2014, Country:Romania"	"NoLongerAvailable, 2014 Stats"	[1572551623]	"1572551623, 9781572551626"		amazon.com	[2012-09-23]	370388
90120070	Animals Nobody Loves	"Simon, Seymour"				"Chronicle Books (2001), Hardcover, 48 pages"	2001	Hardcover	48 p.; 10.9 inches	1.44 pounds	10.9 inches	0.38 inches	10.83 inches	10.9 x 10.83 x 0.38 inches	48	"_Science, From:RachelGloger, Country:Romania, 2013, To:BrandiBates"	"NoLongerAvailable, 2013 Stats"	[1587170795]	"1587170795, 9781587170799"		amazon.com	[2012-09-23]	789417
90120072	Where's That Reptile? (Hide & Seek Science)	"Brenner, Barbara"		"Chardiet, Bernice|Schwartz, Carol"	|Illustrator	"Scholastic Trade (1993), Hardcover, 30 pages"	1993	Hardcover	30 p.; 10.9 inches	0.85 pounds	10.9 inches	0.4 inches	8.2 inches	10.9 x 8.2 x 0.4 inches	30	"_Science, From:RachelGloger, Country:Romania, 2013, To:BrandiBates"	"NoLongerAvailable, 2013 Stats"	[0590452126]	"0590452126, 9780590452120"		amazon.com	[2012-09-23]	838498
90120076	Animal shelters (Book shop)	"Bolton, Faye"				"[Literacy First!] [distributor] (1995), Paperback, 24 pages"	1995	Paperback								"From:RachelGloger, _Science, To:AllisonWillis, Country:India, 2014"	"NoLongerAvailable, 2014 Stats"	[1572551925]	"1572551925, 9781572551923"		amazon.com	[2012-09-23]	5041165
90120082	"Rocks and Soil (The Little Book of Exploration, How Weather and Other Forces Change the Earth)"					"Scholastic (1993), Unknown Binding, 32 pages"	1993	Paper Book	32 p.; 10.6 inches	0.25 pounds	10.6 inches	0.4 inches	8.2 inches	10.6 x 8.2 x 0.4 inches	32	"_Science, From:RachelGloger, To:AlyciaDarilek, Country:China, 2013, stats"	"NoLongerAvailable, 2013 Stats"	[059026141X]	"059026141X, 9780590261418"		amazon.com	[2012-09-23]	5505574
90120086	Arctic Babies	"Darling, Kathy"		"Photos, Color"	Illustrator	"Scholastic (1996), Paperback"	1996	Paperback	9 inches	0.35 pounds	9 inches	0.2 inches	8 inches	9 x 8 x 0.2 inches		"From:RachelGloger, _Science, To:Kako, Country:USA, 2014"	"NoLongerAvailable, 2014 Stats"	[0590974416]	"0590974416, 9780590974417"		amazon.com	[2012-09-23]	1169649
90120090	Today's Weather Is--: A Book of Experiments	"Hopping, Lorraine Jean"				"Mondo Publishing (2000), Paperback, 32 pages"	2000	Paperback	32 p.; 9.48 inches	0.28 pounds	9.48 inches	0.13 inches	8.78 inches	9.48 x 8.78 x 0.13 inches	32	"From:RachelGloger, _Science, To:BettyKurz, Country:Papua NG, 2015"	"NoLongerAvailable, 2015 Stats"	[1572558091]	"1572558091, 9781572558090"		amazon.com	[2012-09-23]	3087139
90120093	Outside and Inside Snakes	"Markle, Sandra"				"Scholastic (1995), Paperback"	1995	Paperback	9.7 inches	0.35 pounds	9.7 inches	0.2 inches	8.8 inches	9.7 x 8.8 x 0.2 inches		"From:RachelGloger, _Science, To:NikiCox, Country:Ethiopia, 2014"	"NoLongerAvailable, 2014 Stats"	[0590635751]	"0590635751, 9780590635752"		amazon.com	[2012-09-23]	1609731
90120096	"In the Woods (See, Make & Do)"	"Hickman, Pamela"		"Robar-DeCoste, Twila"	Illustrator	"Formac (1998), Edition: 0, Paperback, 64 pages"	1998	Paperback	64 p.; 8.9 inches	0.3 pounds	8.9 inches	0.3 inches	6.4 inches	8.9 x 6.4 x 0.3 inches	64	"_Science, From:RachelGloger, To:Kako, 2013, Country:USA"	"NoLongerAvailable, 2013 Stats"	[0887804128]	"0887804128, 9780887804120"		amazon.com	[2012-09-23]	10663957
90120097	Wacky Plant Cycles	"Wyatt, Valerie"		"Jones, Lilith|Jones, Lilith"	|Illustrator	"Mondo Pub (2000), Paperback, 24 pages"	2000	Paperback	24 p.; 9.52 inches	0.21 pounds	9.52 inches	0.13 inches	8.44 inches	9.52 x 8.44 x 0.13 inches	24	"From:RachelGloger, _Science, To:KarenaBarber, Country:Madagascar, 2015"	"NoLongerAvailable, 2015 Stats"	[1572557958]	"1572557958, 9781572557956"		amazon.com	[2012-09-23]	1440812
90120100	Salmon	"James, Sylvia M."		"Bachem, Paul"	Illustrator	"Mondo Publishing (2000), Paperback, 32 pages"	2000	Paperback	32 p.; 10.05 inches	0.27 pounds	10.05 inches	0.13 inches	8.03 inches	10.05 x 8.03 x 0.13  inches	32	"_Science, From:RachelGloger, To:KarenStark, Country:CA, 2013"	"NoLongerAvailable, 2013 Stats"	[1572558059]	"1572558059, 9781572558052"		amazon.com	[2012-09-23]	5716305
90120104	What Makes a Bird a Bird?	"Garelick, May"		"Hill, Trish"	Illustrator	"Mondo Pub (1995), Paperback, 32 pages"	1995	Paperback	32 p.; 9.26 inches	0.28 pounds	9.26 inches	0.12 inches	8.25 inches	9.26 x 8.25 x 0.12 inches	32	"From:RachelGloger, _Science, To:BrandiBates, 2014, Country:Romania"	"NoLongerAvailable, 2014 Stats"	[1572550082]	"1572550082, 9781572550087"		amazon.com	[2012-09-23]	1992197
90120110	Bold and Bright Black-and-White Animals					"Walker and Company (1998), Unknown Binding, 32 pages"	1998	Paperback	32 p.; 12 inches	0.35 pounds	12 inches	0.6 inches	8 inches	12 x 8 x 0.6 inches	32	"From:RachelGloger, _Science, To:HeidiCollins, Country:Yap, 2015"	"NoLongerAvailable, 2015 Stats"	[0802775713]	"0802775713, 9780802775719"		amazon.com	[2012-09-23]	2167653
90120112	Earthquakes	"Simon, Seymour"				"HarperTrophy (1995), Paperback, 32 pages"	1995	Paperback	32 p.; 9.92 inches	0.36 pounds	9.92 inches	0.12 inches	9.76 inches	9.92 x 9.76 x 0.12 inches	32	"_Science, From:RachelGloger, To:KarenHall, 2013, Country:Indonesia"	"NoLongerAvailable, 2013 Stats"	[068814022X]	"068814022X, 9780688140229"		amazon.com	[2012-09-23]	283214
90120124	The Safari Encyclofact [Paperback]					"Mondo Publishing (2000), Paperback"	2000	Paperback	7.9 inches	0.5 pounds	7.9 inches	0.3 inches	6.3 inches	7.9 x 6.3 x 0.3 inches		"From:RachelGloger, _In-Between Readers, To:HeidiCollins, Country:Yap, 2015"	"NoLongerAvailable, 2015 Stats"	[1586530593]	"1586530593, 9781586530594"		amazon.com	[2012-09-23]	11109494
90120125	The Safari Encyclofact [Paperback]					"Mondo Publishing (2000), Paperback"	2000	Paperback	7.9 inches	0.5 pounds	7.9 inches	0.3 inches	6.3 inches	7.9 x 6.3 x 0.3 inches		"_Beginning Readers, From:RachelGloger, To:YapLibrary, Country:Yap, 2013"	"NoLongerAvailable, 2013 Stats"	[1586530593]	"1586530593, 9781586530594"		amazon.com	[2012-09-23]	11109494
90120140	Penguin (Animals in the Wild)	"Serventy, Vincent"				"Scholastic Trade (1986), Paperback"	1986	Paperback	8 inches	0.15 pounds	8 inches	0.1 inches	8 inches	8 x 8 x 0.1 inches		"From:RachelGloger, _Science, To:AmyRhiger, Country:Philippines, 2015"	"NoLongerAvailable, 2015 Stats"	[0590401025]	"0590401025, 9780590401029"		amazon.com	[2012-09-23]	680517
90120142	Apples and Pumpkins	"Rockwell, Anne"		"Rockwell, Lizzy"	Illustrator	"Scholastic inc. (1991), Paperback, 24 pages"	1991	Paperback	24 p.; 8.8 inches	0.15 pounds	8.8 inches	0.2 inches	7.4 inches	8.8 x 7.4 x 0.2 inches	24	"From:RachelGloger, _Science, To:BrandiBates, 2014, Country:Romania"	"NoLongerAvailable, 2014 Stats"	[059045191X]	"059045191X, 9780590451918"		amazon.com	[2012-09-23]	294705
90120149	Grizzly Bears Small Book X4 Pb 20% (Finding Out About ... Pb	"Woolley, Marilyn"		"Nelson, Judy|Pigdon, Keith"	Illustrator|	"Belair Publications Ltd (1999), Paperback, 16 pages"	1999	Paperback	16 p.; 9 inches	0.13 pounds	9 inches	0.1 inches	7 inches	9 x 7 x 0.1 inches	16	"From:RachelGloger, _Science, To:HeidiCollins, Country:Yap, 2015"	"NoLongerAvailable, 2015 Stats"	[1862028745]	"1862028745, 9781862028746"		amazon.com	[2012-09-23]	13060847
90120150	Eye spy (Wildcats series)	"Reeder, Paul"				"The Wright Group (1999), Unknown Binding, 31 pages"	1999	Paper Book	31 p.; 8.4 inches	0.1 pounds	8.4 inches	0.5 inches	6.2 inches	8.4 x 6.2 x 0.5 inches	31	"From:RachelGloger, _Science, To:AmyRhiger, Country:Philippines, 2015"	"NoLongerAvailable, 2015 Stats"	[0322005507]	"0322005507, 9780322005501"		amazon.com	[2012-09-23]	5554749
90120152	Popcorn and Candy						2001	Paperback	7.8 inches	0.1 pounds	7.8 inches	0.1 inches	5.8 inches	7.8 x 5.8 x 0.1 inches		"_Science, From:RachelGloger, To:VictoriaRice, Country:China, 2013"	"NoLongerAvailable, 2013 Stats"	[0792292170]	"0792292170, 9780792292173"		amazon.com	[2012-09-23]	5312661
90120154	Grizzly Bears Small Book X4 Pb 20% (Finding Out About ... Pb	"Woolley, Marilyn"		"Nelson, Judy|Pigdon, Keith"	Illustrator|	"Belair Publications Ltd (1999), Paperback, 16 pages"	1999	Paperback	16 p.; 9 inches	0.13 pounds	9 inches	0.1 inches	7 inches	9 x 7 x 0.1 inches	16	"From:RachelGloger, _Science, To:Kako, Country:USA, 2014"	"NoLongerAvailable, 2014 Stats"	[1862028745]	"1862028745, 9781862028746"		amazon.com	[2012-09-23]	13060847
90120160	Mighty mammals (Explorers)	"Dalgleish, Sharon"				"Shortland Publications (1999), Unknown Binding, 32 pages"	1999	Paper Book							32	"_Science, From:RachelGloger, To:Kako, 2013, Country:USA"	"NoLongerAvailable, 2013 Stats"	[0769904785]	"0769904785, 9780769904788"		amazon.com	[2012-09-23]	10573680
90120166	I Didn't Know That Crocodiles Yawn to Keep Cool and Other Amazing Facts About Crocodiles and Alligat	"petty, kate"				"Aladdin books (1998), Paperback, 32 pages"	1998	Paperback	32 p.; 9.6 inches	0.45 pounds	9.6 inches	0.2 inches	8.5 inches	9.6 x 8.5 x 0.2 inches	32	"From:RachelGloger, _Science, To:BrandiBates, 2014, Country:Romania"	"NoLongerAvailable, 2014 Stats"	[0761310150]	"0761310150, 9780761310150"		amazon.com	[2012-09-23]	3360701
90120176	National parks	"Evans, Mary"				"Newbridge Educational Publishing (2001), Unknown Binding, 16 pages"	2001	Paperback	16 p.; 8.3 inches	0.3 pounds	8.3 inches	0.3 inches	7.3 inches	8.3 x 7.3 x 0.3 inches	16	"From:RachelGloger, _Science, To:EricaPatrick, Country:China, 2017"	"NoLongerAvailable, 2017 Stats"	[]			amazon.com	[2012-09-23]	5272859
90120184	Green Thumbs (Literacy 2000)	"Hosking, Carol"				"Rigby (1991), Paperback, 24 pages"	1991	Paperback	24 p.; 8.96 inches	0.19 pounds	8.96 inches	0.13 inches	7.46 inches	8.96 x 7.46 x 0.13 inches	24	"From:RachelGloger, _Science, To:AmyRhiger, Country:Philippines, 2015"	"NoLongerAvailable, 2015 Stats"	[0790103796]	"0790103796, 9780790103792"		amazon.com	[2012-09-23]	8229952
90120189	Dw-2 Rd How Animals Move Is (Discovery World Series: Red Level)	"Byrne, David"				"Rigby (1998), Paperback, 24 pages"	1998	Paperback	24 p.						24	"_Science, From:RachelGloger, To:MissiMarsden, 2012, Country:China, stats"	"NoLongerAvailable, 2012 Stats"	[0763523534]	"0763523534, 9780763523534"		amazon.com	[2012-09-23]	5554708
90120195	"Apples, apples, apples"	"Wallace, Nancy Elizabeth"				"Scholastic (2001), Paperback"	2001	Paperback	7.8 inches	0.25 pounds	7.8 inches	0.2 inches	7.7 inches	7.8 x 7.7 x 0.2 inches	25	"From:RachelGloger, _Science, To:LeighaMackin, Country:Indonesia, 2014"	"NoLongerAvailable, 2014 Stats"	[0439274613]	"0439274613, 9780439274616"		amazon.com	[2012-09-23]	722838
90120198	All About Owls	"Arnosky, Jim"				"Scholastic (1995), Paperback"	1995	Paperback		0.19 pounds				8.9 x 7.4 x 0.1 inches		"_Science, From:RachelGloger, 2012, Country:CA, stats, To:DavidMiller"	"NoLongerAvailable, 2012 Stats"	[0590467913]	"0590467913, 9780590467919"		amazon.com	[2012-09-23]	32789
90120199	Chickens Aren't the Only Ones	"Heller, Ruth"				"Scholastic Canada, Limited [2002?] [2002?] (2002), Paperback"	2002	Paperback	8 inches	0.05 pounds	8 inches	0.3 inches	7.8 inches	8 x 7.8 x 0.3 inches		"_Science, From:RachelGloger, To:HeidiCollins, Country:Yap, 2013"	"NoLongerAvailable, 2013 Stats"	[0590426001]	"0590426001, 9780590426008"		amazon.com	[2012-09-23]	713393
90120206	Sun Up Sun Down	"Gibbons, Gail"				"Scholastic Inc, Paperback"	?	Paperback	10 inches	0.3 pounds	10 inches	0.1 inches	8 inches	10 x 8 x 0.1 inches		"From:RachelGloger, _Picture Books, To:DebbiSkinner, Country:China, 2014"	"NoLongerAvailable, 2014 Stats"	[0590460471]	"0590460471, 9780590460477"		amazon.com	[2012-09-23]	1169059
90120207	Dw-1 or Growing a Plant: Jrl Is (Discovery World Series: Orange Level)	"Jenkins, Rhonda"				"Rigby (1998), Paperback, 16 pages"	1998	Paperback	16 p.; 8.5 inches	0.15 pounds	8.5 inches	0.5 inches	7 inches	8.5 x 7 x 0.5 inches	16	"From:RachelGloger, _Science, To:AmyRhiger, Country:Philippines, 2015"	"NoLongerAvailable, 2015 Stats"	[0763522929]	"0763522929, 9780763522926"		amazon.com	[2012-09-23]	5114836
90120211	Backyard Animals (Eyes on Nature)	"Acker, Kerry"				"Kidsbooks (1998), Unknown Binding, 29 pages"	1998	Paperback	29 p.; 9.1 inches	0.2 pounds	9.1 inches	0.2 inches	7.5 inches	9.1 x 7.5 x 0.2 inches	29	"From:RachelGloger, _Science, To:NikiCox, Country:Ethiopia, 2014"	"NoLongerAvailable, 2014 Stats"	[1561567825]	"1561567825, 9781561567829"		amazon.com	[2012-09-23]	8272204
90120217	Apes and Monkeys (Eyes on Nature)	"Grassy, John"				"Kidsbooks Incorporated (1997), Paperback, 29 pages"	1997	Paperback	29 p.	0.24 pounds				9.1 x 7.5 x 0.5 inches	29	"From:RachelGloger, _Science, To:KrisanneEmch, Country:Indonesia, 2017"	"NoLongerAvailable, 2017 Stats"	[1561565946]	"1561565946, 9781561565948"		amazon.com	[2012-09-23]	572615
90120219	The Fascinating World of Beetles	"Julivert, Angels"		"Julivert, Maria Angels"		"Barrons Juveniles (1995), Edition: 1st, Paperback, 31 pages"	1995	Paperback	31 p.; 8.8 inches	0.35 pounds	8.8 inches	0.1 inches	8.4 inches	8.8 x 8.4 x 0.1 inches	31	"From:RachelGloger, _Science, To:AmyRhiger, Country:Philippines, 2015"	"NoLongerAvailable, 2015 Stats"	[0812094239]	"0812094239, 9780812094237"		amazon.com	[2012-09-23]	402789
90120222	Exploring Weird Science (Eyes on Adventure Series)	"Grambo, Rebecca L"				"Kidsbooks (1998), Paperback, 29 pages"	1998	Paperback								"From:RachelGloger, _Science, To:AllisonWillis, Country:India, 2015"	"NoLongerAvailable, 2015 Stats"	[1561566772]	"1561566772, 9781561566778"		amazon.com	[2012-09-23]	572818
90120225	The World of Nature Invisibles	"Evans, Larry"		"White, Malcome"		"Price Stern Sloan (1993), Paperback, 39 pages"	1993	Paperback	39 p.; 8.27 inches	0.2 pounds	8.27 inches	0.24 inches	8.27 inches	8.27 x 8.27 x 0.24 inches	39	"From:RachelGloger, _Activity Books, To:BettyKurz, Country:Papua NG, 2017"	"NoLongerAvailable, 2017 Stats"	[0843134909]	"0843134909, 9780843134902"		amazon.com	[2012-09-23]	1125591
90120230	The Bravest Fish (Originally Titled Bright Stanley)	"Buckingham, Matt"				"Scholastic (2006), Paperback"	2006	Paperback	9.1 inches	0.2 pounds	9.1 inches	0.3 inches	9 inches	9.1 x 9 x 0.3 inches		"From:RachelGloger, _Picture Books, To:LockwoodSchool, Country:Papua NG, 2014"	"NoLongerAvailable, 2014 Stats"	[0439025621]	"0439025621, 9780439025621"		amazon.com	[2012-09-23]	2411757
90120236	Digging Up Tyrannosaurus Rex : The remarkable story of the discovery of the first complete Tyrannosaurus rex skeleton ever found	"Horner, John"		"Lessem, Don"		"SCHOLASTIC INC. @ (1992), Paperback, 36 pages"	1992	Paperback	36 p.; 9.5 inches	0.35 pounds	9.5 inches	0.1 inches	9.5 inches	9.5 x 9.5 x 0.1 inches	36	"From:RachelGloger, _Dinosaurs, To:BrandiBates, 2014, Country:Romania"	"NoLongerAvailable, 2014 Stats"	[0590486527]	"0590486527, 9780590486521"		amazon.com	[2012-09-23]	2245170
90120243	The Reluctant Dragon					"Trumpet Club Special Edition (1989), Mass Market Paperback"	1989	Paper Book	6.5 inches	0.15 pounds	6.5 inches	0.4 inches	4 inches	6.5 x 4 x 0.4 inches		"_Fantasy, From:RachelGloger, To:KarenHall, 2012, stats, Country:Indonesia"	"NoLongerAvailable, 2012 Stats"	[044084066X]	"044084066X, 9780440840664"		amazon.com	[2012-09-23]	53881
90120298	Where Do Balloons Go? An Uplifting Mystery	"Curtis, Jamie Lee"		"Cornell, Laura"	Illustrator	"HarperCollins (2000), Edition: First, Hardcover, 36 pages"	2000	Hardcover	36 p.; 10.33 x 8.93 inches	0.91 pounds	8.93 inches	0.39 inches	10.33 inches	8.93 x 10.33 x 0.39 inches	36	"From:RachelGloger, _Hardback Picture Books, To:TeresaPaix, Country:China, 2014"	"NoLongerAvailable, 2014 Stats"	[006027980X]	"006027980X, 9780060279806"		amazon.com	[2012-09-23]	64959
90120305	"Sports Hall of Fame: Ken Griffey, Jr., Peyton Manning, Serena Williams, Venus Williams, Grant Hill, Michelle Kwan"	"Hopping, Lorraine Jean"		"Egan, Christopher"		"Mondo Publishing (2000), Paperback, 40 pages"	2000	Paperback								"_Sports, From:RachelGloger, To:YapLibrary, Country:Yap"	"NoLongerAvailable, 2013 Stats"	[1572557761]	"1572557761, 9781572557765"		amazon.com	[2012-09-23]	3087123
90120313	Home: A Collaboration of Thirty Authors & Illustrators (Reading Rainbow Books)	"Rosen, Michael J."		Various|Various	|Illustrator	"HarperCollins (1996), Paperback, 32 pages"	1996	Paperback	32 p.; 9.98 inches	0.3 pounds	9.98 inches	0.11 inches	7.98 inches	9.98 x 7.98 x 0.11 inches	32	"_Poetry, From:RachelGloger, Country:Romania, 2013, To:BrandiBates"	"NoLongerAvailable, 2013 Stats"	[0064434702]	"0064434702, 9780064434706"		amazon.com	[2012-09-23]	3575700
90592425	Snuggle Puppy (Boynton on Board)	"Boynton, Sandra"				"Workman Publishing Company (2003), Edition: 1ST, Board book, 24 pages"	2003	Board book	24 p.; 5.63 inches	0.52 pounds	5.63 inches	6.14 inches	0.71 inches	5.63 x 0.71 x 6.14 inches	24	"_Board Books, From:RachelGloger, To:KarenHall, Country:Indonesia, 2013"	"NoLongerAvailable, 2013 Stats"	[0761130675]	"0761130675, 9780761130673"		amazon.com	[2012-10-10]	86712
90592426	Animal Fun Ocean Buddies (Touchy Feely)	"Pountney, Beth"				"Make Believe Ideas (2009), Board book, 12 pages"	2009	Board book	12 p.; 7.2 inches	0.65 pounds	7.2 inches	0.6 inches	7.2 inches	7.2 x 7.2 x 0.6 inches	12	"_Board Books, From:RachelGloger, To:YapLibrary, Country:Yap, 2013"	"NoLongerAvailable, 2013 Stats"	[1846104572]	"1846104572, 9781846104572"		amazon.com	[2012-10-10]	4931810
90592430	"Brainy Baby (123's, ABC's, Animals, Shapes & Colors)"	"Reynolds, Edith"		"Bendon|Audette, Rose"	Editor|Illustrator	"Bendon (2005), Board book, 10 pages"	2005	Hardcover							10	"From:RachelGloger, _Board Books, To:LauraHall, Country:Ethiopia, 2014"	"NoLongerAvailable, 2014 Stats"	[159394781X]	"159394781X, 9781593947811"		amazon.com	[2012-10-10]	15303218
90592431	First 100 Words (Busy Baby)	"Ltd., Make Believe Ideas"		"Phillips, Sarah"		"Make Believe Ideas (2009), Board book, 26 pages"	2009	Board book	26 p.; 8.17 inches	0.84 pounds	8.17 inches	0.82 inches	7.02 inches	8.17 x 7.02 x 0.82 inches	26	"_Board Books, From:RachelGloger, To:HeidiCollins, Country:Yap, 2013"	"NoLongerAvailable, 2013 Stats"	[1848792816]	"1848792816, 9781848792814"		amazon.com	[2012-10-10]	11675610
90592433	Word Book: A First Lift-The-Flap Book					"Templar Press, Hardcover"	?	Hardcover	8.3 inches	1.4 pounds	8.3 inches	1 inch	8.3 inches	8.3 x 8.3 x 1 inches		"_Board Books, From:RachelGloger, Country:CA, 2012, To:LisaGeromette"	NoLongerAvailable	[187095663X]	"187095663X, 9781870956635"		amazon.com	[2012-10-10]	3612745
90592435	My First Touch & Feel Picture Cards: First Words (MY 1ST T&F PICTURE CARDS)	"Publishing, DK"				"DK Preschool (2005), Cards, 16 pages"	2005	Other	16 p.; 7.1 inches	0.83 pounds	7.1 inches	1.67 inches	5.12 inches	7.1 x 5.12 x 1.67 inches	16	"_Board Books, From:RachelGloger, Country:Yap, 2013, To:HeidiCollins"	"NoLongerAvailable, 2013 Stats"	[0756615186]	"0756615186, 9780756615185"		amazon.com	[2012-10-10]	7810124
90592437	My Little Noisy Book of Ducklings	"Priddy, Roger"				"Priddy Books (2008), Edition: Brdbk, Board book, 12 pages"	2008	Board book	12 p.; 7.6 inches	0.48 pounds	7.6 inches	0.4 inches	5.9 inches	7.6 x 5.9 x 0.4 inches	12	"From:RachelGloger, _Board Books, To:BrigitteSchoenenberger, Country:Senegal, 2014"	"NoLongerAvailable, 2014 Stats"	[0312505744]	"0312505744, 9780312505745"		amazon.com	[2012-10-10]	13057639
90592441	I Know My First Words	Playmore/Waldman				"Playmore/ Waldman (2002), Paperback"	2002	Paperback	8 inches	0.3 pounds	8 inches	0.6 inches	6 inches	8 x 6 x 0.6 inches		"_Board Books, From:RachelGloger, To:HeidiCollins, Country:Yap, 2013"	"NoLongerAvailable, 2013 Stats"	[1590605004]	"1590605004, 9781590605004"		amazon.com	[2012-10-10]	5823699
90592444	Shiny Seaside (Baby Dazzlers)	"Stephens, Helen"				"Campbell Books (2002), Hardcover, 12 pages"	2002	Hardcover	12:00 PM	0.3 pounds		1.62 inches	1.62 inches	1.62 x 1.62 inches	12	"From:RachelGloger, _Board Books, To:PaigeWhiting, Country:India, 2014"	"NoLongerAvailable, 2014 Stats"	[033396537X]	"033396537X, 9780333965375"		amazon.com	[2012-10-10]	737873
90592445	"Warm Sun, Soft Sand"	"West, Linzi"				"Frances Lincoln Children's Books (2005), Board book, 12 pages"	2005	Board book	12 p.; 6.3 inches	0.25 pounds	6.3 inches	6.3 inches	0.31 inches	6.3 x 0.31 x 6.3 inches	12	"From:RachelGloger, _Board Books, To:JenniferSanders, Country:Moldova, 2015"	"NoLongerAvailable, 2015 Stats"	[1845073428]	"1845073428, 9781845073428"		amazon.com	[2012-10-10]	1177546
90592449	Little Ponies (Feels Real Books)	"Gunzi, Christiane"				"Barron's Educational Series (2005), Board book, 10 pages"	2005	Board book	10 p.; 6.3 inches	0.2 pounds	6.3 inches	0.6 inches	6.2 inches	6.3 x 6.2 x 0.6  inches	10	"From:RachelGloger, _Board Books, To:ShannonPanjwani, Country:India, 2014"	"NoLongerAvailable, 2014 Stats"	[0764158554]	"0764158554, 9780764158551"		amazon.com	[2012-10-10]	5953639
90592451	Touch and Feel: Farm	"Publishing, DK"				"DK Preschool (1998), Board book, 12 pages"	1998	Board book	12 p.; 6.24 inches	0.28 pounds	6.24 inches	0.56 inches	6.18 inches	6.24 x 6.18 x 0.56 inches	12	"_Board Books, From:RachelGloger, To:YapLibrary, Country:Yap, 2013"	"NoLongerAvailable, 2013 Stats"	[0789429160]	"0789429160, 9780789429162"		amazon.com	[2012-10-10]	1847427
90592453	I Spy Little Bunnies	"Marzollo, Jean"		"Wick, Walter"	Illustrator	"Cartwheel (2001), Board book, 12 pages"	2001	Board book	12 p.; 5.8 inches	0.15 pounds	5.8 inches	0.7 inches	4.7 inches	5.8 x 4.7 x 0.7 inches	12	"_Board Books, From:RachelGloger, To:DarcyCoady, Country:China, 2013"	"NoLongerAvailable, 2013 Stats"	[0439221587]	"0439221587, 9780439221580"		amazon.com	[2012-10-10]	3586706
90592454	Goodnight Moon	"Brown, Margaret Wise"		"Hurd, Clement"		"HarperFestival (1991), Edition: 1st board_book Ed. 1991, Board book, 30 pages"	1991	Board book	30 p.; 5.76 x 5 inches	0.51 pounds	5 inches	0.69 inches	5.76 inches	5 x 5.76 x 0.69 inches	30	"From:RachelGloger, _Board Books, To:BrandiBates, 2014, Country:Romania"	"NoLongerAvailable, 2014 Stats"	[0694003611]	"0694003611, 9780694003617"		amazon.com	[2012-10-10]	39272
90592462	Little Fish Finger Puppet Book	"Staff, Imagebooks"				"Chronicle Books Llc 2010-01-06 (2010), Hardcover"	2010	Board book	12 p.; 4.3 inches	0.4 pounds	4.3 inches	1 inch	4.3 inches	4.3 x 4.3 x 1  inches	12	"_Board Books, From:RachelGloger, To:DarcyCoady, Country:China, 2012, stats"	"NoLongerAvailable, 2012 Stats"	[0811873447]	"0811873447, 9780811873444"		amazon.com	[2012-10-10]	11331382
90592468	My Very First Book of Numbers	"Carle, Eric"		"Carle, Eric"	Illustrator	"Philomel (2006), Edition: BRDBK, Board book, 20 pages"	2006	Board book	20 p.; 5.08 inches	0.48 pounds	5.08 inches	6.85 inches	0.55 inches	5.08 x 0.55 x 6.85 inches	20	"_Board Books, From:RachelGloger, 2013, To:KarenHall, Country:Indonesia"	"NoLongerAvailable, 2013 Stats"	[039924509X]	"039924509X, 9780399245091"		amazon.com	[2012-10-10]	784875
90592470	John Denver's Sunshine on My Shoulders (A Simply Nature Book) (Simply Nature Books)	"Denver, John"		"Canyon, Christopher"	Illustrator	"Dawn Pubns (2006), Board book, 26 pages"	2006	Board book	26 p.; 7.74 inches	0.75 pounds	7.74 inches	0.63 inches	6.58 inches	7.74 x 6.58 x 0.63 inches	26	"_Board Books, From:RachelGloger, To:YapLibrary, Country:Yap, 2013"	"NoLongerAvailable, 2013 Stats"	[158469081X]	"158469081X, 9781584690818"		amazon.com	[2012-10-10]	667509
90592475	Richard Scarry's Egg in the Hole (Shaped Board Book)	"Scarry, Richard"		"Books, Golden"	Illustrator	"Golden Books (2011), Edition: Brdbk, Board book, 20 pages"	2011	Board book	20 p.; 7.52 inches	0.66 pounds	7.52 inches	7.52 inches	0.51 inches	7.52 x 0.51 x 7.52 inches	20	"_Board Books, From:RachelGloger, To:HeidiCollins, Country:Yap, 2013"	"NoLongerAvailable, 2013 Stats"	[0375862919]	"0375862919, 9780375862915"		amazon.com	[2012-10-10]	340387
90592477	Whose Feet Are Those? (A Lift-a-Flap book)	"Tedesco, John"				"Better than Broccoli (2010), Board book, 12 pages"	2010	Board book							12	"_Board Books, From:RachelGloger, Country:Yap, 2013, To:HeidiCollins"	"NoLongerAvailable, 2013 Stats"	[]			amazon.com	[2012-10-10]	13115561
90592478	Whose Nose Is This ? (A LIFT - A - FLAP BOOK)	"TEDESCO, JOHN"				"SON SCHEIN PRESS (2009), Hardcover"	2009	Hardcover								"_Board Books, From:RachelGloger, Country:Yap, 2013, To:HeidiCollins"	"NoLongerAvailable, 2013 Stats"	[]			amazon.com	[2012-10-10]	13115562
90592480	Maisy's Colour Collection	"Cousins, Lucy"				"Walker Bks. (2005), Hardcover, 14 pages"	2005	Hardcover	14 p.	0.53 pounds		1.65 inches	1.65 inches	7.17 x 1.65 x 1.65 inches	14	"_Board Books, From:RachelGloger, To:HeidiCollins, Country:Yap, 2013"	"NoLongerAvailable, 2013 Stats"	[1844286932]	"1844286932, 9781844286935"		amazon.com	[2012-10-10]	5247374
90592484	Big Red Barn	"Brown, Margaret Wise"		"Bond, Felicia"	Illustrator	"HarperFestival (1995), Board book, 32 pages"	1995	Board book	32 p.; 5.78 inches	0.47 pounds	5.78 inches	0.63 inches	5.04 inches	5.78 x 5.04 x 0.63 inches	32	"From:RachelGloger, _Board Books, To:PhilipinesOrphanage, Country:Philippines, 2014"	"NoLongerAvailable, 2014 Stats"	[0694006246]	"0694006246, 9780694006243"		amazon.com	[2012-10-10]	66560
90592486	My First Book of Shapes (Crayola) Board Book					"Creative Edge (2010), Board book"	2010	Board book	6.25 inches	0.4 pounds	6.25 inches	0.5 inches	5 inches	6.25 x 5 x 0.5 inches		"_Board Books, From:RachelGloger, To:YapLibrary, Country:Yap, 2013"	"NoLongerAvailable, 2013 Stats"	[1403787182]	"1403787182, 9781403787187"		amazon.com	[2012-10-10]	12832613
90592487	Caterpillar Dance	"Mcbee, Scott"				"Cartwheel (2004), Edition: Brdbk, Board book, 6 pages"	2004	Board book	6 p.; 11.2 inches	0.9 pounds	11.2 inches	0.6 inches	8.5 inches	11.2 x 8.5 x 0.6 inches	6	"_Board Books, From:RachelGloger, Country:CA, 2012, To:LisaGeromette"	NoLongerAvailable	[0439598796]	"0439598796, 9780439598798"		amazon.com	[2012-10-10]	4788345
90592489	Blue & Square	"Tullet, Herve"				"Milet Publishing (2002), Board book, 24 pages"	2002	Board book	24 p.; 5.08 inches	0.55 pounds	5.08 inches	7.8 inches	0.79 inches	5.08 x 0.79 x 7.8 inches	24	"_Board Books, From:RachelGloger, Country:Indonesia, 2013, To:CyndiRichardson"	"NoLongerAvailable, 2013 Stats"	[1840593431]	"1840593431, 9781840593433"		amazon.com	[2012-10-10]	3259763
90592512	My Big Yard: What do you see? A Fun-Flap Book	"Knight, K. R."		"Santalucia, Francesco"	Illustrator	"Dalmation Press, LLC"	2011		6 p.; 8 inches		8 inches		8 inches	8 x 8 inches	6	"_Board Books, From:RachelGloger, Country:Yap, 2013, To:HeidiCollins"	"NoLongerAvailable, 2013 Stats"	[9781403775306]	"9781403775306, 1403775303"		manual entry	[2012-10-10]	13115573
91328060	Gooseberry Park	"Rylant, Cynthia"				"Scholastic Paperbacks (1998), Mass Market Paperback, 144 pages"	1998	Paperback	144 p.; 7.62 inches	0.22 pounds	7.62 inches	0.39 inches	5.56 inches	7.62 x 5.56 x 0.39 inches	144	"To:ShannonPanjwani, Country:India, 2012, stats, From:RachelGloger"	"NoLongerAvailable, 2012 Stats"	[059094715X]	"059094715X, 9780590947152"		amazon.com	[2012-11-03]	1028579
91782134	Popcorn and Candy (National Geographic Windows on Literacy)	"Lucca, Mario"				"Arab Scientific Publishers, Inc. (2006), Paperback"	2006	Paperback								"From:RachelGloger, _Beginning Readers, To:VictoriaRice, 2013, Country:China"	"NoLongerAvailable, 2013 Stats"	[9953291896]	"9953291896, 9789953291895"		amazon.com	[2012-11-21]	5312661
91782187	Big Red Tomatoes - National Geographic - Windows on Literacy	"Graham, Pamela"				"National Geographic School Publishing (2001), Paperback"	2001	Paperback								"From:RachelGloger, _Beginning Readers, To:DebbiSkinner, Country:China, 2014"	"NoLongerAvailable, 2014 Stats"	[]			amazon.com	[2012-11-21]	3825939
