117393814	Matilda	"Dahl, Roald"				"Scholastic (1988), Edition: 1st, Paperback, 240 pages"	1988	Paperback	240 p.; 7.5 inches	0.4 pounds	7.5 inches	0.8 inches	5.2 inches	7.5 x 5.2 x 0.8 inches	240	"_Chapter Books, From:SarahChristiansen, To:CherylMcFaddin, Country:Tanzania, 2016"	"NoLongerAvailable, 2016 Stats"	[0590996835]	"0590996835, 9780590996839"		amazon.com	[2015-04-01]	1495
117760342	Matilda	"Dahl, Roald"				"Scholastic (1988), Edition: 1st, Paperback, 240 pages"	1988	Paperback	240 p.; 7.5 inches	0.4 pounds	7.5 inches	0.8 inches	5.2 inches	7.5 x 5.2 x 0.8 inches	240	"_Chapter Books, From:SarahChristiansen, To:CarlaOverton, Country:Mozambique, 2015"	"NoLongerAvailable, 2015 Stats"	[0590996835]	"0590996835, 9780590996839"		amazon.com	[2015-04-16]	1495
133112793	Are You Ticklish?: A Touch and Tickle Book	"McKendry, Sam"	Author	"Mitchell, Melanie|Young, Laurie"	Illustrator|Designer	"Piggy Toes Press (2007), Edition: unknown"	2007	Hardcover	10.83 x 9.54 inches	1.52 pounds	9.54 inches	0.85 inches	10.83 inches	9.54 x 10.83 x 0.85 inches		"_Board Books, From:SarahChristiansen, To:StephanieBraun, Country:Brazil, 2016"	"NoLongerAvailable, 2016 Stats"	[158117571X]	"158117571X, 9781581175714"		amazon.com books	[2016-08-09]	1649323
133326669	One Hundred Hungry Ants	"Pinczes, Elinor J."	Author	"MacKain, Bonnie"	Illustrator	"Scholastic Trade (1996), 28 pages"	1996	Paperback	28 p.; 9.25 x 0.25 inches	0.5 pounds	0.25 inches	8 inches	9.25 inches	0.25 x 9.25 x 8 inches	28	"_Picture Books, From:SarahChristiansen, To:RachaelMontei, Country:Papua NG, 2016"	"NoLongerAvailable, 2016 Stats"	[0590672983]	"0590672983, 9780590672986"		amazon.com books	[2016-08-15]	1699
133326693	The Volcano Disaster	"Kehret, Peg"	Author			"Aladdin (1998), Edition: Reprint, 144 pages"	1998	Paperback	144 p.; 5.13 inches	0.23 pounds	5.13 inches	7.5 inches	0.5 inches	5.13 x 0.5 x 7.5 inches	144	"_Chapter Books, From:SarahChristiansen, To:HeidiCollins, Country:Yap, 2016"	"NoLongerAvailable, 2016 Stats"	[0671009680]	"0671009680, 9780671009687"		amazon.com books	[2016-08-15]	955139
133326736	Melodie the Music Fairy (Rainbow Magic: Party Fairies #2)	"Meadows, Daisy"	Author			"Scholastic Paperbacks (2010), 80 pages"	2010	Paperback	80 p.; 5.5 x 0.25 inches	0.14 pounds	0.25 inches	8 inches	5.5 inches	0.25 x 5.5 x 8 inches	80	"_In-Between Readers, From:SarahChristiansen, 2018inv"	BookEnds	[0545221692]	"0545221692, 9780545221696"		amazon.com books	[2016-08-15]	1236531
133326749	Honey the Candy Fairy (Rainbow Magic: Party Fairies #4)	"Meadows, Daisy"	Author			"Scholastic Paperbacks (2010), 80 pages"	2010	Paperback	80 p.; 6.58 inches	0.14 pounds	6.58 inches	7.6 inches	0.2 inches	6.58 x 0.2 x 7.6 inches	80	"_In-Between Readers, From:SarahChristiansen, 2017_inventory, 2018inv, #reserve RachaelHendricks, Country:Turkey, 2019"	"NoLongerAvailable, 2019 Stats"	[0545221714]	"0545221714, 9780545221719"		amazon.com books	[2016-08-15]	1236526
