157394517	Raising Yoder's Barn	"Yolen, Jane"	Author	"Fuchs, Bernie"	Illustrator	"Little, Brown (1998), Edition: 1st, 32 pages"	1998	Hardcover	32 p.; 9 inches	0.9 pounds	9 inches	11.25 inches	0.5 inches	9 x 0.5 x 11.25 inches	32	"_Picture Books, From:SerenityKillam, To:RenessaBelohlavek, Country:Kyrgyzstan, 2018"	"NoLongerAvailable, 2018 Stats"	[0316968870]	"0316968870, 9780316968874"		amazon.com books	[2018-06-21]	1187994
158631319	The Tale of Peter Rabbit	"Warne, Frederick"	Author			"Penguin group (2008), 29 pages"	2008	Paperback	29 p.; 7.4 inches	0.05 pounds	7.4 inches	0.3 inches	5.9 inches	7.4 x 5.9 x 0.3 inches	29	"_Beatrix Potter, From:SerenityKillam, To:JackieKadiri, Country:Tanzania, 2018"	"NoLongerAvailable, 2018 Stats"	[0723267081]	"0723267081, 9780723267089"		amazon.com books	[2018-07-24]	46558
158631383	Percy's Chocolate Crunch: And Other Thomas the Tank Engine Stories (Thomas & Friends)	"House, Random"	Author	"House, Random"	Illustrator	"Random House Books for Young Readers (2003), 32 pages"	2003	Paperback	32 p.; 8 inches	0.18 pounds	8 inches	8 inches	0.11 inches	8 x 0.11 x 8 inches	32	"_Transportation, From:SerenityKillam, 2018inv, #reserve RachaelHendricks, Country:Turkey, 2019"	"NoLongerAvailable, 2019 Stats"	[0375813926]	"0375813926, 9780375813924"		amazon.com books	[2018-07-24]	487396
158631393	Thomas' Milkshake Muddle (Thomas & Friends) (Pictureback(R))	"House, Random"	Author			"Random House Books for Young Readers (2007), 24 pages"	2007	Paperback	24 p.; 7.94 inches	0.15 pounds	7.94 inches	8.02 inches	0.11 inches	7.94 x 0.11 x 8.02 inches	24	"_Transportation, From:SerenityKillam, 2018inv, #reserve RachaelHendricks, Country:Turkey, 2019"	"NoLongerAvailable, 2019 Stats"	[0375839798]	"0375839798, 9780375839795"		amazon.com books	[2018-07-24]	2999935
158631414	When I Feel Good About Myself	"Spelman, Cornelia Maude"	Author			Scholastic (2006)	2006	Paperback		1.1 pounds						"_Picture Books, From:SerenityKillam, 2018inv, #reserve BeverlyVos, Country:Uganda, 2019"	"NoLongerAvailable, 2019 Stats"	[0439866227]	"0439866227, 9780439866224"		amazon.com books	[2018-07-24]	2949141
158631425	Clifford Takes A Trip	"Bridwell, Norman"	Author			"Cartwheel (1992), Edition: Reissue, 32 pages"	1992	Paperback	32 p.; 8.25 inches	0.3 pounds	8.25 inches	8.25 inches	0.25 inches	8.25 x 0.25 x 8.25 inches	32	"_Picture Books, From:SerenityKillam, #reserve DanicaAbisror, Country:Argentina, 2019"	"NoLongerAvailable, 2019 Stats"	[0590442600]	"0590442600, 9780590442602"		amazon.com books	[2018-07-24]	134372
158631521	Richard Scarry's Word Book: With Huckle Cat and Lowly Worm (Golden Look-look Book)	"Scarry, Richard"	Author			Goldencraft (1992)	1992	Hardcover	8.5 inches		8.5 inches	8.5 inches	0.5 inches	8.5 x 0.5 x 8.5 inches		"_Picture Books, From:SerenityKillam, #reserve DanicaAbisror, Country:Argentina, 2019"	"NoLongerAvailable, 2019 Stats"	[0307627675]	"0307627675, 9780307627674"		amazon.com books	[2018-07-24]	6176559
158631523	Where's the Big Bad Wolf?	"Christelow, Eileen"	Author			"Scholastic (2005), 32 pages"	2005	Paperback	32 p.; 10.3 inches	0.1 pounds	10.3 inches	0.2 inches	8.5 inches	10.3 x 8.5 x 0.2 inches	32	"_Picture Books, From:SerenityKillam, 2018inv"	BookEnds	[0439684870]	"0439684870, 9780439684873"		amazon.com books	[2018-07-24]	18387
158631537	Greetings (A World of Difference Series)	"Badt, Karin Luisa"	Author			"Childrens Pr (1994), 32 pages"	1994	Hardcover	32 p.; 9.5 inches		9.5 inches	10.25 inches	0.5 inches	9.5 x 0.5 x 10.25 inches	32	"_Cultures, From:SerenityKillam, 2018inv, #reserve BreannaAssa, Country:Indonesia, 2019"	"NoLongerAvailable, 2019 Stats"	[0516081888]	"0516081888, 9780516081885"		amazon.com books	[2018-07-24]	5713434
158631543	Coyote: A Trickster Tale from the American Southwest	"McDermott, Gerald"	Author			"HMH Books for Young Readers (1999), Edition: 1, 32 pages"	1999	Paperback	32 p.; 11 inches	0.41 pounds	11 inches	9 inches	0.1 inches	11 x 0.1 x 9 inches	32	"_Cultures, From:SerenityKillam, To:AubrySmith, Country:Oman, 2018"	"NoLongerAvailable, 2018 Stats"	[0152019588]	"0152019588, 9780152019587"		amazon.com books	[2018-07-24]	440155
158631548	The Calypso Alphabet	"Agard, John"	Author	"Bent, Jennifer"	Illustrator	"Henry Holt & Co (1989), Edition: 1st, 28 pages"	1989	Hardcover	28 p.; 9 inches	0.95 pounds	9 inches	9.75 inches	0.5 inches	9 x 0.5 x 9.75 inches	28	"_Cultures, From:SerenityKillam, 2018inv"	BookEnds	[0805011773]	"0805011773, 9780805011777"		amazon.com books	[2018-07-24]	1452783
158631616	Walt Disney's Lady and the Tramp (Little Golden Book)	"Greene, Ward"	Author			"Golden Press (1972), Edition: 8th, 23 pages"	1972	Hardcover	23 p.; 9.8 inches	0.55 pounds	9.8 inches	0.2 inches	7.7 inches	9.8 x 7.7 x 0.2 inches	23	"_GoldenBooks, From:SerenityKillam, 2018inv"	BookEnds	[0307010279]	"0307010279, 9780307010278"		amazon.com books	[2018-07-24]	10582162
158631647	The Most Beautiful Place in the World	"Cameron, Ann"	Author			"Yearling (1993), Edition: Reprint, 64 pages"	1993	Paperback	64 p.; 5.19 inches	0.11 pounds	5.19 inches	7.56 inches	0.16 inches	5.19 x 0.16 x 7.56 inches	64	"_In-Between Readers, From:SerenityKillam, To:AnitaYocum, Country:China, 2018"	"NoLongerAvailable, 2018 Stats"	[0394804244]	"0394804244, 9780394804248"		amazon.com books	[2018-07-24]	114656
158631683	Two little trains	"Brown, Margaret Wise"	Author			HarperCollins Publishers (2002)	2002	Paperback	10.7 inches	0.25 pounds	10.7 inches	0.1 inches	8.3 inches	10.7 x 8.3 x 0.1 inches		"_Transportation, From:SerenityKillam, To:JessicaSmith, Country:China, 2018"	"NoLongerAvailable, 2018 Stats"	[0439400090]	"0439400090, 9780439400091"		amazon.com books	[2018-07-24]	534510
158631757	Dear Mili	"Grimm, Wilhelm"	Author	"Sendak, Maurice|Manheim, Ralph"	Illustrator|Translator	"Farrar, Straus and Giroux (BYR) (1988), Edition: 1st, 40 pages"	1988	Hardcover	40 p.; 10.07 inches	1.25 pounds	10.07 inches	9.37 inches	0.44 inches	10.07 x 0.44 x 9.37 inches	40	"_Hardback Picture Books, From:SerenityKillam, 2018inv"	BookEnds	[0374317623]	"0374317623, 9780374317621"		amazon.com books	[2018-07-24]	1379866
158631784	Antarctic Antics: A Book of Penguin Poems	"Sierra, Judy"	Author	"Aruego, Jose|Dewey, Ariane"	Illustrator|Illustrator	"HMH Books for Young Readers (2003), Edition: Reprint, 32 pages"	2003	Paperback	32 p.; 11 inches	0.36 pounds	11 inches	9 inches	0.15 inches	11 x 0.15 x 9 inches	32	"_Poetry, From:SerenityKillam, 2018inv"	BookEnds	[015204602X]	"015204602X, 9780152046026"		amazon.com books	[2018-07-24]	307643
158631854	A Lucky Thing	"Schertle, Alice"	Author	"Minor, Wendell"	Illustrator	"HMH Books for Young Readers (1999), Edition: 1st, 32 pages"	1999	Hardcover	32 p.; 8.5 inches		8.5 inches	10.75 inches	0.5 inches	8.5 x 0.5 x 10.75 inches	32	"_Poetry, From:SerenityKillam, To:HannahPatton, Country:SE Asia-L, 2018"	"NoLongerAvailable, 2018 Stats"	[0152005412]	"0152005412, 9780152005412"		amazon.com books	[2018-07-24]	1071856
158631906	"All about the Arctic and Antarctic, (Allabout books, A-20)"	"Sperry, Armstrong"	Author	"Sperry, Armstrong"	Illustrator	"Random House (1957), Edition: 4th Thus, 146 pages"	1957	Hardcover	146 p.; 9 inches	1 pound	9 inches	0.8 inches	6.9 inches	9 x 6.9 x 0.8 inches	146	"_Science, From:SerenityKillam, To:LauraKvernen, Country:China, 2018"	"NoLongerAvailable, 2018 Stats"	[]			amazon.com books	[2018-07-24]	118286
158631988	"[ The Big Wave Buck, Pearl S. ( Author ) ] { Hardcover } 1986"	"Buck, Pearl S."	Author			Perfection Learning 1986	?	Hardcover								"_Historical Fiction, From:SerenityKillam, 2018inv"	BookEnds	[]			amazon.com books	[2018-07-24]	4426411
159574688	"Pop! A Book About Bubbles (Let's-Read-and-Find-Out Science, Stage 1)"	"Bradley, Kimberly"	Author	"Miller, Margaret"	Illustrator	"HarperCollins (2001), Edition: Let's-Read-and-Find-Out Science, Stage 1, 40 pages"	2001	Paperback	40 p.; 10 inches	0.34 pounds	10 inches	8 inches	0.09 inches	10 x 0.09 x 8 inches	40	"_Science, From:SerenityKillam, To:HannahPatton, Country:SE Asia-L, 2018"	"NoLongerAvailable, 2018 Stats"	[0064452085]	"0064452085, 9780064452083"		amazon.com books	[2018-08-20]	573185
168519000	"Junie B., First Grader: Toothless Wonder (Junie B. Jones, No. 20)"	"Park, Barbara"	Author			"Random House Books for Young Readers (2003), Edition: Reprint, 81 pages"	2003	Paperback	81 p.; 5.13 inches	0.15 pounds	5.13 inches	7.71 inches	0.24 inches	5.13 x 0.24 x 7.71 inches	81	"_Chapter Book Series, From:SerenityKillam, #reserve KatieRichardson, Country:USA, 2019"	"NoLongerAvailable, 2019 Stats"	[9780375822230]	"9780375822230, 0375822232"		amazon.com books	[2019-05-07]	3735282
168519014	"Junie B., First Grader: Shipwrecked (Junie B. Jones, No. 23)"	"Park, Barbara"	Author	"Brunkus, Denise"	Illustrator	"Random House Books for Young Readers (2005), Edition: Reprint, 88 pages"	2005	Paperback	88 p.; 5.2 inches	0.15 pounds	5.2 inches	7.69 inches	0.25 inches	5.2 x 0.25 x 7.69 inches	88	"_Chapter Book Series, From:SerenityKillam, #reserve KatieRichardson, Country:USA, 2019"	"NoLongerAvailable, 2019 Stats"	[0375828052]	"0375828052, 9780375828058"		amazon.com	[2019-05-07]	2470787
168519028	"Junie B., First Grader: One-Man Band (Junie B. Jones, Book 22)"	"Park, Barbara"	Author			"Random House Childrens Books (2004), Edition: Junie B. Jones #22, 87 pages"	2004	Paperback	87 p.; 7.3 inches	0.15 pounds	7.3 inches	0.3 inches	5.1 inches	7.3 x 5.1 x 0.3 inches	87	"_Chapter Book Series, From:SerenityKillam"	BookEnds	[0439638232]	"0439638232, 9780439638234"		amazon.com	[2019-05-07]	2470814
168519075	"Vacation Under the Volcano (Magic Tree House, No. 13)"	"Osborne, Mary Pope"	Author	"Murdocca, Sal"	Illustrator	"Scholastic (1999), Edition: First Scholastic Printing, 96 pages"	1999	Paperback	96 p.; 4.72 inches	0.1 pounds	4.72 inches	7.09 inches	0.28 inches	4.72 x 0.28 x 7.09 inches	96	"_In-Between Readers, From:SerenityKillam, #reserve VickiDueker, Country:Japan, 2019"	"NoLongerAvailable, 2019 Stats"	[059070639X]	"059070639X, 9780590706391"		amazon.com books	[2019-05-07]	96622
168519107	Pirates Past Noon	"Osborne, Mary Pope"	Author			"Random (1994), Edition: FIRST SCHOLASTIC PRINTING, 67 pages"	1994	Paperback	67 p.; 7.4 inches	0.15 pounds	7.4 inches	0.3 inches	5.1 inches	7.4 x 5.1 x 0.3 inches	67	"_In-Between Readers, From:SerenityKillam, #reserve VickiDueker, Country:Japan, 2019"	"NoLongerAvailable, 2019 Stats"	[9780590629850]	"9780590629850, 0590629859"		amazon.com all media	[2019-05-07]	95743
168519130	Thanksgiving on Thursday (Magic Tree House #27)	"Osborne, Mary Pope"	Author	"Murdocca, Sal"	Illustrator	"Random House Books for Young Readers (2002), Edition: 1st, 96 pages"	2002	Paperback	96 p.; 5.13 inches	0.15 pounds	5.13 inches	7.63 inches	0.26 inches	5.13 x 0.26 x 7.63 inches	96	"_In-Between Readers, From:SerenityKillam, #reserved MaryWard, Country:Togo, 2019"	"NoLongerAvailable, 2019 Stats"	[9780375806155]	"9780375806155, 0375806156"		amazon.com books	[2019-05-07]	34252
168519152	Vacation Under The Volcano	"Osborne, Mary Pope"	Author	"Murdocca, Sal"	Illustrator	"Random House Books for Young Readers (1998), Edition: 1, 96 pages"	1998	Paperback	96 p.; 5.19 inches	0.15 pounds	5.19 inches	7.63 inches	0.24 inches	5.19 x 0.24 x 7.63 inches	96	"_In-Between Readers, From:SerenityKillam, To:KadieRied, Country:Indonesia, 2019"	"NoLongerAvailable, 2019 Stats"	[0679890505]	"0679890505, 9780679890508"		amazon.com books	[2019-05-07]	96622
168519168	"Polar Bears Past Bedtime (Magic Tree House, No. 12)"	"Osborne, Mary Pope"	Author	"Murdocca, Sal"	Illustrator	"Random House Books for Young Readers (1998), Edition: 12, 96 pages"	1998	Paperback	96 p.; 5.19 inches	0.16 pounds	5.19 inches	7.69 inches	0.26 inches	5.19 x 0.26 x 7.69 inches	96	"_In-Between Readers, From:SerenityKillam, #reserved MaryWard, Country:Togo, 2019"	"NoLongerAvailable, 2019 Stats"	[9780679883418]	"9780679883418, 067988341X"		amazon.com	[2019-05-07]	95756
168519203	"The Voyage of the ""Dawn Treader"" (Chronicles of Narnia, Book 3)"	"Lewis, C. S."	Author			Collier Books (1970)	1970	Paperback	4.17 inches	1 pound	4.17 inches	6.97 inches	0.55 inches	4.17 x 0.55 x 6.97 inches	216	"_Narnia, From:SerenityKillam"	BookEnds	[0020442602]	"0020442602, 9780020442608"		amazon.com books	[2019-05-07]	1182720
168519226	"The Last Battle (Chronicles of Narnia, Book 7)"	"Lewis, C. S."	Author	"Baynes, Pauline|Hayne, Roger"	Drawings|Illustrator	"Collier Books (1970), 184 pages"	1970	Paperback	184 p.; 4.25 inches	1.54 pounds	4.25 inches	7 inches	0.5 inches	4.25 x 0.5 x 7 inches	184	"_Narnia, From:SerenityKillam"	BookEnds	[0020442106]	"0020442106, 9780020442103"		amazon.com books	[2019-05-07]	1182710
168519239	Prince Caspian (Chronicles of Narnia Book 2)	"Lewis, C. S."	Author			"Collier Books (1970), 216 pages"	1970	Paperback	216 p.; 4.17 inches	1.54 pounds	4.17 inches	6.97 inches	0.51 inches	4.17 x 0.51 x 6.97 inches	216	"_Narnia, From:SerenityKillam"	BookEnds	[0020442408]	"0020442408, 9780020442400"		amazon.com books	[2019-05-07]	6954108
168519255	"The Horse and His Boy (The Chronicles of Narnia, No. 5)"	"Lewis, C. S."	Author			"Collier Books (1970), 217 pages"	1970	Paperback	217 p.; 4.17 inches	1.54 pounds	4.17 inches	7.01 inches	0.51 inches	4.17 x 0.51 x 7.01 inches	217	"_Narnia, From:SerenityKillam"	BookEnds	[0020442009]	"0020442009, 9780020442004"		amazon.com books	[2019-05-07]	1182718
168519343	The Last Battle	"Lewis, C. S."	Author	"Baynes, Pauline"	Illustrator	"HarperCollins (2002), Edition: Reprint, 240 pages"	2002	Paperback	240 p.; 4.19 inches	0.26 pounds	4.19 inches	6.75 inches	0.48 inches	4.19 x 0.48 x 6.75 inches	240	"_Narnia, From:SerenityKillam"	"NoLongerAvailable, 2019 Stats, Awaiting Next Box"	[006447108X]	"006447108X, 9780064471084"		amazon.com	[2019-05-07]	1182710
