74100966	Biscuit's Snowy Day (Biscuit)	"Capucilli, Alyssa Satin"		"Schories, Pat|Young, Mary O'Keefe"	Illustrator|Illustrator	"Scholastic Inc. (2007), Board book, 14 pages"	2007	Board book	14 p.; 7 inches	0.4 pounds	7 inches	0.4 inches	6.9 inches	7 x 6.9 x 0.4 inches	14	"_Board Books, To:SharonPenz, Country:USA, 2014"	"NoLongerAvailable, 2014 Stats"	[0545037778]	"0545037778, 9780545037778"		amazon.com	[2011-06-04]	1316570
79725046	The day Patch stood guard (A Little red tractor book)	"Laird, Elizabeth"				"Tambourine Books (1991), Unbound, 1 pages"	1991	Paper Book							1	"_Hardback Picture Books, To:SharonPenz, Country:USA, 2014"	"NoLongerAvailable, 2014 Stats"	[0688102395]	"0688102395, 9780688102395"		amazon.com	[2011-11-06]	1721201
88744442	The Woodcutter's Mitten: An Old Tale	"Koopmans, Loek"				"Kane Miller Book Pub (1990), Hardcover, 1 pages"	1990	Hardcover								"From:AlyssaSteffan, _Hardback Picture Books, To:SharonPenz, Country:USA, 2014"	"NoLongerAvailable, 2014 Stats"	[0940793679]	"0940793679, 9780940793675"		amazon.com	[2012-08-13]	2814561
88997309	Good Night: A Touch & Feel Bedtime Book	"Mitchell, Melanie"				"Piggy Toes Pr (2008), Board book, 10 pages"	2008	Board book	10:00 PM	0.01 pounds		0.01 inches	0.01 inches	6.1 x 0.01 x 0.01 inches	10	"From:JessicaBallinger, _Board Books, To:SharonPenz, Country:USA, 2014"	"NoLongerAvailable, 2014 Stats"	[1581177097]	"1581177097, 9781581177091"		amazon.com	[2012-08-19]	698379
90793380	Touch and Feel Farm	Editor				"DK (1998), Edition: First American Edition, Hardcover"	1998	Hardcover	6.1 inches	0.3 pounds	6.1 inches	0.4 inches	6.1 inches	6.1 x 6.1 x 0.4 inches		"From:AlissaShattenberg, _Board Books, To:SharonPenz, Country:USA, 2014"	"NoLongerAvailable, 2014 Stats"	[]			amazon.com	[2012-10-16]	1847427
99499746	Time for Bed	"Fox, Mem"		"Dyer, Jane"	Illustrator	"Harcourt (1993), Paperback"	1993	Paperback	10.3 inches	0.25 pounds	10.3 inches	0.2 inches	10 inches	10.3 x 10 x 0.2 inches		"From:JillBaker, _Picture Books, To:SharonPenz, Country:USA, 2014"	"NoLongerAvailable, 2014 Stats"	[0590980319]	"0590980319, 9780590980319"		amazon.com	[2013-06-29]	73421
102211067	McDuff Moves in (Goodnight)	"Wells, Rosemary"				"Disney-Hyperion (1999), Edition: 1st, Hardcover, 32 pages"	1999	Hardcover	32 p.; 9.6 inches	0.65 pounds	9.6 inches	0.4 inches	9 inches	9.6 x 9 x 0.4  inches	32	"From:KayHowell, _Hardback Picture Books, To:SharonPenz, Country:USA, 2014"	"NoLongerAvailable, 2014 Stats"	[0786803185]	"0786803185, 9780786803187"		amazon.com	[2013-09-22]	583382
103515905	Can I Have A Hug?	"Gliori, Debi"				"Orchard (2002), Board book, 4 pages"	2002	Board book	4 p.; 9.3 inches	0.45 pounds	9.3 inches	0.3 inches	8.4 inches	9.3 x 8.4 x 0.3 inches	4	"_Board Books, To:SharonPenz, Country:USA, 2014"	"NoLongerAvailable, 2014 Stats"	[0439276020]	"0439276020, 9780439276023"		amazon.com	[2013-11-07]	502920
103516350	Part-Time Dog	"Thayer, Jane"		"McCue, Lisa"	Illustrator	"HarperCollins (2004), Library Binding, 32 pages"	2004	Hardcover	32 p.; 10.3 inches	0.75 pounds	10.3 inches	0.5 inches	8.5 inches	10.3 x 8.5 x 0.5 inches	32	"_Hardback Picture Books, To:SharonPenz, Country:USA, 2014"	"NoLongerAvailable, 2014 Stats"	[0060296925]	"0060296925, 9780060296926"		amazon.com	[2013-11-07]	311642
105332166	Snuggle Puppy (Boynton on Board)	"Boynton, Sandra"				"Workman Publishing Company (2003), Edition: 0, Board book, 24 pages"	2003	Board book	24 p.; 6 inches	0.53 pounds	6 inches	1 inch	5.6 inches	6 x 5.6 x 1 inches	24	"_Board Books, From:AlissaShattenberg, To:SharonPenz, Country:USA, 2014"	"NoLongerAvailable, 2014 Stats"	[0761130675]	"0761130675, 9780761130673"		amazon.com	[2014-01-17]	86712
105332270	Caillou: Look and Find	"Paradis, Anne"		"Sévigny, Eric"	Illustrator	"Chouette Publishing (2011), Edition: Brdbk, Board book, 16 pages"	2011	Board book	16 p.; 10.93 inches	1.21 pounds	10.93 inches	0.78 inches	8.55 inches	10.93 x 8.55 x 0.78 inches	16	"_Board Books, From:AlissaShattenberg, To:SharonPenz, Country:USA, 2014"	"NoLongerAvailable, 2014 Stats"	[2894508069]	"2894508069, 9782894508060"		amazon.com	[2014-01-17]	14644758
105332309	Old MacDonald Had A Farm (Salina Yoon Books)	"Yoon, Salina"				"Price Stern Sloan (2008), Edition: 0, Board book, 12 pages"	2008	Board book	12 p.; 8.86 x 0.59 inches	0.47 pounds	0.59 inches	6.81 inches	8.86 inches	0.59 x 8.86 x 6.81 inches	12	"_Board Books, From:AlissaShattenberg, To:SharonPenz, Country:USA, 2014"	"NoLongerAvailable, 2014 Stats"	[0843128178]	"0843128178, 9780843128178"		amazon.com	[2014-01-17]	5340775
105332344	Inside Noah's Ark	"Reasoner, Charles"		"Reasoner, Charles"	Illustrator	"Price Stern Sloan (2002), Board book, 12 pages"	2002	Board book	12 p.; 9.25 x 0.79 inches	1.42 pounds	0.79 inches	9.25 inches	9.25 inches	0.79 x 9.25 x 9.25 inches	12	"_Board Books, From:AlissaShattenberg, To:SharonPenz, Country:USA, 2014"	"NoLongerAvailable, 2014 Stats"	[0843148853]	"0843148853, 9780843148855"		amazon.com	[2014-01-17]	948126
105332728	"Good Dog, Carl"	"Day, Alexandra"		"Day, Alexandra"	Illustrator	"Simon & Schuster Books for Young Readers (1991), Edition: 0, Hardcover, 40 pages"	1991	Hardcover	40 p.; 7.44 x 0.36 inches	0.58 pounds	0.36 inches	8.33 inches	7.44 inches	0.36 x 7.44 x 8.33 inches	40	"_Hardback Picture Books, From:AlissaShattenberg, To:SharonPenz, Country:USA, 2014"	"NoLongerAvailable, 2014 Stats"	[0671752049]	"0671752049, 9780671752040"		amazon.com	[2014-01-17]	42778
105789038	Chester the Mouse Look and Find Book	"Harvey, Jane"				"First Glance Books (1996), Hardcover"	1996	Hardcover	12 inches	1.6 pounds	12 inches	0.5 inches	9 inches	12 x 9 x 0.5 inches		"_Hardback Picture Books, From:CarolynDansereau, To:SharonPenz, Country:USA, 2014"	"NoLongerAvailable, 2014 Stats"	[1851703381]	"1851703381, 9781851703388"		amazon.com	[2014-02-02]	5647632
105789045	Monty	"Stevenson, James"				"Greenwillow (1992), Hardcover"	1992	Hardcover	8.25 x 0.5 inches	0.8 pounds	0.5 inches	10 inches	8.25 inches	0.5 x 8.25 x 10 inches		"_Hardback Picture Books, From:CarolynDansereau, To:SharonPenz, Country:USA, 2014"	"NoLongerAvailable, 2014 Stats"	[0688112412]	"0688112412, 9780688112417"		amazon.com	[2014-02-02]	2240982
107606959	Barnyard Dance					"Workman Publishing, Board book"	?	Board book	10 inches	1.4 pounds	10 inches	0.8 inches	9.3 inches	10 x 9.3 x 0.8 inches		"_Board Books, From:KayHowell, To:SharonPenz, Country:USA, 2014"	"NoLongerAvailable, 2014 Stats"	[0761151885]	"0761151885, 9780761151883"		amazon.com	[2014-03-22]	55325
107606998	Winter Days in the Big Woods (My First Little House Books)	"Wilder, Laura Ingalls"		"Graef, Renee"	Illustrator	"HarperCollins Publishers (1994), Library Binding"	1994	Hardcover	9.35 x 9.31 inches	0.95 pounds	9.31 inches	0.39 inches	9.35 inches	9.31 x 9.35 x 0.39 inches		"_Hardback Picture Books, From:KayHowell, To:SharonPenz, Country:USA, 2014"	"NoLongerAvailable, 2014 Stats"	[0060230223]	"0060230223, 9780060230227"		amazon.com	[2014-03-22]	322275
109953482	"And I Mean It, Stanley"	"Bonsall, Crosby"		"Bonsall, Crosby"	Illustrator	"HarperCollins (1984), Edition: 0, Paperback, 32 pages"	1984	Paperback	32 p.; 8.56 inches	0.12 pounds	8.56 inches	0.14 inches	5.46 inches	8.56 x 5.46 x 0.14 inches	32	"_Beginning Readers, From:SharonPenz, To:RebeccaStaege, Country:China, 2014"	"NoLongerAvailable, 2014 Stats"	[006444046X]	"006444046X, 9780064440462"		amazon.com	[2014-06-18]	1013843
109953489	Father Bear Comes Home (I Can Read Book 1)	"Minarik, Else Holmelund"		"Sendak, Maurice"	Illustrator	"HarperCollins (1978), Edition: 0, Paperback, 64 pages"	1978	Paperback	64 p.; 8.49 inches	0.22 pounds	8.49 inches	0.22 inches	5.46 inches	8.49 x 5.46 x 0.22 inches	64	"_Beginning Readers, From:SharonPenz, To:LauraKvernen, Country:China, 2014"	"NoLongerAvailable, 2014 Stats"	[0064440141]	"0064440141, 9780064440141"		amazon.com	[2014-06-18]	33281
109953507	"Play Ball, Amelia Bedelia (An I Can Read Book)"	"Parish, Peggy"		"Tripp, Wallace"	Illustrator	"Harper & Row (1972), Edition: 1st, Hardcover, 64 pages"	1972	Hardcover	64 p.; 6.25 x 0.5 inches	0.55 pounds	0.5 inches	8.75 inches	6.25 inches	0.5 x 6.25 x 8.75 inches	64	"_Beginning Readers, From:SharonPenz, To:TeresaPaix, Country:China, 2014"	"NoLongerAvailable, 2014 Stats"	[0060246553]	"0060246553, 9780060246556"		amazon.com	[2014-06-18]	95747
110088508	Macgoose's Grocery	"Asch, Frank"		"Marshall, James"	Illustrator	"Dial Press (1978), Hardcover, 32 pages"	1978	Hardcover	32 p.; 20 inches	0.49 pounds	20 inches	20 inches	20 inches	20 x 20 x 20 inches	32	"_Hardback Picture Books, From:CarolynLawrence, To:SharonPenz, Country:USA, 2014"	"NoLongerAvailable, 2014 Stats"	[0803752377]	"0803752377, 9780803752375"		amazon.com	[2014-06-22]	252412
110088526	The honeybee and the robber: A moving/picture book	"Carle, Eric"				"Scholastic (1994), Edition: First Edition, Hardcover, 14 pages"	1994	Hardcover	14 p.; 11.6 inches	0.85 pounds	11.6 inches	0.7 inches	8.4 inches	11.6 x 8.4 x 0.7 inches	14	"_Hardback Picture Books, From:CarolynLawrence, To:SharonPenz, Country:USA, 2014"	"NoLongerAvailable, 2014 Stats"	[0590489674]	"0590489674, 9780590489676"		amazon.com	[2014-06-22]	700466
111130696	Bear Stays Up for Christmas	"Wilson, Karma"		"Chapman, Jane"	Illustrator	"Margaret K. McElderry Books (2004), Edition: First Edition, Hardcover, 40 pages"	2004	Hardcover	40 p.; 11.4 x 10.2 inches	1.08 pounds	10.2 inches	0.4 inches	11.4 inches	10.2 x 11.4 x 0.4 inches	40	"_Hardback Picture Books, From:JeanneRodkey, To:SharonPenz, Country:USA, 2014"	"NoLongerAvailable, 2014 Stats"	[0689852789]	"0689852789, 9780689852787"		amazon.com	[2014-07-27]	8337816
129729667	Doggies (Boynton on Board)	"Boynton, Sandra"	Author	"Boynton, Sandra"	Illustrator	"Little Simon (1984), 14 pages"	1984	Board book	14 p.; 5.75 inches	0.32 pounds	5.75 inches	5.75 inches	0.5 inches	5.75 x 0.5 x 5.75 inches	14	"_Board Books, From:ElissaRodkey, To:TheresaLewis, 2016, To:SharonPenz, Country:USA"	"NoLongerAvailable, 2016 Stats"	[0671493183]	"0671493183, 9780671493189"		amazon.com books	[2016-05-01]	80635
132867879	Animal Adventure (Fisher-Price Play-a-Sound)	"McCafferty, Catherine"	Author	"Durk, Jim"	Illustrator	"Publications International, Ltd. (1999), Edition: First Edition"	1999	Hardcover	12.6 inches	0.9 pounds	12.6 inches	0.5 inches	12.2 inches	12.6 x 12.2 x 0.5 inches		"_Hardback Picture Books, From:Unknown, To:SharonPenz, Country:USA, 2016"	"NoLongerAvailable, 2016 Stats"	[078532710X]	"078532710X, 9780785327103"		amazon.com books	[2016-08-02]	9137610
133279794	The Tale of Peter Rabbit: A Story Board Book	"Potter, Beatrix"	Author			"Warne (1999), 12 pages"	1999	Board book	12 p.; 7 inches		7 inches	7 inches	0.37 inches	7 x 0.37 x 7 inches	12	"_Board Books, To:SharonPenz, Country:USA, 2016"	"NoLongerAvailable, 2016 Stats"	[0723245754]	"0723245754, 9780723245759"		amazon.com books	[2016-08-13]	46558
133285438	Rough & Tough: Cars	"Horne, Jane"	Author			Make Believe Ideas (2006)	2006	Hardcover	7.2 inches	0.45 pounds	7.2 inches	0.6 inches	7.1 inches	7.2 x 7.1 x 0.6 inches		"_Board Books, From:D4G, To:SharonPenz, Country:USA, 2016"	"NoLongerAvailable, 2016 Stats"	[1846104157]	"1846104157, 9781846104152"		amazon.com books	[2016-08-13]	12020154
134517145	My Good Night Book	"Morgan, Mary"	Author	"Morgan, Mary"	Illustrator	"Dutton Juvenile (2003), Edition: 1, 12 pages"	2003	Hardcover	12 p.; 8.34 inches		8.34 inches	9.34 inches	0.79 inches	8.34 x 0.79 x 9.34 inches	12	"_Board Books, From:D4G, To:SharonPenz, Country:USA, 2016"	"NoLongerAvailable, 2016 Stats"	[0525469877]	"0525469877, 9780525469872"		amazon.com books	[2016-09-21]	8689003
134756872	The Cheerios Play Book	"Wade, Lee"	Author			"Little Simon (1998), 14 pages"	1998	Board book	14 p.; 7 inches	0.7 pounds	7 inches	7.5 inches	0.5 inches	7 x 0.5 x 7.5 inches	14	"_Board Books, From:GoletaLibrary, To:SharonPenz, Country:USA, 2016"	"NoLongerAvailable, 2016 Stats"	[0689822804]	"0689822804, 9780689822803"		amazon.com books	[2016-09-29]	343353
134756904	Snuggle Puppy (Boynton on Board)	"Boynton, Sandra"	Author			"Workman Publishing Company (2003), Edition: Brdbk, 24 pages"	2003	Board book	24 p.; 5.75 inches	0.53 pounds	5.75 inches	6.25 inches	0.69 inches	5.75 x 0.69 x 6.25 inches	24	"_Board Books, From:JeanneRodkey, To:SharonPenz, Country:USA, 2016"	"NoLongerAvailable, 2016 Stats"	[0761130675]	"0761130675, 9780761130673"		amazon.com books	[2016-09-29]	86712
134756931	"Peter Rabbit Lift-the-Flap Words, Colors, and Numbers (R/I) (Potter)"	"Potter, Beatrix"	Author			"Warne (2007), Edition: Ltf, 8 pages"	2007	Board book	8 p.; 10.4 inches	1.23 pounds	10.4 inches	11.75 inches	0.58 inches	10.4 x 0.58 x 11.75 inches	8	"_Board Books, From:JeanneRodkey, To:SharonPenz, Country:USA, 2016"	"NoLongerAvailable, 2016 Stats"	[0723258287]	"0723258287, 9780723258285"		amazon.com books	[2016-09-29]	8113800
146142452	Numbers Are Everywhere! (FUN FLAPS)	"Publishing, DK"	Author			"DK Preschool (2006), 14 pages"	2006	Board book	14 p.; 5.16 inches	0.2 pounds	5.16 inches	5.25 inches	0.71 inches	5.16 x 0.71 x 5.25 inches	14	"_Board Books, From:KayHowell, To:SharonPenz, Country:USA, 2017"	"NoLongerAvailable, 2017 Stats"	[0756617634]	"0756617634, 9780756617639"		amazon.com books	[2017-09-17]	1298847
