107809295	"Middlemarch Riverside s B Edition by Eliot, George; Haight, Gordon published by Houghton Mifflin Harcourt (HMH) Paperback"					"Houghton Mifflin Harcourt (HMH) (1956), Paperback"	1956	Paperback								"From:TomDalton, _Adult Classics, 2017_inventory, 2018inv"	BookEnds	[]			amazon.com	[2014-03-30]	14881100
107809300	Rob Roy; (Riverside editions)	"Scott, Walter"				"Houghton Mifflin (1956), Edition: 1ST, Paperback, 399 pages"	1956	Paperback							399	"From:TomDalton, _Adult Classics, To:SandraKleinert, Country:China, 2015"	"NoLongerAvailable, 2015 Stats"	[]			amazon.com	[2014-03-30]	35211
107809304	Oliver Twist (Barnes & Noble Classics)	"Dickens, Charles"		"Muller, Jill"	Introduction	"Barnes & Noble Classics (2004), Paperback, 512 pages"	2004	Paperback	512 p.; 8.02 inches	0.95 pounds	8.02 inches	1.36 inches	5.24 inches	8.02 x 5.24 x 1.36 inches	512	"From:TomDalton, _Adult Classics, To:HeidiCollins, Country:Yap, 2014"	"NoLongerAvailable, 2014 Stats"	[1593082061]	"1593082061, 9781593082062"		amazon.com	[2014-03-30]	2215
107809305	The Adventures of Huckleberry Finn (Puffin Classics)	"Twain, Mark"				"Puffin (1995), Paperback, 400 pages"	1995	Paperback	400 p.; 7.7 inches	0.65 pounds	7.7 inches	1 inch	5.1 inches	7.7 x 5.1 x 1 inches	400	"_Children's Classics, From:TomDalton, To:SandraKleinert, Country:China, 2015"	"NoLongerAvailable, 2015 Stats"	[0140366768]	"0140366768, 9780140366761"		amazon.com	[2014-03-30]	3093889
107809308	The Pilgrim's Progress in Modern English ( A Pure Gold Classic) (Pure Gold Classics)	"Bunyan, John"		"Hazelbaker, L. Edward"	Contributor	"Bridge-Logos Publishers (1998), Edition: Revised and Udated, Paperback, 474 pages"	1998	Paperback	474 p.; 8.4 inches	1.3 pounds	8.4 inches	1 inch	5.4 inches	8.4 x 5.4 x 1 inches	474	"From:TomDalton, _Adult Classics, To:HeidiCollins, Country:Yap, 2014"	"NoLongerAvailable, 2014 Stats"	[0882707574]	"0882707574, 9780882707570"		amazon.com	[2014-03-30]	22957
107809311	David Copperfield (Riverside Editions)	"Dickens, Charles"		"Ford, George H."	Editor	"Houghton Mifflin Company (1956), Paperback"	1956	Paperback	8.1 inches	1.47 pounds	8.1 inches	1 inch	5.4 inches	8.1 x 5.4 x 1 inches		"From:TomDalton, _Adult Classics, 2017_inventory, To:BrandiBates, Country:Romania, 2018"	"NoLongerAvailable, 2018 Stats"	[]			amazon.com	[2014-03-30]	7489
107809315	The Adventures of Tom Sawyer (Puffin Classics)	"Twain, Mark"				"Puffin (1995), Edition: Reprint, Paperback, 304 pages"	1995	Paperback	304 p.; 7.7 inches	0.49 pounds	7.7 inches	0.77 inches	5.2 inches	7.7 x 5.2 x 0.77 inches	304	"_Children's Classics, From:TomDalton, To:KatrinaShedd, Country:China, 2014"	"NoLongerAvailable, 2014 Stats"	[0140366733]	"0140366733, 9780140366730"		amazon.com	[2014-03-30]	2236
107809317	"Moby-Dick or, the Whale (Riverside Editions A-9)"	"Melville, Herman"				"Riverside Editions / Houghton (1956), Paperback"	1956	Paperback	8.2 inches	0.85 pounds	8.2 inches	0.9 inches	5.2 inches	8.2 x 5.2 x 0.9 inches		"From:TomDalton, _Adult Classics, To:TalithaUlloa, Country:Costa Rica, 2015"	"NoLongerAvailable, 2015 Stats"	[]			amazon.com	[2014-03-30]	15540
107809321	Treasure Island (Scholastic Classics)	"Stevenson, Robert Louis"				"Scholastic Paperbacks (2002), Mass Market Paperback, 240 pages"	2002	Paperback	240 p.; 6.86 inches	1.14 pounds	6.86 inches	0.66 inches	4.24 inches	6.86 x 4.24 x 0.66 inches	240	"_Children's Classics, From:TomDalton, To:SandraKleinert, Country:China, 2015"	"NoLongerAvailable, 2015 Stats"	[0439288886]	"0439288886, 9780439288880"		amazon.com	[2014-03-30]	1812
107809323	White Fang (Scholastic Classics)	"London, Jack"				"Scholastic Paperbacks (2001), Edition: 0, Paperback, 272 pages"	2001	Paperback	272 p.; 4.09 x 0.75 inches	0.29 pounds	0.75 inches	6.61 inches	4.09 inches	0.75 x 4.09 x 6.61 inches	272	"_Children's Classics, From:TomDalton, To:DarcyCoady, Country:China, 2014"	"NoLongerAvailable, 2014 Stats"	[0439236193]	"0439236193, 9780439236195"		amazon.com	[2014-03-30]	4784
107809327	The Three Musketeers (Puffin Classics)	"Dumas, Alexandre"		"Waterfield, Robin|Sudley, Lord"	Editor|Translator	"Penguin Group (1994), Edition: Abridged, Paperback, 443 pages"	1994	Paperback	443 p.; 7.82 inches	0.72 pounds	7.82 inches	0.89 inches	5.08 inches	7.82 x 5.08 x 0.89 inches	443	"From:TomDalton, _Adult Classics, To:KristaHetzel, Country:Peru, 2017"	"NoLongerAvailable, 2017 Stats"	[0140367470]	"0140367470, 9780140367478"		amazon.com	[2014-03-30]	12914163
107809332	The Swiss Family Robinson (Illustrated Junior Library)	"Wyss, Johann D."		"Ward, Lynd|Kingston, William H. G."	Illustrator|Editor	"Grosset & Dunlap (1949), Edition: Deluxe, Hardcover, 377 pages"	1949	Hardcover	377 p.; 9.34 inches	1.75 pounds	9.34 inches	1.37 inches	6.99 inches	9.34 x 6.99 x 1.37 inches	377	"_Children's Classics, From:TomDalton, To:EaglesLanding, Country:USA, 2016"	"NoLongerAvailable, 2016 Stats"	[0448032619]	"0448032619, 9780448032610"		amazon.com	[2014-03-30]	44267
107809339	The War of the Worlds	"Wells, H. G."				"Konecky and Konecky (2000), Hardcover, 291 pages"	2000	Hardcover	291 p.; 9.1 inches	1.1 pounds	9.1 inches	1.2 inches	6.2 inches	9.1 x 6.2 x 1.2 inches	291	"From:TomDalton, _Adult Classics, To:JoeGadbaugh, Country:USA, 2015"	"NoLongerAvailable, 2015 Stats"	[1568525478]	"1568525478, 9781568525471"		amazon.com	[2014-03-30]	11494
107809357	Stowaway	"Hesse, Karen"		"Parker, Robert Andrew"	Illustrator	"Margaret K. McElderry Books (2002), Paperback, 320 pages"	2002	Paperback	320 p.; 7.66 inches	0.47 pounds	7.66 inches	0.85 inches	5.14 inches	7.66 x 5.14 x 0.85 inches	320	"_Historical Fiction, From:TomDalton, To:HeidiWisley, Country:Papua Ind, 2014"	"NoLongerAvailable, 2014 Stats"	[0689839898]	"0689839898, 9780689839894"		amazon.com	[2014-03-30]	508376
