166985350	The Animal Shelter Mystery (The Boxcar Children Mysteries)	"Warner, Gertrude Chandler"	Creator			"INDPB (1991), Edition: First Printing, 128 pages"	1991	Paperback	128 p.; 5.25 inches	1.04 pounds	5.25 inches	7.63 inches	0.3 inches	5.25 x 0.3 x 7.63 inches	128	"_Chapter Book Series, From:VivianeMadagian, To:DarlaVivek, Country:India, 2019"	"NoLongerAvailable, 2019 Stats"	[0807503673]	"0807503673, 9780807503676"		amazon.com books	[2019-03-20]	111391
166985540	The Lighthouse Mystery (The Boxcar Children Mysteries)	"Warner, Gertrude Chandler"	Author	"Cunningham, David"	Illustrator	"Albert Whitman & Company (1990), Edition: Second Edition, 128 pages"	1990	Paperback	128 p.; 5.25 inches	0.2 pounds	5.25 inches	7.63 inches	0.33 inches	5.25 x 0.33 x 7.63 inches	128	"_Chapter Book Series, From:VivianeMadagian, #reserve RachelAnderson, Country:Uganda, 2019"	"NoLongerAvailable, Awaiting Next Box"	[0807545465]	"0807545465, 9780807545461"		amazon.com all media	[2019-03-20]	96299
166985654	"Encyclopedia Brown, Boy Detective"	"Sobol, Donald J."	Author			"Puffin Books (2007), 96 pages"	2007	Paperback	96 p.; 5.06 inches	0.15 pounds	5.06 inches	7.75 inches	0.25 inches	5.06 x 0.25 x 7.75 inches	96	"_Chapter Book Series, From:VivianeMadagian, To:DarlaVivek, Country:India, 2019"	"NoLongerAvailable, 2019 Stats"	[9780142408889]	"9780142408889, 0142408883"		amazon.com all media	[2019-03-20]	33234
166985700	The Family Under the Bridge	"Carlson, Natalie Savage"	Author	"Williams, Garth"	Illustrator	"HarperCollins (1996), Edition: Reissue, 128 pages"	1996	Paperback	128 p.; 5.25 inches	0.2 pounds	5.25 inches	7.75 inches	0.5 inches	5.25 x 0.5 x 7.75 inches	128	"_Chapter Books, From:VivianeMadagian, To:DarlaVivek, Country:India, 2019"	"NoLongerAvailable, 2019 Stats"	[0064402509]	"0064402509, 9780064402507"		amazon.com books	[2019-03-20]	6312
