9/16/19	vickidueker	Vicki	Dueker	Japan	yes	Done 9/16/19        226 books!	Sheet	media	n/a	https://docs.google.com/spreadsheets/d/1Sa9EuVF6D-YVJeeCvXeUooB4PpukWAyGXfDkFr41dAM/edit#gid=0	224	218					
9/10/19	ashleyvanscyoc	Ashley	Van Scyoc	China	yes	done. 21 books, some thick and tall so had her stop.	Sheet	international	1 medium	https://docs.google.com/spreadsheets/d/1IFGaYRYRn3NiCfjLUU05pm5zr6dMKRokO0t-XWIZf_w/edit#gid=0	24	22					
9/6/19	tntgallant	Tiffany	Gallent	Cambodia	yes	yes...70 books on 9/6	Sheet	international		https://docs.google.com/spreadsheets/d/1p7uJya1muY0C7NWM-AX4Lg8Exw-A0TJDDJeJ57Xxpqg/edit#gid=0	73	61					
9/5/19	alihuyoung	Ali	HuYoung	China	recently	done: 36 books	Sheet	international	1	https://docs.google.com/spreadsheets/d/1_4X5vSrhP7nmHUBkqiDmHeHvcUQ2Ashc8S25-wggLx8/edit#gid=0	36	35					
8/28/19	BeverlyVos	Beverly 	Vos	Uganda	Yes/from April	yes... 63 books	Sheet	international	2 large	https://docs.google.com/spreadsheets/d/1sS2LbUoJ1r5vkml-bTv7BoF308yOVgdVb6zr6-eJW9o/edit#gid=0	63	61					
8/15/19	silviaeisenmann	Silvia	Eisenmann	Japan	Have one from March	125 books and then now at 150	Sent	media	n/a	https://docs.google.com/spreadsheets/d/1NcbdKCrk3VjXpxLZcDcCwQFJ9M-DIkujuZ9l72UeCLM/edit#gid=0	150	38					
8/6/19		Bethany		Tanzania			inquiry										
7/9/19	globalgirl15	Katie	Richardson	USA/mk from Indonesia	yes		Sent	media		https://docs.google.com/spreadsheets/d/1QdidJgj5ImifJ__teZ0BRQru8XoN_sS4iozcj5l9yoI/edit#gid=0	71	134	9/14/2019			$58.47	$58.47
6/13/19	SolveigGuttridge	Solveig	Guttridge	Kazakhstan	yes	done (84 books as of 6/17	Sent	international		https://docs.google.com/spreadsheets/d/16-pGsU9IBZkMU0XQHxvsOE6HBt-n5kK1xz5rQWPv6h8/edit#gid=0	84	81					
6/1/19	gregried	Kadie	Ried	Indonesia	yes	done/ 39 books on 6/1/19	Arrived not paid	international	2	https://docs.google.com/spreadsheets/d/1RE4oGPmkTvHh2Vq1oDpwiHCW6KPQk3JG3IhLm8BBsQ0/edit#gid=0	39	39	6/24/2019		7/9	$147.40	$73.70
5/15/19	janessacypher	Janessa	Cypher	Uganda	yes	32 books as of 6/2/19/44 books as of June 9th. 	Sheet	media	n/a	https://docs.google.com/spreadsheets/d/1-gBusvVq0_rkos2lDag3uN8w0zLCtF3rZQI_w8VUNPU/edit#gid=0	45	29					
5/15/19	janessacypher	Janessa	Cypher	Uganda	yes	32 books as of 6/2/19	Sheet	media		https://docs.google.com/spreadsheets/d/1-gBusvVq0_rkos2lDag3uN8w0zLCtF3rZQI_w8VUNPU/edit#gid=0	32	29					
5/13/19	katiejoy25	Kate	Flikweert	Uganda	yes	yes, 50 books on 5/15/19	Complete	media (to team leaving MI in July)	n/a	https://docs.google.com/spreadsheets/d/1nEnhjWzABlXdr7HfzDF_5DN3fp-9O-KK6DwDaMMEc1Q/edit#gid=0	90	89	6/19/2019	7/11	8/5	$26.97	$26.97
4/27/19	BeverlyVos	Beverly 	Vos	Uganda	yes	4/30	Paid not arrived	international		https://docs.google.com/spreadsheets/d/1PHbVVr40JjcES1_TvRSyV-X_ymyMrFKap6xCfxucwAg/edit#gid=0	66	64	6/29/2019	7/1		$203.60	$101.80
4/13/19	KatieLu	Katie	Luetchens	L- SE Asia	yes	done with 33  4/14/19	Sent	media		https://docs.google.com/spreadsheets/d/1yu2dLATBjzDb_cTtOAdxKTYAjxsH7OpFvekl3Jo6BOg/edit#gid=0	33	37	5/11/2019			$15.90	$15.90
3/21/19	AllieRiddle	Allie 	Riddle	Uganda	yes	done... 33 books	Complete	international	1 box	https://docs.google.com/spreadsheets/d/1VG36LReLNBE_Cbkfh5TDr5Q_OXUdsMBDQcyCPRMS46g/edit#gid=0	33	30	4/17/2019	4/27	5/1	$101.80	$50.90
3/3	alihuyoung	Ali	HuYoung	China	yes	Done...37 books March 4	Complete	international	1	https://docs.google.com/spreadsheets/d/1UulnAWl1m5__8iEdusZWzatdqfKlZLFt2yR8hCbGnpo/edit#gid=0	37	39	3/28/2019	4/11	4/15	$96.30	$48.15
3/2/19	CaraContreras	Cara	Strauss Contreras	Bolivia	yes	Possibly done Pull this list.. 31 as of March 11	Paid not arrived	media	n/a	https://docs.google.com/spreadsheets/d/1pxTmkXej4MXv0iV5Hc0dR7fxOaua-85_53mmaLq3kbw/edit#gid=0	31	32	4/26/2019	5/14		$10.55	$10.55
1/27/19	tsukayama	Elizabeth	Tsukayama	Japan	yes	Yes... 45 books plus 3 in email Jan 30	Sent	international		https://docs.google.com/spreadsheets/d/165GotxvzyYieiZQFnrXMQyMPgeTTMxh1Zl1OsENlMdA/edit#gid=0	61	69	3/15/2019			$192.60	$96.30
1/26/19	silviaeisenmann	Silvia	Eisenmann	Japan	yes	85 books, Chosen March 27-29	Paid not arrived	media	n/a	https://docs.google.com/spreadsheets/d/1gkzzh2t4LGuXAqyVZnTY8heJY-ZlI8q2PyoKe0n8IfM/edit#gid=0	85	85	4/30/2019	8/9		$34.25	$34.25
1/21/19	MaryWard	Mary	Ward	Togo	yes	done -- 	Sent	media		https://docs.google.com/spreadsheets/d/17wrOyy_b2BHVnM7zOIZbbtplJTDq07TuFsrKFFBTEJ4/edit#gid=0	23	18	4/26/2019			$13.67	$13.67
1/20/19	MaryWard	Mary	Ward	Togo	yes	done - 41 books	Paid not arrived	media	n/a	https://docs.google.com/spreadsheets/d/16Sqcm0YaBDa_65AnlZ2uG9GPmKmUV09vGuqEdifq4RM/edit#gid=0	41	47	4/15/2019	4/17		$15.38	$15.38
1/19/19	MaryWard	Mary	Ward	Togo	yes	done... 40 books	Sheet	international	1	https://docs.google.com/spreadsheets/d/1CRyCzLM4i4CGudOsGF57kNPtcLPL2aK-tAq_B6dWKN8/edit#gid=0	40	40					
1/12/2019	emilyboyd14	Emly	Boyd	Indonesia	sorta	will shop plus has a list for Jeanne	Paid not arrived	media	n/a	n/a	90	90	3/23/2019	4/23		$31.65	$31.65
11/1/18	fionarabesson	Fiona	Rabesson	Madagascar	yes	done on 11/2/18	Paid not arrived	international	1	https://docs.google.com/spreadsheets/d/1jAf6ym7sp8SiRRVxb-yhlv69rqbMJIf1FjLwQI7qvVA/edit#gid=0	29	34	12/29/2018	1/1		$97.95	$48.98
10/28/18	jessicawatters	Jessica	Watters	China	yes	done on 11/2/18``	Sent	international	1 large	https://docs.google.com/spreadsheets/d/1F79ieJVs71mIXnkIgBAkmbHgr7Ze9Th1Znz_6RtVP0w/edit#gid=0	36	40	2/25/2019			$96.30	$48.15
9/19/18	SaraLubbers	Sara	Lubbers	Indonesia	(waiting)	done... 25 books.	Sent	media	n/a	https://docs.google.com/spreadsheets/d/1u_rd5phYLsR9f8K6uf5jH1HM6pLx9E4BuKR41-CfYQQ/edit#gid=0	28	34	12/31/2018			$9.29	$9.29
9/17/18	ElizabethBarrett	Elizabeth	Barrett	Cambodia	yes	done on 10/9.18	Complete	international	2 large	https://docs.google.com/spreadsheets/d/1bSTCV9BMcwkkBKpprPvLgG9KVgXgoelzhMPfpqMo5j8/edit#gid=0	74	65	12/7/2018	1/1	12/29	$187.90	$93.95
9/9/18	tntgallant	Tiffany	Gallant	Cambodia	yes	Done 9/20/18	Complete	international	2 boxes	https://docs.google.com/spreadsheets/d/1tSG1lBvRLa72U3ZLG__BHSnwXedKPbmxGprLQnwE2X0/edit#gid=0	70	74	10/12/2018	10/25/2018	10/19	$195.50	$97.75
8/12/18	alihuyoung	Ali	HuYoung	China	yes	8/12	Sent	international	1 large?	https://docs.google.com/spreadsheets/d/1OFoPMEYfFZMla8Qd3XV82EeLtb-6UW-xeQNGCLX9sB8/edit#gid=0	45	40				$92.50	$46.25
7/14/18	KatieLu	Katie	Luetchens	L- SE Asia	no (old one) 	yes. 25 books	Paid not arrived	international	1 medium	https://docs.google.com/spreadsheets/d/1YdWC1mZ0fN2dScwSKHZg_aaPNRB0spWNZ-rkaIQA71E/edit#gid=0	25	25	8/6/2018	8/31		$97.75	$48.88
7/12/18	laurakvernen (look under Carrie's books)	Carrie 	Yu	China	no	89 books	Complete	media	n/a	https://docs.google.com/spreadsheets/d/1sIYBpvosAFVXrlTf856dBJwA4rGnlVPwgkAy3N0Xfy4/edit#gid=0	89	67	8/8/2018	8/16/2018	8/14/2018	$19.60	$19.60
5/30/18	laurakvernen (summer 2018)	Laura 	Kvernen	China	yes - books needed before September	yes 	Sent	media	n/a	https://docs.google.com/spreadsheets/d/133NK4zDzWDxM0dAj-taDPsrZE67QWfaMGMFnbfG3FvQ/edit#gid=0	78	74	8/21/2018			$24.82	$24.82
4/23/18	vickidueker	Vicki	Dueker	China	yes	96 books chosen	Complete	media	n/a	https://docs.google.com/spreadsheets/d/1J6g0i1zX7GNHDKLHf29eYqdT_y4S0uCOeyka1q0uFxw/edit#gid=0	96	90	5/11	6/21	6/14	$26.23	$26.23
3/6/18	ashleiwarren	Ashlei	Warren	China	yes	26 books chosen.	Complete	international		https://docs.google.com/spreadsheets/d/1NoQaY7X7ds2-rvUjpPuo6tfJHzDE-ae_WuP4fkMUe_Q/edit#gid=0	29	27	5/5/2018	5/26		$70.75	$35.38
2/27/18	gregried	Kadie	Ried	Indonesia	yes.	Done. 36 books!	Complete	international	1 large	https://docs.google.com/spreadsheets/d/1hjHkVf7f-P-KexSemrXeZ5d-oOzOx9x0IpgBHmJBejc/edit#gid=0	36	34	3/23/2018	3/30	4/8	$92.50	$46.25
2/12/18	KaraMenger	Kara	Menger	Indonesia	yes	yes,, 42 books	Complete	international	1 large	https://docs.google.com/spreadsheets/d/1CmkglGDYpwiZcrDrmfGd_pYLwNRWQyhlEMaKxdlhdXo/edit#gid=0	42	42	3/8/2018	3/21	3/20/2018	$141.50	$70.75
2/4	Erin2007	Erin	Stern	Oman	yes	85 books... actually done back in March	Complete	Media	n/a	https://docs.google.com/spreadsheets/d/1O2RQmNf-zTCKnjz1Lgru8ueAlkyF39R1AqaCRqyLMhY/edit#gid=0	85	71	5/11/2018	5/30	unknown	$25.21	$25.21
12/15/17	CrystalGrotzke	Crystal 	Grotzke	Spain	12/21/17	53 books	Complete	media	n/a	y	53	54	2/10/2018	2/26	3/20	$14.50	$14.50
12/10/17	Alisagreene	Alisa	Greene	East Asia (China?)	1/18/18	2/23	Paid not arrived	international		https://docs.google.com/spreadsheets/d/11sx7Tue6GWitrd2PovLiEBKcEG_9IvdD3gCq7ggo6Dk/edit#gid=0	23	50	3/30/2018	4/20		$141.50	$70.75
11/12/17	KatieLu	Katie	Luetchens	SE Asia	11/12	11/14/2017	Complete	international	1 medium	y	24	17	11/25/2017	12/4	12/14	$71.95	$35.98
10/10/2017 19:01:21	emilyboyd14	Emily	Boyd	Indonesia	10/10/17	16 books 11/2	Paid not arrived	international	1	y	16	20	11/7/2017	11/16		$88.95	$44.48
10/10/17	LanaFerguson	Lana	Ferguson	Palau	10/12/17		Paid not arrived			y	110	62	11/11/2017	1/1/2018	4 of 5 12/14	$57.61	$57.61
10/1/17	DannyMandyBronson	Mandy 	Bronson	Chad	yes. 	10/11/2017, and now really done. 10/16.	Paid not arrived	international	1	y	49	44	11/14/2017	12/5		$165.90	$82.95
10/1/17	gregried	Kadie	Ried	Indonesia		10/1/2017	Sent	international	1 (med)	y	41	41	10/14/2017			$88.95	$44.48
9/3/17	NoelleCarr	Noelle 	Carr	Indonesia	9/3/17	42 books on 9/3	Complete	Media	n/a	y	43	46	10/4/2017	10/25/17	10/12/2017	$12.77	$12.77
8/29/17		Tiffany		Ecuador			stale	meda	n/a								
8/24/17	alihuyoung	Alison	HuYoung	Chna	8/30/17	8/30/2017	Complete	international	1		34	34	10/3/2017	10/18/17	10/24/17	$88.95	$44.48
8/18/17	ElizabethBarrett	Elizabeth (Liz)	Barrett	Cambodia	old ones	8/19/2017	Sent	international	2		34	30	10/7/2017			$187.90	$93.95
8/18/17	michellekiprop	Michelle	Kiprop	Kenya		8/18/2017	Sent	international	1		27	28	9/19/2017			$71.95	$35.98
8/8/17	RebekahHuddleston	Rebekah 	Huddleston	India	8/8/17	8/7/2017 44 books	Complete	international	1	y	44	55	9/9/2017	10/2/2017	10/20/2017	$181.90	$45.50
7/28/17	Carolinaday	Carolina	Day	Taiwan	yes		choosing books	international									will pay full
7/21/17	NoelleCarr	Noelle 	Carr 	Indonesia	9/3/17	9/3/2017	books pulled	media 	1	y	42						
7/7/17	RebekahPotgieter	Rebekah 	Potgieter	Madagascar			Cancelled										
7/6/17	karamenger	Kara	Menger	Indonesia	yes	yes. 21 books.	Sent	Media		y	21	17	7/25/2017			$7.49	$7.49
7/5/17	MontereyCarroll	Monterey	Carroll	SE - L 	7/10/17	8/1/2017	Paid not arrived	international	2		40	28	8/26/2017	9/19		$94.00	$47.00
6/26/17	meganeveritt	Megan 	Everitt	China	7/4/2017	7/5/2017	Paid not arrived	Media/ Rush	2	y	50	50	7/8/2017	7/16/2017		$18.34	$18.34
6/15/17	DeloresMast	Delores	Mast	Kenya	7/15/17	32 books	Paid not arrived	media		y	32	59	7/20/2017			$13.25	$13.25
6/7/2017	KrisBowen	Kristen	Bowen	SE Asia - L	7/3/2017	7/8/2017 -- 36 books	Complete	international		y	36	44	7/26/2017	8/29/2017	8/26/2017	$93.95	$46.98
6/2/2017	NatashaSharpe	Tasha	Sharpe	Indonesia		7/1/2017	Paid not arrived	international		y	76	72		6/1/2017		$90.00	$45.00
6/2/17	emilyboyd14	Emily 	Boyd	Indonesia		10/9/17  16 books	Complete	international	1 med. 	y	16	27	11/7/2017	11/24/17	11/24/17	$88.95	$44.50
5/8/17	MeganBrewster	Megan 	Brewster	Peru	5/22/2017	waiting until fall	Paid not arrived	international		y	25	19	12/15/2017	2/26		$67.00	$33.50
4/27/17	joydarby	Joy	Darby	Uganda	4/30/2017	4/28/2017	Complete	international	1	y	32	25	5/20/2017	6/2/2017	6/26/2017	$93.95	$46.98
4/26/17	KristaWeaver	Krista	Weaver	China	4/27/2017	4/27/2017	Complete	international		y	30	42	5/19/2017	7/3/2017	7/1/2017	$88.95	$44.48
4/19/17	gregried	Kadie	Ried	Indonesia	4/19/2017	4/19/2017	Complete	international	1 large	y	25	24	5/10/2017	5/18/2017	7/2/2017	$88.95	$44.48
4/8/2017	krisanneemch	Krisanne	Emch	Indonesia	4/18/2017	4/24/2017	Complete	international		y	43	40	5/13/2017	5/17/2017	5/29/2017	$88.95	$44.48
3/11/2017	SaraLubbers	Sara 	Lubbers	SE Asia	3/12/2017	5/1/17	Arrived not paid	international	1 or 2	y	34	54	5/20/2017		6/4/2017	$133.90	$66.95
2/3/2017	ennitao	Elizabeth		China	2/3/2017	Cancelled	Cancelled										
1/25/2017	alihuyoung	Alison	Huyoung	China	1/25/2017	1/25/17	Complete	international	1	y	45	40	3/21/2017	4/9/2017	4/6/2017	88.95	$44.48
1/11/17	carrieyu	Carrie 	Yu	China	1/13/17	7/20	Complete	media	1		87	87	1/21/2019	1/21	1/31	$17.97	$17.97
12/22/2016		Tiffany	Copperger	Indonesia			stale										
11/17/2016	TeresaPaix	Teresa 	Paix	China	11/25/16	12/1/16	Paid not arrived	media	1	y	61	53	12/5/2016	2/15/2017		$11.25	$11.25
11/16/2016	ElizabethBarrett	Elizabeth 	Barrett	Cambodia	1/5/17	Books chosen... 2/13/17	Complete	international	2	y	60	51	3/12/2017	3/20/2017	3/28/2017	$143.90	$71.95
11/8/2016	NatashaSharpe	Tash	Sharpe	Indonesia	11/8/2016	11/10/2016	Complete	international	1	y	31	43	12/8/2016	6/1/2017	1/22/2017	$88.95	$44.48
10/25/2016	JuliaDawkins	Julia 	Dawkins	Oman	10/26/2016	10/26/2016	Complete	media 		y		64	12/2/2016	12/16/2016	12/7/2016	$21.54	$21.54
10/15/2016	gregried	Kadie	Ried	Indonesia	n/a	10/15/16	Complete	international	1	y	39	33	11/1/2016	11/14/2016	11/18/2016	$88.95	$44.48
9/27/2016	Elcovanburg	Elco	van Burg	Papua, Indonesia	9/29/16	9/29/16	Paid not arrived	international	2	y	10	71	10/22/2016	11/14/2016		$156.90	$78.50
7/22/2016	Beth_Randolph	Bethany 	Randolph	Bulgaria	8/4/2016		Jeanne to contact	international	2 large		1						
7/14/2016		Diane		China			stale										
7/12/2016	amandareynolds	Amanda 	Reynolds/Judd	Oman	7/12/2016	8/1/2016	Complete	international	2	y		63	8/16/2016	8/18/2016	8/25/2016	$187.90	$93.95
6/30/2016	aprillawrence	April 	Lawrence	Romania	7/7/2016	7/9/2016	Paid not arrived	international		y		26	7/25/2016	8/4/2016		$71.95	$35.98
6/15/2016	LauraGass	Laura 	Gass	Tanzania	7/14/2016	6/22/2016	Complete	media mail (July)	2	y		58	7/19/2016	7/31/2016	7/31/2016	$20.86	$7.41
5/19/2016	CourtneyWallhoff	Courtney	Wallhoff	Liberia	5/20/2016	5/23/2016	Paid not arrived	media	no limit	y		53	6/25/2016	7/3/2016		$17.49	$17.49
5/17/2016	ElizabethBarrett	Elizabeth	Barrett	Cambodia	5/23/2016	7/12/2016	Complete	international	two boxes, large	y		74	7/12/2016	7/31/2016	7/25/2016	$187.90	$93.95
5/5/2016	laurakvernen	Laura	Kvernen	China	5/5/2001	5/9/2016	Paid not arrived	media	one	y		47	6/25/2016	7/9/2016		$13.17	$13.17
4/26/2016	HeatherHiggins	Heather	Higgins	St. Vincents	n/a	5/10/2016	Arrived not paid	international	one box	y		60	5/17/2016		5/28/2016	$70.00	$35.00
4/7/2016	Ashleiwarren	Ashlei 	Warren	China	4/7/2016	4/7/2016	Complete	international	one box	y		37	5/12/2016	6/28/2016	6/22/2016	$68.00	$34.00
4/6/2016	Michellekiprop	Michelle	Kiprop	Kenya	4/6/2016	4/12/2016	Paid not arrived	international	two box	y		26	5/8/2016	5/13/2016		$128.92	$36.00
3/26/2016	Michellekiprop	Michelle	Kiprop	Kenya	3/27/2016	3/28/2016	Complete	international	two boxes total	y		22	5/8/2016	5/13/2016	5/20/2016	$165.90	$35.97
3/20/2016	ElizabethVorwerk	Elsbeth	Vorwerk	O	4/30/2016	5/8/2016	Paid not arrived	international	one box	y		23	5/28/2016	6/17/2016		$71.95	$35.98
3/18/2016	LauraGass	Laura	Gass	Tanzania	3/19/2016	4/21/2016	Complete	media mail	one media box	y		56	4/21/2016	5/11/2016	7/30/2016	$13.65	$13.65
3/14/2016	Erin2007	Erin 	Stern 	Oman	3/16/2016	3/19/2016	Complete	rush national	two flat rate	y		66	3/19/2016	4/23/2016	4/5/2016	$32.20	$32.20
3/4/2016	allisontarus	Allison	Tarus	Kenya	3/4/2016	5/25/2016	Paid not arrived	Media Mail	no  limit	y		49	6/25/2016	6/30/2016		$12.69	$12.69
2/8/2016	KaraMenger	Kara 	Menger	Indonesia			Unknown	international									
2/3/2016	lauralove	Laura	Love	China	2/6/2016	2/18/2016	Complete	Media Mail	one media box	y		92	2/18/2016	4/4/2016	4/9/2016	$32.16	$32.16
1/22/2016	??	Janene	EaglesRest	Thailand	2/28/2016	3/24/2016	Complete	International	one medium	y		41	3/24/2016	4/29/2016	4/5/2016	$67.95	$18.97
1/18/2016	KaraMenger	Kara	Menger	Indonesia	2/8/2016	3/5/2016	Complete	international	one large or two med	y		34	3/5/2016	3/15/2016	4/10/2016	$88.95	$44.47
11/25/2015	JuliaDawkins	Julia 	Dawkins	Oman	n/a	2/11/2016	Complete	international	two boxes	y		69	2/11/2016	3/8/2016	3/2/2016	$187.90	$93.95
11/8/2015	MarisaBailey	Marisa 	Bailey	Tanzania			Paid not arrived	international						1/7/2016		$172.50	$86.25
9/27/2015	cktsmile	Katie 	Masek	India			Unknown	international									
8/27/2015	julimcgowan	Juli 	McGowan	Kenya			Unknown	media									
8/23/2015	lizbarrett	Elizabeth 	Barrett	cambodia			Paid not arrived	international		y		75		11/19/2015		$86.25	$86.25
7/16/2015	michellekiprop	Michelle 	Kiprop	Kenya			Unknown	courier									
7/3/2015	CarlaOverton	Carla 	Overton	USA			Unknown	international									
6/29/2015	MissiMarsden	Missi 	Marsden	China			Unknown	international									
6/3/2015	sarahdeal	Sarah 	Deal	Indonesia			Unknown	international									
5/14/2015	danaerice	Danae 	Rice	Kyrgyzstan			Unknown	media									
5/12/2015	LauraScherer	Laura 	Scherer	Indonesia			Unknown	international									
5/5/2015	jennymartin	Jenny 	Martin	Japan			Unknown	international									
5/4/2015	JocelynR	Jocelyn	R	Madagascar			Unknown	international									
4/1/2015	KarinaBarber	Karina 	Barber	Madagascar			Unknown	international									
2/19/2015	amyeadie	Amy 	Eadie	Indonesia		4/18/2015	Sent	international		y		23	4/18/2015			$61.75	$31.00
2/11/2015	HillaryChang	Hillary 	Chang	Indonesia	n/a	3/30/2015	Complete	international	2	y		69	3/30/2015	3/29/2015	4/20/2015	$160.00	$80.00
2/3/2015	lindseylance	Lindsey 	Lance	India			Unknown	courier									
1/27/2015	AllisonWillis	Allison 	Willis	India			Unknown	courier									
1/21/2015	JennyHanson	Jenny 	Hanson	Mexico			Unknown	courier									
1/20/2015	RebekahPotgieter	Rebekah 	Potgieter	Madagascar			Unknown	international									
1/20/2015	KaraSchaffler	Kara 	Schaffler	Madagascar			Unknown	international									
1/19/2015	BethanyJohnson83	Bethany 	Johnson	Austria			Unknown	international									
1/18/2015	heatherflythe	Heather 	Flythe	Indonesia			Unknown	international									
1/12/2015	JoPenny	Joanna 	Penny	India		3/7/2015	Complete	international		y		6	3/7/2015	4/18/2015	3/17/2015	$35.75	$17.88
12/1/2014	brianastokes	Briana 	Stokes	Indonesia			Unknown	international									
11/1/2014	AbbyBurris	Abby 	Burris	Indonesia		11/4/2014	Sent	international		y		25	11/29/2014	??? Canada?		$80.50	$40.25
10/20/2014	Laurahall	Laura 	hall	Ethiopia			Unknown	media									
9/28/2014	gregried	Greg 	Ried	Indonesia			Unknown	international									
9/11/2014	laurakvernen	Laura 	Kvernen	China			Unknown	international									
9/9/2014	ashleyjoseph	Ashley 	Joseph	China			Unknown	media			1 book 5/7/17						
8/23/2014	TeresaPaix	Teresa 	I Paix	China			Unknown	international									
6/20/2014	KatrinaShedd	Katrina	Shedd	China			Unknown	media				41					
3/21/2014	MelindaHoyt	Melinda	Hoyt	Uganda Africa			Unknown	international									
2/2/2014	MissiMarsden	Missi	Marsden	China			Unknown	international									
